PIDN,Ca,P,pH,SOC,Sand
09gt9UK5,-0.67693,-0.31631,-1.1473,-0.65758,1.1389
0BVvxJ6a,0.22755,0.063229,0.78024,0.30713,-0.73474
0KbdgApg,-0.063709,-0.19304,-0.088922,0.10924,-0.90673
0MnuuduB,-0.33879,0.056184,-0.49956,0.60554,-0.92685
0PcIsF9z,-0.051963,-0.39894,-1.0735,0.0031038,-0.094752
0ShTFLYJ,-0.45286,-0.50664,-0.5766,-0.98171,0.064979
0XZh9jka,-0.46407,0.083095,-0.63464,0.72806,-0.9708
0Y7Wegri,-0.21365,0.13634,0.55003,-0.14961,0.61357
0dTqplIM,0.070808,-0.076341,0.20237,0.30398,-1.0112
0lNiZicC,-0.35837,-0.0040422,-0.68029,-0.47428,-0.18793
0rGeJ0QN,-0.31901,0.055288,-0.43326,0.28942,0.05178
0sXI9ytQ,-0.50709,0.07875,-0.42132,-0.80539,1.6206
0ukt4aP6,0.61354,0.3867,1.4662,-0.58202,0.042731
1AGspb8f,-0.21778,-0.74639,-1.4496,0.51136,-0.89964
1Csy0gvE,-0.41621,-0.2277,-0.40549,-0.62306,0.58261
1Ic2hly1,-0.36108,0.41025,0.084218,-0.19004,0.35983
1PPbaTwt,-0.15731,-0.36174,-0.30548,-0.61858,0.27799
1SO5VJNy,-0.36896,0.012007,0.022933,-0.53798,0.71292
1arHxK3Y,1.1417,0.58644,1.3062,0.44583,-0.6072
1fCW4Bba,-0.37776,0.11278,0.10296,-0.24837,0.46938
1qDZNvIm,-0.53488,-0.0092165,-0.2415,-0.75279,1.3136
28LYJC2V,-0.49347,-0.2869,-0.96661,0.77081,-0.34113
2CzACvQq,0.62231,0.42656,1.5003,-0.39443,-0.531
2FT3crfv,-0.37429,-0.13877,-0.32596,0.13169,-0.7548
2Fy2uHVg,-0.55917,-0.16723,-0.46825,-0.59028,-0.32131
2MkMEApm,-0.33126,0.33813,0.28274,-0.63456,0.60564
2NDGWEOe,0.52218,1.2139,1.7651,-0.62374,-0.38247
2NyyCiqn,-0.41837,-0.0081001,-0.12832,-0.45063,0.60892
2QRzIb84,0.65957,0.96559,2.196,-0.30014,0.12733
2QcbdrUZ,-0.38985,-0.19466,-0.040402,-0.31384,0.53628
2YgAimWK,-0.34308,0.25161,0.46372,-0.58649,0.62383
2cx85d9H,0.25115,-0.40688,0.011497,0.22753,-0.97099
2homMXMV,-0.21189,0.13384,-0.78084,0.15307,0.42956
2ldLrUtq,-0.28409,-0.52033,-0.39185,-0.43077,-0.34924
2nsACW6G,-0.21681,-0.26716,-0.65239,1.303,-1.0165
2yMbVnWc,0.11335,0.37657,-0.92668,1.8396,0.15597
36r8sgGQ,-0.40087,-0.18002,-0.17488,-0.78596,0.81423
3NXAXCl3,-0.36668,-0.47484,-0.75442,0.30096,-1.0323
3QG0z6fl,-0.47363,-0.27094,-0.70137,-0.37736,0.044012
3WS8R9qm,-0.13628,-0.29664,-0.61262,1.7106,-1.207
3fRLm8f5,-0.34791,-0.26973,-1.0518,0.11332,0.6574
3mZhp1nQ,-0.56026,-0.23215,-0.39954,-0.5293,0.4607
3pikJXRL,-0.27067,-0.18932,-0.71698,0.35959,-0.97244
3pxOEGHL,-0.54404,-0.24066,-0.47982,-0.71667,0.77827
3ttdV3f5,-0.40357,-0.16456,-0.27343,-0.37947,-0.4381
3v4X6Mfe,0.83946,0.32219,1.5165,-0.66863,-0.025131
3wORuPiv,-0.55571,-0.37514,-0.63953,-0.35704,-0.79737
43EfrxZj,0.0084541,0.068015,0.038372,0.63627,-0.55964
457Vwm21,0.024357,0.15376,0.53293,0.33319,-0.18845
46KNnOdx,-0.34827,0.24633,-1.4247,-0.0034958,0.038355
47TwNsVC,-0.41154,-0.44408,-0.93594,0.81598,-1.1458
49856RpO,-0.3806,-0.38683,-0.80601,-0.57172,-0.90955
4Ane1o2N,-0.44498,-0.7296,-0.60266,-0.51891,-0.081651
4AyVUgSc,-0.40576,-0.28313,-0.64124,-0.62917,-0.47211
4B1951On,-0.20107,0.032743,-0.045441,-0.36273,0.034807
4OL39Teo,-0.042171,0.60344,0.047413,0.67977,-0.36754
4eQ90eLY,-0.27529,-0.064469,-0.173,0.45484,-0.45951
4o5jwMj8,-0.35688,-0.12571,-0.3721,-0.70506,0.32679
4vPgpl2c,-0.35797,-0.39558,-0.31851,-0.57259,0.7448
51r9aA0d,-0.39559,-0.25807,-0.54483,-0.72713,-0.51447
58SmeRoP,0.13504,-0.028584,-0.18803,0.04244,-0.37302
5HJp1AXn,-0.41317,-0.17242,-0.63589,0.84903,-0.21272
5MBZW7fx,-0.27698,0.22052,1.0143,-0.5302,-0.033242
5Nq3gHaP,0.33229,1.2234,0.38898,1.1772,-0.32882
5RmwFFK3,0.82759,0.56331,0.4348,0.36167,-1.098
5Tu5Jbov,-0.63913,-0.070131,-0.59303,-0.24287,-0.4317
5YEolkev,-0.44181,-0.53407,-0.19134,-0.5513,-0.46675
5a8sf6QV,-0.019312,-0.1548,0.33477,0.046784,-0.78741
5eSvmqYm,-0.43107,-0.2443,-0.25086,-0.56675,-0.29993
5hkN8fiv,-0.29861,-0.43663,-1.0018,0.75279,-0.92621
5oK8Gti5,-0.6778,-0.24874,-0.49091,-0.68982,1.4096
5paniGaU,-0.57968,0.052813,-0.88806,-0.789,1.5302
5vsr7ZUP,0.66304,-0.26875,1.0076,-0.17005,-0.77013
60B4xMWI,-0.41892,0.4833,1.294,-1.0695,0.66731
64jOUtKy,0.33908,0.83174,0.10589,1.7659,-0.86317
6AJo4xNG,-0.14601,0.24723,0.022149,0.27301,0.082196
6CAvhEte,-0.25336,-0.2827,-0.60547,-0.49566,0.2124
6CuGYjT5,2.4148,-0.26468,1.8214,0.53414,-1.2654
6DGH8ujZ,-0.3166,-0.29969,-1.0951,0.13737,-0.58875
6PzsGdVm,-0.21464,-0.35901,-0.82111,0.32408,-0.52203
6UcSJMbq,0.16699,0.23631,0.86152,-0.87861,0.11529
6WJbkH8U,1.1055,-0.15631,1.489,-0.28282,-0.89572
6eUWsVzw,0.11924,-0.12538,0.94627,-0.055776,-0.62578
6gNyO7Do,0.21467,-0.21914,0.15323,0.37213,-0.90626
6jT0AyHe,-0.095198,-0.32923,0.16646,0.33764,-1.0483
6nBgCvWu,-0.40206,-0.12879,-0.1002,-0.39578,0.91461
6ro5mqg6,-0.25822,-0.36309,-0.299,-0.43308,0.14014
6sGqObX4,-0.71952,-0.1821,-0.60455,-0.20665,-0.49454
6uEGy0n4,1.7327,-0.0033699,1.8673,-0.21758,-0.98873
7BZ4LxP8,-0.045161,-0.35952,0.24225,-0.19855,-0.63742
7CmigXKi,-0.34485,-0.14175,-0.75324,-0.55657,0.013228
7Ga0LpfR,1.0378,1.4735,0.051285,2.0845,-1.0162
7PQsFvsG,-0.28985,-0.38812,-1.2849,0.97609,-0.62903
7aF7nnwn,-0.5478,-0.31417,-0.58384,-0.91026,0.60605
7asGzfX9,-0.19476,-0.070714,-0.044599,-0.23131,-0.07704
7cg7C92o,-0.033086,1.548,0.2542,0.85468,0.1822
7eOxTpsB,-0.2908,0.19719,0.49996,-0.73036,1.0955
7ey0v7ma,-0.35301,-0.47747,-0.5757,0.21193,-1.1228
7gocyrYl,-0.26309,-0.16937,-0.4868,0.99953,-0.18033
7gqR3GoA,-0.48192,-0.45555,-0.70251,-0.3955,-0.50279
7og7aUXB,-0.35212,-0.12497,-0.0024032,-0.17245,-0.3938
7onRfa8F,0.096669,0.25365,0.2873,-0.31672,0.5746
7umkNuxM,-0.23068,-0.43144,-0.17195,0.18934,-0.48025
7vPr9ExD,-0.019289,-0.056139,0.18209,0.08131,-0.75564
7zNjpCzu,-0.41568,-0.23446,-0.33589,-0.14426,-0.5996
7ztsQNj3,-0.5529,-0.1042,-0.51695,-0.19097,-0.40234
86gppwMI,-0.49486,0.12253,-0.60625,-0.40084,0.88086
88thAGdL,-0.36695,-0.018824,-0.24852,-0.33866,-0.24369
8GhU8STP,1.2147,0.36714,1.4076,0.26943,-0.98017
8NlzDcWe,-0.41562,-0.35242,-0.76473,-0.59566,-0.26932
8QAejdLW,-0.14443,-0.17756,-0.20327,0.14985,-1.0046
8RDeFxWM,-0.43446,-0.091845,-0.20534,-0.67766,1.2357
8UXP2NBS,-0.35941,-0.41534,-0.092899,-0.50236,0.39153
8ZoV3KGT,-0.29693,-0.28148,0.087053,-0.24242,-0.47226
8ajs2uG8,-0.46061,-0.21127,-0.81765,-0.33016,-0.48485
8bXnz62p,-0.32768,1.2225,0.32655,0.38479,0.72722
8nO1O1LG,1.8115,0.45615,1.428,1.4557,-0.86141
8xE1p8g8,-0.56554,-0.11717,-0.54053,-0.42677,-0.11803
8yMDVMRM,-0.46588,-0.28841,-1.0719,-0.58831,-0.67549
98R5VaPi,0.8717,0.41297,2.2112,-0.76242,0.68722
9DcTz2Ua,2.6478,0.013173,1.9673,0.8451,-1.0704
9G7nfUrK,-0.34226,-0.10134,-0.22124,-0.57368,0.24879
9O6GZ1HT,-0.11881,0.41441,1.035,-0.72849,-0.40037
9S7fCoAM,-0.43413,-0.16114,-0.04366,-0.32907,0.59871
9iQwmFJR,-0.2936,-0.40137,-0.034605,-0.5657,0.15388
A3Mt6SAQ,1.2897,0.11018,2.3842,-1.1753,0.47496
AJIsQIcV,-0.40632,-0.20026,-0.61481,-0.48393,0.43015
AMHKXMh8,1.7238,0.27056,1.8171,-0.097073,-0.81015
ASwA2J4E,-0.33504,0.066286,0.11363,-0.46753,0.6934
AaFvEoHq,-0.51641,0.48223,0.74984,-1.0489,0.98851
AiIPD6hX,-0.44132,-0.22873,-0.56739,0.47388,-0.45414
AsIURvJS,-0.46527,-0.3592,-0.81681,0.70796,-0.90571
AsvgbJ0C,-0.10611,-0.18153,-0.70789,0.59225,-0.1249
AxEhbkCM,-0.45459,0.40595,-0.42979,-0.56844,-0.28208
B7VPkIpx,-0.57858,0.40089,0.77844,-0.82044,0.74364
BBwHqHiH,-0.10664,-0.31794,0.01061,0.019776,-1.0194
BMyps8hr,-0.31117,-0.30135,-0.33986,-0.14814,-0.47061
BUHS4dQw,0.45662,0.40017,-0.064857,2.9922,-0.8184
BZB3EYWQ,-0.31342,-0.048732,0.023598,-0.41222,0.66602
C5UPCZcL,3.1367,-0.26885,2.0244,0.75867,-1.0887
C5gIfQbJ,-0.35663,-0.15456,-1.0111,1.5312,-1.0319
CDRuu4Pn,-0.52165,-0.28399,-0.28341,-0.76632,1.0534
CQhTYkqE,0.25632,0.0074477,0.74588,0.31081,-0.97857
CSEobMXv,-0.23567,-0.15335,-0.73096,0.9891,-0.76202
CYMQE4x0,0.0085118,0.78898,1.234,-0.27918,0.65659
ChQdtl4J,-0.4796,-0.22273,-0.094213,-0.51798,0.3406
ChnD1nrN,-0.36841,-0.25695,-0.58593,-0.57785,-0.4541
CvtbbIcq,1.3326,0.39121,1.6869,-0.093977,-0.28354
Cxk06b77,-0.27339,0.71579,0.66369,-0.016794,0.15436
D3QD3ZEJ,-0.12189,-0.22098,-0.31642,0.681,-0.15505
D8J5C6lA,0.53316,1.0409,1.0618,-0.015139,-0.82619
DCeQwYfT,-0.13537,-0.13702,-0.026106,0.14649,-0.4231
DDEftkx3,-0.54186,-0.011892,-0.76784,-0.70914,1.3136
DEwCfeDW,-0.44117,0.779,-0.21642,0.16113,0.80397
DMkIV4oL,-0.49351,-0.18461,-0.6543,-0.74826,0.88498
DnzGfbxS,-0.19958,-0.19604,-0.045848,0.00033456,-0.71636
DoZxo6f6,-0.38958,-0.0071466,-0.13237,-0.62108,0.6616
DvhBPGIk,-0.62667,-0.58253,-0.46101,-0.56008,-0.31833
Dx7GoUcT,-0.45656,-0.16653,-0.14294,-0.53035,1.0135
E5hIjohO,0.37246,-0.24814,0.46394,1.0585,-1.3817
E6x4XGHt,-0.66251,-0.19429,-0.71528,-0.72705,1.1921
EDEpAzh1,-0.55582,-0.1433,-0.55014,-0.34626,-0.41841
ETGudkQt,-0.38728,0.3874,0.25852,-0.5145,0.28447
EUleKrLJ,2.1265,0.058155,1.7828,0.72909,-0.82137
Ehw2Jz6s,-0.41539,-0.0409,-0.60107,-0.47065,0.088182
EjqzC4zH,-0.70149,-0.023667,0.4628,-0.83418,0.66724
EkMZO3Qj,-0.42884,0.66265,0.2278,-0.5979,0.55696
EnoNXWvU,0.14041,0.31333,0.97021,-0.89291,-0.0097834
Epv8ANwr,-0.39293,-0.41173,-0.44976,0.41547,-0.10162
Etro9j0B,-0.13549,1.9651,0.36175,0.063957,0.021568
F3MIZj76,0.0040487,-0.17663,-1.217,0.20493,-0.95365
FB8tU00K,-0.53424,-0.33606,-1.0528,0.59452,-0.27902
FLhxBGMK,0.072364,0.098924,0.37885,-0.081421,-0.93094
FRreR8ka,-0.47545,-0.23328,-0.3692,-0.2474,0.25011
FXne4oAV,0.38258,0.96139,0.92729,-0.25167,-0.84352
FaW764jk,-0.32877,0.91038,0.65592,-0.279,0.60369
FeAbMXly,-0.604,-0.25958,-0.88708,-0.64008,0.83788
FeudaFXn,1.657,-0.35699,1.8415,-0.37381,-0.83649
FldUmFeM,1.8612,-0.14622,2.0039,-0.76743,-0.10714
Fnv5tfAm,-0.72653,-0.1504,-0.67158,-0.16195,-0.55318
FvrAd3Or,-0.075676,-0.21507,0.78692,-0.93425,0.5308
G48zHffi,0.29048,0.41386,1.3934,-0.89193,0.54935
G76zCv5N,-0.49101,-0.50278,-0.77465,-0.47952,-0.25175
G7JGUdNf,0.07218,-0.35465,0.32886,0.057719,-0.91183
GCo6MONx,1.1258,-0.13431,1.0849,0.43356,-0.9571
GE0vbpVQ,-0.27065,-0.084002,0.21347,-0.65971,0.68289
GN0DfOqt,-0.35392,-0.28594,-0.22515,-0.68104,0.1702
GNsTAb1v,-0.43397,0.00060594,-0.59891,-0.32256,-0.78126
GPwmO21z,-0.50953,-0.55093,-0.51856,-0.083431,-0.43395
GQYpfLoh,0.91469,0.27479,0.22447,0.57407,-1.0893
GR9knT8n,-0.2822,-0.3701,-1.2089,0.88352,-0.64906
GXtFFbZy,0.42913,0.3152,0.33904,0.10233,-0.070069
GYvzvvFD,-0.61049,0.26936,-1.2115,-0.094545,0.21618
GemPjTJ9,-0.2099,-0.10577,-0.90729,0.59939,-0.74094
GkLYRm1K,1.7469,0.099793,1.8643,-0.27847,-1.0303
GmlqP8eI,-0.48909,-0.32926,-0.95016,-0.63351,-0.68171
GqkIrOvf,-0.33958,-0.21299,-0.85542,1.1933,-0.92165
H0fsegPi,-0.4825,-0.17665,-0.38383,-0.54909,0.54327
H4dHpJjU,2.0439,0.12779,1.6821,0.78612,-0.93108
H5QwJCuU,2.211,1.5793,2.1492,0.76525,-0.72975
H5uwmSZ0,-0.5724,-0.11163,-0.47424,-0.80228,0.56633
H8MtbVoL,-0.20213,-0.1242,-0.08602,-0.29034,-0.50067
H9JrUYnp,-0.40238,-0.15644,-0.22921,-0.11208,0.2803
HHYmmHVk,-0.52984,-0.18923,-0.48261,-0.813,1.3005
HJ5U4uqL,-0.52297,-0.26216,-1.3454,-0.41875,-0.38223
HNQxYc4w,-0.32828,-0.27865,-0.31944,-0.56769,0.015163
HQYhKHZ8,-0.46004,-0.21643,-0.83857,-0.54913,-0.39109
HSCMx0MC,-0.45031,0.041439,-0.21795,-0.62379,1.0973
HXYuE0fx,2.3146,-0.19802,1.821,0.24652,-1.0597
HdKcxEWr,0.17216,0.92688,0.64666,0.68812,-0.14934
HecW1iCC,-0.53644,-0.33865,-0.53759,-0.5728,-0.66854
HpbKB8rv,-0.20768,-0.2334,-0.79983,0.60752,-1.1116
HrkoYjCg,0.085676,0.87823,-0.39203,1.4109,-0.7634
I5P2uquT,-0.31221,-0.079092,0.053388,-0.37113,0.30114
I94qkDM7,-0.52139,0.070287,-1.0445,-0.2698,0.47286
I9sQbtt8,-0.20791,0.087805,-0.8385,1.722,-1.0862
IFxgw6ZX,-0.70664,-0.40424,-0.3121,-0.59553,-0.25503
IPPPSyoU,-0.50279,-0.48558,-1.1133,0.084295,-0.77526
IQOYQubU,1.7502,-0.22664,1.5992,0.19115,-0.83903
IYNE2SxU,-0.63545,-0.12916,-0.45427,-0.03309,-0.49717
IZRFk9kN,-0.3162,0.074756,0.10175,-0.33072,-0.090823
Iaq3v0t3,1.4166,0.16209,2.3689,-1.0184,0.22159
IbVwu1t6,-0.36185,-0.40946,-1.0878,-0.15779,-0.65318
IcHKTLyo,0.095269,-0.18955,-0.013102,0.10358,-0.92922
IpW80wVB,-0.040495,-0.32424,-0.4495,-0.021633,-0.32818
Itb0PYUV,1.8393,0.013311,1.5632,0.93893,-1.0309
J8fpSwS0,-0.5454,0.31404,0.63951,-0.98985,1.1803
JE1SlbD0,0.7073,1.0294,0.46244,2.1224,-1.2029
JEB4McNb,1.0496,-0.075768,1.4169,-0.25903,-0.91364
JEE4QVeQ,-0.091918,-0.24656,-0.11936,-0.25339,-0.74463
JJSEU2VQ,-0.54105,-0.16856,-0.55323,-0.58764,0.9274
JSsVriP2,0.14779,-0.33143,0.82567,-0.82434,0.022397
JUvQNiOK,-0.03501,0.4886,0.83854,-0.4246,0.45398
JZbrRtm2,0.24433,0.13903,1.4273,-0.88482,-0.24263
JcE9G92B,0.0092032,0.17948,-0.066103,1.0554,-0.59625
JnNYpXHr,0.62635,1.8705,0.16771,2.1499,-0.67516
JzpbnOtz,-0.44568,0.38882,0.13287,-0.66214,1.0869
JzzUhPQp,1.7322,0.7283,1.8906,-0.18129,-1.029
K05R8dQK,-0.35027,-0.21665,-0.8196,0.80646,-0.52902
K17pG2mG,-0.17628,-0.29914,0.44926,-0.80856,0.83031
K8BellUe,0.016472,-0.53513,0.17319,-0.1666,-1.1977
KJ2eH6rr,0.050489,0.1124,0.062555,-0.10339,-0.53206
KJEJ6Glk,0.60396,0.55187,0.40283,1.5037,-1.2422
KSbO0oXS,0.36741,0.79113,0.096662,2.0023,-1.0981
KXtvmd01,-0.40412,-0.40908,-0.34993,-0.54332,0.20522
KYiJqBuJ,-0.046733,-0.37865,0.69645,-0.41751,-0.64325
KmbAyTcE,-0.27314,0.14138,-0.11765,-0.37425,-0.3044
KnNyl3rV,-0.036987,0.070805,1.3404,-0.41596,0.86724
Kp2DG8TZ,-0.72025,0.3438,0.6014,-0.9247,1.1383
KqQtKWs5,-0.53577,-0.30139,-0.7504,-0.60109,-0.1232
Ku27g63R,2.6167,0.44809,2.1947,0.51199,-0.67735
L2aTVqDq,-0.41755,-0.45484,-1.157,0.67243,-0.78605
L5jvq6G4,-0.54026,-0.23405,-0.57068,-0.66723,0.22812
L91hYVQl,-0.51347,-0.27778,-0.68314,-0.83336,-0.32427
LINAMlbA,-0.33027,0.099973,-0.99839,0.2805,0.46444
LJoUNXSx,-0.31732,-0.10857,-1.2806,0.15741,-0.53032
LLtSiyWD,-0.57916,-0.31022,-0.68952,-0.46651,-0.10702
LQJtV8kn,-0.093279,-0.086517,0.46243,-0.13475,-1.0328
LW9uddw7,-0.28521,-0.32373,-0.57865,0.85622,-1.2574
LZ6sdBTR,0.91692,0.30712,1.1898,0.20138,-0.59759
La2Vhnne,0.50992,0.077256,0.44461,1.4479,-0.69433
LaUWSq9B,0.044069,-0.20213,0.22504,0.17222,-0.79388
Lk4SfkPQ,-0.52311,-0.40118,-0.76541,-0.15056,-0.89935
LllC836d,0.033229,0.12841,-0.57862,0.71403,-0.31503
LuGiGeWN,-0.4682,0.071004,-0.8881,-0.10321,0.62573
LzcyHcWa,-0.47823,-0.036606,-0.49435,-0.64108,0.99759
M7veP0H4,-0.41794,0.26993,-0.089031,-0.19729,0.71897
MB8aaJUc,0.069446,0.43783,-1.0737,1.0095,-0.12829
MDpe2zuy,-0.49987,-0.26459,-0.48299,-0.37669,-0.46908
MEzdmEIU,-0.44042,-0.27338,-0.24248,-0.40371,0.093798
MVnhtivm,-0.32761,-0.46658,-0.56845,-0.27111,-0.56995
MYU7WDis,-0.75802,0.26986,0.84893,-0.9407,0.90546
MZFqh6yw,2.2352,0.475,2.2063,-0.022079,-0.11088
Mdgy4SsO,0.94484,0.77161,0.35777,1.4636,-1.2147
Mj8awnzy,-0.39104,-0.015711,0.33384,-0.72379,1.2426
MpFPbUJy,1.8208,0.39414,1.6139,0.74333,-0.94634
Mqk7MFBM,-0.34966,0.58942,0.53612,-0.69776,0.57671
Mqs2t1Eo,-0.58209,-0.17365,-0.62103,-0.1561,-0.3252
Mv3jFVxp,-0.35568,-0.21911,-0.080163,-0.22797,0.3651
MxODTXvA,0.11207,0.094341,0.36499,0.057175,-1.002
N46PbpPM,-0.42286,-0.18198,0.14178,-0.615,1.5916
N5S5F9Gk,-0.45704,0.41701,-1.0563,-0.15231,0.69579
NLDg5fqw,0.2449,-0.29683,0.074832,-0.44247,0.016289
NOho2ZiM,2.5017,-0.14673,1.8701,0.54414,-1.1729
NUuY7PFU,1.948,0.28843,1.5074,1.1861,-1.2271
NV1e8AEO,-0.43399,0.09644,-0.10688,-0.55186,1.2055
NZLXROKC,0.016344,0.077658,0.30139,0.49024,-0.83855
NaJo7C6o,0.40366,0.2427,1.2381,0.15362,0.034712
NgsyGkrO,0.11258,-0.13591,0.43497,0.67,-1.1587
NjOx4Zpo,-0.38044,-0.31505,-1.1972,1.3704,-1.053
NmQoI7x0,1.6982,0.6435,1.9237,-0.58715,-0.12469
No4wkdLS,-0.36107,-0.17818,-0.68466,-0.59014,-0.23111
NouMwhOf,-0.33128,-0.47495,0.029031,-0.31946,-0.63295
O6YAWd8C,-0.069617,-0.34556,-0.045971,-0.092403,-1.0163
OAXVphSh,2.0464,-0.16332,1.7873,-0.17421,-0.11215
OJBBhb6Q,-0.50994,-0.35171,-0.33204,-0.85157,1.3114
OSIQXImL,0.35992,-0.045229,0.7498,0.19291,-1.1755
OUUFc5Zz,-0.465,-0.2739,-0.062101,-0.77193,0.7922
OVk1lquT,0.37841,1.4612,0.2765,1.688,-0.11216
OXdRxjzz,-0.2192,-0.43886,-0.76124,0.25813,-0.83505
OXxW2ekf,-0.49323,-0.28004,-0.29238,-0.90793,-0.035013
OXz5OpqR,-0.28093,0.95729,1.0705,-0.43993,0.4695
OcBFW1AX,-0.17253,0.37359,-1.0486,0.34914,0.49513
Of9V2rpt,-0.065504,-0.074185,0.21336,-0.0068723,-0.50518
OfLxPhbG,-0.29042,0.066046,-0.078504,-0.28278,0.67334
Ojx2vi48,-0.47954,-0.36456,-0.62217,-0.75238,0.2069
P3M32iuT,-0.60982,-0.34231,-0.75147,-0.89525,-0.066445
P7olVzrO,-0.00029438,-0.18631,-0.27883,-0.25012,0.41562
PAPHErnv,-0.38162,-0.20636,-1.1731,-0.09685,-0.49717
PBjEtfXb,-0.40425,0.18968,-0.33687,-0.4823,0.44479
PZGpoBBj,1.7698,0.023403,1.9194,-0.25231,-0.98391
Pc2RrxXS,-0.20972,-0.61271,-0.43236,-0.47645,-0.20727
PcHQ4FOu,-0.45627,0.032754,-0.47188,-0.18215,-0.019193
PeNyTOVN,-0.35128,0.36101,-0.12549,-0.13682,0.30634
PhUPSU53,-0.50294,-0.31072,-0.59133,-0.26807,-0.25898
PmUNeV2O,-0.30576,-0.35051,-0.83776,-0.62143,-0.2894
PoDJ0uvK,1.6471,0.62431,1.9286,0.31984,-0.48263
PsUJdJdg,-0.32649,-0.17625,-0.38182,0.87199,-0.4208
Q3xLFx1f,-0.36704,-0.26186,-0.87753,-0.17206,-0.38555
QBGxCvdM,-0.043656,-0.31035,0.14423,-0.07668,-0.85528
QCEPyu6L,-0.53402,-0.4252,-1.0591,0.3054,-0.60919
QEfwec4s,3.1545,0.23029,1.9191,1.9089,-0.87566
QZ87Nnr3,-0.44345,-0.11582,-0.17257,-0.47075,0.643
QlyGN9jv,-0.53113,-0.18116,-0.55872,-0.32058,0.37325
QqgWE1ny,-0.40545,-0.032323,-0.36776,0.045739,-0.56903
QrjjBpZd,-0.26545,-0.1294,-0.87552,1.3899,-0.85167
QsaBiX7V,-0.35555,-0.068313,-0.15247,-0.11696,-0.18133
QtBKJuZk,-0.3502,-0.16466,-0.11731,-0.51622,0.49745
QtPRO8OJ,-0.49239,-0.018987,-0.949,-0.44553,0.51486
R8XcsFnp,-0.33301,0.24363,-0.010704,-0.49348,1.4537
RROfRt9z,-0.31036,-0.33571,-0.092171,0.034623,-0.91478
RTcbiDGq,-0.32284,-0.45213,-0.65075,-0.45448,-0.22719
RVidM9g0,0.037712,0.46528,1.5867,-0.97849,0.90342
RZnQSH19,-0.501,-0.23437,-0.53394,-0.61809,0.76897
Rc4UK7fT,-0.66124,-0.073717,-1.0741,-0.16307,0.53648
RcKBKh6B,-0.27902,0.034334,-0.41378,-0.44266,0.37362
ReM5kDa5,-0.080469,-0.11283,0.10008,0.051125,-0.78217
RfntsotG,-0.45811,-0.23186,-0.56054,-0.74692,0.45758
RiXMlzXD,-0.26049,-0.27976,-0.21432,-0.52689,-0.59078
Rik83O3m,-0.42106,-0.15818,-0.48168,-0.36152,-0.29601
S3PCzDzO,-0.40727,0.011487,0.75125,-0.69295,0.36949
S77BviOJ,-0.44148,0.040865,-0.46854,-0.22318,0.076926
SDdvtktF,-0.34482,-0.27185,-0.63559,-0.19636,-0.80912
SHs1AyfM,-0.24581,0.072257,-0.21448,-0.43124,0.87161
SO4zQy9k,-0.46275,-0.17779,-0.26391,-0.6491,0.5965
SOOBCoiG,-0.4311,-0.35588,0.096038,-0.5763,0.89224
SXkkPB7A,-0.43375,0.24043,0.43891,-0.56452,1.1871
Sa93dGqq,-0.23009,0.45198,-0.90558,0.63291,0.66249
SonIG72a,-0.44229,-0.04414,-0.50204,-0.15471,0.37857
Suf6hIBc,-0.34914,-0.0058572,0.088383,-0.5393,0.83317
Sx2JeSRz,0.18602,0.13736,0.57742,0.50091,-0.4661
T1Tlftr4,-0.27051,0.50246,0.87214,-0.81863,1.2393
T7ulR4ci,-0.54833,-0.18939,-0.096613,-0.83831,0.93233
TA1NB3Br,-0.33589,0.075789,0.089572,-0.40482,0.63138
TFZUskaK,0.031904,-0.15843,0.13469,-0.17409,-0.63261
TNL8HGWZ,-0.038353,-0.25001,-0.037508,-0.11814,-0.81824
TZ8z1GSF,-0.52009,0.017591,-0.60792,-0.34887,0.07016
TqhRvkJJ,1.3103,-0.21272,1.4869,-0.5578,-0.41492
TtJCUiY4,-0.51145,0.028025,0.040252,-0.88772,1.3204
TwDq0lua,-0.063823,0.12993,0.51178,0.14224,-0.44855
Tzyf02sI,-0.29095,0.1828,0.24129,-0.43287,1.0617
U3yI6ZS5,3.0369,0.016232,1.8879,1.5452,-1.0546
UBLnXZAN,-0.096845,-0.0025373,-0.96454,2.5746,-0.72134
UBWDzleg,-0.18661,-0.63622,-1.4778,1.0507,-0.96413
UBqkX6SY,1.6075,0.15249,1.7672,-0.094197,-0.94677
UCIAi1Aj,-0.18959,-0.27727,-0.60755,0.03658,-0.68256
UPbXGvCS,0.054243,-0.39401,0.19259,0.031106,-0.99214
UeWm1l9F,-0.29622,-0.33511,-1.0329,0.84536,-0.48073
UhucscY7,-0.43226,-0.10074,-0.62934,-0.4386,-0.50655
Uri1SvHV,-0.06335,-0.32362,0.038326,-0.01021,-1.0755
UzxipGJS,-0.52734,-0.30108,-0.59753,-0.5414,0.36607
V74zfaAQ,-0.19594,-0.25491,-0.23609,0.065786,-1.0165
VBPxBLTh,1.9732,0.13715,1.6366,0.64889,-1.0487
VLG7CXYS,-0.26478,0.029332,0.074999,-0.11759,0.45354
VNk52SpF,-0.33314,-0.38862,-0.94681,1.1981,-1.3336
VOREKsok,-0.53487,0.16883,-0.56758,-0.73324,1.6007
VRhTr5pX,-0.38905,-0.67758,-0.30955,-0.66751,-0.12866
VTcG4Kcw,-0.29332,0.56586,0.83965,-0.57871,1.0034
VeKiWSbS,-0.37421,0.036457,-0.093918,-0.42075,0.47471
VnU8nJHU,-0.42169,-0.17041,-0.1517,-0.40293,-0.16299
VueNCxYv,-0.3813,-0.1494,-0.21785,-0.13998,0.36453
VxuQTRUl,-0.41637,-0.18897,-0.24737,-0.34651,-0.2835
W5lgaocA,1.4827,0.58312,2.4993,-0.44086,0.076161
W5mMq9Ef,-0.41687,-0.28988,-0.7941,0.39014,0.23266
WDhNqFpS,0.0129,-0.24076,-0.24519,1.1529,-1.5256
WE6n1kZi,-0.39131,-0.44753,-1.2495,0.33445,-0.71554
WFk6r3vA,-0.55525,0.0019407,-0.41398,-0.33464,-0.018055
WFyIrsUR,-0.51894,-0.65002,-0.71119,0.63331,-0.91173
WG6ZAsqR,-0.57899,-0.029193,-0.76154,-0.78514,1.2769
WMq3CZQk,-0.44517,-0.47687,-1.2511,0.69899,-1.219
WRskmGjh,-0.54901,-0.24625,-0.4613,-0.47873,-0.40158
WXijSglj,-0.33169,-0.39297,-0.92348,-0.50194,-0.78777
Wc0stQgu,-0.29727,-0.43161,-0.96471,0.33988,-1.0377
WewoSCUB,-0.49127,-0.41879,-0.84381,-0.72166,0.10359
WuHuhHWJ,-0.30877,-0.13679,0.24241,-0.60879,0.84987
Wv7EBtZb,1.0673,0.94304,1.54,0.12897,-0.96532
WyPlxDn0,-0.47748,-0.014217,-0.16794,-0.67241,0.94179
X3WqoSNN,2.1573,-0.23594,1.5746,0.52695,-1.2076
XDhyP9KB,-0.65804,-0.28241,-0.65542,-0.18024,-0.60613
XQxhDRMG,-0.3947,0.1153,-0.83004,-0.12685,0.58148
XjLNAwxW,-0.203,-0.41807,-0.25579,0.2493,-1.3638
XjfVQbXd,0.32887,0.73408,1.8571,-0.44609,-0.49445
Xovczbf6,-0.52876,0.031624,-0.76062,-0.76907,1.6209
Y8H4onBf,-0.60046,-0.33699,-0.58565,-0.62178,-0.21684
Y8YgzSZ9,1.719,1.2806,1.7022,0.82989,-0.56041
YC4PNV20,-0.46663,-0.14799,-0.19433,-0.45122,0.97996
YDHSCRdd,3.3483,0.032371,1.8567,2.1237,-0.75913
YIJ87aME,-0.4309,0.059362,-0.17421,-0.22946,0.1258
YKvT4dFv,-0.30677,-0.53866,-0.55912,-0.14491,0.17418
YNebALR2,-0.49914,0.18151,-1.0507,-0.2043,0.26119
YNrnqFyb,-0.083004,0.31284,0.060957,-0.077556,0.0018462
YUZ4lR3m,-0.35903,-0.030326,-0.20469,-0.41907,0.42594
YYLvjoVC,-0.092546,0.33587,0.34336,-0.23917,-0.054889
Yb8OtMb2,0.082874,-0.26387,0.40559,0.17063,-0.93253
Ycg4lTYw,-0.21515,-0.23135,-0.64189,0.51066,-1.0415
Yfk6tekH,0.21539,0.3642,1.1116,-0.60036,-0.67715
YoSfgmR6,-0.54449,0.12916,-0.52139,0.015775,-0.099565
YpzFvexy,-0.18018,-0.44705,-0.77604,-0.068738,-0.4079
Yxqppfa3,-0.19266,-0.17359,0.0076698,0.11935,-0.76802
Z16jTUvP,-0.42331,-0.17451,-0.41784,0.060562,-0.011518
Z2BdCCbJ,-0.35513,0.019209,-0.062441,-0.46473,0.94683
Z2JJMM6V,-0.028603,0.087221,0.093282,-0.0028951,0.25386
Z5jE1OB5,-0.38346,0.0048323,-0.15894,-0.22282,0.38748
ZFsIqYxA,-0.16558,0.081822,-0.44338,-0.091158,-0.083796
ZHDVsoRh,-0.50913,-0.44602,-0.68655,-0.30574,-0.44024
ZSmfu2Fc,-0.76973,-0.37196,-0.85837,0.091995,0.053874
ZU8YXF3H,-0.52638,0.069924,-0.60242,-0.82133,1.5308
ZXKaNy6Z,-0.45368,-0.24481,-0.97592,-0.48939,0.4948
ZbYLo0zK,-0.12998,-0.29911,-0.01559,-0.71705,0.030603
ZedN8Gcn,-0.47558,-0.38306,-0.45592,-0.53675,-0.21649
ZgD4Dau6,-0.19576,-0.43891,0.38344,-0.62204,-0.35776
Zgzf79LA,-0.46843,-0.41562,-0.87963,-0.6916,-0.26196
ZjqzxDOF,0.39792,0.56372,1.7151,-0.56432,-0.2316
ZsZ5aDpq,0.024206,0.48878,0.070413,0.86519,-0.93163
ZtyqE7If,-0.45156,-0.29913,-0.43645,-0.30668,-0.84131
ZvUgz01f,-0.3124,0.046927,0.57267,-0.98434,0.98777
ZwrhgdQV,0.74,0.060182,0.80842,1.4656,-0.78488
a7bhJGBU,1.9828,-0.19126,1.5307,0.64257,-1.0433
aHpv6KzP,3.206,-0.11166,2.0484,1.0945,-1.178
aINzEBVN,-0.23331,-0.36465,-0.62186,-0.3146,-0.94779
aP9EtTGF,2.6282,-0.37854,2.1058,-0.15001,-1.0191
aV6EhtSL,-0.42993,-0.18015,-0.25739,-0.43585,-0.25998
aVZsXKoH,1.8986,-0.12049,1.9536,-0.3224,-0.91356
aYVnVJvc,0.065099,0.015378,0.23648,0.40359,-1.0894
abCzN1zx,-0.4556,-0.52216,-1.2049,0.43433,-0.90533
ae7sMiB4,-0.30954,0.28129,0.06405,-0.1702,-0.30654
afsVuCGV,-0.66827,0.10526,-0.62625,0.59445,0.269
aiwBQETI,0.024394,-0.20847,0.15964,-0.012568,-0.8442
aiyli4EI,2.0042,1.9216,1.6736,1.836,-0.67034
apJ7NmzD,2.1921,0.10134,2.149,0.060279,-0.86603
atVjNMtQ,-0.2388,-0.15465,-0.86133,1.0426,-1.3842
b5GirVGV,-0.42671,-0.70538,-0.32874,-0.75048,0.26646
b9SpMjNB,-0.21076,0.26586,0.36295,-0.17151,0.88216
bAFs37yy,-0.47323,-0.2928,-0.16287,-0.78412,0.8462
bDia1hHV,-0.57257,-0.40497,-0.41906,-0.0605,-0.82283
bFkv5Mtr,-0.14725,0.20112,0.12071,0.32116,-0.20428
bHe2IXgA,-0.38412,-0.22133,-1.1355,1.2481,-1.3454
bWX3vUm5,-0.064606,-0.099808,0.057881,0.11692,-0.96483
bat8tcGs,-0.21121,-0.64037,-0.34777,-0.080357,-1.0303
bfjej4wu,-0.44205,-0.19222,-0.77249,0.12643,-1.0391
bh04YDiP,-0.47828,-0.53652,-0.48433,0.0076741,-0.26425
c110Fdc8,-0.28575,-0.22798,-0.33191,-0.50747,0.17525
c32GUzMa,-0.44306,0.22007,-0.82437,0.079145,0.50087
cT6uU0B0,-0.3006,-0.33572,-0.6584,-0.3402,0.78853
cWXCiFwh,-0.63251,0.15664,-0.48706,-0.19201,-0.29596
ceNvS3yd,-0.38018,-0.29633,-1.0842,0.013893,0.17186
cmwdt4Av,1.4708,0.010751,1.5661,0.16148,-0.96805
cn4EHsup,-0.15521,-0.31106,-1.0549,0.0161,-0.27991
crVOGGTT,-0.28438,9.8253e-05,0.087878,-0.79453,0.64475
csPEJ1E5,-0.43415,-0.20982,-0.31053,-0.54297,-0.36162
d0UrRtMk,-0.54713,0.087523,-0.54429,-0.8022,1.498
d6LU4G4I,-0.2576,-0.090547,-0.6388,0.4522,-0.22151
d74T1DVv,-0.39617,-0.39496,-1.1252,1.672,-0.90161
dR6rM1tQ,-0.060617,-0.52055,0.081082,-0.013422,-1.1126
dUNxOoqg,-0.42174,-0.04376,-1.1504,0.88516,-0.69821
dUnlyhj7,0.49469,0.0026429,1.3091,-0.79169,0.045693
dVDlnZQ6,-0.31002,-0.10552,-0.76957,0.46074,-1.198
dVT26GDu,-0.29878,-0.15001,-0.23392,-0.6794,0.26287
de43ycXY,0.36032,0.47927,1.245,-0.83526,-0.28635
dfIn7m9z,-0.62569,-0.5025,-0.81291,-0.34876,-0.34302
dhmb9ZY9,2.9776,0.02567,1.9211,0.95526,-1.0167
dn8kCuyf,-0.36797,-0.15258,-0.52804,-0.52129,0.50335
dpcquvWW,-0.55509,-0.52367,-0.61899,-0.46154,-0.065702
dqcbIMyr,-0.66586,-0.13826,-1.1146,-0.25914,0.027428
drWgsBf5,-0.45799,0.052226,-0.63637,0.25195,-0.61552
dytx0HSe,-0.59078,-0.026485,-0.95801,-0.7638,1.2844
e4KkkIha,1.3719,1.1863,2.0556,-0.42656,-0.57781
e9YorH4m,-0.085463,0.013133,0.21319,-0.91714,0.47982
eB9gVQ0R,-0.056352,0.3795,0.063156,-0.51662,0.40426
eMhLFqU6,-0.3581,0.10865,-1.1261,0.23242,0.10297
eMllg1qm,0.34376,0.97397,0.89762,0.096309,-0.7433
eNPunZ9i,-0.17352,0.13817,-0.96209,0.81358,0.20185
eS5BSM4J,-0.49202,-0.11007,-0.33714,-0.71822,1.2337
eVGMFoOI,-0.12409,-0.041217,0.30756,-0.91286,0.58061
eaIwb3rG,-0.25143,0.68627,0.15239,-0.21911,0.95172
eyzw8Vis,-0.52738,0.24944,-0.19496,-0.6215,1.267
f04Ke2bN,-0.28121,-0.0353,-0.59606,0.19821,0.20464
f4GA0te1,-0.46378,-0.32307,-0.42532,-0.83646,-0.0070627
f7bd91h5,-0.5305,-0.17781,-0.20912,-0.76669,1.1184
fB7z9ndr,-0.30902,0.29795,0.57561,-0.60636,1.2132
fEe7AWFA,-0.37878,-0.4977,-0.097871,-0.22565,-0.86739
fJJIbgY9,0.34012,0.65629,1.2645,-0.56541,-0.62053
fQBURMvg,-0.42435,0.021036,-0.24123,-0.50512,1.1192
fS0HpOub,-0.47173,-0.46037,-0.33674,-0.59093,0.34166
fTDXauuk,0.47183,-0.11456,1.0293,-0.65035,-0.65243
favPNA2N,-0.11813,0.46843,-0.58694,0.64419,0.56762
g3Fv0U4k,-0.13757,-0.070592,-0.83931,1.0551,-0.59685
g5PKo2E2,0.10575,-0.1908,0.87203,-0.084958,-0.43097
gbjnD5fe,-0.33258,-0.39903,-0.52873,-0.86279,0.095387
ge9zqXCv,-0.34762,-0.37072,-0.75882,0.2817,-0.85669
geeqJpSE,-0.46099,-0.1553,-0.055385,-0.7648,0.86904
gqy1J2RS,0.088506,-0.20748,0.6111,0.15608,-0.8014
grlUtS3H,-0.034484,-0.18709,-0.29086,0.60072,-0.46239
gx965KYj,-0.31968,-0.12451,-0.27344,0.13958,-0.40971
h3F08Vjm,-0.43179,-0.14535,0.021983,-0.54362,1.3184
h6FQG8Iy,-0.20231,0.42146,0.80904,-0.64232,1.0902
h7ftM8b3,1.5959,0.19559,1.7604,-0.14115,-1.0392
hLrCHXZv,0.042466,-0.23492,0.37811,0.08521,-0.90656
hQ6VBuFx,-0.10205,0.43942,0.038024,-0.44204,0.4331
hYoR2y7w,-0.39703,0.035162,-0.5435,-0.14916,-0.85193
hf65yZkM,0.3497,0.20597,0.37764,1.2683,-1.0089
hjuwe1x4,-0.23825,-0.1509,0.3164,-0.38257,0.23915
hyINlsFR,-0.17233,0.55064,-0.040942,0.26037,0.63729
i0Qlm9Bv,-0.36363,-0.090242,0.2501,-0.57237,0.85204
i1VxfxMb,-0.41465,-0.19107,-0.052825,-0.64099,1.0166
i2l6jXNP,-0.42569,-0.37838,-1.0496,-0.11823,0.27129
i4FgPZv7,-0.40288,0.26298,0.28096,-0.74425,1.1085
i7XtIkSi,-0.65515,-0.0074296,-0.5619,-0.32869,-0.37831
i9z346Ut,-0.25586,0.020224,-0.645,0.9193,0.55165
iDOat4cZ,2.1045,0.44183,2.0582,-0.15579,-0.8993
iNv6RoSO,-0.1128,-0.035637,-0.010746,0.018179,0.19373
iSL9NYzy,3.4464,-0.22151,1.9544,1.9516,-1.056
iSqVc1r8,0.13741,0.9281,1.1879,-0.73277,-0.25869
iYZMftt6,-0.63424,-0.39844,-0.48384,-0.45473,-0.7772
ieTPaa3c,-0.37095,-0.022947,-1.0525,-0.076958,-0.38411
if7BmzU0,-0.45936,-0.17241,-0.11093,-0.77738,0.87782
ihNz5bmx,-0.16928,-0.048472,-0.83243,0.5237,-0.63016
ikJXKdIN,-0.51127,-0.35056,-0.50641,-0.97953,0.54971
iq2kxikN,-0.04424,-0.31596,-0.2693,-0.059202,-0.97826
iuZEDJK7,-0.54328,-0.18223,-0.472,-0.65422,0.62726
iyF8gVT7,-0.46539,0.10352,-0.085011,-0.62296,1.3662
j06qdQ0V,-0.35851,-0.40764,-0.46539,-0.38298,0.16876
j7hl8svO,-0.43853,-0.19204,-0.46524,-0.090099,-0.92818
j8hMoJUN,-0.40788,-0.21302,-0.66315,-0.61587,-0.21083
jNaFasbV,-0.51124,-0.60992,-1.4307,0.57176,-0.88895
jVVHeYHT,-0.80545,0.21163,0.59694,-0.77019,1.1149
jXm4ySvK,-0.39672,0.039512,-0.08472,-0.3395,0.63334
juO5ii5l,-0.47795,0.44085,0.66523,-0.77337,0.358
k2hdEBsU,-0.49978,-0.24985,-0.14417,-0.82107,1.2413
k3ynMfhN,0.022698,0.8087,1.3881,-0.5292,0.92671
k9C9yBtr,0.020652,-0.18057,0.29143,0.19845,-0.90104
kAKRvcRo,-0.34232,-0.087126,-0.72681,0.70646,-1.0051
kBi3R2oC,-0.39388,-0.16449,-0.077774,-0.3926,-0.34334
kDWmnsXe,-0.1563,-0.24076,0.33621,-0.42435,-0.0046353
kSGBd2Vh,-0.42163,-0.28126,0.0033246,-0.75456,0.63765
kT0miHPT,-0.47873,-0.41007,-0.59977,-0.42394,0.1274
kaW0TfRn,-0.33122,-0.49144,-0.037997,-0.58083,0.075372
kmg3SowO,-0.25622,-0.32499,-0.96528,0.38206,-0.4027
kpxKSlnF,2.3295,0.23428,1.9352,1.1428,-0.3791
ku2cn1MV,0.70591,1.0593,1.4195,-0.2024,-0.13213
l1su5HU9,-0.49462,-0.072817,-0.19707,-0.56069,0.33705
l8Tg2RvD,-0.47973,0.62625,0.78284,-0.7932,0.88207
lB6NsVOc,-0.37399,-0.34544,-0.014006,-0.68109,1.0936
lEcdVyKk,-0.53928,0.063795,-0.59235,-0.59771,1.1818
lH4TasGl,0.079704,-0.13703,0.81566,-0.70907,-0.42958
lO9aggHW,-0.091397,0.11799,0.26565,0.3069,-0.03699
lW3m9Vzu,-0.56715,-0.41957,-0.55314,-0.29434,-0.33968
lYLseGDP,0.22321,-0.35511,0.11205,-0.56444,-0.0074092
lcOnCdZi,-0.43158,0.30466,0.74455,-0.85555,-0.24618
le9YGwON,-0.18787,-0.016239,0.014303,-0.20858,-0.25592
llMvu3TX,2.202,-0.24723,2.7217,-0.58756,-0.28358
lnHh2jFO,0.1489,0.18198,1.4329,-0.88536,-0.091117
m07CVXd4,-0.33774,0.20222,0.78214,-0.93854,1.2587
m1lPk91z,-0.37659,-0.14592,0.3904,-0.70481,1.1681
m9IQdmwa,-0.44178,-0.33258,-0.41694,-0.68202,0.60121
mG9BRy5x,-0.44683,-0.032559,-0.31607,-0.15424,0.20163
mVHXnama,-0.21804,-0.41043,-0.70242,-0.32458,-0.82582
mXyrR6nU,-0.4656,-0.17199,-0.65051,-0.455,0.60882
mbzNdxNc,-0.49492,-0.29722,-0.62267,0.39052,-0.42714
mntH7g3L,0.12277,0.4876,1.2076,-0.91929,-0.10746
msRTXP3H,-0.37359,-0.20197,0.0079919,-0.12773,0.68267
mxBjvIPR,-0.39635,-0.29196,-0.44076,-0.71248,0.29076
n8Opmfbz,1.8428,0.24833,1.8002,-0.19581,-0.58432
nOkgU29Q,-0.0007834,-0.21161,-0.80145,0.71572,-1.0624
nhttf7VM,0.028704,1.2099,1.0182,0.00020079,0.18257
njLbXYa3,-0.28877,-0.46904,-0.43951,-0.50937,-0.68766
nwkIpzmh,0.53552,0.36966,1.3661,-0.2579,-0.32305
nzB1R9Zg,0.25797,-0.08887,1.0573,-0.91329,0.096783
o1rZRI84,-0.56572,-0.074743,-0.57081,-0.51552,-0.18258
o7q5Mbty,-0.3207,-0.39299,-0.25511,-0.20068,-0.9859
oCBvysqB,-0.68206,0.026063,-0.44656,-0.27698,-0.25814
oDmycTPH,-0.42635,-0.44249,-0.20512,-0.95894,0.97085
oFAXZvQv,-0.60134,-0.044504,-0.48193,-0.28724,-0.14632
oHE3M1zX,-0.020553,0.26192,-0.56644,1.4484,-0.0095653
oMhVmSpV,-0.79932,-0.20356,-0.71915,-0.59681,-0.44082
oNsDqVbi,0.13346,0.59955,1.2675,-0.65832,-0.3522
oYAJqQk8,-0.41357,-0.55762,-0.41482,-1.0825,0.24144
ob5Kb6dW,-0.56906,0.029909,-0.73485,-0.62542,1.1652
obnzqs79,-0.46603,-0.37813,-0.8375,-0.58024,-0.45717
oncLcgRP,-0.42171,-0.46786,-0.8588,-0.30728,-0.23713
ooWVYaAe,-0.25235,-0.034641,-0.83308,1.1253,-1.2567
osdyOUnV,-0.34748,0.24157,-1.1255,0.51185,0.032596
p7H9CzCv,-0.1383,-0.35747,-0.96904,0.89035,-0.81205
p7U9hVhY,-0.44197,-0.088311,-0.46672,-0.56379,0.85924
pE6Cf1RV,-0.36364,0.45961,0.5504,-0.69503,0.96108
pI7qzotI,-0.078021,0.11523,-0.051983,0.15978,-0.59501
pJrIA4sk,-0.3798,-0.71445,-0.34904,-0.54427,-0.0059758
pXne2CLZ,-0.35503,-0.26034,-0.62856,0.84385,-1.0388
pZMcDIOS,-0.43158,-0.51624,-0.47328,-0.69947,0.63619
pavfp3cc,0.21069,-0.26928,0.90279,0.057032,-0.8522
pbQdC5L3,-0.62209,-0.31843,-0.5971,-0.65043,0.13232
pgj7aAFP,-0.21024,-0.16934,-0.010083,-0.2288,0.2775
pxg8G3ed,-0.21796,0.50877,0.063122,-0.21521,0.80899
q36Npk6l,-0.56668,-0.45852,-0.51298,-0.82825,0.90047
q4aDOVvq,0.40436,0.67116,0.88491,0.15697,-0.8845
qGmfR9CN,-0.23671,-0.28663,-1.0505,1.438,-0.74222
qJ51ODpA,-0.29298,-0.36851,-1.083,0.38779,-0.34926
qQX3cs3I,-0.35212,0.79929,0.88079,-0.61313,0.36131
qXeIxPb8,-0.47261,-0.055938,-0.35357,-0.43985,0.80396
qYQ4MShM,0.14148,0.067334,0.11923,0.2759,-0.85108
qa0etnhK,0.19217,-0.1427,0.27437,0.17495,-0.60672
qbL4sboq,-0.67841,0.48646,-0.41509,-0.61788,0.86368
qbYrsWHq,1.1376,0.99114,2.1365,-0.022507,-0.36741
r1zmcUqQ,0.50731,0.55891,0.97725,-0.72695,-0.62293
r54iHeQC,-0.3585,-0.13433,0.016935,-0.63957,0.8205
r6xrAnQV,3.9389,0.087979,2.259,0.48847,-0.30416
r9HxnQDg,-0.12738,0.10965,0.82798,-0.18003,0.81239
rG8Puuf9,0.81206,-0.12108,1.1349,0.18783,-0.76041
rGuiefuR,-0.50688,-0.51744,-1.1504,0.33144,-0.90396
rJ19OhGP,-0.49028,0.12885,-0.49173,-0.57121,1.2699
rOCYepHd,0.04946,0.32042,0.95985,-0.4983,-0.1255
rQJaOPFI,0.018619,-0.18424,0.55446,-0.28742,0.00577
rQhZtZeh,-0.15142,0.61421,1.0649,-0.72905,1.1995
rapmok0w,-0.16383,0.63734,-1.1723,0.82132,0.030469
rgzfnPVu,-0.50146,0.33833,0.76735,-0.78406,0.42374
ri4qhb1S,-0.41489,-0.33058,-0.44505,-0.73716,0.41134
rqpFYzff,-0.5219,-0.14744,-0.34572,-0.62805,0.34413
rrs22coX,-0.36615,-0.0050703,0.23345,-0.3616,1.2673
sEeUCQLc,-0.63934,-0.11786,-0.93226,-0.33303,0.64138
sHScwqQl,-0.41445,0.2118,0.50119,-0.87467,1.3388
sNC7DiAt,-0.50414,-0.16557,-0.23513,-0.50841,0.99793
sNK2TSs3,-0.37283,0.045824,0.41153,-0.40373,1.0758
sO7Su6uw,-0.29456,0.26949,-1.3132,0.0038307,-0.12733
sOWZx89o,-0.65275,-0.28656,-1.1343,-0.72455,1.2068
sPbRcPjC,-0.071462,0.028726,0.042568,0.28484,-0.791
scVUfTKI,-0.14376,0.16909,0.12498,1.2384,-0.65871
seRaGeVv,-0.67037,-0.12427,-0.25611,-0.46809,0.97642
sgtwiYWi,-0.45227,-0.32335,-1.1096,-0.089008,-0.26727
sjmLHcT6,-0.54182,-0.27115,-0.58409,-0.65392,-0.039559
skZUZZGS,-0.41749,-0.17892,0.06834,-0.3596,0.38922
suAmzADX,-0.4383,-0.18777,-0.83426,1.4668,-1.0949
t4GWLqlO,0.53504,0.074427,0.97916,-0.42937,-0.23801
t7gy6Jyy,0.46768,-0.16166,1.0316,-0.79897,0.044705
tBadzH60,2.1927,0.03355,2.2901,-0.089427,-0.65992
tXUWm0hp,-0.22695,-0.40927,-0.4134,0.55386,-0.50358
te6UPPxf,-0.71191,-0.0066987,-0.5879,-0.35605,-0.54107
ti2lamkL,0.17958,0.29315,0.7292,-0.34118,-0.16992
tr0lpwuU,-0.12128,-0.35469,-0.62144,1.8547,-1.2492
ttdB5C73,-0.4396,0.061769,-0.092572,-0.45462,0.70494
twS8YZu9,-0.22682,-0.041161,-0.48004,-0.44028,-0.074266
tx68W34H,-0.6016,-0.52012,-1.3369,1.0673,-0.75884
tyQSX4mY,-0.44854,-0.035992,0.52389,-0.73321,0.40127
tylKCRc0,-0.35435,-0.3167,-0.39716,-0.48292,0.37034
u1544WUo,-0.36656,-0.1522,-0.69663,-0.52646,0.32991
uAw9an0d,0.12441,0.045118,0.38112,-0.14544,-0.21256
uLZAEXMG,2.4201,-0.20195,1.9336,0.13967,-1.045
uMwe1s7I,-0.47884,-0.5903,-0.5498,0.58514,-0.77539
ufhGeV3q,-0.53376,-0.20969,-0.47976,-0.61824,0.47144
uhAeGBHo,-0.1527,-0.44773,-1.1196,0.67614,-0.86997
ujHNlqpw,1.1168,0.75445,1.3571,0.11339,-0.82901
ulV6kuhB,-0.34488,0.037294,0.065992,-0.45096,0.6184
uohEnNEK,-0.33671,-0.10514,-0.85111,0.8893,-1.0982
v1lhA8I4,-0.37508,-0.25344,0.29351,-0.62149,1.3993
v3JzigLI,-0.61117,-0.34818,-0.68801,-0.78304,-0.07683
v5IwjyIg,-0.50006,-0.15466,-0.72227,-0.29528,-0.82644
v6lp5TK1,-0.31803,0.048741,0.54204,-0.81796,1.2254
v8vOaaWq,-0.20315,-0.52554,-1.0734,0.081787,0.22194
vAYKtoil,-0.49776,-0.12129,-0.5978,-0.29897,-0.70023
vGTNQa6G,2.8521,0.091675,2.0674,1.4194,-0.48891
vQzNxHoL,-0.51574,0.13211,-0.4381,-0.46458,-0.62247
vfZGBUJm,-0.11934,-0.31058,-0.032033,-0.050464,-0.67773
vlooVUoT,-0.058812,0.017741,-0.46736,1.0739,-0.88078
vrACvd4O,-0.33304,-0.59704,-0.36402,-0.3247,-0.35252
w8hdjLwb,-0.58295,-0.073414,0.00074314,-0.7181,1.0749
wAntv4gH,0.27863,0.691,1.7999,-0.67338,0.5285
wIUL09q0,-0.5686,-0.41692,-0.89647,-0.70026,-0.049989
wOzx7Fgz,-0.23708,-0.5745,-0.23318,-0.51898,-0.052893
wPhjhCJQ,-0.48854,0.08714,-0.60814,-0.60974,1.3361
wQSWWmYB,-0.27974,-0.39373,-0.46865,-0.45784,0.5412
wdIMrXwy,1.982,-0.070882,2.5996,-0.49519,-0.412
wiL9npQc,-0.55815,-0.099499,-0.52858,-0.77925,0.96424
wnU95Cxn,1.5315,0.67233,1.9734,-0.54258,-0.74714
wpJbbjJs,0.092892,1.207,0.97816,-0.10223,-0.083691
wsOWTAbI,1.3304,-0.078357,1.0324,1.7535,-0.90419
wtdBcU3U,-0.42476,-0.23758,-0.51517,-0.77918,-0.17673
wuKXVxOc,-0.5552,0.016361,-0.70034,-0.48864,0.58718
wyzadAt8,-0.38869,-0.36584,-0.62181,-0.57878,0.6645
wzaKzYwi,-0.043149,-0.365,0.62713,-0.8409,0.77711
x6GCk4EV,-0.38416,-0.030408,-0.21965,-0.48063,0.45806
x6lUi3vf,-0.054233,-0.36635,-0.054292,0.42746,-1.1971
x8mwDHv9,-0.37841,-0.43695,-0.39913,-0.34426,-0.13903
xIYm6puH,0.90768,0.84246,0.33053,0.9283,-1.1656
xO6UdpsK,0.68537,0.90839,0.77164,-0.20593,-1.1273
xQ2bkOvj,-0.43342,-0.33786,-0.62622,0.39136,-0.90731
xeXyDCEQ,2.782,-0.10292,1.8156,1.1932,-1.215
xrggHziO,-0.35013,-0.30359,0.42088,-0.64166,-0.026379
y1WMCmqQ,-0.49569,-0.44199,-0.58283,-0.55146,0.072935
yDngezhM,-0.26986,-0.25085,-0.44454,-0.6047,-0.35197
yLiFjMD0,-0.37325,0.00099793,0.040727,-0.86731,0.65022
ySwEBO7w,-0.63539,-0.18365,-0.59259,-0.22344,-0.78021
ydC9UsSm,-0.095211,-0.453,-1.0585,0.47973,0.097353
ydEG4VBd,-0.46002,-0.088595,-0.84158,-0.40419,0.563
yf76yWXc,-0.28199,0.7555,1.1659,-0.578,-0.34
yg70e63n,-0.5537,-0.0261,-0.61641,-0.17044,-0.46531
ywxtlSKv,-0.52675,-0.46179,-0.76284,-0.5095,-0.15201
yzKPQPOR,-0.44584,-0.56023,-0.43807,0.21848,-0.64531
z5cnOnZ1,-0.1501,-0.47238,-0.43948,-0.51673,-0.62125
zFLkOE0e,0.06202,-0.089492,0.54507,0.42615,-0.94782
zGi72mxL,-0.54192,-0.42057,-0.57815,-0.23325,-0.85731
zN925UV3,-0.32047,-0.12086,-0.69893,0.63164,-0.94657
zTy2ih7e,-0.52595,0.13972,-0.86666,-0.38913,0.69493
zVFzAutw,-0.32622,-0.0075677,-0.22306,-0.51515,0.31081
zYxNAkht,-0.4658,-0.32164,-0.60785,-0.74958,0.4269
zaWDBai3,-0.22914,0.42952,-0.17872,-0.10907,1.3355
zg3u0Zsx,-0.46978,0.46335,-0.28587,0.071214,-0.090864
zlwLfdsS,-0.43961,-0.56029,-0.74553,1.4501,-1.1289
zmbKzVfl,-0.27499,0.27678,-1.3132,0.30495,0.054964
