PIDN,Ca,P,pH,SOC,Sand
09gt9UK5,-0.27991,-0.73471,0.13991,-0.46765,-0.19861
0BVvxJ6a,0.23581,-0.068195,0.10522,1.4946,-0.43627
0KbdgApg,-0.017632,-0.0083577,0.68347,0.94866,-1.0699
0MnuuduB,-0.017887,-0.5156,0.34576,1.3575,-0.25997
0PcIsF9z,0.46723,-1.4855,-0.72443,1.0495,-1.7206
0ShTFLYJ,0.30638,-0.96223,-0.81176,0.08903,0.09982
0XZh9jka,-0.99572,-0.58507,-0.37273,1.4141,-1.2035
0Y7Wegri,-0.038923,-0.29589,-0.56352,0.27793,0.21921
0dTqplIM,-1.0382,-0.46268,-0.96311,0.87508,-0.20222
0lNiZicC,0.67513,-1.0436,-1.188,0.3135,-0.10559
0rGeJ0QN,1.1013,-1.1753,0.40987,1.8529,-1.232
0sXI9ytQ,-0.93391,-0.04568,-1.5938,-0.56484,1.1287
0ukt4aP6,1.3968,0.2999,0.70051,0.20204,-0.21851
1AGspb8f,0.28233,-0.56751,-1.0982,0.89513,-0.68942
1Csy0gvE,-0.21037,-0.85734,-0.085713,-0.22574,0.63435
1Ic2hly1,0.26128,0.077121,0.30951,0.73862,-2.3322
1PPbaTwt,0.22988,-1.9283,-0.52669,-0.13484,-0.90448
1SO5VJNy,-0.56166,0.42689,-0.57788,0.085671,0.35197
1arHxK3Y,0.066268,-0.31655,0.71097,1.2207,-0.75498
1fCW4Bba,0.4063,-0.8839,0.01446,0.5384,-0.28597
1qDZNvIm,-0.67363,-1.3249,-0.93571,-0.829,-0.0061983
28LYJC2V,-1.0338,0.34085,-0.89061,1.4238,0.22201
2CzACvQq,0.26182,0.18742,1.041,0.55102,-0.77161
2FT3crfv,-0.85402,-0.9099,-1.6969,1.3084,-0.59261
2Fy2uHVg,0.16902,-1.141,-1.011,0.10203,-0.96088
2MkMEApm,-0.68438,0.41164,-0.54275,-0.2436,-2.2357
2NDGWEOe,-0.21822,0.85715,0.95579,1.0705,-0.63592
2NyyCiqn,-0.18062,-0.20149,0.88304,-0.49625,0.42222
2QRzIb84,0.10707,1.1258,0.17328,1.3642,-2.0956
2QcbdrUZ,-0.059637,0.26155,0.062751,-0.16199,-0.3394
2YgAimWK,-0.076327,-2.0617,-0.84751,-0.10723,-0.024426
2cx85d9H,-0.071277,-0.15575,0.24473,0.80568,-0.97197
2homMXMV,-1.144,-1.3683,-0.12373,1.0242,-0.71506
2ldLrUtq,-0.47412,-1.286,-0.57414,0.00084938,-2.2924
2nsACW6G,0.20483,-0.30539,0.39418,0.7576,-1.2068
2yMbVnWc,0.83014,-1.3205,-0.35044,2.2567,-0.22354
36r8sgGQ,-0.06524,-0.21827,0.20805,-0.73827,-0.20494
3NXAXCl3,-0.49817,-1.3545,-0.16656,0.99853,-0.21114
3QG0z6fl,-0.10751,-0.53159,0.3952,-0.26686,-0.46929
3WS8R9qm,-0.84254,0.027931,0.95289,1.4969,0.3687
3fRLm8f5,0.7061,-1.3998,0.34279,0.7155,-0.65897
3mZhp1nQ,-0.26748,-0.54396,-0.026107,-0.26343,-0.68074
3pikJXRL,0.17871,-1.3306,0.50015,-0.18367,-0.39687
3pxOEGHL,-0.69767,-0.81715,0.54224,-0.39059,1.4666
3ttdV3f5,-0.30876,-0.077153,0.082718,0.14574,-1.0103
3v4X6Mfe,1.2776,2.0594,2.5625,0.62209,-0.27991
3wORuPiv,-0.091986,-1.2499,-0.7916,1.1897,0.24249
43EfrxZj,0.4091,-0.2544,0.12757,2.2766,-0.24718
457Vwm21,0.50575,-0.80407,-0.89436,0.49953,-0.45463
46KNnOdx,-0.22375,-0.56484,-1.2367,-0.067416,-0.13405
47TwNsVC,-0.82903,-1.3641,-1.565,1.2859,-1.048
49856RpO,-0.3644,-2.0693,-0.12426,-0.72201,-0.45353
4Ane1o2N,0.25998,-0.66312,0.67765,0.61518,-0.64703
4AyVUgSc,0.19272,-1.0492,-0.65027,-0.25832,-0.27926
4B1951On,1.1044,-0.43694,1.4085,0.40751,0.53748
4OL39Teo,1.075,0.65575,-0.44609,1.5145,-0.85628
4eQ90eLY,-0.23927,-0.091535,0.52363,1.5145,1.1384
4o5jwMj8,-0.31571,-1.297,-0.18423,-0.16181,-2.1121
4vPgpl2c,-0.16093,-0.55148,-0.004462,-0.31196,-0.91443
51r9aA0d,0.068407,-0.99593,-0.37454,-0.32328,-0.088479
58SmeRoP,-0.6154,-1.4144,-0.13294,2.222,-1.597
5HJp1AXn,-0.49716,0.46502,0.50929,1.324,-0.818
5MBZW7fx,0.96007,-0.90581,-0.30271,1.1769,-0.60485
5Nq3gHaP,0.60428,-0.021017,-0.1591,1.0234,-1.1403
5RmwFFK3,-0.95469,0.12246,0.39361,1.1575,-0.42183
5Tu5Jbov,0.78985,-0.53996,-0.36381,0.20018,0.3425
5YEolkev,-0.022622,-1.5932,-0.28356,1.4114,-1.2696
5a8sf6QV,0.45622,0.16052,0.58997,0.82957,-0.61284
5eSvmqYm,0.28112,0.12966,0.35801,-0.031333,-0.86637
5hkN8fiv,1.6303,-0.51576,-0.12326,2.922,-0.64235
5oK8Gti5,-0.56747,-0.8408,-0.29076,-0.9955,0.37494
5paniGaU,-1.1047,-0.31064,-1.3922,-0.87741,1.2727
5vsr7ZUP,0.15864,-0.20729,0.42891,0.77911,-1.0292
60B4xMWI,-0.58107,-1.2735,-1.6404,-0.0015231,-1.4795
64jOUtKy,0.49727,-1.1072,-0.43831,3.5133,-0.30212
6AJo4xNG,-0.72092,-1.7064,-0.58202,1.5867,-1.7183
6CAvhEte,0.23818,-1.6949,0.27314,0.13902,-1.1994
6CuGYjT5,1.0473,1.4868,0.64916,0.57951,0.37038
6DGH8ujZ,0.14254,-0.25029,-0.72256,0.10702,-0.2683
6PzsGdVm,0.11355,-0.923,-0.10695,1.5211,-0.53718
6UcSJMbq,-0.98752,-0.79321,-0.12015,0.20723,-0.57267
6WJbkH8U,1.1504,1.2584,-0.64436,-0.12764,-0.88368
6eUWsVzw,-0.063152,-0.48599,0.5602,1.0348,-1.137
6gNyO7Do,0.47402,-0.37886,0.68255,0.8378,-0.61479
6jT0AyHe,0.85873,-0.011752,-0.016426,2.4285,-1.0823
6nBgCvWu,-0.35458,-0.023407,0.11077,-0.063814,-0.15494
6ro5mqg6,-1.5256,0.3364,0.17897,0.38396,-2.1455
6sGqObX4,0.19552,-0.86062,0.0061272,0.55164,-0.46925
6uEGy0n4,0.4955,0.0634,0.57276,-0.497,-0.4511
7BZ4LxP8,-0.65317,-0.20463,-0.53352,1.2445,0.28483
7CmigXKi,0.73121,-0.42332,0.064577,-0.48528,0.31733
7Ga0LpfR,-0.2144,0.10593,1.2602,1.3017,-0.80578
7PQsFvsG,2.0817,-0.92887,-0.95933,2.3613,-1.6997
7aF7nnwn,-0.55736,-0.29999,-1.0172,-0.23326,-0.011754
7asGzfX9,-0.54438,-1.0164,-0.54992,0.34935,-0.98517
7cg7C92o,-0.44671,0.082477,-0.17864,2.1628,-1.8969
7eOxTpsB,-0.61669,-0.68128,-1.3427,-0.41782,1.1784
7ey0v7ma,0.56768,-1.1938,0.40106,1.5097,0.13942
7gocyrYl,-1.4651,1.4982,-1.4336,1.1861,-0.38896
7gqR3GoA,-0.1741,-0.92821,0.15848,0.50833,-0.75394
7og7aUXB,-0.177,-1.7237,-1.209,1.4357,0.28951
7onRfa8F,-0.51422,-0.82591,0.78897,-0.53303,0.088877
7umkNuxM,-0.67813,-0.85991,-2.1655,0.95535,-0.75872
7vPr9ExD,0.61871,0.32914,0.49612,0.74454,-1.0883
7zNjpCzu,0.31654,-0.35681,-0.016089,0.53314,-0.55854
7ztsQNj3,0.031788,-0.54547,0.0044081,0.018066,-0.20228
86gppwMI,-0.21312,0.90341,-1.887,0.3391,1.5129
88thAGdL,-0.20047,-0.32238,-0.11652,0.042381,-0.5184
8GhU8STP,0.047483,1.5717,1.3792,1.7081,-0.51386
8NlzDcWe,0.54231,-0.85893,-0.95399,0.08728,-0.086776
8QAejdLW,-0.16233,-0.14554,0.34756,0.94865,-0.8573
8RDeFxWM,-0.72998,-0.55607,-1.4552,-0.31413,0.36227
8UXP2NBS,0.57178,-2.2699,-1.1606,-0.50224,-0.52664
8ZoV3KGT,0.20963,0.11346,0.30446,0.25024,-0.76879
8ajs2uG8,-0.16576,0.94431,-1.0502,0.72317,0.026413
8bXnz62p,-0.78329,-1.6445,-0.36952,1.2273,-2.0669
8nO1O1LG,0.41202,1.3626,2.5361,1.1901,-0.53093
8xE1p8g8,0.25541,-0.0091425,0.28597,-0.062972,0.57172
8yMDVMRM,0.83118,-0.55901,-2.07,-0.027965,-0.27627
98R5VaPi,0.50853,0.75817,0.59028,0.12267,-2.1157
9DcTz2Ua,1.3279,0.84023,0.57101,0.29166,0.9955
9G7nfUrK,-0.70625,-1.4428,0.76353,0.21685,0.21662
9O6GZ1HT,-0.058676,-0.12196,0.59885,0.17291,-0.050664
9S7fCoAM,-0.040552,0.16949,0.14007,-0.1461,-0.021925
9iQwmFJR,0.2681,-1.4984,-0.16601,0.46252,-0.22342
A3Mt6SAQ,-0.57742,-0.044035,2.3313,1.1168,0.36313
AJIsQIcV,0.21857,-0.33764,-0.14411,0.16686,-1.0595
AMHKXMh8,0.079959,1.165,2.1623,1.8068,-0.17324
ASwA2J4E,-0.32298,-0.46583,0.43906,0.31459,-0.025093
AaFvEoHq,-0.60115,-0.023466,-0.61079,-1.7155,0.264
AiIPD6hX,0.66388,-0.68598,-0.020609,1.7796,0.042297
AsIURvJS,-0.21614,0.27528,0.31381,2.1096,0.30708
AsvgbJ0C,0.99946,-0.05078,-0.78022,2.3763,-1.6051
AxEhbkCM,0.67626,-1.3361,0.23579,-0.32024,-0.35131
B7VPkIpx,-0.41635,-0.041973,-1.0632,0.293,-1.3258
BBwHqHiH,0.020731,0.53035,0.72744,0.56113,-0.30173
BMyps8hr,-0.15813,-0.48126,0.64081,0.96425,0.51184
BUHS4dQw,0.91445,-0.49528,0.17429,1.4308,-1.2005
BZB3EYWQ,-0.27443,-0.097311,-0.29745,0.79141,-0.97747
C5UPCZcL,1.3521,1.2136,1.183,1.1384,0.6604
C5gIfQbJ,0.28969,-0.71533,0.51797,0.32332,-0.81663
CDRuu4Pn,-0.4784,-0.91571,-1.0328,-0.37196,0.58776
CQhTYkqE,0.26393,0.35133,0.41615,1.7912,0.22248
CSEobMXv,0.47367,-0.58673,0.62143,0.64716,-1.1714
CYMQE4x0,0.32436,-1.0473,-0.62885,2.418,-1.5883
ChQdtl4J,-0.37528,0.030391,0.4778,-0.63719,-0.61339
ChnD1nrN,0.59255,-0.83496,-0.88267,0.0047166,-0.68406
CvtbbIcq,1.4249,-0.91219,-0.74594,0.80951,-1.0916
Cxk06b77,0.19399,-0.1394,-1.4187,1.4224,-0.13204
D3QD3ZEJ,0.74289,0.0048157,0.52313,1.2853,-0.8423
D8J5C6lA,-0.21724,0.59396,0.81987,1.2679,0.46014
DCeQwYfT,0.86954,-0.64597,0.048444,2.1762,-1.7606
DDEftkx3,-0.62445,-0.47118,-1.2527,-0.53609,1.3314
DEwCfeDW,-0.423,-1.1755,-0.41338,1.1457,-0.22686
DMkIV4oL,-0.96041,-0.023846,-1.4786,-0.24526,0.35707
DnzGfbxS,0.9381,0.19568,0.93745,1.8633,-0.51509
DoZxo6f6,-0.33409,-2.4394,-0.82298,-0.67168,-0.81547
DvhBPGIk,-0.57125,-0.43015,-1.0227,0.42454,-0.051191
Dx7GoUcT,-0.1807,0.0041932,0.17006,-0.40775,-0.49836
E5hIjohO,0.042662,-0.34782,-0.34124,2.0187,-1.2332
E6x4XGHt,0.081162,-0.56634,-1.372,-0.71056,0.28344
EDEpAzh1,0.19663,1.0869,1.1213,-0.25128,0.38626
ETGudkQt,-0.35376,-1.9992,-0.42962,-0.08927,-2.0414
EUleKrLJ,1.1403,1.0299,0.68627,0.5263,1.1818
Ehw2Jz6s,-0.48641,-0.20239,-1.2166,-0.77408,1.0166
EjqzC4zH,-0.083785,-0.3429,-1.1556,-0.34493,-0.78179
EkMZO3Qj,-0.59594,-2.0913,-0.14786,-0.016676,-1.5953
EnoNXWvU,-1.1653,-0.95012,-0.35209,0.37277,-1.0471
Epv8ANwr,-0.22037,-0.78378,0.17879,0.88349,-0.66403
Etro9j0B,0.23382,-0.13573,1.7072,1.9285,-0.34046
F3MIZj76,0.092894,-1.6178,0.053622,0.52343,-0.070437
FB8tU00K,-1.2513,0.3748,-1.3461,0.92752,-0.15003
FLhxBGMK,-0.29532,-0.060886,0.26034,0.15535,-0.58058
FRreR8ka,-0.38396,-0.36788,-0.45293,0.027655,-0.49432
FXne4oAV,0.44015,-0.43209,0.056218,1.5422,-0.69142
FaW764jk,-0.37891,-2.0289,-0.68106,1.1263,-0.61121
FeAbMXly,-0.76537,-0.27113,-1.1719,-0.89477,0.96239
FeudaFXn,0.85764,1.9981,0.12367,-0.95078,0.70544
FldUmFeM,-0.52492,2.2618,2.3611,0.24352,-0.72551
Fnv5tfAm,-0.025986,-0.17948,-0.12275,0.65116,-0.17111
FvrAd3Or,-0.88555,0.70905,0.0065922,-1.0027,1.1112
G48zHffi,0.55647,1.7356,2.3653,-2.389,-0.16599
G76zCv5N,-0.7004,-0.64049,-0.51589,-0.13598,-1.0714
G7JGUdNf,-0.27841,-0.64307,0.099533,1.1097,-1.5296
GCo6MONx,-0.43492,0.8793,0.84064,0.61208,0.76796
GE0vbpVQ,0.022814,0.015056,0.69238,0.14058,-0.58489
GN0DfOqt,-0.97186,-2.3122,0.47918,1.3655,0.22777
GNsTAb1v,-0.75361,0.51137,-0.13973,1.0507,0.30552
GPwmO21z,0.76574,0.17508,-0.30574,2.3453,-1.0398
GQYpfLoh,-0.81483,-0.051427,1.2721,0.74413,-0.50177
GR9knT8n,1.2054,-1.525,0.34597,1.8569,-1.0839
GXtFFbZy,0.045015,-0.66899,-0.78943,1.9735,-2.5692
GYvzvvFD,-0.94942,-0.59547,-1.7182,0.23294,0.7244
GemPjTJ9,-0.54623,-2.0856,0.10941,1.7333,-1.1247
GkLYRm1K,1.0511,0.89391,0.86794,-0.62911,-0.16711
GmlqP8eI,-0.32435,0.63584,-0.023161,-0.62394,1.8789
GqkIrOvf,0.0013687,-0.37785,-0.50961,1.114,-0.013197
H0fsegPi,0.25097,-0.12067,0.16372,-0.36947,-0.9347
H4dHpJjU,0.24851,0.94751,1.8427,0.54205,0.039955
H5QwJCuU,-0.33716,1.1687,0.0043505,2.3839,-2.3776
H5uwmSZ0,-0.31854,-0.27232,0.54058,0.30582,-1.9309
H8MtbVoL,0.24309,-0.26834,-0.37681,-0.0085321,-0.75727
H9JrUYnp,-0.25011,-0.33583,0.018015,-0.10168,-0.27948
HHYmmHVk,-0.67707,-0.68314,-1.224,-0.36415,0.90125
HJ5U4uqL,0.20887,1.6713,-1.6556,-0.59849,1.9253
HNQxYc4w,0.25215,-1.7768,-0.57013,0.87923,-2.1161
HQYhKHZ8,0.5636,0.19341,-1.1675,-0.0084101,-0.52259
HSCMx0MC,-0.85733,-0.19647,-1.3188,-0.33186,1.0164
HXYuE0fx,1.3572,1.8491,0.56341,0.46725,0.36909
HdKcxEWr,-1.0085,-0.065717,-1.293,1.3443,-2.0224
HecW1iCC,-0.4715,-0.59359,-0.13915,0.86304,-0.45292
HpbKB8rv,0.3537,-0.96745,-0.47966,-0.015443,0.18494
HrkoYjCg,0.16696,0.34418,-0.19104,2.5146,-1.7909
I5P2uquT,0.23638,-0.84591,-0.087522,0.50179,1.4486
I94qkDM7,-0.55624,-0.85089,-1.7372,-0.094559,0.47516
I9sQbtt8,0.14167,-0.0089933,-0.18988,3.4016,0.23156
IFxgw6ZX,-0.122,-0.72473,0.56864,0.75207,-0.83094
IPPPSyoU,-0.42248,-1.7133,-1.0876,1.668,-1.197
IQOYQubU,0.90045,1.616,0.51756,0.66978,0.093578
IYNE2SxU,0.3513,-0.82596,-0.55849,-0.13456,-0.81721
IZRFk9kN,0.97549,-1.019,0.3122,0.96994,0.60837
Iaq3v0t3,0.10859,0.80891,2.2523,0.38247,0.063608
IbVwu1t6,-0.25658,-1.3476,0.013597,0.85244,-0.27391
IcHKTLyo,0.033307,-0.54409,-0.51932,0.68967,-1.1822
IpW80wVB,0.90304,-2.211,0.27611,1.0017,-1.3428
Itb0PYUV,0.76735,1.486,0.35017,0.90717,0.29509
J8fpSwS0,-0.55743,0.4205,-0.42091,-1.5421,0.92381
JE1SlbD0,0.43221,-0.59077,0.019646,2.1332,-0.73183
JEB4McNb,0.62646,0.97682,-0.28705,0.75578,-1.3852
JEE4QVeQ,0.21864,-0.98744,0.36156,0.80514,-1.0611
JJSEU2VQ,-0.72178,-1.0257,0.70968,-0.49384,0.29588
JSsVriP2,-0.55289,0.086035,0.73384,-0.67779,1.2188
JUvQNiOK,0.20925,0.63899,-0.13892,0.14865,-0.78441
JZbrRtm2,-1.6456,2.1235,0.081489,-0.072135,-0.68203
JcE9G92B,-0.44844,-0.8879,-0.78447,1.5325,-0.021557
JnNYpXHr,1.0899,-0.081071,0.24357,0.78768,-0.25546
JzpbnOtz,-0.17523,-0.70356,-1.1971,-0.6532,0.69214
JzzUhPQp,0.57836,1.6914,0.60706,0.64698,-0.27245
K05R8dQK,0.84872,0.01352,-0.43689,1.2853,-0.56704
K17pG2mG,0.42536,-0.44929,-1.4938,-0.044975,0.96227
K8BellUe,-0.79397,0.20287,-0.24842,1.078,0.17206
KJ2eH6rr,0.49381,0.20871,1.3291,1.9463,-0.73899
KJEJ6Glk,0.44392,-0.56529,0.19493,2.4214,-0.59743
KSbO0oXS,0.60629,-1.5934,-0.67018,3.8236,0.018406
KXtvmd01,-0.90873,-0.2877,0.62934,-0.015063,-2.051
KYiJqBuJ,-0.082925,-0.35614,0.22959,0.66963,-1.0184
KmbAyTcE,-0.56003,-1.1805,-0.225,1.2717,-0.0015882
KnNyl3rV,-0.25977,-0.19039,0.44454,-0.41072,-0.13484
Kp2DG8TZ,-0.10986,-1.6881,-0.32633,0.19777,-1.5283
KqQtKWs5,0.045864,-0.28997,-0.42706,-0.071388,0.30876
Ku27g63R,0.73456,1.7886,0.2513,1.9924,-2.376
L2aTVqDq,-0.17403,0.75158,-0.0042284,1.6339,-0.072916
L5jvq6G4,-0.63914,-0.57524,-0.54206,0.094923,-0.019666
L91hYVQl,0.36093,-1.1131,-1.0335,-0.071388,-0.088411
LINAMlbA,0.45555,-1.529,-0.57149,1.0667,0.046943
LJoUNXSx,1.2777,0.28783,-1.6292,0.18924,0.56316
LLtSiyWD,-0.70695,-1.6972,-0.31414,-0.54851,-1.5412
LQJtV8kn,-0.15175,0.20393,0.32035,0.46737,-0.40611
LW9uddw7,-0.27359,-0.78223,-0.14968,2.7098,0.57295
LZ6sdBTR,0.14327,0.59188,0.78373,0.32619,-0.69594
La2Vhnne,0.82588,-0.9813,0.67621,2.158,-0.12157
LaUWSq9B,0.59307,0.3315,-0.16628,1.3024,0.24615
Lk4SfkPQ,-0.6006,0.050101,-0.78928,0.6369,-0.43901
LllC836d,0.85005,0.55958,-0.30776,0.54502,-2.4841
LuGiGeWN,-0.62323,-0.64755,-1.0677,0.38997,0.84748
LzcyHcWa,-0.7284,-0.59735,-0.64603,-0.29307,0.87222
M7veP0H4,-0.13198,-1.4909,0.52734,0.96046,-1.5546
MB8aaJUc,0.38194,-0.81816,-0.93253,1.2661,-1.0045
MDpe2zuy,0.44528,-0.73505,-0.5977,-0.31281,-0.51681
MEzdmEIU,0.0036294,0.32604,-0.36512,0.61978,-2.1904
MVnhtivm,-0.3817,-0.95964,-0.30843,0.96145,-2.2524
MYU7WDis,-0.097495,0.25361,-1.1013,-0.31727,-0.50388
MZFqh6yw,2.3706,-0.34282,1.8445,0.9666,-0.20672
Mdgy4SsO,0.0642,1.5629,1.7289,1.7642,0.74212
Mj8awnzy,0.098195,-0.75255,-0.17513,-0.24935,0.23226
MpFPbUJy,0.50327,1.6841,2.1787,0.42034,0.2137
Mqk7MFBM,0.57918,-1.291,0.45708,0.40602,-2.0217
Mqs2t1Eo,0.69579,0.4488,-0.26285,0.5541,0.12749
Mv3jFVxp,0.11695,-0.39628,0.33657,0.21706,-1.76
MxODTXvA,-0.16533,-0.16325,-0.17605,0.36982,-0.3179
N46PbpPM,-0.1904,-0.26144,-0.95057,-0.61375,1.1942
N5S5F9Gk,-0.71871,-0.63242,-1.2148,0.091675,0.095886
NLDg5fqw,0.67442,0.32162,-0.66478,-1.0286,1.8225
NOho2ZiM,1.0683,1.7035,1.0102,2.0959,-0.045048
NUuY7PFU,-0.22381,0.46705,1.4523,1.6816,-1.0729
NV1e8AEO,-0.63147,-1.2605,-1.1192,-0.093823,0.94323
NZLXROKC,0.38201,0.305,0.20817,0.75214,-0.41949
NaJo7C6o,0.9535,-0.93237,0.28099,1.4402,-0.47216
NgsyGkrO,0.84522,0.44569,0.43732,2.7704,-1.1445
NjOx4Zpo,0.27127,-0.30657,-0.29791,3.7286,1.8046
NmQoI7x0,1.4552,1.9059,1.2533,2.2138,-0.69247
No4wkdLS,0.58205,-0.94277,-1.2546,-0.053706,-0.2477
NouMwhOf,0.080716,-0.52601,0.14431,1.1583,0.302
O6YAWd8C,0.020736,0.5436,0.32866,0.49445,0.079242
OAXVphSh,2.4106,-0.1948,1.6976,0.7108,0.02781
OJBBhb6Q,-0.22689,-0.23388,-1.2173,-0.58787,0.37659
OSIQXImL,-1.5838,-0.25055,-0.48504,2.3468,-1.4791
OUUFc5Zz,-0.43013,-1.3408,0.083386,-0.23561,-0.30431
OVk1lquT,0.66871,0.95609,0.45656,3.0939,-2.0056
OXdRxjzz,0.73211,-1.267,-1.1603,1.7551,-1.5961
OXxW2ekf,-1.2287,-0.58141,-2.1755,0.29862,-0.043101
OXz5OpqR,-0.54467,-0.60027,-0.39664,1.7623,-0.66515
OcBFW1AX,-0.13348,-0.71997,-1.3945,0.96892,0.49252
Of9V2rpt,0.45376,0.19063,0.10233,0.36486,-0.49731
OfLxPhbG,0.20078,-0.084407,0.33931,2.599,1.6061
Ojx2vi48,0.063466,-0.90766,-0.90346,-0.11757,0.0054523
P3M32iuT,0.40344,-0.67198,-1.0916,-0.071388,0.053455
P7olVzrO,-0.127,-0.74373,1.7777,1.0125,-0.84633
PAPHErnv,-0.18758,-0.37114,-1.3945,-0.18754,0.42108
PBjEtfXb,-0.7264,-0.21139,0.42204,-1.3604,-1.8184
PZGpoBBj,0.56117,0.56102,0.61322,0.46869,-0.85936
Pc2RrxXS,0.48397,-2.0775,-1.1368,1.6869,-2.2827
PcHQ4FOu,0.079112,-0.45763,-0.61882,0.16396,0.087113
PeNyTOVN,-0.22671,-0.44738,0.53123,0.46887,-0.2416
PhUPSU53,-0.18796,-0.15621,-0.23576,0.25075,0.13175
PmUNeV2O,0.29856,-0.60185,-0.9998,-0.28792,-0.47498
PoDJ0uvK,0.91351,0.6131,0.37211,0.78351,-0.42149
PsUJdJdg,-0.45741,-0.51895,-0.89219,2.4218,-0.34777
Q3xLFx1f,-0.10151,1.3554,0.51665,-0.10027,-0.3044
QBGxCvdM,0.070885,-0.20204,0.19656,1.2029,-1.078
QCEPyu6L,-0.72169,0.24054,-1.4034,1.2881,0.24518
QEfwec4s,0.42776,-0.71862,0.97333,2.3262,-1.0853
QZ87Nnr3,0.16366,-1.8969,-0.43011,0.30897,-0.64533
QlyGN9jv,0.43238,-0.74524,-0.26383,0.38745,-0.61821
QqgWE1ny,0.042774,0.019451,-0.24016,0.78668,-0.41971
QrjjBpZd,0.45708,-0.72232,0.048716,0.67135,-0.86935
QsaBiX7V,0.036449,-0.17258,-0.0718,0.14632,-0.24012
QtBKJuZk,-0.12375,-0.89106,0.20479,-0.20112,-0.92263
QtPRO8OJ,0.045694,-0.40544,-0.4843,-0.44544,0.10148
R8XcsFnp,-0.16863,0.49596,-2.5048,-1.1498,2.1222
RROfRt9z,-0.39152,-0.39013,-0.4642,1.8598,-0.93824
RTcbiDGq,0.094725,-1.5964,-0.79079,1.2948,-2.9175
RVidM9g0,-1.4026,-0.23334,0.19552,-0.87426,0.73945
RZnQSH19,-0.21385,-0.10901,-1.3281,-0.63958,1.718
Rc4UK7fT,-0.64051,-0.050752,0.56605,0.16593,0.7197
RcKBKh6B,0.092917,-0.35319,0.78756,-1.4418,-0.61628
ReM5kDa5,0.43627,-0.21398,0.49612,0.51191,-0.86256
RfntsotG,-0.24143,-0.50452,-0.11664,-0.43502,-0.84908
RiXMlzXD,-0.17358,-0.62799,-0.66692,0.0065796,-1.6876
Rik83O3m,0.56834,-0.68026,-0.89141,0.079231,-0.18385
S3PCzDzO,-0.076086,-0.63979,-1.2436,0.61569,-0.33414
S77BviOJ,-0.011466,0.071214,-0.56422,0.050225,-0.059377
SDdvtktF,-0.16655,-1.4085,-1.5886,1.4353,-0.6817
SHs1AyfM,0.33259,0.40433,0.99128,-0.020608,-0.2995
SO4zQy9k,-0.21188,-0.45662,-0.59284,0.48994,-0.26982
SOOBCoiG,0.10354,-0.34976,-0.21001,-1.2287,1.9973
SXkkPB7A,-2.357,-1.0015,0.91823,-0.84948,0.17395
Sa93dGqq,0.35169,-0.28257,-1.2754,1.2511,0.3486
SonIG72a,0.40523,-1.4205,-0.44104,0.94506,-1.2976
Suf6hIBc,-0.18683,-0.30489,-0.35119,-0.35905,0.53164
Sx2JeSRz,0.72361,-0.24423,-0.09714,1.5119,0.43871
T1Tlftr4,-1.0693,-0.38841,0.51269,-2.2375,-0.49774
T7ulR4ci,-0.31457,-0.87206,0.10453,-0.20968,-0.33387
TA1NB3Br,-0.96966,0.061064,0.36621,-0.05024,-1.7815
TFZUskaK,-0.98372,-1.0477,-0.15048,0.78922,0.084255
TNL8HGWZ,-0.10198,-0.77697,0.25416,0.50891,-1.0974
TZ8z1GSF,0.27118,-0.822,-0.67517,0.042664,-0.22809
TqhRvkJJ,1.303,0.94285,1.4335,0.11875,-0.41848
TtJCUiY4,0.0012953,-0.84633,-0.10542,-0.66863,1.0758
TwDq0lua,0.49905,-0.54943,-0.11628,0.25483,-0.47655
Tzyf02sI,0.16319,-0.41043,0.11645,-0.64468,1.9454
U3yI6ZS5,1.3682,1.1271,0.64557,1.2007,0.27562
UBLnXZAN,0.75788,-0.66273,-0.020082,1.2788,-1.0728
UBWDzleg,-0.11195,-0.33519,-0.3792,2.2271,-1.2259
UBqkX6SY,0.3437,0.6239,1.2969,1.3392,-0.71166
UCIAi1Aj,0.18663,-1.2278,0.17934,0.86511,-0.80866
UPbXGvCS,-0.093641,0.10374,0.42589,0.85288,-0.83296
UeWm1l9F,1.0159,-0.35789,-0.33554,2.4274,-0.25438
UhucscY7,0.14557,-0.22639,0.68491,0.60265,2.773
Uri1SvHV,0.25673,0.080051,0.59339,0.71165,-0.67455
UzxipGJS,-0.68023,0.1836,0.49657,-0.03894,-1.8302
V74zfaAQ,-0.018751,0.16734,0.52843,0.94866,-0.9812
VBPxBLTh,0.11967,1.4881,1.0991,0.91382,-1.1991
VLG7CXYS,1.0518,0.30164,0.025238,0.76732,-1.1713
VNk52SpF,0.9026,-1.6554,-0.83193,2.1479,-0.1991
VOREKsok,-0.94904,0.77048,-1.547,-0.54973,1.8413
VRhTr5pX,-0.87498,0.080208,0.53562,0.33183,-1.6885
VTcG4Kcw,-0.89267,-1.8879,-0.34473,-1.6973,-0.5712
VeKiWSbS,-0.11712,0.16347,0.71805,0.36177,-2.3927
VnU8nJHU,0.24896,0.26847,0.30323,0.074211,-0.59291
VueNCxYv,-0.85027,-0.14916,-0.4358,-0.26142,0.012793
VxuQTRUl,-0.0049511,0.74587,0.3471,-0.38467,-0.56184
W5lgaocA,-0.0091376,1.0267,0.43924,1.3995,-1.7091
W5mMq9Ef,-0.81519,0.1161,-1.4573,0.33897,0.12101
WDhNqFpS,0.34861,-1.0203,-0.39179,1.3184,-0.69073
WE6n1kZi,0.73388,0.88598,-1.5619,1.262,0.9826
WFk6r3vA,-0.026562,-0.12883,-0.66807,-0.16471,0.012775
WFyIrsUR,-1.4845,-0.53444,0.191,1.2414,0.73681
WG6ZAsqR,-0.94402,-0.32067,-1.5413,-0.53468,1.1156
WMq3CZQk,-0.13704,-0.65836,-0.89569,2.5137,-1.5183
WRskmGjh,0.49147,-0.64643,-0.83406,0.07456,-0.62308
WXijSglj,-0.24519,-0.66124,-1.2621,-0.45058,-0.8669
Wc0stQgu,-0.10893,-0.57553,-0.3067,1.0889,-0.4939
WewoSCUB,0.36884,-0.88026,-0.79235,0.091743,0.11097
WuHuhHWJ,0.063088,-0.53353,0.66316,-0.85278,0.10983
Wv7EBtZb,0.47079,1.7183,1.0123,1.3459,-0.66024
WyPlxDn0,-0.34731,-1.8425,-0.27991,-0.17303,-0.37077
X3WqoSNN,0.76663,1.6553,0.34211,0.6884,0.55459
XDhyP9KB,0.34828,0.13883,0.11247,0.68992,0.010785
XQxhDRMG,-0.67778,-0.72528,-1.9258,0.57681,1.697
XjLNAwxW,0.24238,0.16901,-0.18349,0.92376,-1.5046
XjfVQbXd,-0.083286,-0.94943,-0.25307,1.9422,-1.4116
Xovczbf6,-0.86197,-0.13021,-1.2157,-0.51161,1.2609
Y8H4onBf,0.013829,-0.07567,-0.071059,0.13487,-0.33559
Y8YgzSZ9,-0.51482,-0.8272,0.80539,0.60988,-0.032663
YC4PNV20,-0.24396,0.1041,0.17275,-0.10838,-0.43753
YDHSCRdd,1.3934,0.73439,0.18127,2.4545,-0.1337
YIJ87aME,-0.15635,-0.64689,0.15832,0.44147,-0.70523
YKvT4dFv,0.12844,-1.7715,0.469,1.7603,-1.3037
YNebALR2,-0.48883,-0.042503,-1.342,0.46022,1.1842
YNrnqFyb,-0.50237,-1.2672,-0.10073,0.79199,-0.40997
YUZ4lR3m,-0.29306,-1.4972,-0.12995,0.52187,-1.2475
YYLvjoVC,-0.33931,1.5347,1.3768,0.6978,0.58094
Yb8OtMb2,0.21789,0.14468,0.046918,1.175,-1.0638
Ycg4lTYw,0.15861,-0.64646,0.52376,0.30733,-1.3353
Yfk6tekH,-0.39168,-0.19206,0.069177,1.1681,-0.59683
YoSfgmR6,0.59956,-0.31005,-1.1618,0.34014,-0.08982
YpzFvexy,0.51795,-0.80223,-0.28019,0.54878,-0.55706
Yxqppfa3,0.19241,-1.2032,-0.068241,2.0553,-0.087277
Z16jTUvP,-0.57175,-1.0406,-0.24455,0.54903,-0.66266
Z2BdCCbJ,-0.23484,-0.59325,-0.43009,0.2567,-0.16073
Z2JJMM6V,-0.56676,-1.0177,-0.2055,0.18006,-2.2197
Z5jE1OB5,-0.3345,-0.42723,0.11221,0.37899,0.14009
ZFsIqYxA,0.16333,0.1704,0.18491,0.32348,-0.94568
ZHDVsoRh,-0.65556,0.06842,-0.61194,0.67105,0.76347
ZSmfu2Fc,0.049532,-0.27813,-1.3633,1.3401,-1.8838
ZU8YXF3H,-1.0798,0.077406,-1.3741,-0.96088,1.5014
ZXKaNy6Z,-0.81782,0.21578,-0.17744,-0.1732,0.23938
ZbYLo0zK,-0.34772,-0.60132,0.67632,-0.10219,-0.34791
ZedN8Gcn,0.60122,-1.0362,0.32438,0.39762,-0.32317
ZgD4Dau6,-0.23999,-0.45982,-0.70443,1.1237,0.16516
Zgzf79LA,0.24067,-0.69779,-0.88572,-0.32519,0.25991
ZjqzxDOF,0.01898,-0.33663,0.16476,1.4526,-0.70439
ZsZ5aDpq,0.78366,0.15481,-0.058849,2.4812,-0.46663
ZtyqE7If,-0.70471,-1.0703,-1.5932,1.8726,-0.42062
ZvUgz01f,-0.66352,-1.3012,-1.0046,-0.85265,0.37159
ZwrhgdQV,0.098468,-0.52021,-0.47392,1.552,-1.1793
a7bhJGBU,0.90102,0.67541,0.62565,0.5511,0.28273
aHpv6KzP,1.5517,1.2652,0.86693,0.79463,0.40988
aINzEBVN,0.012418,-0.9139,0.072981,0.41181,-0.82568
aP9EtTGF,0.49726,0.75052,1.4952,-0.39438,-0.11185
aV6EhtSL,-0.02326,-0.9883,-1.4435,-0.13287,-0.86798
aVZsXKoH,0.24503,0.6608,0.70795,-0.17227,0.60561
aYVnVJvc,-0.11494,0.27242,0.58449,0.54626,-0.22946
abCzN1zx,-0.34923,-0.12344,-0.49858,1.1609,-0.39655
ae7sMiB4,-0.52063,-0.14969,-0.8413,0.61023,-1.0707
afsVuCGV,-0.83804,-0.80789,0.93604,0.71064,-1.4507
aiwBQETI,-0.015831,-0.47182,0.44771,0.71573,-0.84541
aiyli4EI,0.71776,1.6477,-0.55864,1.4099,-0.43345
apJ7NmzD,0.65431,0.89378,1.6814,1.7265,-0.49172
atVjNMtQ,0.52562,-1.1696,-0.36509,0.76486,-0.67272
b5GirVGV,-0.89908,-0.23004,-0.86312,-0.56455,0.26428
b9SpMjNB,-0.2811,-1.4634,0.48373,0.30276,-2.017
bAFs37yy,-0.46992,-0.83813,0.54133,-0.63645,0.48719
bDia1hHV,-0.559,-1.5433,-1.4099,1.8204,-0.61366
bFkv5Mtr,0.23582,-0.41457,0.23713,0.3604,0.085479
bHe2IXgA,0.70423,-0.85619,0.018851,0.66588,-1.0588
bWX3vUm5,-0.065592,0.19395,0.69413,0.54626,-0.45888
bat8tcGs,-0.68172,-0.68223,0.18046,1.3439,0.46135
bfjej4wu,-0.047257,-0.24072,0.09513,0.028909,-0.86515
bh04YDiP,-0.037865,-0.071762,0.42011,-0.49772,-0.065171
c110Fdc8,-0.58178,-0.12319,0.61182,-0.14409,-2.2586
c32GUzMa,0.069236,-0.11024,-1.1338,0.6264,0.4154
cT6uU0B0,-0.15003,-0.52338,-1.2256,-0.58914,-0.035816
cWXCiFwh,0.23712,-0.48028,-0.66846,0.65982,-0.031525
ceNvS3yd,0.72693,-0.95112,-0.90252,1.2774,1.1283
cmwdt4Av,0.44386,1.0307,0.86768,0.4504,0.60221
cn4EHsup,-0.91077,-1.8806,-0.68771,2.0112,0.047792
crVOGGTT,-0.20731,-1.1203,0.65863,0.71434,0.10257
csPEJ1E5,-0.29247,0.22921,0.35801,-0.031333,-1.1369
d0UrRtMk,-0.74993,-1.0496,-1.1763,-0.8225,0.64253
d6LU4G4I,0.23421,0.20445,-0.076775,0.34116,0.065746
d74T1DVv,1.3299,0.59512,-0.82697,3.2304,1.2191
dR6rM1tQ,0.11922,0.2123,-0.14794,1.006,-0.10045
dUNxOoqg,-0.18613,-0.65447,-0.44859,0.89327,0.070697
dUnlyhj7,-0.44199,0.19593,0.87294,0.40688,-0.23932
dVDlnZQ6,0.64744,-1.0887,0.85318,0.31791,-1.0457
dVT26GDu,-0.80905,-1.4915,0.27044,0.40121,0.46192
de43ycXY,-0.76506,0.87628,0.20718,0.26662,-1.4215
dfIn7m9z,0.0073674,-0.92632,-0.85308,0.73611,-0.2749
dhmb9ZY9,1.9953,2.13,1.3055,1.4054,-0.012698
dn8kCuyf,0.057103,-2.0061,0.36352,0.25234,0.64767
dpcquvWW,-0.32137,-1.1013,0.65311,0.60303,-2.1303
dqcbIMyr,0.57096,-0.959,-1.3086,0.037703,0.2662
drWgsBf5,0.34129,0.5356,1.1801,0.45375,1.0787
dytx0HSe,-0.8123,-0.43618,-1.6248,-0.416,1.3143
e4KkkIha,1.124,1.4229,1.2133,2.1274,-0.60928
e9YorH4m,-0.35807,0.79631,0.14828,-0.19263,3.0707
eB9gVQ0R,-0.49165,-0.36167,-0.297,-0.63983,-0.40552
eMhLFqU6,-0.25975,-0.16399,-1.4436,0.67481,0.19598
eMllg1qm,0.80682,0.096646,0.35695,0.93553,-1.6579
eNPunZ9i,0.58609,-1.5322,-0.37549,1.7696,-0.51666
eS5BSM4J,-0.57338,-0.55769,-1.4659,-0.74337,1.0639
eVGMFoOI,-0.05462,0.51853,1.0043,-0.79318,2.8951
eaIwb3rG,0.63742,-0.042536,0.73462,-0.92095,-1.1475
eyzw8Vis,-0.95552,1.8084,-1.1812,-0.53055,1.4329
f04Ke2bN,0.87612,-0.93565,0.047614,1.6888,-1.7331
f4GA0te1,-0.26316,-0.2871,0.58894,-0.58753,-1.0997
f7bd91h5,-0.34191,-0.65985,0.27459,-0.17614,-0.4141
fB7z9ndr,-0.55872,-0.79473,-0.75145,-0.55379,0.67966
fEe7AWFA,0.28572,-0.48811,-0.49344,1.2494,-0.5846
fJJIbgY9,0.12246,1.2015,1.145,0.043137,-0.014013
fQBURMvg,-0.63352,-0.2223,-0.97804,-0.10855,0.22481
fS0HpOub,0.013319,-0.23367,0.35691,0.39002,0.38934
fTDXauuk,-1.7713,1.9647,0.25073,0.087651,-0.38224
favPNA2N,0.17179,-1.4182,-0.298,0.28687,-0.42895
g3Fv0U4k,0.28374,-0.86697,0.65254,0.73412,-1.0973
g5PKo2E2,0.52105,-0.15029,0.57358,1.313,-1.0672
gbjnD5fe,-1.4791,-1.0882,0.18473,-0.39869,-1.3264
ge9zqXCv,-0.17535,-0.45871,0.53545,2.0223,-0.45244
geeqJpSE,-0.94772,-0.69429,1.03,-0.39395,1.052
gqy1J2RS,0.16653,-0.45695,0.61737,1.568,-0.91648
grlUtS3H,0.57443,1.5502,-0.31686,2.3323,1.4562
gx965KYj,-0.092876,-0.5236,0.48979,0.38201,1.6045
h3F08Vjm,-0.61987,-0.65624,-0.92579,-0.23307,0.40109
h6FQG8Iy,-1.1933,-0.74897,-0.085293,-0.71449,-0.88217
h7ftM8b3,0.37909,2.4639,2.0268,1.4755,-1.556
hLrCHXZv,0.20794,0.17948,0.83138,1.015,-0.70987
hQ6VBuFx,-0.14682,-0.23604,-0.46067,-0.7324,0.24534
hYoR2y7w,-0.016707,-1.0928,-0.072808,1.7145,0.03386
hf65yZkM,1.3154,0.48074,0.84622,1.2462,0.57168
hjuwe1x4,-0.11041,-0.28641,-0.48,-0.11143,-0.36615
hyINlsFR,-0.38125,0.62897,0.98493,0.20676,0.73031
i0Qlm9Bv,-0.32776,-1.0727,-0.42128,-0.57026,0.016665
i1VxfxMb,-0.53113,-1.1649,0.56433,-0.87669,-1.1339
i2l6jXNP,-0.43007,-0.80412,-0.027718,0.54912,-0.038662
i4FgPZv7,-0.27854,-2.0927,-0.6768,-0.97009,-0.37912
i7XtIkSi,0.042826,-0.60742,0.3945,0.65556,-0.75598
i9z346Ut,-0.4619,0.4606,-0.62969,1.2941,-0.16764
iDOat4cZ,-0.67078,1.6934,2.0234,0.64392,-0.22921
iNv6RoSO,0.87525,-1.1318,0.49798,0.98728,-0.73103
iSL9NYzy,1.8379,0.41013,0.41667,1.5584,0.51359
iSqVc1r8,-0.84104,0.40278,0.28823,-0.094219,-0.0085412
iYZMftt6,-0.71416,-1.1247,-1.1983,1.3337,-0.84483
ieTPaa3c,0.40639,-0.39252,-0.15279,0.053961,-0.89006
if7BmzU0,-1.0395,-0.64655,0.54273,-0.27475,0.10037
ihNz5bmx,0.78566,-0.86755,-0.50808,1.9047,-0.98751
ikJXKdIN,0.20238,-0.64716,-1.1117,-0.18915,-0.42706
iq2kxikN,0.13338,-0.50859,-0.046889,1.1049,-1.228
iuZEDJK7,-1.1131,-0.58367,0.84185,0.24748,0.32506
iyF8gVT7,0.034724,-0.24138,-0.0087352,-1.425,0.48701
j06qdQ0V,-0.12149,-0.92846,-0.08643,0.97361,-1.1332
j7hl8svO,-1.1144,-0.62666,-0.0029081,0.97212,-0.50517
j8hMoJUN,0.51914,-0.67951,-1.2479,0.11763,-0.47943
jNaFasbV,-0.37134,-0.64917,-0.57736,1.7387,-0.029475
jVVHeYHT,-0.80195,-0.60908,0.49965,0.23531,-0.89857
jXm4ySvK,-0.66673,-2.0241,-0.0020313,-0.11267,-0.9763
juO5ii5l,-0.28698,0.94179,1.326,1.1433,-0.066775
k2hdEBsU,0.10148,-0.70169,-1.2055,-0.091369,0.56067
k3ynMfhN,0.36519,-0.086149,-0.95162,1.2455,-1.8001
k9C9yBtr,0.23395,0.22151,0.68483,0.67368,-0.26955
kAKRvcRo,0.17373,-1.5037,0.4748,0.17766,-0.62892
kBi3R2oC,-0.17968,-1.0192,0.44015,0.98777,0.16195
kDWmnsXe,-0.12875,0.16123,0.44789,0.1097,-0.42471
kSGBd2Vh,-0.29695,0.079,0.52649,-0.20202,0.54611
kT0miHPT,-0.56296,-1.8718,0.62409,0.13405,-0.52051
kaW0TfRn,-0.20042,-1.015,0.0029562,-0.50763,-0.64587
kmg3SowO,-0.47887,-1.1403,-1.3519,1.8211,-0.7448
kpxKSlnF,0.7259,-1.1924,0.5826,0.66272,0.23159
ku2cn1MV,0.21525,0.34101,-0.060961,2.2547,0.14313
l1su5HU9,-0.40019,-1.3101,-0.81926,0.90974,-0.68063
l8Tg2RvD,-1.0146,-2.1007,-0.0094989,-0.59527,-2.0019
lB6NsVOc,-0.23237,-0.085242,-1.1127,-0.71434,1.3526
lEcdVyKk,-0.31097,-0.87568,-1.3962,0.092617,0.16061
lH4TasGl,-0.86834,0.19207,-0.22044,0.039956,-1.2664
lO9aggHW,0.16572,-0.34718,-0.27172,0.93098,0.086104
lW3m9Vzu,-0.52463,-0.95456,-1.0879,1.0915,-0.027676
lYLseGDP,0.63144,1.0405,-0.31863,-0.90009,0.15607
lcOnCdZi,-0.20663,-0.81953,-0.53312,-0.28199,-0.51292
le9YGwON,-0.77036,-0.31738,-0.37289,0.63152,0.38278
llMvu3TX,-0.33424,-0.19322,1.3315,1.1589,-0.3663
lnHh2jFO,-0.70737,0.27187,-0.29765,-0.13412,0.045893
m07CVXd4,-0.44392,0.015378,-0.76624,-0.95066,1.4696
m1lPk91z,-0.10553,-0.85706,0.13199,-0.33573,-0.27623
m9IQdmwa,-0.22444,0.13402,-0.9236,-0.75508,0.16896
mG9BRy5x,0.24043,0.30728,-0.19597,0.23089,-0.13858
mVHXnama,0.42641,-0.19025,0.15694,0.39707,-0.98196
mXyrR6nU,0.082647,0.61619,-0.60438,-0.49882,-0.46622
mbzNdxNc,0.83423,-1.633,-1.5615,1.3521,0.05565
mntH7g3L,-1.4432,0.76384,0.019031,-0.22515,0.10267
msRTXP3H,-0.42449,-1.4233,0.3969,0.28843,-0.89368
mxBjvIPR,0.48445,-1.229,0.068095,0.22922,-1.272
n8Opmfbz,1.6416,0.31497,1.593,0.30149,-0.9612
nOkgU29Q,-0.26129,-0.66387,0.17167,1.4399,-0.64786
nhttf7VM,-0.79034,-0.91043,-0.0047892,1.8852,-1.5822
njLbXYa3,0.13048,-2.38,-1.328,1.3982,-2.7555
nwkIpzmh,1.0722,-0.73348,0.49489,1.8746,-0.19854
nzB1R9Zg,-0.26647,-0.028589,0.69258,-0.54874,1.2502
o1rZRI84,0.0096409,1.4009,1.7688,-0.084613,1.0382
o7q5Mbty,-0.60781,-0.7853,-1.0613,1.2016,-1.2526
oCBvysqB,0.12144,-0.70824,-1.0167,0.42347,-1.0216
oDmycTPH,-0.23009,-0.64775,-1.0374,-0.23232,0.64268
oFAXZvQv,-0.053612,0.16504,-0.46154,-0.32325,-0.016999
oHE3M1zX,0.5298,-1.0697,0.012133,3.0075,-2.7058
oMhVmSpV,0.47175,-0.92826,-0.92839,-0.26646,-1.0525
oNsDqVbi,-0.39884,1.0574,1.3655,0.1816,-0.70552
oYAJqQk8,-0.084663,-0.76303,-0.39541,-0.088367,-0.11292
ob5Kb6dW,-0.63144,-0.18911,-1.181,-0.3855,-0.13463
obnzqs79,-0.12175,-0.067459,-0.75486,-0.24301,0.26331
oncLcgRP,0.50547,-1.0861,0.82447,0.86077,-2.8561
ooWVYaAe,0.23718,-0.75537,1.1408,0.5913,-1.2842
osdyOUnV,-0.3036,-0.10105,-1.1694,0.73507,-0.24134
p7H9CzCv,0.39019,-1.7548,-0.16434,1.526,-0.2824
p7U9hVhY,-0.18454,-0.66736,-0.33546,0.12116,-0.35927
pE6Cf1RV,-0.92673,-2.3378,0.1707,-1.7916,-0.57761
pI7qzotI,-0.0030799,-0.7175,-0.15395,0.56475,-0.36617
pJrIA4sk,0.081801,-2.0082,-0.76148,0.45301,-2.7501
pXne2CLZ,-0.61023,-1.292,-0.265,0.54756,-0.7152
pZMcDIOS,-0.38148,-1.3628,0.60541,-0.55797,0.98907
pavfp3cc,0.94031,0.059923,0.67389,0.84983,-0.61756
pbQdC5L3,-0.33141,0.077048,0.45307,0.22188,-0.76647
pgj7aAFP,-1.0481,-0.38975,-1.0258,-0.46602,-0.61241
pxg8G3ed,-0.59022,0.92352,-0.0014508,-0.094393,1.1469
q36Npk6l,-0.67298,-0.37419,-0.76574,-0.37119,-0.62384
q4aDOVvq,0.79973,-0.018231,0.66466,2.3697,0.7353
qGmfR9CN,0.004638,-1.3497,-0.7046,2.0111,-0.10534
qJ51ODpA,0.84974,-0.73291,-0.81245,1.7277,0.13172
qQX3cs3I,-0.80101,-0.08465,0.19335,1.198,-0.42065
qXeIxPb8,-0.42752,-0.66536,0.63131,-1.0752,0.16993
qYQ4MShM,-1.187,-0.57463,0.57968,2.5281,-0.59794
qa0etnhK,0.9141,-0.10259,0.714,2.4786,-0.48909
qbL4sboq,-0.4534,-1.6961,-1.0406,1.101,0.56911
qbYrsWHq,-0.18854,-0.61557,0.035378,1.308,-0.3896
r1zmcUqQ,0.57194,-0.28882,0.9409,1.3878,0.27514
r54iHeQC,-0.074537,-0.87815,-0.048806,-0.13895,1.4498
r6xrAnQV,2.7541,-0.62185,1.9979,0.048307,-1.1088
r9HxnQDg,0.67531,-2.231,0.40532,0.14025,0.5478
rG8Puuf9,-0.18792,0.84322,0.55731,0.9941,0.0033934
rGuiefuR,-0.035025,-1.6742,0.35336,2.5861,-0.62662
rJ19OhGP,-0.86546,-0.1213,-1.1347,-0.42219,1.4159
rOCYepHd,-0.5198,0.63818,0.59264,0.70424,1.6675
rQJaOPFI,0.45308,0.30099,0.55951,-0.052954,-0.040526
rQhZtZeh,0.033997,-1.1464,-0.81795,-1.6004,-0.39572
rapmok0w,0.099088,-0.7135,-1.5649,0.84211,-1.0521
rgzfnPVu,0.33732,-0.82639,-0.42216,0.95924,-1.1103
ri4qhb1S,-0.21757,-1.5175,-0.49373,0.0065507,-0.84134
rqpFYzff,-0.099907,-0.17023,0.24434,-0.64563,-0.95453
rrs22coX,-0.25475,-0.35926,-0.79948,-0.093683,0.45
sEeUCQLc,0.34671,-1.9817,-0.022616,-0.1719,0.11211
sHScwqQl,-1.103,0.52659,-1.4796,-0.68217,1.0926
sNC7DiAt,-0.26939,-0.18895,0.37156,-0.52979,-0.53743
sNK2TSs3,-0.36712,0.38625,-0.98067,0.13858,1.3163
sO7Su6uw,0.35161,-1.1177,-1.2882,0.10402,0.039819
sOWZx89o,-1.088,-0.60977,-0.52204,-1.0049,1.7542
sPbRcPjC,-0.70438,-1.0183,-0.43334,0.84845,-0.22179
scVUfTKI,0.89205,-0.69755,-0.57512,0.97564,-0.53411
seRaGeVv,-0.18123,-0.87809,-0.642,0.37282,-1.2852
sgtwiYWi,-0.79918,0.59919,-0.93887,0.091901,-0.10166
sjmLHcT6,0.0069113,-0.13788,0.010849,0.1944,-0.047782
skZUZZGS,-0.4137,0.26433,0.47178,-0.46129,-0.33214
suAmzADX,-0.42325,0.26025,0.083431,0.24657,-0.61708
t4GWLqlO,1.4981,2.4678,2.1025,0.17917,-0.80307
t7gy6Jyy,1.4253,-0.39117,0.27626,-1.3704,0.37625
tBadzH60,0.37931,2.214,0.28884,2.2381,-0.62004
tXUWm0hp,0.62655,0.48192,-0.33268,2.3611,-0.77681
te6UPPxf,0.25933,-0.95955,-1.2623,-0.010441,-1.1667
ti2lamkL,0.24909,1.4556,0.95376,0.040708,0.98173
tr0lpwuU,-0.19197,0.6159,0.61085,1.1413,-0.28634
ttdB5C73,0.76575,-1.0883,-0.31035,0.90192,0.23206
twS8YZu9,-0.41527,-1.2671,0.78283,-0.30545,0.49817
tx68W34H,-0.38012,-0.054915,1.0414,3.0588,-1.0904
tyQSX4mY,0.12337,-0.91076,0.03781,-0.0020887,0.18941
tylKCRc0,-0.95742,0.37885,0.038345,-0.01021,-1.7697
u1544WUo,-0.18124,-0.41626,0.34148,-0.3582,0.16189
uAw9an0d,0.30516,2.0837,2.2705,0.44498,0.55059
uLZAEXMG,0.7719,1.0246,1.285,0.57288,-1.0157
uMwe1s7I,-0.97762,-0.54507,-0.47989,1.6176,0.51455
ufhGeV3q,-0.082465,-0.10214,0.21551,-0.47214,-0.50228
uhAeGBHo,0.22928,-0.86346,-0.76721,1.1798,-0.24472
ujHNlqpw,0.27562,1.9968,3.0962,2.0434,0.18069
ulV6kuhB,-0.14154,-0.49983,1.6025,-1.3276,-0.95558
uohEnNEK,0.64131,-1.5444,0.22836,0.35523,-0.70149
v1lhA8I4,-0.17039,0.39642,-1.159,-0.61924,1.2742
v3JzigLI,0.26681,-0.063582,-1.0972,-0.25332,0.41468
v5IwjyIg,-2.1337,-1.6059,0.39319,0.67704,0.67791
v6lp5TK1,-0.53848,-0.40774,0.084872,-0.83334,0.90393
v8vOaaWq,0.95667,-1.7976,0.22964,1.7363,-1.6996
vAYKtoil,-0.53269,1.163,-0.69488,1.0027,0.38537
vGTNQa6G,1.5122,-0.17405,1.2611,1.2752,-0.90681
vQzNxHoL,0.5469,-0.87663,-1.2766,0.45658,-0.48671
vfZGBUJm,0.58563,-1.3245,0.26157,1.2526,-2.357
vlooVUoT,-0.32416,-1.0217,-0.12375,2.0176,-2.0661
vrACvd4O,0.55423,-1.9716,-1.2539,1.8958,-1.4576
w8hdjLwb,0.079378,-0.98823,-0.59335,0.85422,-1.2168
wAntv4gH,0.2567,-0.50382,-0.083153,-0.35774,-1.5436
wIUL09q0,0.87788,-1.2212,-0.90731,-0.043394,-0.26327
wOzx7Fgz,0.065633,-1.7023,-0.58017,1.1842,-2.0115
wPhjhCJQ,-0.63146,-0.63706,-1.2149,-0.14084,0.78402
wQSWWmYB,0.22842,-1.908,-0.078672,0.60164,-0.11346
wdIMrXwy,0.51935,2.1406,0.31982,0.85674,-0.38247
wiL9npQc,-0.56718,-1.2763,-0.70893,-0.64503,0.031462
wnU95Cxn,1.4149,2.2051,1.8718,0.54038,-0.30758
wpJbbjJs,-1.0103,0.20579,0.059257,2.435,-1.3226
wsOWTAbI,0.52078,-0.037987,0.25911,2.1229,-0.99669
wtdBcU3U,0.52704,-1.1917,-1.2402,-0.1116,0.13554
wuKXVxOc,-0.18977,0.11818,-1.5181,0.028807,1.3092
wyzadAt8,-1.141,-1.3852,-0.016162,-0.31281,-0.12284
wzaKzYwi,0.11804,-0.64878,-0.99247,-0.24294,0.69062
x6GCk4EV,-0.5631,0.087601,1.2688,-0.051419,-2.2821
x6lUi3vf,-0.47386,0.047768,1.5928,2.4437,0.96491
x8mwDHv9,0.70389,-0.96237,0.95382,0.75014,-1.8151
xIYm6puH,0.02406,0.55335,1.2815,1.2427,-0.19362
xO6UdpsK,0.21671,-0.16203,0.89959,1.497,-0.066324
xQ2bkOvj,-0.67041,-1.0497,0.83526,0.52301,-0.23365
xeXyDCEQ,0.59696,1.069,0.96156,0.61135,0.25192
xrggHziO,0.90336,-2.0025,0.12665,0.65142,-1.6653
y1WMCmqQ,0.79625,-1.4826,-0.3871,-0.45337,-0.95242
yDngezhM,0.87347,-1.3014,-0.83291,0.2338,-0.15329
yLiFjMD0,-1.1218,-0.65268,-0.1474,0.3089,-0.93127
ySwEBO7w,-0.07224,-0.3966,-0.92859,-0.015304,-0.73106
ydC9UsSm,0.29715,0.046417,0.9207,1.3533,-0.36303
ydEG4VBd,-0.6366,-1.0715,-0.1961,0.32022,1.6014
yf76yWXc,-0.96104,-1.2498,0.91177,0.85006,-1.8096
yg70e63n,-0.54283,-0.17276,-0.32883,1.644,-0.00068686
ywxtlSKv,-0.58688,1.1438,0.23843,-0.89726,0.14927
yzKPQPOR,-0.59785,-0.37429,-0.2804,0.79604,-0.30295
z5cnOnZ1,-0.46009,-1.5489,-0.95303,0.72355,-2.3652
zFLkOE0e,0.23395,0.30468,0.79631,0.91524,-0.6399
zGi72mxL,-1.0033,0.17251,-0.97296,1.5992,-0.022647
zN925UV3,-0.01503,-0.1074,-0.32254,0.21997,0.10095
zTy2ih7e,-0.45362,-0.35992,-1.4046,0.090018,-0.076274
zVFzAutw,-0.8016,-1.3456,0.14184,-0.41719,0.46759
zYxNAkht,-0.18844,-0.36674,-0.56812,-0.059206,0.054903
zaWDBai3,-0.48934,-1.0979,-1.3758,-0.82256,2.3083
zg3u0Zsx,-0.20887,-0.60518,-0.22652,0.20093,-0.51028
zlwLfdsS,-0.65277,-0.74544,0.20536,2.6201,2.115
zmbKzVfl,0.66442,-0.46431,-1.4114,0.50113,0.12951
