PIDN,Ca,P,pH,SOC,Sand
09gt9UK5,-0.63253,-0.028438,-1.2506,-0.58576,1.2648
0BVvxJ6a,0.56007,0.2204,1.1064,0.429,-1.1311
0KbdgApg,-0.066175,-0.31999,-0.012836,0.12715,-0.74607
0MnuuduB,-0.29778,-0.022264,-0.21847,0.82922,-0.73625
0PcIsF9z,-0.3058,-0.17091,-1.1822,0.015333,-0.33903
0ShTFLYJ,-0.53343,-0.57085,-1.0127,-0.84182,0.10086
0XZh9jka,-0.39338,0.031808,-0.96273,0.58358,-0.84431
0Y7Wegri,-0.35955,0.083489,0.4197,-0.095277,0.51409
0dTqplIM,-0.020841,-0.038151,0.5543,0.21748,-1.0645
0lNiZicC,-0.48197,-0.019025,-1.6101,-0.71874,-0.36631
0rGeJ0QN,-0.33756,0.060897,-0.56835,0.040198,-0.25652
0sXI9ytQ,-0.73235,-0.18694,-0.26961,-0.67205,1.5515
0ukt4aP6,0.57091,0.25518,1.6704,-0.7973,0.30962
1AGspb8f,-0.26202,-0.73774,-1.3095,0.12201,-1.2029
1Csy0gvE,-0.41867,-0.091577,-0.15714,-0.49463,0.63927
1Ic2hly1,-0.3815,0.42682,-0.15121,-0.18916,0.6606
1PPbaTwt,-0.39398,-0.15812,-0.46054,-0.55378,0.91445
1SO5VJNy,-0.32472,-0.15883,0.15173,-0.35687,0.69605
1arHxK3Y,1.1026,0.4547,1.4191,0.40415,-0.51373
1fCW4Bba,-0.38817,0.33277,0.066339,-0.14647,0.71525
1qDZNvIm,-0.52305,-0.18088,-0.20569,-0.74209,1.2378
28LYJC2V,-0.26693,-0.43352,-0.89583,0.60412,-0.35639
2CzACvQq,0.6455,0.63592,1.87,-0.45258,-0.23887
2FT3crfv,-0.39022,-0.20841,0.18903,0.18728,-0.58394
2Fy2uHVg,-0.55076,0.033256,-0.60546,-0.54111,-0.42994
2MkMEApm,-0.44846,0.12962,0.2155,-0.49509,0.9336
2NDGWEOe,0.66554,0.75578,1.7935,-0.73767,-0.72233
2NyyCiqn,-0.29477,-0.26974,-0.20295,-0.43901,0.59479
2QRzIb84,0.33749,0.77249,2.1663,-0.51453,0.25389
2QcbdrUZ,-0.3556,-0.29971,0.19466,-0.25158,0.44255
2YgAimWK,-0.38398,0.31407,0.2748,-0.47043,0.95488
2cx85d9H,0.29883,-0.4159,-0.017289,0.1615,-0.88282
2homMXMV,-0.33215,-0.029602,-1.0827,0.35058,0.32426
2ldLrUtq,-0.4583,-0.59803,-0.1434,-0.53671,-0.099998
2nsACW6G,-0.018145,-0.29296,-1.2585,1.4629,-1.0609
2yMbVnWc,-0.15551,0.11649,-1.7501,2.0827,-0.31422
36r8sgGQ,-0.3485,-0.18633,-0.034707,-0.60976,0.67216
3NXAXCl3,-0.53659,-0.65114,-1.1861,0.36921,-1.3454
3QG0z6fl,-0.29746,-0.094609,-0.95073,-0.53715,0.66724
3WS8R9qm,-0.40851,-0.15915,-1.109,1.9391,-1.1711
3fRLm8f5,-0.41378,-0.013642,-0.59019,0.15868,0.1197
3mZhp1nQ,-0.45455,-0.34693,-0.33572,-0.38652,0.53778
3pikJXRL,-0.44053,-0.50401,-1.1316,0.38946,-1.0211
3pxOEGHL,-0.43051,-0.30491,-0.44004,-0.57503,0.79706
3ttdV3f5,-0.42146,-0.14328,0.32073,0.0045216,-0.78279
3v4X6Mfe,0.95918,0.16869,1.4131,-0.46186,0.40064
3wORuPiv,-0.49079,-0.43542,-0.66018,-0.2821,-0.52659
43EfrxZj,0.15493,0.021966,-0.01467,0.46679,-0.56146
457Vwm21,0.03574,0.033284,0.47333,0.40487,-0.38295
46KNnOdx,-0.59231,0.11066,-1.0311,0.03812,-0.23983
47TwNsVC,-0.40491,-0.63116,-1.0439,1.2125,-1.4411
49856RpO,-0.36547,-0.48209,-0.89498,-0.45294,-0.88329
4Ane1o2N,-0.40084,-0.25835,-0.25223,-0.35784,0.079185
4AyVUgSc,-0.4512,-0.258,-0.7954,-0.65092,-0.26024
4B1951On,-0.13436,0.11833,-0.10202,-0.14272,0.35609
4OL39Teo,0.063589,0.3719,0.072042,0.54796,-0.32167
4eQ90eLY,-0.13095,0.10611,0.078669,0.4884,-0.22664
4o5jwMj8,-0.41902,-0.37295,-0.43789,-0.5288,0.31873
4vPgpl2c,-0.42283,-0.30807,-0.33354,-0.58012,0.54758
51r9aA0d,-0.44334,-0.27322,-0.27717,-0.60993,-0.091424
58SmeRoP,0.08949,-0.22758,-0.13301,-0.09236,-0.4997
5HJp1AXn,-0.36538,-0.12823,-0.66803,0.81045,-0.11479
5MBZW7fx,-0.12252,-0.16809,1.2646,-0.44148,0.34415
5Nq3gHaP,0.26157,0.83789,0.41021,0.91042,-0.193
5RmwFFK3,0.60245,0.1332,0.075019,-0.08508,-1.1702
5Tu5Jbov,-0.51277,-0.0087947,-0.62874,-0.28526,-0.52893
5YEolkev,-0.29773,-0.51385,0.049959,-0.5134,-0.32934
5a8sf6QV,0.024048,-0.23848,0.40441,0.0032092,-0.85774
5eSvmqYm,-0.48838,-0.33516,0.1944,-0.4106,-0.44544
5hkN8fiv,-0.15951,-0.29236,-1.1719,0.85057,-1.0101
5oK8Gti5,-0.57302,-0.076678,-0.73324,-0.39178,1.4455
5paniGaU,-0.52214,-0.20796,-0.90891,-0.71687,1.4179
5vsr7ZUP,0.88249,-0.25797,1.0341,-0.33188,-0.77343
60B4xMWI,-0.27697,0.15726,1.0269,-0.56894,0.67279
64jOUtKy,0.14759,0.5342,0.014551,2.0441,-1.3213
6AJo4xNG,-0.30469,0.33796,-0.20358,0.10383,0.33452
6CAvhEte,-0.39627,-0.18954,-0.86334,-0.37064,0.68826
6CuGYjT5,2.805,-0.42723,1.9785,0.51309,-1.151
6DGH8ujZ,-0.26719,-0.29402,-1.2819,0.35028,-0.80821
6PzsGdVm,-0.28372,-0.23279,-0.79121,0.5571,-0.78061
6UcSJMbq,-0.075308,0.25505,1.0375,-0.94953,0.34546
6WJbkH8U,1.2039,-0.17516,1.6133,-0.16678,-0.94128
6eUWsVzw,0.48531,-0.0014271,1.1846,-0.13089,-1.0307
6gNyO7Do,0.1829,-0.27736,0.049992,0.39411,-0.79263
6jT0AyHe,0.1536,0.067592,0.85317,0.034092,-1.091
6nBgCvWu,-0.35127,-0.2746,-0.042165,-0.3728,0.96707
6ro5mqg6,-0.34495,-0.44567,0.059038,-0.41564,0.23894
6sGqObX4,-0.67829,-0.28423,-0.85273,-0.36284,-0.72336
6uEGy0n4,2.0523,-0.046933,1.9889,-0.48135,-1.0251
7BZ4LxP8,0.02094,-0.2116,0.18574,-0.18215,-0.567
7CmigXKi,-0.40906,-0.095506,-1.0461,-0.50431,0.52232
7Ga0LpfR,0.57622,0.85299,-0.40249,1.9265,-0.96806
7PQsFvsG,-0.25385,-0.26788,-1.67,1.1873,-0.78904
7aF7nnwn,-0.49812,-0.35008,-0.99223,-0.62034,0.75399
7asGzfX9,-0.24675,-0.034386,0.015018,-0.29937,0.062023
7cg7C92o,-0.19505,1.0056,0.42512,0.74686,0.23917
7eOxTpsB,-0.38432,-0.15437,0.18843,-0.69865,1.4286
7ey0v7ma,-0.44801,-0.61125,-0.70479,-0.1499,-1.3033
7gocyrYl,-0.15567,-0.20843,-0.22863,0.90724,-0.10833
7gqR3GoA,-0.39411,-0.31255,-0.60797,-0.26371,-0.55913
7og7aUXB,-0.26796,-0.14298,0.53024,-0.15141,-0.28207
7onRfa8F,-0.072485,0.072362,0.75428,-0.40001,1.0822
7umkNuxM,-0.20179,-0.42541,-0.04245,0.23959,-0.62179
7vPr9ExD,0.086113,-0.27515,0.22149,0.1248,-0.81552
7zNjpCzu,-0.37668,-0.30563,-0.053736,-0.19738,-0.82817
7ztsQNj3,-0.45601,-0.2688,-0.29594,-0.12987,-0.69414
86gppwMI,-0.3913,-0.093467,-1.0618,-0.51453,1.0569
88thAGdL,-0.23709,-0.29001,-0.31939,-0.24719,-0.038228
8GhU8STP,1.2606,0.3087,1.3657,0.41887,-0.98913
8NlzDcWe,-0.34712,-0.2016,-1.1809,-0.64123,-0.1053
8QAejdLW,-0.076905,-0.30421,-0.084774,0.15195,-0.85605
8RDeFxWM,-0.28962,-0.18155,-0.033715,-0.71599,1.2036
8UXP2NBS,-0.58792,-0.6454,-0.14289,-0.35519,0.19076
8ZoV3KGT,-0.26045,-0.34159,0.047961,-0.45623,-0.33812
8ajs2uG8,-0.38262,-0.30942,-0.75591,-0.24582,-0.82153
8bXnz62p,-0.28098,0.66352,0.14974,0.28233,0.8354
8nO1O1LG,2.0862,0.44244,1.6127,1.4964,-0.91873
8xE1p8g8,-0.56769,-0.1521,-0.38052,-0.35232,-0.052792
8yMDVMRM,-0.4512,-0.41794,-1.2348,-0.5166,-0.68915
98R5VaPi,0.45027,0.18541,2.013,-0.88587,1.2683
9DcTz2Ua,2.5412,-0.16057,1.9781,0.70039,-0.91537
9G7nfUrK,-0.23765,-0.061422,0.28923,-0.56385,0.90524
9O6GZ1HT,-0.23005,0.66837,1.2566,-0.76248,-0.19504
9S7fCoAM,-0.43271,-0.28415,0.15277,-0.22011,0.58082
9iQwmFJR,-0.32371,-0.29101,-0.22276,-0.55027,0.46322
A3Mt6SAQ,1.0958,0.13305,2.1613,-1.0525,0.51132
AJIsQIcV,-0.45362,-0.1062,-0.91059,-0.27621,0.60569
AMHKXMh8,1.9932,0.43659,1.9686,-0.35905,-0.98462
ASwA2J4E,-0.25173,-0.18207,0.21921,-0.33139,0.69043
AaFvEoHq,-0.27444,-0.24081,0.1493,-1.0383,0.96537
AiIPD6hX,-0.22628,-0.1657,-0.36952,0.4727,-0.25039
AsIURvJS,-0.48582,-0.33036,-0.14671,1.0695,-0.7874
AsvgbJ0C,-0.17886,-0.17131,-0.77153,0.65689,-0.43536
AxEhbkCM,-0.31584,0.050758,-0.60372,-0.30164,-0.52446
B7VPkIpx,-0.47769,-0.054449,0.63131,-0.74031,1.3223
BBwHqHiH,-0.058902,-0.47601,0.11247,-0.10009,-0.68395
BMyps8hr,-0.18974,-0.20874,-0.49096,-0.0008972,-0.72085
BUHS4dQw,0.24125,0.30054,0.1498,3.0743,-0.75102
BZB3EYWQ,-0.25852,-0.16829,0.065021,-0.4111,0.70397
C5UPCZcL,3.5332,-0.45755,2.0867,0.86635,-0.93526
C5gIfQbJ,-0.26748,-0.33816,-1.4124,1.6847,-1.1762
CDRuu4Pn,-0.51336,-0.18887,-0.14415,-0.65921,1.1199
CQhTYkqE,0.86305,0.25681,0.81592,0.46145,-1.1432
CSEobMXv,-0.40894,-0.21069,-1.1629,0.7785,-0.89055
CYMQE4x0,0.032069,0.69539,1.2104,-0.13267,0.54369
ChQdtl4J,-0.3543,-0.38894,0.1399,-0.36512,0.2426
ChnD1nrN,-0.52888,-0.20146,-1.0641,-0.70957,-0.45266
CvtbbIcq,0.95112,0.065727,2.0044,-0.23273,0.1333
Cxk06b77,-0.090725,0.29044,0.73397,-0.081996,0.4756
D3QD3ZEJ,-0.041631,-0.263,0.1243,0.33374,-0.39927
D8J5C6lA,0.62562,0.7016,1.0471,0.011026,-0.77889
DCeQwYfT,-0.17567,-0.11689,0.17102,0.037817,-0.85417
DDEftkx3,-0.52871,-0.16943,-0.82601,-0.65133,1.2571
DEwCfeDW,-0.51335,0.40031,-0.21772,0.13323,0.96859
DMkIV4oL,-0.39764,-0.21577,-0.67437,-0.61878,0.65777
DnzGfbxS,-0.26029,-0.047991,-0.21374,0.13293,-0.82353
DoZxo6f6,-0.32259,-0.10448,-0.14518,-0.70865,0.62961
DvhBPGIk,-0.55849,-0.57478,-0.58348,-0.4021,-0.36056
Dx7GoUcT,-0.38617,-0.32496,-0.12304,-0.4788,1.0321
E5hIjohO,0.51671,-0.30824,0.26574,1.2173,-1.2767
E6x4XGHt,-0.66625,-0.072758,-0.84493,-0.43432,1.2462
EDEpAzh1,-0.53849,-0.18944,-0.44033,-0.37933,-0.61438
ETGudkQt,-0.38538,0.27839,0.20554,-0.40892,0.60246
EUleKrLJ,2.081,-0.010569,1.8121,0.6211,-0.58192
Ehw2Jz6s,-0.45088,-0.14676,-0.60604,-0.40454,-0.0028401
EjqzC4zH,-0.6091,-0.11057,0.2196,-0.75897,1.0074
EkMZO3Qj,-0.38351,0.23238,0.19184,-0.42566,0.85741
EnoNXWvU,-0.13547,0.35941,1.1508,-0.99036,0.23852
Epv8ANwr,-0.24789,-0.30027,-0.24921,0.41141,-0.26732
Etro9j0B,-0.16803,0.84838,0.37009,-0.051467,0.098369
F3MIZj76,0.010721,-0.098191,-1.0586,-0.034925,-0.59567
FB8tU00K,-0.31543,-0.45754,-1.0402,0.52261,-0.38316
FLhxBGMK,0.1269,-0.087302,0.44339,-0.16346,-0.94217
FRreR8ka,-0.27853,-0.35571,-0.20626,-0.10652,0.11419
FXne4oAV,0.50372,0.32991,0.908,-0.5152,-0.90698
FaW764jk,-0.3127,0.55986,0.65892,-0.22213,0.62114
FeAbMXly,-0.5586,-0.34039,-0.98239,-0.47964,0.69547
FeudaFXn,1.9684,-0.32368,2.332,-0.54216,-1.2698
FldUmFeM,1.4744,0.019115,1.9047,-0.81872,0.38867
Fnv5tfAm,-0.54379,-0.15448,-0.44133,-0.087605,-0.87651
FvrAd3Or,-0.30402,-0.21754,0.83667,-0.80186,0.63437
G48zHffi,-0.17845,0.38543,1.3603,-0.74686,0.73519
G76zCv5N,-0.3124,0.059952,-0.26189,-0.40859,0.050056
G7JGUdNf,0.23682,-0.32206,0.50998,-0.17594,-0.99109
GCo6MONx,1.2046,0.028419,1.4663,0.58684,-0.87729
GE0vbpVQ,-0.34925,-0.01422,0.12522,-0.38149,1.0517
GN0DfOqt,-0.33134,-0.10839,0.51819,-0.62752,0.92448
GNsTAb1v,-0.45671,-0.18726,-0.44747,-0.33278,-0.9892
GPwmO21z,-0.35713,-0.55503,-0.53277,0.024022,-0.64094
GQYpfLoh,0.66347,-0.046632,-0.0011421,0.26289,-1.0705
GR9knT8n,-0.20097,-0.24284,-1.5515,0.97541,-0.87447
GXtFFbZy,0.11286,0.31453,0.45498,-0.018707,-0.38219
GYvzvvFD,-0.42071,-0.1502,-1.1865,-0.46379,0.4329
GemPjTJ9,-0.42122,-0.13761,-1.3649,0.19286,-0.85758
GkLYRm1K,2.1569,0.08347,2.1499,-0.51694,-1.3823
GmlqP8eI,-0.23289,-0.48521,-0.95717,-0.60894,-0.71174
GqkIrOvf,-0.29911,-0.36403,-1.0741,0.8286,-0.92703
H0fsegPi,-0.56373,-0.25425,-0.27568,-0.5069,0.24263
H4dHpJjU,2.2644,0.028536,1.7268,0.63147,-0.72512
H5QwJCuU,1.9198,1.2436,2.4204,0.54672,-0.9583
H5uwmSZ0,-0.42024,-0.23903,-0.58911,-0.45751,0.78201
H8MtbVoL,-0.099035,-0.40011,-0.006844,-0.24918,-0.37463
H9JrUYnp,-0.24386,-0.29503,-0.0918,-0.0043657,0.11925
HHYmmHVk,-0.59694,-0.22176,-0.55949,-0.74122,1.462
HJ5U4uqL,-0.54589,-0.28729,-1.5582,-0.46196,-0.30141
HNQxYc4w,-0.12135,-0.44921,-0.38552,-0.50414,-0.37503
HQYhKHZ8,-0.37552,-0.28505,-0.66246,-0.52056,-0.13648
HSCMx0MC,-0.34364,-0.15576,-0.014348,-0.71133,1.1223
HXYuE0fx,2.5276,-0.37198,1.7684,0.21962,-0.98543
HdKcxEWr,0.12814,0.96626,1.0433,0.53623,0.090996
HecW1iCC,-0.49357,-0.32238,-0.56499,-0.62415,-0.65586
HpbKB8rv,-0.40019,-0.58172,-1.5014,0.82071,-0.99963
HrkoYjCg,-0.031297,0.68532,-0.15317,1.2258,-0.66416
I5P2uquT,-0.13357,-0.079106,0.012407,-0.44719,0.64412
I94qkDM7,-0.36874,-0.063594,-1.4835,-0.6022,0.56767
I9sQbtt8,-0.33683,-0.23742,-1.1297,1.716,-1.1622
IFxgw6ZX,-0.48818,-0.36676,-0.46775,-0.52146,-0.072335
IPPPSyoU,-0.42065,-0.43143,-0.91734,-0.094121,-0.86273
IQOYQubU,1.9313,-0.18598,1.5657,0.17558,-0.71504
IYNE2SxU,-0.55694,-0.11915,-0.52541,-0.25957,-0.85311
IZRFk9kN,-0.20187,0.13061,0.38601,-0.3444,0.059476
Iaq3v0t3,1.3266,0.33989,2.1146,-0.89596,0.45579
IbVwu1t6,-0.27991,-0.32748,-1.3043,-0.082975,-0.6928
IcHKTLyo,0.099811,-0.15239,0.055915,0.10158,-0.98606
IpW80wVB,0.042657,-0.25725,-0.42885,-0.095393,-0.44213
Itb0PYUV,2.0449,0.055372,1.6748,0.98024,-0.87202
J8fpSwS0,-0.2658,-0.23281,0.36865,-0.94181,1.0859
JE1SlbD0,0.56886,0.6892,0.68201,2.0914,-1.3283
JEB4McNb,1.138,-0.092598,1.5015,-0.10961,-1.0807
JEE4QVeQ,-0.098786,-0.20313,-0.13988,-0.39695,-0.72262
JJSEU2VQ,-0.52517,-0.17361,-0.51124,-0.58728,1.0358
JSsVriP2,-0.079602,-0.33036,1.1783,-0.6577,0.19736
JUvQNiOK,-0.05903,0.23514,0.45027,-0.35339,0.47748
JZbrRtm2,0.0013404,0.23704,1.4035,-0.81521,-0.024572
JcE9G92B,-0.10668,0.16988,0.12092,0.96048,-0.28669
JnNYpXHr,0.2823,1.1985,0.167,1.9032,-0.89383
JzpbnOtz,-0.46755,-0.041971,-0.61909,-0.64739,1.0931
JzzUhPQp,2.194,0.59202,2.1781,-0.34662,-1.42
K05R8dQK,-0.23009,-0.35011,-0.71548,0.78944,-0.8178
K17pG2mG,-0.32155,-0.22825,0.75601,-0.83051,0.75112
K8BellUe,0.047776,-0.52237,0.44401,-0.37345,-1.3793
KJ2eH6rr,-0.17212,-0.14271,0.34271,-0.5522,-0.98835
KJEJ6Glk,0.5755,0.37842,0.63385,1.4433,-1.2944
KSbO0oXS,0.36055,0.65168,0.058505,2.5654,-1.6434
KXtvmd01,-0.4533,-0.40928,-0.1016,-0.35262,0.26817
KYiJqBuJ,0.08568,-0.25569,0.8054,-0.62698,-0.77536
KmbAyTcE,-0.18553,0.1012,0.2633,-0.31635,-0.02481
KnNyl3rV,-0.37508,-0.052682,1.0094,-0.50485,1.075
Kp2DG8TZ,-0.47933,-0.0072472,0.35444,-0.52581,1.2254
KqQtKWs5,-0.55169,-0.25824,-1.0594,-0.45653,0.027837
Ku27g63R,2.1854,0.39862,2.3335,-0.175,-0.90153
L2aTVqDq,-0.24054,-0.35077,-1.256,0.98233,-0.75177
L5jvq6G4,-0.44365,-0.25582,-0.79333,-0.54111,0.53149
L91hYVQl,-0.4888,-0.33253,-0.91149,-0.7146,-0.062906
LINAMlbA,-0.40819,-0.10983,-1.2622,0.12384,0.57425
LJoUNXSx,-0.23277,-0.28834,-1.6143,0.22815,-0.86297
LLtSiyWD,-0.50899,-0.27515,-0.30962,-0.66881,0.00024935
LQJtV8kn,0.10842,-0.19579,0.67739,-0.18418,-1.0106
LW9uddw7,-0.44772,-0.50272,-0.79173,0.61583,-1.3951
LZ6sdBTR,0.96764,0.5013,1.3187,0.114,-0.78273
La2Vhnne,0.42139,0.037746,0.11785,1.6755,-0.59298
LaUWSq9B,-0.088754,-0.048327,0.24701,-0.025357,-0.80566
Lk4SfkPQ,-0.55986,-0.36257,-0.77779,-0.18323,-0.56144
LllC836d,-0.089601,-0.051537,-0.45727,0.54998,-0.50981
LuGiGeWN,-0.31763,-0.021244,-1.2185,-0.30554,0.86106
LzcyHcWa,-0.43807,-0.15156,-0.58448,-0.48698,0.8423
M7veP0H4,-0.37381,-0.11045,-0.41238,-0.28646,0.88708
MB8aaJUc,-0.042722,-0.027287,-1.2756,1.1279,0.11725
MDpe2zuy,-0.53297,-0.22416,-0.25384,-0.43813,-0.79123
MEzdmEIU,-0.40111,-0.43582,-0.22625,-0.48767,-0.078613
MVnhtivm,-0.40863,-0.49594,-0.72265,-0.10316,-0.60758
MYU7WDis,-0.42444,0.10886,0.54233,-0.83404,1.0046
MZFqh6yw,1.6432,0.58793,2.2015,-0.33222,0.34561
Mdgy4SsO,0.77453,0.199,-0.14141,1.5364,-1.0472
Mj8awnzy,-0.53741,-0.16601,0.25147,-0.6147,1.3679
MpFPbUJy,2.4093,0.22424,1.6032,0.68591,-1.1485
Mqk7MFBM,-0.32956,0.11172,0.56887,-0.57799,0.71615
Mqs2t1Eo,-0.53962,-0.30284,-0.50442,-0.10053,-0.44334
Mv3jFVxp,-0.18379,-0.077514,0.023322,-0.17623,0.16379
MxODTXvA,0.15201,0.040339,0.37093,0.1521,-1.0234
N46PbpPM,-0.2957,-0.28013,0.24191,-0.73348,1.4961
N5S5F9Gk,-0.26338,-0.043426,-1.444,-0.51586,0.89289
NLDg5fqw,0.069377,-0.34644,0.40661,-0.17587,0.093053
NOho2ZiM,2.3513,-0.22125,1.7272,0.47049,-1.1045
NUuY7PFU,2.0909,0.24559,1.4784,1.155,-1.1951
NV1e8AEO,-0.43625,-0.015674,0.013641,-0.57327,1.0404
NZLXROKC,0.16946,-0.1141,-0.037309,0.6362,-1.1291
NaJo7C6o,0.35371,0.29113,1.6137,-0.055708,0.36658
NgsyGkrO,0.25565,0.14675,1.0373,0.41745,-1.2717
NjOx4Zpo,-0.414,-0.32042,-1.0504,1.2667,-1.4089
NmQoI7x0,2.1629,0.31053,1.8074,-0.52867,0.27612
No4wkdLS,-0.50125,-0.098116,-1.4414,-0.70131,-0.36675
NouMwhOf,-0.11267,-0.16755,0.5901,-0.31059,-0.51584
O6YAWd8C,-0.017997,-0.51079,0.12933,-0.23643,-0.72359
OAXVphSh,1.9352,-0.042119,2.2508,-0.59473,0.34308
OJBBhb6Q,-0.50807,-0.39298,-0.56744,-0.68999,1.2791
OSIQXImL,0.70046,-0.28845,0.56298,0.41611,-1.2147
OUUFc5Zz,-0.32107,-0.15307,-0.13016,-0.72845,0.866
OVk1lquT,0.20187,0.92699,0.398,1.5911,0.24705
OXdRxjzz,-0.05179,-0.28781,-0.98234,0.14903,-0.89362
OXxW2ekf,-0.42567,-0.34491,-0.50644,-0.55275,0.009791
OXz5OpqR,-0.20384,0.29966,1.0596,-0.40383,0.56065
OcBFW1AX,-0.2516,-0.077759,-1.5818,0.24279,0.70196
Of9V2rpt,-0.14897,-0.23654,0.11884,-0.028019,-0.56173
OfLxPhbG,-0.13222,0.12101,-0.034768,-0.069836,0.97603
Ojx2vi48,-0.37512,-0.27168,-1.1989,-0.59795,0.1523
P3M32iuT,-0.70693,-0.34346,-0.94817,-0.71705,0.067146
P7olVzrO,-0.34764,-0.16706,-0.5117,-0.25442,0.3087
PAPHErnv,-0.52203,-0.36677,-1.1343,0.077472,-0.85307
PBjEtfXb,-0.17938,-0.10858,-0.28315,-0.27584,0.40502
PZGpoBBj,1.9576,5.3497e-05,2.0512,-0.50264,-0.97324
Pc2RrxXS,-0.32274,-0.43834,-0.19162,-0.70776,-0.029416
PcHQ4FOu,-0.50223,-0.27242,-0.6086,-0.21816,-0.22204
PeNyTOVN,-0.25476,0.37161,0.10491,-0.083191,0.54107
PhUPSU53,-0.45244,-0.2499,-0.63024,-0.23056,-0.15863
PmUNeV2O,-0.53361,-0.26204,-1.5926,-0.64913,-0.36688
PoDJ0uvK,1.3094,0.74445,1.8256,-0.26291,-0.4382
PsUJdJdg,-0.21798,-0.029222,-0.11942,0.8405,-0.18409
Q3xLFx1f,-0.38376,-0.3392,-0.77817,-0.083987,-0.72539
QBGxCvdM,-0.015424,-0.28693,0.39946,-0.2622,-0.96964
QCEPyu6L,-0.32585,-0.56358,-0.96651,0.23955,-0.60679
QEfwec4s,3.0998,0.13706,2.0112,1.5954,-0.60373
QZ87Nnr3,-0.37574,-0.43203,-0.46607,-0.32828,0.8534
QlyGN9jv,-0.4749,-0.037372,-0.72619,-0.26315,0.14361
QqgWE1ny,-0.47257,-0.27868,-0.15664,0.09852,-0.80518
QrjjBpZd,-0.34803,-0.4234,-1.1415,1.4596,-1.2914
QsaBiX7V,-0.44319,-0.36427,-0.057803,0.00073638,-0.4023
QtBKJuZk,-0.35359,-0.15262,-0.38758,-0.37065,0.85273
QtPRO8OJ,-0.30684,-0.031799,-0.8697,-0.661,0.57968
R8XcsFnp,-0.45804,-0.21888,-0.1848,-0.75619,1.6863
RROfRt9z,-0.18723,-0.19162,0.43017,0.19858,-0.87717
RTcbiDGq,-0.46006,-0.45855,-0.43432,-0.39847,-0.04797
RVidM9g0,-0.23829,0.14786,1.496,-0.81299,0.82633
RZnQSH19,-0.39589,-0.12026,-0.17534,-0.64227,0.94521
Rc4UK7fT,-0.60213,-0.16582,-1.0348,-0.4155,0.65687
RcKBKh6B,-0.34871,-0.017814,-0.34749,-0.34616,0.71847
ReM5kDa5,0.023093,-0.33839,0.065742,0.12813,-0.89465
RfntsotG,-0.4721,-0.012071,-0.20328,-0.59421,0.56315
RiXMlzXD,-0.3762,-0.17652,-0.15138,-0.62979,-0.26936
Rik83O3m,-0.56312,-0.016528,-0.46118,-0.48976,-0.48474
S3PCzDzO,-0.48755,-0.25706,0.90206,-0.52024,0.5853
S77BviOJ,-0.52478,-0.26989,-0.60403,-0.22217,-0.15824
SDdvtktF,-0.30627,-0.35518,-0.49748,-0.155,-0.89055
SHs1AyfM,-0.38806,0.17742,-0.21952,-0.22442,1.2487
SO4zQy9k,-0.48126,-0.39821,-0.23213,-0.48758,0.38334
SOOBCoiG,-0.31284,-0.42691,0.15892,-0.611,0.76401
SXkkPB7A,-0.20858,-0.056403,0.37841,-0.47513,1.1769
Sa93dGqq,-0.32899,-0.036888,-1.4908,0.65103,0.67172
SonIG72a,-0.41135,0.052607,-0.71179,-0.15517,0.14974
Suf6hIBc,-0.27118,-0.14639,0.11627,-0.40146,0.74181
Sx2JeSRz,0.086301,0.072064,0.38237,0.35504,-0.60722
T1Tlftr4,-0.048343,-0.15115,0.35752,-0.84006,1.1523
T7ulR4ci,-0.50865,-0.23046,-0.092647,-0.68112,1.1163
TA1NB3Br,-0.27603,-0.20967,-0.013795,-0.38617,0.54997
TFZUskaK,-0.07341,-0.14959,-0.17198,-0.39757,-0.68886
TNL8HGWZ,-0.022562,-0.2985,0.16556,-0.19893,-0.98801
TZ8z1GSF,-0.34573,-0.038781,-0.78176,-0.3024,0.20839
TqhRvkJJ,1.5237,-0.29632,1.2836,-0.3152,-0.055267
TtJCUiY4,-0.26468,-0.28105,-0.14463,-0.81965,1.2993
TwDq0lua,0.25886,0.15483,0.74309,0.28581,-0.93879
Tzyf02sI,-0.31899,-0.0057723,0.66251,-0.71018,1.0353
U3yI6ZS5,3.0851,-0.063114,1.8227,1.34,-0.91205
UBLnXZAN,-0.17131,-0.25499,-1.4258,2.1914,-0.58057
UBWDzleg,-0.29005,-0.70547,-1.2964,0.51247,-1.2124
UBqkX6SY,1.7668,0.18619,1.8251,-0.31143,-1.0661
UCIAi1Aj,-0.31505,-0.41795,-0.96588,-0.23534,-0.50571
UPbXGvCS,0.1475,-0.36111,0.3494,-0.072666,-1.051
UeWm1l9F,-0.12791,-0.28526,-1.0181,1.0547,-0.63149
UhucscY7,-0.27212,-0.26924,-0.53327,-0.56808,-0.52589
Uri1SvHV,0.064032,-0.36069,0.25383,-0.10098,-1.0723
UzxipGJS,-0.46953,-0.17191,-0.2985,-0.5694,0.44444
V74zfaAQ,-0.18633,-0.38612,-0.11227,0.0629,-0.86585
VBPxBLTh,2.1197,0.16275,1.7478,0.6835,-0.89643
VLG7CXYS,-0.22828,-0.031812,0.064748,-0.31846,0.39234
VNk52SpF,-0.40949,-0.48346,-1.1312,1.4817,-1.4462
VOREKsok,-0.50851,-0.097647,-0.43218,-0.66747,1.4307
VRhTr5pX,-0.37973,-0.47543,-0.39304,-0.53244,0.092156
VTcG4Kcw,-0.10126,0.040296,0.2858,-0.68017,0.8199
VeKiWSbS,-0.2782,-0.25212,0.016788,-0.25773,0.45942
VnU8nJHU,-0.40763,-0.26526,0.13295,-0.23656,-0.27772
VueNCxYv,-0.41778,-0.19553,-0.55961,-0.28301,0.75921
VxuQTRUl,-0.52635,-0.44454,0.0016592,-0.33283,-0.56842
W5lgaocA,1.1627,0.53281,2.3771,-0.53519,0.20312
W5mMq9Ef,-0.31219,-0.21848,-0.96729,0.43935,0.037869
WDhNqFpS,0.041917,-0.23996,-0.44816,1.2835,-1.1878
WE6n1kZi,-0.36933,-0.31947,-1.731,0.42407,-0.7093
WFk6r3vA,-0.48085,-0.064178,-0.44066,-0.29572,-0.20908
WFyIrsUR,-0.3862,-0.56009,-0.70376,0.46683,-1.317
WG6ZAsqR,-0.52469,-0.19874,-0.70302,-0.69774,1.268
WMq3CZQk,-0.47767,-0.5099,-1.159,0.59434,-1.5914
WRskmGjh,-0.6371,-0.054385,-0.54783,-0.49963,-0.64616
WXijSglj,-0.28511,-0.3154,-1.1106,-0.24986,-0.83288
Wc0stQgu,-0.24486,-0.38444,-1.0033,0.60112,-1.2389
WewoSCUB,-0.53966,-0.22539,-1.4712,-0.61629,0.1487
WuHuhHWJ,-0.37238,-0.29365,0.61852,-0.47149,1.0274
Wv7EBtZb,1.22,0.55528,1.5134,0.10276,-0.87523
WyPlxDn0,-0.49897,-0.082508,-0.28908,-0.5774,0.69051
X3WqoSNN,2.5335,-0.27325,1.854,0.56091,-1.1668
XDhyP9KB,-0.60935,-0.26843,-0.6293,-0.14846,-0.57114
XQxhDRMG,-0.49073,-0.063281,-1.1409,-0.088862,0.81059
XjLNAwxW,-0.067589,-0.4882,-0.2944,0.19981,-1.098
XjfVQbXd,0.61773,0.45152,1.7798,-0.57004,-0.57098
Xovczbf6,-0.43647,-0.14437,-0.66164,-0.74688,1.4998
Y8H4onBf,-0.57472,-0.45027,-0.57634,-0.44188,0.42157
Y8YgzSZ9,1.3627,0.64091,2.0037,0.63396,0.054538
YC4PNV20,-0.44289,-0.26163,-0.14372,-0.36783,1.0652
YDHSCRdd,3.4886,-0.082012,1.9267,1.9488,-0.41066
YIJ87aME,-0.43773,0.21862,-0.32359,-0.14098,0.19471
YKvT4dFv,-0.2849,-0.23538,-0.48686,-0.070995,-0.24589
YNebALR2,-0.34125,-0.12517,-1.125,-0.56587,0.55255
YNrnqFyb,-0.1922,0.23377,0.1744,-0.22641,0.26928
YUZ4lR3m,-0.29763,-0.043727,-0.060307,-0.26962,0.31863
YYLvjoVC,-0.040266,0.40428,0.37164,-0.096742,0.43161
Yb8OtMb2,0.28582,-0.25791,0.64848,0.024363,-0.98778
Ycg4lTYw,0.061624,-0.29957,-1.2799,0.46018,-0.6876
Yfk6tekH,0.1117,0.50643,1.2403,-0.42403,-0.7075
YoSfgmR6,-0.53605,-0.008832,-0.58009,-0.12769,-0.31687
YpzFvexy,-0.078795,-0.339,-0.99377,-0.027422,-0.35471
Yxqppfa3,-0.2088,-0.038718,0.32969,0.07609,-0.62622
Z16jTUvP,-0.3387,-0.24783,-0.73614,0.23146,-0.12742
Z2BdCCbJ,-0.32987,-0.078659,-0.013276,-0.46363,0.9104
Z2JJMM6V,-0.34945,-0.19356,-0.018647,-0.06041,0.41056
Z5jE1OB5,-0.27323,0.18783,0.41291,-0.18294,0.46972
ZFsIqYxA,-0.32423,0.13831,-0.4527,0.11094,0.10965
ZHDVsoRh,-0.32762,-0.49803,-0.61149,-0.1934,-0.51589
ZSmfu2Fc,-0.44068,-0.29112,-0.63657,-0.20981,-0.43433
ZU8YXF3H,-0.48906,-0.22485,-0.62297,-0.74215,1.4283
ZXKaNy6Z,-0.52987,-0.11573,-1.424,-0.37992,0.94905
ZbYLo0zK,-0.12987,-0.18785,-0.1723,-0.23029,0.27101
ZedN8Gcn,-0.40407,-0.52339,0.051064,-0.4456,0.079132
ZgD4Dau6,-0.23679,-0.46639,0.42999,-0.57225,-0.77226
Zgzf79LA,-0.54823,-0.34778,-1.4522,-0.63632,-0.12647
ZjqzxDOF,0.21226,0.6475,1.6954,-0.65107,0.019448
ZsZ5aDpq,0.20469,0.56784,0.56981,0.90706,-1.0507
ZtyqE7If,-0.36825,-0.28735,0.12158,-0.31293,-0.97678
ZvUgz01f,-0.24635,-0.26452,0.24793,-0.73928,1.3171
ZwrhgdQV,0.59079,0.35997,1.4177,1.0846,-0.63712
a7bhJGBU,2.1503,-0.21045,1.779,0.68877,-0.71686
aHpv6KzP,3.2464,-0.1558,2.0551,1.0499,-0.96341
aINzEBVN,-0.46678,-0.39654,-0.90601,-0.50567,-1.2685
aP9EtTGF,2.7049,-0.22967,2.1596,-0.46081,-0.89226
aV6EhtSL,-0.44433,-0.070945,-0.2929,-0.60296,-0.27663
aVZsXKoH,1.9394,-0.10567,2.0051,-0.54694,-0.97033
aYVnVJvc,0.18033,-0.14251,0.15414,0.58852,-1.0584
abCzN1zx,-0.34412,-0.34289,-1.3657,0.60607,-0.95423
ae7sMiB4,-0.20957,0.21416,0.12781,-0.24188,-0.12918
afsVuCGV,-0.31364,0.0081798,-0.59278,0.41246,-0.13343
aiwBQETI,0.1171,-0.27941,0.4477,-0.1261,-0.97447
aiyli4EI,1.5946,1.5162,1.904,1.4899,-0.60811
apJ7NmzD,2.0172,0.30899,2.2662,-0.31091,-0.89636
atVjNMtQ,-0.37041,-0.60122,-1.2043,1.8239,-1.5398
b5GirVGV,-0.4146,-0.20029,0.038083,-0.70506,0.39105
b9SpMjNB,-0.40422,0.33443,0.22533,-0.13388,0.47968
bAFs37yy,-0.36324,-0.29268,-0.092375,-0.62004,0.866
bDia1hHV,-0.52621,-0.43001,0.16513,0.045401,-0.77532
bFkv5Mtr,-0.22659,-0.13626,-0.28028,0.34326,-0.076671
bHe2IXgA,-0.22763,-0.47382,-1.59,2.0906,-1.2501
bWX3vUm5,-0.017081,-0.25634,0.077249,0.14139,-0.84331
bat8tcGs,-0.22327,-0.63312,-0.11546,-0.069553,-1.0381
bfjej4wu,-0.40317,-0.31702,-1.1848,0.073729,-1.348
bh04YDiP,-0.38999,-0.52906,-0.46762,0.18812,-0.54703
c110Fdc8,-0.23638,-0.13295,-0.079755,-0.37549,0.13356
c32GUzMa,-0.27175,0.10538,-1.2451,0.048445,0.79354
cT6uU0B0,-0.38642,-0.27088,-0.63163,-0.36206,0.80501
cWXCiFwh,-0.4909,-0.069838,-0.77143,-0.45883,-0.68741
ceNvS3yd,-0.36,-0.1557,-1.018,-0.086228,0.063774
cmwdt4Av,1.7303,-0.029276,1.5439,0.20657,-0.94813
cn4EHsup,-0.13756,-0.38738,-1.2418,-0.018294,-0.12221
crVOGGTT,-0.47742,-0.14958,0.034128,-0.47564,1.425
csPEJ1E5,-0.4924,-0.22545,0.40638,-0.17695,-0.69382
d0UrRtMk,-0.75153,-0.15954,-0.54074,-0.63845,1.4281
d6LU4G4I,-0.34837,-0.26532,-1.0124,0.51621,-0.32801
d74T1DVv,-0.4493,-0.46889,-0.98382,1.5588,-1.2228
dR6rM1tQ,-0.02642,-0.54915,0.36618,-0.080945,-1.2399
dUNxOoqg,-0.52798,-0.31017,-1.2386,0.4676,-0.90803
dUnlyhj7,0.23294,-0.032528,1.0145,-0.5516,0.1004
dVDlnZQ6,-0.095572,-0.11089,-1.1059,0.30497,-1.1273
dVT26GDu,-0.46749,-0.090412,0.26504,-0.48541,1.0085
de43ycXY,0.10527,0.36927,1.2707,-0.82099,-0.11824
dfIn7m9z,-0.54908,-0.63191,-0.96843,-0.16499,-0.59526
dhmb9ZY9,3.5489,-0.21671,1.8012,0.8682,-0.92964
dn8kCuyf,-0.39998,-0.027223,-0.67778,-0.39965,0.74678
dpcquvWW,-0.43045,-0.31252,-0.3382,-0.46118,0.011577
dqcbIMyr,-0.48937,-0.042103,-1.4626,-0.31902,0.14292
drWgsBf5,-0.40213,0.0022758,-0.41689,0.41731,-0.64788
dytx0HSe,-0.49631,-0.15817,-1.0045,-0.70877,1.3093
e4KkkIha,1.8603,0.67098,2.1224,-0.61461,-0.92572
e9YorH4m,-0.44594,-0.2015,0.78511,-0.70858,0.73689
eB9gVQ0R,-0.2131,0.42917,0.068285,-0.54348,1.3044
eMhLFqU6,-0.24537,-0.12517,-1.3585,-0.072462,0.27556
eMllg1qm,0.55597,0.31874,1.0358,-0.07024,-0.77941
eNPunZ9i,-0.4956,-0.15373,-1.4437,0.44881,0.061229
eS5BSM4J,-0.58559,-0.16061,-0.20009,-0.64622,1.3654
eVGMFoOI,-0.52605,-0.34616,0.6131,-0.73545,0.81404
eaIwb3rG,-0.023196,0.37172,0.2792,-0.28497,1.353
eyzw8Vis,-0.38926,-0.026139,-0.23534,-0.52774,1.4146
f04Ke2bN,-0.14585,-0.096148,-0.30335,0.29091,-0.086963
f4GA0te1,-0.24123,-0.40757,-0.4375,-0.58309,-0.10168
f7bd91h5,-0.54899,-0.24652,-0.047482,-0.6783,1.1862
fB7z9ndr,-0.35877,0.078266,-0.08727,-0.73796,1.3041
fEe7AWFA,-0.10513,-0.15594,0.51164,-0.11387,-0.8394
fJJIbgY9,0.52326,0.64934,1.3214,-0.64888,-0.73742
fQBURMvg,-0.30358,-0.10302,0.060086,-0.57635,0.98467
fS0HpOub,-0.45676,-0.27859,-0.039543,-0.43815,0.58588
fTDXauuk,0.34128,0.019112,1.3522,-0.50931,-0.78176
favPNA2N,-0.29419,0.16135,-1.3545,0.5411,0.48856
g3Fv0U4k,-0.18357,-0.30298,-1.3121,0.75003,-0.51488
g5PKo2E2,0.37268,-0.1033,1.1261,-0.29175,-0.84209
gbjnD5fe,-0.40717,-0.50921,-0.60672,-0.85559,0.32549
ge9zqXCv,-0.3947,-0.15421,-0.22265,0.43269,-0.65416
geeqJpSE,-0.40103,-0.28294,-0.083355,-0.54284,0.81132
gqy1J2RS,0.3611,-0.095435,0.59936,-0.042038,-1.1635
grlUtS3H,-0.064429,-0.27802,-0.06788,0.62421,-0.63615
gx965KYj,-0.12851,0.051622,-0.089424,0.17579,-0.36039
h3F08Vjm,-0.34448,-0.21726,-0.18018,-0.66988,1.0654
h6FQG8Iy,0.033775,0.15386,0.50946,-0.74147,1.4208
h7ftM8b3,1.9514,0.27957,2.0237,-0.37828,-1.2629
hLrCHXZv,0.18446,-0.3057,0.40539,0.024195,-0.84522
hQ6VBuFx,-0.19105,0.46162,0.045864,-0.43953,1.2683
hYoR2y7w,-0.39004,-0.15879,-0.28702,-0.059156,-0.971
hf65yZkM,0.3369,0.23504,0.54791,1.1722,-1.1159
hjuwe1x4,-0.073682,-0.31122,0.39738,-0.28358,0.18557
hyINlsFR,-0.17111,0.37395,-0.36619,-0.054102,1.5354
i0Qlm9Bv,-0.4939,-0.28936,0.35363,-0.37656,0.72367
i1VxfxMb,-0.52128,-0.16558,0.14719,-0.40021,0.94631
i2l6jXNP,-0.44115,-0.24074,-1.0077,-0.33454,0.046063
i4FgPZv7,-0.4423,0.12826,0.18501,-0.72436,1.0254
i7XtIkSi,-0.44215,-0.077042,-0.43528,-0.13323,0.017317
i9z346Ut,-0.16399,-0.019513,-0.57749,1.0154,0.26263
iDOat4cZ,2.1879,0.52126,2.2314,-0.41139,-1.0424
iNv6RoSO,0.021293,-0.02945,0.62374,0.027325,0.025471
iSL9NYzy,3.4612,-0.35192,1.9227,1.8287,-0.87207
iSqVc1r8,-0.096259,0.60888,1.1111,-0.7012,-0.051499
iYZMftt6,-0.5845,-0.42768,0.1217,-0.42318,-0.63578
ieTPaa3c,-0.2133,0.011411,-0.97517,-0.11414,-0.26997
if7BmzU0,-0.40111,-0.29981,-0.1589,-0.51812,0.77288
ihNz5bmx,-0.2099,0.08768,-0.73699,0.087013,-0.62661
ikJXKdIN,-0.55505,-0.27149,-1.2343,-0.94374,0.4835
iq2kxikN,-0.08593,-0.31084,-0.11415,-0.17754,-0.92677
iuZEDJK7,-0.38503,-0.33975,-0.45877,-0.59701,0.64448
iyF8gVT7,-0.24546,-0.1823,-0.2425,-0.64961,1.4968
j06qdQ0V,-0.38114,-0.24046,-0.098852,-0.27482,0.29639
j7hl8svO,-0.3647,-0.23992,-0.20184,-0.098656,-0.64329
j8hMoJUN,-0.43041,-0.16875,-1.4108,-0.69501,-0.39961
jNaFasbV,-0.31592,-0.83465,-1.312,0.51962,-1.3903
jVVHeYHT,-0.48096,-0.073106,0.29338,-0.65449,1.1629
jXm4ySvK,-0.36102,-0.037216,-0.20296,-0.4971,0.34718
juO5ii5l,-0.31649,0.30619,0.4625,-0.62859,0.53628
k2hdEBsU,-0.61503,-0.25329,-0.40642,-0.66987,1.4458
k3ynMfhN,0.071068,0.55883,1.1411,-0.45385,0.80315
k9C9yBtr,0.091464,-0.27743,0.27978,0.24484,-0.89656
kAKRvcRo,-0.24933,-0.27716,-1.0141,0.55908,-1.1238
kBi3R2oC,-0.31289,-0.15903,0.057723,-0.32801,-0.19775
kDWmnsXe,-0.11286,-0.1992,0.79048,-0.41369,-0.19305
kSGBd2Vh,-0.34515,-0.3265,-0.083174,-0.48295,0.59026
kT0miHPT,-0.43158,-0.35497,-0.25875,-0.49064,0.17708
kaW0TfRn,-0.42741,-0.56728,-0.45726,-0.65565,-0.025048
kmg3SowO,-0.23323,-0.2447,-0.98649,0.49327,-0.55642
kpxKSlnF,1.9174,0.3543,1.8629,0.73705,0.021245
ku2cn1MV,0.6209,0.78263,1.536,-0.12251,0.24247
l1su5HU9,-0.4582,0.098366,0.1154,-0.27234,0.78683
l8Tg2RvD,-0.59846,0.31064,0.75487,-0.46985,1.3128
lB6NsVOc,-0.3839,-0.41032,-0.17094,-0.69147,0.76927
lEcdVyKk,-0.55171,-0.12112,-0.55348,-0.55643,0.91931
lH4TasGl,0.013483,0.12602,1.0404,-0.64581,-0.3904
lO9aggHW,0.0065157,-0.045648,0.055384,0.44599,-0.11379
lW3m9Vzu,-0.51444,-0.40496,-0.41257,-0.15873,-0.16023
lYLseGDP,0.024838,-0.21623,0.25185,-0.3096,0.12124
lcOnCdZi,-0.32373,0.4646,0.86277,-0.71336,-0.13976
le9YGwON,-0.16026,0.23648,0.51192,-0.13951,0.18724
llMvu3TX,1.9288,0.022353,2.5645,-0.99132,-0.3061
lnHh2jFO,-0.078521,0.33514,1.5017,-0.92695,0.11892
m07CVXd4,-0.32713,-0.1417,0.42011,-0.93991,1.2775
m1lPk91z,-0.38336,-0.1859,0.46891,-0.65802,1.3133
m9IQdmwa,-0.38377,-0.11504,0.0019261,-0.64059,0.56972
mG9BRy5x,-0.4992,-0.11147,-0.29654,-0.14408,-0.04112
mVHXnama,-0.48203,-0.37624,-0.9289,-0.45316,-1.0683
mXyrR6nU,-0.24288,-0.017041,-0.8402,-0.41137,1.027
mbzNdxNc,-0.23535,-0.34758,-0.19873,0.33704,-0.51047
mntH7g3L,-0.14158,0.48652,1.0577,-0.81451,0.23494
msRTXP3H,-0.22983,-0.22041,0.051418,-0.318,0.19208
mxBjvIPR,-0.43425,-0.17363,-0.21204,-0.59429,0.56608
n8Opmfbz,1.6629,0.61054,2.3898,-0.35284,-0.15851
nOkgU29Q,-0.34191,-0.22838,-1.3698,0.3151,-1.2233
nhttf7VM,0.13945,0.64626,0.9807,-0.079235,0.39346
njLbXYa3,-0.41778,-0.53136,-0.24679,-0.61753,-0.32147
nwkIpzmh,0.54807,0.087388,1.4672,-0.38959,0.17961
nzB1R9Zg,-0.12444,-0.033292,1.1708,-0.67939,0.17079
o1rZRI84,-0.59467,-0.14862,-0.49767,-0.56096,-0.25156
o7q5Mbty,-0.25814,-0.36082,0.18319,-0.18014,-1.0021
oCBvysqB,-0.59706,-0.1475,-0.72568,-0.44551,-0.56635
oDmycTPH,-0.27085,-0.40316,-0.8544,-0.92296,0.84448
oFAXZvQv,-0.56833,-0.099059,-0.41921,-0.25396,-0.38027
oHE3M1zX,-0.30111,0.23424,-0.28506,0.99386,-0.55667
oMhVmSpV,-0.66644,-0.0075329,-0.6558,-0.48786,-0.68363
oNsDqVbi,0.31918,0.62443,1.3028,-0.72452,-0.51777
oYAJqQk8,-0.50998,-0.59655,-0.83314,-0.84251,0.23241
ob5Kb6dW,-0.55821,-0.15434,-0.80138,-0.51729,1.0549
obnzqs79,-0.40782,-0.2497,-1.1399,-0.51235,-0.30004
oncLcgRP,-0.40354,-0.45303,-0.80123,-0.14294,-0.39257
ooWVYaAe,-0.12321,-0.066087,-1.2603,0.96023,-1.1903
osdyOUnV,-0.20422,-0.074023,-1.4915,0.58328,0.24596
p7H9CzCv,-0.50297,-0.63025,-1.5734,0.29101,-0.91679
p7U9hVhY,-0.40732,-0.089027,-0.42888,-0.48963,0.47208
pE6Cf1RV,-0.23221,0.079489,0.11582,-0.72344,0.85435
pI7qzotI,-0.29444,-0.13348,-0.15609,0.30634,-0.42441
pJrIA4sk,-0.45863,-0.45679,-0.33628,-0.57861,0.06049
pXne2CLZ,-0.59455,-0.62641,-1.1304,1.0499,-1.7696
pZMcDIOS,-0.37152,-0.16085,-0.26412,-0.65308,0.69341
pavfp3cc,0.44405,-0.16887,0.70038,0.15793,-0.89715
pbQdC5L3,-0.53961,-0.43301,-0.52021,-0.5033,0.25819
pgj7aAFP,-0.29142,-0.28458,-0.076848,-0.24479,0.51007
pxg8G3ed,-0.19319,0.22589,-0.23711,-0.55554,1.5993
q36Npk6l,-0.37556,-0.30534,-0.96966,-0.79258,0.90835
q4aDOVvq,0.6688,0.36964,0.70179,0.13872,-1.0608
qGmfR9CN,-0.37942,-0.39149,-1.0417,0.90086,-0.72651
qJ51ODpA,-0.29193,-0.22038,-1.1413,0.59809,-0.45404
qQX3cs3I,-0.30482,0.1168,0.72252,-0.69866,0.50007
qXeIxPb8,-0.31699,-0.20181,-0.33187,-0.41987,0.752
qYQ4MShM,0.017396,0.15305,-0.14253,0.42576,-0.68324
qa0etnhK,-0.23645,0.0015223,0.21053,-0.013684,-0.60424
qbL4sboq,-0.61783,-0.079727,-0.74102,-0.58617,0.83991
qbYrsWHq,0.73844,0.74864,2.0389,-0.15354,-0.2026
r1zmcUqQ,0.33021,0.076202,0.71719,-0.92793,-0.8911
r54iHeQC,-0.30393,-0.1815,0.061063,-0.52207,0.62202
r6xrAnQV,2.8854,0.45698,2.0169,-0.40745,0.065707
r9HxnQDg,-0.29942,0.13899,0.77568,-0.25173,0.91914
rG8Puuf9,1.0015,0.021095,1.2566,0.30663,-0.79037
rGuiefuR,-0.2113,-0.65229,-0.82293,0.21933,-1.3115
rJ19OhGP,-0.45604,-0.025879,-0.47194,-0.59143,1.2776
rOCYepHd,0.050589,0.29944,1.0292,-0.61531,0.29688
rQJaOPFI,0.096875,-0.068659,1.0309,-0.30171,-0.17544
rQhZtZeh,-0.017811,-0.07668,0.40665,-0.75361,1.0605
rapmok0w,-0.23131,0.12593,-1.3817,0.62381,0.16126
rgzfnPVu,-0.38924,0.014937,0.88997,-0.65943,0.87694
ri4qhb1S,-0.45504,-0.29049,-0.81187,-0.46401,0.55657
rqpFYzff,-0.63687,-0.29084,-0.11862,-0.47364,0.00975
rrs22coX,-0.42353,-0.094602,-0.20829,-0.44854,1.0123
sEeUCQLc,-0.50533,-0.16727,-0.74853,-0.48127,0.62607
sHScwqQl,-0.38649,-0.096766,0.092587,-0.96316,1.5536
sNC7DiAt,-0.46252,-0.29344,-0.19848,-0.41229,1.0491
sNK2TSs3,-0.49368,0.00042025,0.052581,-0.49716,0.92885
sO7Su6uw,-0.28523,-0.22032,-1.942,-0.023011,0.23583
sOWZx89o,-0.46398,-0.34171,-1.0814,-0.50125,0.93388
sPbRcPjC,0.02947,0.057664,0.52786,0.17308,-0.88724
scVUfTKI,0.14408,0.39089,0.33402,1.7228,-0.95205
seRaGeVv,-0.45361,0.030068,-0.29703,-0.30122,1.2522
sgtwiYWi,-0.24034,-0.31542,-1.3389,-0.00093442,-0.31247
sjmLHcT6,-0.68731,-0.28211,-0.66952,-0.57736,0.148
skZUZZGS,-0.25901,-0.3403,0.29133,-0.25759,0.30805
suAmzADX,-0.50117,-0.41094,-1.1957,1.5563,-0.99444
t4GWLqlO,0.42201,0.1241,0.86024,-0.2518,-0.031301
t7gy6Jyy,0.32119,-0.12146,1.4103,-0.86742,0.33643
tBadzH60,2.0013,0.19521,2.326,-0.56475,-0.76298
tXUWm0hp,-0.16499,-0.43342,-0.25785,0.56264,-0.64561
te6UPPxf,-0.68427,-0.036391,-0.74987,-0.34131,-0.72394
ti2lamkL,0.1804,0.34213,0.81414,-0.3524,0.22553
tr0lpwuU,-0.40837,-0.25474,-1.0739,2.1358,-1.2541
ttdB5C73,-0.399,0.048816,-0.29256,-0.15781,0.96883
twS8YZu9,-0.5169,-0.13014,-0.5399,-0.68551,-0.0042566
tx68W34H,-0.54008,-0.66174,-1.1325,1.0581,-1.2568
tyQSX4mY,-0.45175,-0.19213,0.405,-0.63044,0.59508
tylKCRc0,-0.34934,-0.092353,0.0078047,-0.51898,0.43603
u1544WUo,-0.48251,-0.10495,-1.208,-0.43196,0.74936
uAw9an0d,0.21658,0.28135,0.57198,-0.079813,0.013524
uLZAEXMG,2.5643,0.023479,2.0864,-0.12608,-1.0683
uMwe1s7I,-0.50947,-0.69298,-0.93178,0.5857,-1.1829
ufhGeV3q,-0.614,-0.30193,-0.39562,-0.57433,0.24379
uhAeGBHo,-0.43699,-0.6387,-1.818,0.12257,-0.83436
ujHNlqpw,1.2159,0.73926,1.5365,-0.059807,-1.0338
ulV6kuhB,-0.29857,-0.29933,-0.2123,-0.4478,0.53022
uohEnNEK,-0.22986,-0.26162,-1.1555,0.95494,-1.0502
v1lhA8I4,-0.39108,-0.27121,0.5077,-0.75826,1.4618
v3JzigLI,-0.36959,-0.41744,-0.72441,-0.55164,0.70907
v5IwjyIg,-0.41452,-0.25755,-0.41795,-0.40561,-0.76032
v6lp5TK1,-0.50982,-0.1728,0.66236,-0.59658,1.2579
v8vOaaWq,-0.32022,-0.20184,-1.1134,0.25483,-0.054619
vAYKtoil,-0.53924,-0.12609,-0.48542,-0.40231,-0.61596
vGTNQa6G,2.4203,0.22365,1.8646,0.84411,-0.21421
vQzNxHoL,-0.47218,-0.16393,-1.0015,-0.53398,-0.75672
vfZGBUJm,-0.21003,0.043196,0.01449,-0.33035,-0.21855
vlooVUoT,-0.31166,-0.030468,-1.1658,0.50298,-1.1882
vrACvd4O,-0.38595,-0.38619,-0.022298,-0.49763,-0.27619
w8hdjLwb,-0.48878,0.054074,0.033571,-0.53768,1.1861
wAntv4gH,0.048511,0.51812,1.8631,-0.7508,0.54307
wIUL09q0,-0.4992,-0.20209,-1.3318,-0.7786,0.13155
wOzx7Fgz,-0.27903,-0.21401,-0.040689,-0.56428,0.25002
wPhjhCJQ,-0.46163,-0.026881,-0.48153,-0.5989,1.2028
wQSWWmYB,-0.43268,-0.26657,-0.80888,-0.34081,0.73652
wdIMrXwy,1.764,0.15445,2.4889,-0.80395,-0.45168
wiL9npQc,-0.55838,-0.29291,-0.5946,-0.584,0.63311
wnU95Cxn,1.9977,0.41437,2.4321,-0.55438,-1.168
wpJbbjJs,0.23441,0.59098,0.93378,-0.22855,0.18983
wsOWTAbI,1.0977,0.31495,1.6148,1.1957,-0.72883
wtdBcU3U,-0.34848,-0.16138,-0.3796,-0.63493,0.17152
wuKXVxOc,-0.51035,-0.073227,-1.0908,-0.50685,0.67604
wyzadAt8,-0.40926,-0.4182,-0.52774,-0.63763,0.61515
wzaKzYwi,-0.035845,-0.40166,0.9978,-0.7328,0.71243
x6GCk4EV,-0.29854,-0.41876,-0.43757,-0.41784,0.3319
x6lUi3vf,0.092833,-0.14239,0.25458,0.2929,-1.2775
x8mwDHv9,-0.3576,-0.062535,0.0043455,-0.31269,0.13898
xIYm6puH,0.75378,0.38089,0.039495,0.57354,-1.1592
xO6UdpsK,0.60365,0.055383,0.18471,-0.62804,-1.4023
xQ2bkOvj,-0.63573,-0.60455,-0.99054,0.37102,-1.6711
xeXyDCEQ,2.9361,-0.12063,1.8441,1.0672,-1.0774
xrggHziO,-0.28141,-0.30596,0.13123,-0.48089,0.1487
y1WMCmqQ,-0.28763,-0.6165,-0.40115,-0.69002,-0.1753
yDngezhM,-0.34028,-0.13771,-1.0299,-0.69791,-0.50696
yLiFjMD0,-0.45003,-0.22217,-0.0050478,-0.48983,1.401
ySwEBO7w,-0.62716,-0.13408,-0.58664,-0.11407,-0.95626
ydC9UsSm,-0.31707,-0.23048,-1.252,0.66087,-0.23323
ydEG4VBd,-0.50096,-0.0521,-1.1777,-0.2036,1.0405
yf76yWXc,-0.28083,0.63572,1.1555,-0.65054,0.012277
yg70e63n,-0.4583,-0.14284,-0.50673,-0.063654,-0.12862
ywxtlSKv,-0.47517,-0.52882,-0.76795,-0.40397,0.029337
yzKPQPOR,-0.49482,-0.60888,-0.79796,0.13812,-1.1217
z5cnOnZ1,-0.28884,-0.645,-0.23455,-0.50308,-0.49632
zFLkOE0e,0.28856,-0.17845,0.47741,0.40474,-0.9591
zGi72mxL,-0.40291,-0.34549,0.14167,-0.12503,-0.71516
zN925UV3,-0.31858,-0.27229,-1.046,0.48911,-1.0808
zTy2ih7e,-0.31036,-0.036634,-1.2123,-0.73748,0.75094
zVFzAutw,-0.25606,0.016864,0.2571,-0.45092,0.90311
zYxNAkht,-0.54762,-0.26661,-1.0617,-0.50685,0.49051
zaWDBai3,-0.37533,0.0091609,-0.3479,-0.4499,1.7663
zg3u0Zsx,-0.30615,0.45181,-0.024288,0.10785,0.20988
zlwLfdsS,-0.45237,-0.53027,-0.79492,1.2463,-1.3948
zmbKzVfl,-0.33416,-0.288,-1.6266,0.086137,0.27052
