PIDN,Ca,P,pH,SOC,Sand
09gt9UK5,-0.64898,0.1468,0.12099,-0.51899,0.14585
0BVvxJ6a,-0.081366,0.28525,0.8213,-0.18469,-0.3769
0KbdgApg,0.025742,0.26772,0.5418,0.40406,-0.52751
0MnuuduB,0.4279,0.60143,0.46883,1.2655,-1.2365
0PcIsF9z,-1.0601,0.053365,-0.61671,-0.078462,0.17506
0ShTFLYJ,-0.89647,-0.093449,0.36744,-1.3753,0.36339
0XZh9jka,-0.026978,0.66155,-0.41069,1.8443,-1.2632
0Y7Wegri,0.15234,0.3457,0.80864,0.2855,0.19596
0dTqplIM,0.27251,0.52612,0.83368,0.62312,-0.72674
0lNiZicC,-0.79925,-0.18809,0.10495,-0.8766,-0.1188
0rGeJ0QN,-0.51398,0.32999,0.016078,0.24086,0.29295
0sXI9ytQ,-0.54838,0.31916,0.18001,-0.57551,1.3745
0ukt4aP6,0.11671,0.2974,0.93543,-0.044604,-0.39751
1AGspb8f,-0.72028,0.13217,-0.39734,0.48989,-0.61859
1Csy0gvE,-0.52482,0.28121,0.15291,-0.38003,0.9779
1Ic2hly1,-0.40678,0.46005,0.024636,0.21128,0.15195
1PPbaTwt,-0.5214,0.098852,0.3127,-0.47963,-0.25039
1SO5VJNy,-0.49201,0.34411,0.21661,-0.28475,0.94317
1arHxK3Y,0.85984,0.68152,1.6029,0.43789,-0.34424
1fCW4Bba,-0.36863,0.44465,0.21437,0.099512,0.18129
1qDZNvIm,-0.80458,0.28084,-0.12468,-0.45025,0.9832
28LYJC2V,-0.66801,0.24972,-0.23657,0.52457,-0.36561
2CzACvQq,0.87147,0.42348,1.4836,0.45138,-0.51237
2FT3crfv,0.04713,0.49024,0.3864,0.6386,-0.64601
2Fy2uHVg,-0.89394,-0.044403,-0.21058,-0.38812,-0.23634
2MkMEApm,-0.28406,0.51721,0.40507,-0.25876,0.7303
2NDGWEOe,0.69136,0.39254,1.8309,-0.12041,-0.46714
2NyyCiqn,-0.51115,0.32018,0.30335,-0.40721,0.88974
2QRzIb84,0.83997,0.5494,1.5865,0.22252,-0.14472
2QcbdrUZ,-0.62144,0.31721,0.11753,-0.55645,0.56923
2YgAimWK,-0.29566,0.41567,0.29787,-0.020493,0.38101
2cx85d9H,-0.013758,0.20851,0.56544,0.26124,-0.58348
2homMXMV,-0.77518,0.24099,-0.2497,0.10451,0.38976
2ldLrUtq,-0.61128,0.12073,-0.068697,-0.041487,-0.49692
2nsACW6G,-0.557,0.12779,-1.1249,2.0239,-1.5019
2yMbVnWc,0.0084285,0.47065,0.11565,1.3193,-0.31676
36r8sgGQ,-0.67627,0.2117,0.16627,-0.70726,0.93769
3NXAXCl3,-0.75647,0.09005,-0.79519,1.0641,-1.0749
3QG0z6fl,-0.60167,0.06998,0.23361,-0.51187,-0.11002
3WS8R9qm,0.28565,0.45448,-0.30632,2.6132,-1.6839
3fRLm8f5,-0.77464,0.20679,-0.29776,0.12242,0.27938
3mZhp1nQ,-0.41554,0.33496,0.2149,-0.24772,0.44319
3pikJXRL,-1.0051,0.010221,-1.0301,0.90638,-1.0116
3pxOEGHL,-0.75373,0.20429,0.092614,-0.66869,0.83776
3ttdV3f5,-0.67621,0.25043,-0.28777,0.074322,0.014502
3v4X6Mfe,0.34992,0.30085,1.3803,-0.22597,-0.3846
3wORuPiv,-0.43056,0.38572,-0.14765,0.50442,-0.95679
43EfrxZj,-0.0049209,0.34318,0.46368,0.49047,-0.58021
457Vwm21,0.17092,0.32404,0.83859,0.35045,-0.19225
46KNnOdx,-0.83416,0.11136,-0.47047,0.31247,0.039307
47TwNsVC,-0.43949,0.17269,-0.82756,1.829,-1.5151
49856RpO,-0.87091,-0.036576,-0.47113,0.090002,-0.5056
4Ane1o2N,-0.61147,0.23124,0.14753,-0.42341,0.46641
4AyVUgSc,-0.60544,-0.034742,0.27364,-0.70329,0.066603
4B1951On,-0.37472,0.17472,0.49751,-0.22368,-0.55381
4OL39Teo,-0.045164,0.42445,0.46388,0.51623,-0.42772
4eQ90eLY,-0.16576,0.34071,0.2283,0.58752,-0.78829
4o5jwMj8,-0.53343,0.17575,0.36363,-0.48169,0.2719
4vPgpl2c,-0.83706,0.12897,-0.15266,-0.39611,0.03692
51r9aA0d,-0.45362,-0.031227,0.30049,-0.51719,-0.088447
58SmeRoP,-0.078242,0.26819,0.26621,0.60351,-0.46664
5HJp1AXn,-0.46753,0.42202,-0.2013,0.5112,-0.2019
5MBZW7fx,0.065086,0.31067,1.0663,-0.1391,-0.4987
5Nq3gHaP,0.10351,0.50468,0.64071,0.61682,-0.47586
5RmwFFK3,-0.089979,0.44525,0.67533,0.26063,-0.62949
5Tu5Jbov,-0.65975,0.1167,-0.11696,0.084275,-0.40615
5YEolkev,-0.51412,0.12923,0.20521,-0.21521,-0.40361
5a8sf6QV,0.03532,0.27714,0.71445,0.21998,-0.53609
5eSvmqYm,-0.66421,0.14224,0.090533,-0.46945,-0.10168
5hkN8fiv,-0.76704,0.075574,-0.55581,0.59718,-0.46865
5oK8Gti5,-0.54389,0.25866,0.23159,-0.3954,0.35362
5paniGaU,-1.1006,0.1481,-0.31355,-0.74769,1.46
5vsr7ZUP,-0.15107,0.23824,0.88753,-0.48876,-0.30644
60B4xMWI,0.33506,0.47945,1.2335,-0.20904,0.026096
64jOUtKy,0.36202,0.49842,0.83376,0.86008,-0.67682
6AJo4xNG,-0.38083,0.40777,0.019553,0.29303,-0.057258
6CAvhEte,-0.54006,0.15104,0.22702,-0.37405,-0.13249
6CuGYjT5,1.3202,0.65257,1.9275,0.63209,-0.82261
6DGH8ujZ,-0.91744,-0.0051935,-0.65856,0.35793,-0.23396
6PzsGdVm,-0.70574,0.12979,-0.38756,0.48016,-0.15845
6UcSJMbq,0.51967,0.60037,1.4495,-0.1159,-0.13682
6WJbkH8U,0.51402,0.39857,1.4913,0.0094917,-0.66897
6eUWsVzw,-0.0991,0.18704,0.84367,-0.27418,-0.55697
6gNyO7Do,0.12434,0.32399,0.66342,0.50321,-0.53739
6jT0AyHe,0.021545,0.31057,0.3918,0.60419,-0.823
6nBgCvWu,-0.49971,0.36574,0.067972,-0.17105,0.80829
6ro5mqg6,-0.59938,0.35734,-0.076852,-0.12022,0.81577
6sGqObX4,-0.67456,0.021175,-0.17479,0.14667,-0.75785
6uEGy0n4,1.1495,0.55095,2.2306,0.23585,-0.74708
7BZ4LxP8,0.076737,0.26224,0.70004,0.25583,-0.9023
7CmigXKi,-0.68177,0.063174,0.083717,-0.51108,-0.38299
7Ga0LpfR,0.26441,0.72729,0.77364,0.88515,-0.55691
7PQsFvsG,-0.70664,0.1664,-0.51964,0.7721,-0.40366
7aF7nnwn,-0.55341,-0.022652,0.51249,-1.1189,0.76969
7asGzfX9,-0.24716,0.40973,0.45929,-0.11831,-0.15517
7cg7C92o,0.14893,0.52876,0.57972,0.7476,-0.29769
7eOxTpsB,-0.60184,0.21637,0.32902,-0.43431,0.76195
7ey0v7ma,-0.6517,0.16213,-0.62782,0.99974,-1.1604
7gocyrYl,-0.4918,0.30258,-0.13194,0.61915,-0.34189
7gqR3GoA,-0.88622,0.11857,-0.099697,-0.51132,0.12705
7og7aUXB,-0.0106,0.42267,0.56521,0.36063,-0.41541
7onRfa8F,0.14762,0.49874,0.70808,0.10509,0.54837
7umkNuxM,-0.56374,0.27925,-0.13318,0.28789,-0.23597
7vPr9ExD,0.0022983,0.22689,0.55371,0.32549,-0.43514
7zNjpCzu,-0.70528,0.071076,-0.20743,0.087082,-0.52818
7ztsQNj3,-0.63705,0.10554,-0.13412,0.095399,-0.27544
86gppwMI,-0.64054,0.13658,-0.088544,-0.006559,0.47124
88thAGdL,-0.074913,0.20756,0.38604,0.31483,-0.050261
8GhU8STP,1.0027,0.59203,1.6407,0.68028,-0.70656
8NlzDcWe,-0.50127,-0.062289,0.36405,-0.77618,0.23573
8QAejdLW,-0.020558,0.21777,0.43551,0.36447,-0.57418
8RDeFxWM,-0.66314,0.15329,0.017636,-0.37397,0.93709
8UXP2NBS,-1.1186,0.13015,-0.44539,-0.57031,-0.29229
8ZoV3KGT,-0.11333,0.18194,0.63004,-0.025425,-0.45174
8ajs2uG8,-0.78364,0.041383,-0.35597,0.14289,-0.65691
8bXnz62p,-0.12161,0.46779,0.24714,0.71586,-0.2016
8nO1O1LG,1.3618,0.68095,1.7613,1.1501,-0.82793
8xE1p8g8,-0.82127,0.17087,-0.3458,0.020909,-0.81706
8yMDVMRM,-1.01,-0.044496,-0.59321,-0.06618,-0.41112
98R5VaPi,0.84817,0.51193,1.542,0.10523,0.11582
9DcTz2Ua,1.4806,0.64607,2.0009,0.74135,-0.737
9G7nfUrK,-0.2017,0.53532,0.43817,-0.18594,0.32514
9O6GZ1HT,0.51496,0.47176,1.432,-0.1212,-0.42764
9S7fCoAM,-0.60873,0.35442,0.076052,-0.36211,0.53704
9iQwmFJR,-0.41937,0.18172,0.39461,-0.30045,-0.41424
A3Mt6SAQ,0.74386,0.34886,1.8708,-0.43863,0.11893
AJIsQIcV,-0.5636,0.13187,0.2278,-0.39187,-0.17035
AMHKXMh8,1.1245,0.52078,2.0415,0.3855,-0.69394
ASwA2J4E,-0.47425,0.3317,0.26391,-0.30433,0.89907
AaFvEoHq,-0.51888,0.22776,0.4979,-0.4857,0.33753
AiIPD6hX,-0.30504,0.27377,0.079601,0.41796,-0.66011
AsIURvJS,0.051852,0.38794,0.13965,1.3177,-1.0628
AsvgbJ0C,-0.69669,0.2139,-0.29648,0.42736,-0.10805
AxEhbkCM,-1.14,-0.081107,-0.56142,-0.48474,-0.46274
B7VPkIpx,-0.27174,0.33162,0.55017,-0.21155,-0.19402
BBwHqHiH,0.081566,0.2885,0.55553,0.55897,-0.7764
BMyps8hr,-0.16134,0.23123,0.36233,0.24474,-0.87856
BUHS4dQw,-0.038614,0.42839,-0.039264,1.522,-0.79581
BZB3EYWQ,-0.50996,0.36187,0.10406,-0.069155,0.75915
C5UPCZcL,1.6111,0.5727,1.8788,1.0237,-0.81286
C5gIfQbJ,-0.6303,0.091035,-1.0263,1.5831,-1.2241
CDRuu4Pn,-0.36999,0.2076,0.3998,-0.482,0.89193
CQhTYkqE,-0.062849,0.34728,0.84069,-0.080126,-0.57001
CSEobMXv,-0.77506,0.087733,-0.71705,1.0577,-0.91217
CYMQE4x0,0.42576,0.41174,1.4072,0.067021,-0.18504
ChQdtl4J,-0.59895,0.30268,0.026581,-0.34571,0.21492
ChnD1nrN,-0.69863,-0.15835,0.14032,-0.76383,-0.14254
CvtbbIcq,0.55999,0.37811,1.2294,0.45324,-0.55963
Cxk06b77,-0.035875,0.4219,0.55843,0.36683,-0.3793
D3QD3ZEJ,-0.58797,0.18991,-0.12618,0.28309,0.042596
D8J5C6lA,0.76552,0.63599,1.6508,0.31603,-0.60028
DCeQwYfT,-0.3502,0.28271,0.28808,0.079103,-0.22696
DDEftkx3,-0.97275,0.22437,-0.21664,-0.58659,1.3765
DEwCfeDW,-0.1616,0.44144,0.21403,0.64348,-0.22976
DMkIV4oL,-0.84609,0.095812,-0.085057,-0.60256,0.82798
DnzGfbxS,0.040975,0.35236,0.53935,0.48311,-0.89495
DoZxo6f6,-0.63766,0.2473,0.0050947,-0.20528,0.28636
DvhBPGIk,-0.75804,0.16427,-0.24459,-0.09769,-0.15666
Dx7GoUcT,-0.639,0.30634,0.0019716,-0.49324,0.91745
E5hIjohO,0.45256,0.54116,0.80695,1.0977,-1.0518
E6x4XGHt,-0.4452,0.26018,0.3536,-0.33166,0.094792
EDEpAzh1,-0.76032,0.17197,-0.28934,0.061109,-1.1503
ETGudkQt,-0.28806,0.35738,0.28744,-0.030954,0.080741
EUleKrLJ,1.1817,0.62951,1.7832,0.55727,-0.49522
Ehw2Jz6s,-0.8656,0.044987,-0.18403,-0.30659,-0.23484
EjqzC4zH,-0.44048,0.26668,0.49009,-0.40087,-0.22291
EkMZO3Qj,-0.51944,0.40686,-0.0016166,-0.18324,0.29044
EnoNXWvU,0.59264,0.57573,1.5422,-0.17857,-0.23344
Epv8ANwr,-0.63832,0.24419,-0.15333,0.24605,-0.051095
Etro9j0B,0.051235,0.54021,0.6567,0.5997,-0.45424
F3MIZj76,-0.6539,0.16385,-0.38731,0.42946,-0.19215
FB8tU00K,-0.78233,0.22739,-0.35765,0.44125,-0.27903
FLhxBGMK,0.41188,0.36677,0.71377,0.67262,-0.81589
FRreR8ka,-0.55625,0.3046,-0.072554,-0.034083,0.15199
FXne4oAV,0.12454,0.44409,1.1253,-0.1179,-0.40613
FaW764jk,0.006418,0.45405,0.64191,0.2325,-0.20152
FeAbMXly,-0.89975,0.10675,-0.093672,-0.67385,0.8379
FeudaFXn,0.86095,0.47629,1.9659,-0.14701,-0.59856
FldUmFeM,0.97902,0.38285,1.6143,0.16648,-0.28673
Fnv5tfAm,-0.62701,0.16261,-0.30717,0.47962,-0.36237
FvrAd3Or,0.2121,0.39322,1.1078,-0.33219,0.063434
G48zHffi,0.56087,0.39797,1.4122,-0.10831,0.081243
G76zCv5N,-0.52568,0.18004,0.10096,-0.1266,0.24262
G7JGUdNf,-0.013725,0.14852,0.62234,0.19309,-0.75647
GCo6MONx,0.85641,0.7092,1.4945,0.60694,-0.60945
GE0vbpVQ,-0.24582,0.24546,0.72796,-0.47922,-0.11511
GN0DfOqt,-0.14536,0.51091,0.4537,-0.16991,0.33735
GNsTAb1v,-0.38577,0.24532,-0.038315,0.38678,-1.224
GPwmO21z,-0.67874,0.198,-0.1655,0.1763,-0.25004
GQYpfLoh,-0.074648,0.47386,0.56362,0.4407,-0.66157
GR9knT8n,-0.7407,0.096393,-0.53176,0.60225,-0.33844
GXtFFbZy,-0.025083,0.35537,0.36546,0.57467,-0.13937
GYvzvvFD,-0.7035,0.090722,-0.23843,0.074195,-0.0091112
GemPjTJ9,-0.42018,0.29609,-0.09371,0.37173,-0.22145
GkLYRm1K,1.0403,0.47637,2.1397,0.016154,-0.70252
GmlqP8eI,-1.272,-0.084089,-0.66672,-0.58326,-0.36129
GqkIrOvf,-0.21052,0.28371,0.036758,0.92303,-0.62835
H0fsegPi,-0.7015,0.19013,0.013816,-0.52559,0.41292
H4dHpJjU,1.2412,0.61432,1.7786,0.75336,-0.77705
H5QwJCuU,1.3652,0.5745,1.935,0.76295,-0.51616
H5uwmSZ0,-0.62215,0.28119,-0.0142,-0.38353,0.42218
H8MtbVoL,-0.069282,0.10523,0.47044,0.17902,-0.42239
H9JrUYnp,-0.45088,0.37069,-0.021658,0.19999,0.23053
HHYmmHVk,-0.54634,0.17629,0.14503,-0.52001,1.1513
HJ5U4uqL,-1.2358,-0.0807,-0.72164,-0.20097,-0.254
HNQxYc4w,-0.86317,0.082687,0.087486,-0.73583,0.16661
HQYhKHZ8,-0.98375,0.053275,-0.50174,-0.19115,-0.32889
HSCMx0MC,-0.60532,0.16189,0.022732,-0.28275,0.91554
HXYuE0fx,1.3039,0.56195,1.9124,0.61489,-0.83329
HdKcxEWr,0.12501,0.49474,0.65305,0.46776,-0.31623
HecW1iCC,-0.61374,0.23541,-0.26403,0.24772,-1.1685
HpbKB8rv,-0.86071,0.087335,-1.021,1.3257,-1.0912
HrkoYjCg,-0.23396,0.41918,-0.15077,1.111,-0.56724
I5P2uquT,-0.46733,0.20933,0.39245,-0.28156,-0.50779
I94qkDM7,-0.84625,0.025624,-0.27561,-0.23116,0.28489
I9sQbtt8,-0.57813,0.25232,-0.63441,1.3812,-0.93517
IFxgw6ZX,-0.63517,0.25768,-0.14932,-0.017344,-0.46169
IPPPSyoU,-0.8597,0.069317,-0.41177,0.22029,-0.40719
IQOYQubU,0.97526,0.51935,1.5688,0.50523,-0.63163
IYNE2SxU,-0.82028,0.019206,-0.26166,0.076498,-0.67206
IZRFk9kN,-0.23139,0.44789,0.45964,0.04825,-0.19159
Iaq3v0t3,0.90959,0.41352,1.9372,-0.070965,-0.082031
IbVwu1t6,-0.98433,0.014587,-0.56907,0.081782,-0.18145
IcHKTLyo,-0.046018,0.16772,0.39996,0.45075,-0.53349
IpW80wVB,-0.97998,0.032917,-0.37841,-0.23298,0.021853
Itb0PYUV,1.2593,0.68609,1.8193,0.86385,-0.70654
J8fpSwS0,-0.52652,0.26603,0.40069,-0.4815,0.65023
JE1SlbD0,0.52274,0.63428,0.83079,1.2993,-1.0309
JEB4McNb,0.49728,0.43841,1.4335,0.16812,-0.66528
JEE4QVeQ,-0.3514,0.10995,0.5302,-0.29594,-0.41934
JJSEU2VQ,-0.71181,0.34118,0.043181,-0.363,1.0277
JSsVriP2,0.15664,0.34558,1.1506,-0.51419,-0.098115
JUvQNiOK,0.11794,0.42621,0.94655,0.0526,-0.080621
JZbrRtm2,0.59099,0.49348,1.557,-0.19431,-0.2612
JcE9G92B,-0.091254,0.49227,0.06005,0.82837,-0.60246
JnNYpXHr,0.16222,0.52568,0.61931,0.93104,-0.54567
JzpbnOtz,-0.53818,0.28551,0.31903,-0.18405,0.44189
JzzUhPQp,1.1171,0.50027,2.1279,0.28368,-0.75602
K05R8dQK,-0.45403,0.30766,-0.21515,0.76199,-0.40975
K17pG2mG,-0.27702,0.1028,0.81174,-0.74936,0.3328
K8BellUe,-0.087304,0.27096,0.62467,0.31391,-1.0711
KJ2eH6rr,0.36223,0.4526,0.83926,0.87885,-1.232
KJEJ6Glk,0.47284,0.57502,0.82521,1.0955,-1.0924
KSbO0oXS,0.52582,0.5427,0.91973,1.1179,-0.84065
KXtvmd01,-0.50756,0.30068,0.24217,-0.43945,0.75023
KYiJqBuJ,-0.16534,0.15347,0.83193,-0.40677,-0.54977
KmbAyTcE,-0.10042,0.48081,0.44687,0.14207,-0.29989
KnNyl3rV,-0.04746,0.32389,0.9066,-0.2688,0.30937
Kp2DG8TZ,-0.2396,0.32471,0.75285,-0.3823,0.050412
KqQtKWs5,-0.49821,0.044603,0.50884,-0.81652,0.50814
Ku27g63R,1.5872,0.51307,2.0431,0.87611,-0.84301
L2aTVqDq,-0.74391,0.13343,-0.51959,0.71978,-0.50072
L5jvq6G4,-0.40132,0.065251,0.48323,-0.64759,0.54362
L91hYVQl,-0.5028,-0.090582,0.41465,-0.81951,0.081793
LINAMlbA,-0.48196,0.28541,-0.11485,0.44419,0.082423
LJoUNXSx,-1.0924,-0.059794,-0.79402,0.23386,-0.27965
LLtSiyWD,-0.81578,0.024539,-0.017181,-0.6399,0.20201
LQJtV8kn,0.17284,0.27379,0.70896,0.35329,-0.79019
LW9uddw7,-0.50599,0.24431,-0.5676,1.3384,-1.1211
LZ6sdBTR,0.67006,0.5134,1.5276,0.41665,-0.57019
La2Vhnne,0.19847,0.46238,0.53172,0.87863,-0.45973
LaUWSq9B,0.3359,0.43157,0.80413,0.62659,-1.2342
Lk4SfkPQ,-0.207,0.45704,-0.095116,0.89059,-1.2139
LllC836d,-0.61094,0.16908,-0.22216,0.36487,0.12736
LuGiGeWN,-0.53155,0.13284,-0.10148,0.16417,0.18968
LzcyHcWa,-0.72861,0.26608,0.018416,-0.44819,1.145
M7veP0H4,-0.30934,0.48176,0.3131,-0.089515,0.45966
MB8aaJUc,-0.76254,0.14301,-0.4575,0.55533,-0.074222
MDpe2zuy,-0.8233,-0.067994,-0.24692,-0.19275,-0.4291
MEzdmEIU,-0.61101,0.26607,0.22174,-0.38578,0.38662
MVnhtivm,-0.758,0.10984,-0.29813,0.12615,-0.12306
MYU7WDis,-0.27676,0.31525,0.75871,-0.52113,-0.0021596
MZFqh6yw,1.2851,0.42786,1.7034,0.56723,-0.27185
Mdgy4SsO,0.14461,0.53908,0.64622,0.96726,-0.91131
Mj8awnzy,-0.2927,0.36943,0.58856,-0.35695,0.58085
MpFPbUJy,1.4834,0.70328,2.1776,0.875,-0.88234
Mqk7MFBM,-0.30279,0.45289,0.53741,-0.4887,0.43107
Mqs2t1Eo,-0.61792,0.26141,-0.24235,0.37221,-1.0305
Mv3jFVxp,-0.62237,0.23118,0.0084744,-0.024567,0.16593
MxODTXvA,0.40859,0.40875,0.64799,0.84767,-0.69209
N46PbpPM,-0.48285,0.13689,0.48076,-0.97088,1.4662
N5S5F9Gk,-0.62856,0.065672,-0.15996,0.10327,0.29471
NLDg5fqw,-0.36282,0.24768,0.46832,-0.33375,0.091231
NOho2ZiM,1.4196,0.54488,1.8562,0.86734,-0.8618
NUuY7PFU,1.3407,0.68752,1.7984,1.0556,-0.88183
NV1e8AEO,-0.61215,0.36316,-0.03757,-0.047328,0.90621
NZLXROKC,0.039577,0.29775,0.64009,0.328,-0.49498
NaJo7C6o,0.078885,0.31643,0.88717,0.14267,-0.3336
NgsyGkrO,0.080314,0.37834,0.52028,0.70242,-0.79929
NjOx4Zpo,-0.55373,0.21358,-0.45478,1.089,-0.86328
NmQoI7x0,0.97047,0.352,1.694,0.31321,-0.54835
No4wkdLS,-0.66955,-0.084381,0.27584,-0.77449,0.021806
NouMwhOf,-0.0060982,0.30726,0.48821,0.37208,-0.7902
O6YAWd8C,0.038326,0.23686,0.52165,0.38013,-0.73209
OAXVphSh,0.70675,0.27178,1.3043,0.32817,-0.4822
OJBBhb6Q,-0.56074,-0.008627,0.52747,-1.1423,1.114
OSIQXImL,0.4089,0.51179,0.90826,0.72878,-1.0944
OUUFc5Zz,-0.67951,0.22364,0.0075059,-0.42308,0.61358
OVk1lquT,0.1947,0.52004,0.51422,1.0514,-0.51082
OXdRxjzz,-0.79778,0.061755,-0.43303,0.31493,-0.44744
OXxW2ekf,-0.64182,0.34905,-0.03963,-0.28024,0.10216
OXz5OpqR,0.11235,0.48428,0.8272,0.35174,-0.39138
OcBFW1AX,-0.48042,0.23032,-0.13051,0.46793,0.056653
Of9V2rpt,-0.050223,0.28912,0.70088,0.069963,-0.2504
OfLxPhbG,-0.35757,0.29635,0.43953,-0.06049,-0.32915
Ojx2vi48,-0.57026,-0.0108,0.37256,-0.81735,0.34589
P3M32iuT,-0.70563,-0.048814,0.4032,-1.0726,0.48707
P7olVzrO,-0.70551,0.18158,-0.09698,-0.15998,0.0088459
PAPHErnv,-0.92459,-0.01143,-0.63633,0.30597,-0.25498
PBjEtfXb,-0.44023,0.34593,0.45999,-0.38009,0.60107
PZGpoBBj,1.0893,0.5079,2.1748,0.074311,-0.65234
Pc2RrxXS,-0.53347,0.14906,-0.021145,-0.018023,-0.51965
PcHQ4FOu,-0.70411,0.051483,-0.2039,-0.073218,-0.059321
PeNyTOVN,-0.18852,0.48637,0.43119,0.1395,0.011873
PhUPSU53,-0.61488,0.22372,-0.27455,0.35739,-0.92516
PmUNeV2O,-0.83238,-0.1116,0.22825,-1.2006,0.28588
PoDJ0uvK,1.2203,0.6019,1.8207,0.72236,-0.649
PsUJdJdg,-0.23597,0.38413,0.17597,0.47466,-0.40868
Q3xLFx1f,-0.82961,0.065651,-0.42031,0.28157,-0.67127
QBGxCvdM,-0.15794,0.16212,0.59581,-0.089142,-0.56428
QCEPyu6L,-0.7711,0.16516,-0.32986,0.33884,-0.45764
QEfwec4s,1.9202,0.5882,2.0749,1.3819,-0.81819
QZ87Nnr3,-0.48141,0.37331,0.23996,-0.50317,0.54513
QlyGN9jv,-0.70127,0.19515,0.001126,-0.23926,0.49227
QqgWE1ny,-0.58571,0.19613,-0.14636,0.33954,-0.37581
QrjjBpZd,-0.71485,0.067516,-0.73559,1.1182,-0.91272
QsaBiX7V,-0.52983,0.27659,-0.026674,0.23973,-0.27669
QtBKJuZk,-0.38992,0.17978,0.44835,-0.39602,-0.19646
QtPRO8OJ,-1.0334,0.016428,-0.20534,-0.64833,0.19179
R8XcsFnp,-0.36586,0.26581,0.2268,-0.00024496,0.7328
RROfRt9z,0.31127,0.49211,0.72162,0.91455,-1.0413
RTcbiDGq,-0.76038,0.091861,-0.15601,-0.28361,-0.16069
RVidM9g0,0.42613,0.44037,1.3849,-0.47256,0.35085
RZnQSH19,-0.78983,0.20293,-0.048979,-0.65538,1.2354
Rc4UK7fT,-0.52682,0.23837,-0.11697,0.3518,-0.0059467
RcKBKh6B,-0.43709,0.39319,0.081206,-0.00014821,0.3818
ReM5kDa5,0.06899,0.24449,0.60862,0.39445,-0.51891
RfntsotG,-0.64891,0.21032,0.075094,-0.64304,0.97254
RiXMlzXD,-0.59151,0.076394,0.0088839,-0.16584,-0.39954
Rik83O3m,-0.79074,0.1063,-0.058548,-0.26584,-0.1874
S3PCzDzO,-0.14382,0.2891,0.84961,-0.36935,-0.35944
S77BviOJ,-0.6534,0.13181,-0.17117,0.063124,0.0074773
SDdvtktF,-0.74702,0.045049,-0.33456,0.25179,-0.77341
SHs1AyfM,-0.36061,0.25579,0.39821,-0.19827,-0.040993
SO4zQy9k,-0.64164,0.29512,0.16538,-0.42728,0.76173
SOOBCoiG,-0.58188,0.0081992,0.3764,-1.0342,1.3172
SXkkPB7A,-0.4455,0.34699,0.29924,-0.11431,0.84101
Sa93dGqq,-0.19765,0.37086,0.15096,0.70113,0.097326
SonIG72a,-0.64214,0.28519,-0.01073,0.0019446,0.54149
Suf6hIBc,-0.58364,0.28489,0.18874,-0.4242,0.97881
Sx2JeSRz,0.071412,0.40038,0.81935,0.17904,-0.16598
T1Tlftr4,-0.36624,0.31231,0.56567,-0.406,0.53816
T7ulR4ci,-0.30243,0.26346,0.43508,-0.436,0.63579
TA1NB3Br,-0.47063,0.35686,0.27386,-0.26334,0.80704
TFZUskaK,0.11554,0.42461,0.57059,0.39426,-1.0124
TNL8HGWZ,-0.17583,0.10411,0.46747,-0.017947,-0.46399
TZ8z1GSF,-0.95583,-0.04504,-0.34202,-0.23294,-0.21686
TqhRvkJJ,0.46733,0.25013,1.3821,-0.11162,-0.5917
TtJCUiY4,-0.48192,0.35377,0.333,-0.28808,0.82266
TwDq0lua,-0.16555,0.1291,0.70087,-0.10955,-0.46683
Tzyf02sI,-0.18135,0.22139,0.67077,-0.48025,0.85588
U3yI6ZS5,1.7258,0.64917,2.0682,1.1359,-0.8749
UBLnXZAN,-0.64973,0.1476,-0.95007,1.5611,-0.92081
UBWDzleg,-0.63529,0.21123,-0.29967,0.61966,-0.48609
UBqkX6SY,1.1016,0.55256,2.1111,0.32252,-0.69149
UCIAi1Aj,-0.83858,0.048919,-0.31779,-0.13556,-0.60704
UPbXGvCS,-0.07072,0.18891,0.59532,0.11643,-0.72825
UeWm1l9F,-0.73606,0.18962,-0.44676,0.63309,-0.29523
UhucscY7,-0.80818,0.062639,-0.42903,0.1321,-1.1938
Uri1SvHV,-0.095374,0.20396,0.4712,0.19703,-0.68301
UzxipGJS,-0.66355,0.25485,0.039721,-0.36631,0.53722
V74zfaAQ,-0.06227,0.23046,0.42318,0.44424,-0.71011
VBPxBLTh,1.1065,0.60102,1.6308,0.82699,-0.73444
VLG7CXYS,-0.47214,0.33198,0.12196,0.069986,0.37282
VNk52SpF,-0.47642,0.21573,-0.8621,1.9009,-1.4634
VOREKsok,-1.0457,0.15415,-0.3479,-0.75337,1.6402
VRhTr5pX,-0.60101,0.17538,0.21859,-0.68281,0.45177
VTcG4Kcw,-0.30071,0.38662,0.48712,0.00068876,0.40813
VeKiWSbS,-0.47505,0.30539,0.32078,-0.37421,0.78045
VnU8nJHU,-0.50343,0.25835,0.12939,-0.11692,-0.0027252
VueNCxYv,-0.5047,0.39981,-0.092241,-0.034918,0.17265
VxuQTRUl,-0.74434,0.13997,-0.10201,-0.18782,-0.39225
W5lgaocA,1.1303,0.54594,1.8292,0.35222,-0.27339
W5mMq9Ef,-0.7852,0.22151,-0.30782,0.2265,0.004176
WDhNqFpS,0.30783,0.45201,0.47376,1.2022,-1.1114
WE6n1kZi,-1.0142,0.010144,-0.77216,0.49734,-0.3078
WFk6r3vA,-0.64876,0.10509,-0.092595,-0.025306,-0.053894
WFyIrsUR,-0.14836,0.26985,-0.54677,1.9116,-1.3918
WG6ZAsqR,-0.94201,0.16796,-0.10716,-0.74433,1.0879
WMq3CZQk,-0.707,0.11461,-0.55592,0.83578,-0.86184
WRskmGjh,-0.9843,-0.16656,-0.32925,-0.35041,-0.37629
WXijSglj,-0.94497,-0.03635,-0.42301,-0.09073,-0.38666
Wc0stQgu,-0.75468,0.029124,-0.52529,0.5055,-0.43858
WewoSCUB,-0.63505,-0.062106,0.4124,-1.1057,0.54435
WuHuhHWJ,-0.22958,0.33005,0.53343,-0.43519,0.77399
Wv7EBtZb,1.0529,0.58615,1.8438,0.39143,-0.71308
WyPlxDn0,-0.64502,0.32879,0.18685,-0.42066,0.85325
X3WqoSNN,1.1514,0.70383,1.7413,0.67735,-0.70488
XDhyP9KB,-0.52614,0.17184,-0.03232,0.31201,-0.51369
XQxhDRMG,-0.60158,0.16869,-0.14158,0.11369,0.27597
XjLNAwxW,0.059559,0.34487,0.40132,0.68251,-1.0776
XjfVQbXd,0.67619,0.43211,1.7551,0.080862,-0.44365
Xovczbf6,-1.0163,0.14716,-0.3038,-0.69979,1.4994
Y8H4onBf,-0.37289,0.14017,0.54854,-0.67071,0.4619
Y8YgzSZ9,1.4925,0.74284,1.8804,0.97635,-0.59202
YC4PNV20,-0.5325,0.35061,0.081125,-0.31655,0.84813
YDHSCRdd,2.1184,0.64286,2.1219,1.7651,-0.93034
YIJ87aME,-0.43745,0.33933,0.22747,-0.076881,-0.067002
YKvT4dFv,-0.83309,0.15592,-0.16869,-0.17384,0.28741
YNebALR2,-0.6917,0.097402,-0.23714,0.037326,0.055276
YNrnqFyb,-0.069248,0.53238,0.52067,0.1816,-0.13186
YUZ4lR3m,-0.8896,0.25597,-0.28658,-0.28406,0.2784
YYLvjoVC,-0.058227,0.39175,0.87677,-0.011038,-0.60543
Yb8OtMb2,0.059201,0.21244,0.62665,0.31151,-0.64111
Ycg4lTYw,-0.72469,0.049607,-1.1704,1.56,-1.4167
Yfk6tekH,0.60546,0.51326,1.4095,0.14889,-0.36067
YoSfgmR6,-0.62243,0.081376,-0.16124,0.22714,-0.54831
YpzFvexy,-0.90164,0.01242,-0.41305,0.085169,-0.46017
Yxqppfa3,0.20983,0.40278,0.64958,0.95747,-1.0134
Z16jTUvP,-0.52022,0.36755,-0.045247,0.23171,0.056896
Z2BdCCbJ,-0.43485,0.36951,0.22662,-0.06963,0.87044
Z2JJMM6V,-0.68613,0.3637,-0.24024,0.12808,-0.18852
Z5jE1OB5,-0.33796,0.34114,0.25626,0.087017,0.15076
ZFsIqYxA,-0.74238,0.14036,-0.37083,0.092752,-0.28344
ZHDVsoRh,-0.74995,0.11854,-0.29705,0.12551,-0.47259
ZSmfu2Fc,-0.54697,0.25487,-0.024917,0.27502,0.0050583
ZU8YXF3H,-1.0562,0.12531,-0.2856,-0.72233,1.2216
ZXKaNy6Z,-0.68175,0.11216,0.10915,-0.45386,-0.2813
ZbYLo0zK,-0.46357,0.069801,0.47254,-0.55363,-0.33562
ZedN8Gcn,-0.52148,0.14407,-0.072511,0.07752,-0.51429
ZgD4Dau6,-0.43962,0.2251,0.4,-0.40178,-0.30236
Zgzf79LA,-0.78617,-0.036488,0.30271,-1.1205,0.32308
ZjqzxDOF,0.78937,0.54783,1.571,0.21611,-0.39096
ZsZ5aDpq,0.32853,0.47284,0.6607,1.1263,-1.0732
ZtyqE7If,-0.044303,0.42381,0.40388,0.40955,-0.67389
ZvUgz01f,-0.50833,0.18704,0.49913,-0.49329,0.37613
ZwrhgdQV,0.31562,0.41192,0.65608,0.83962,-0.56378
a7bhJGBU,1.1197,0.66578,1.6554,0.63129,-0.64218
aHpv6KzP,1.6434,0.6351,2.0144,1.1235,-0.86178
aINzEBVN,-0.64797,-0.040598,0.31464,-0.7852,-0.22213
aP9EtTGF,1.3873,0.43779,2.2036,0.35981,-0.75401
aV6EhtSL,-0.768,-0.010848,-0.10301,-0.31727,-0.3758
aVZsXKoH,1.0522,0.50077,2.1133,0.04202,-0.59149
aYVnVJvc,0.32924,0.35698,0.61708,0.88066,-0.77479
abCzN1zx,-0.84229,0.065941,-0.62204,0.57978,-0.61463
ae7sMiB4,-0.11181,0.40114,0.56788,0.09714,-0.33682
afsVuCGV,-0.42679,0.39361,0.0074852,0.59912,-0.042409
aiwBQETI,-0.12717,0.12727,0.53091,0.031959,-0.506
aiyli4EI,1.4309,0.64328,1.8316,1.1219,-0.56359
apJ7NmzD,1.3583,0.52106,2.1677,0.57496,-0.71406
atVjNMtQ,-0.45401,0.15596,-0.87302,1.906,-1.3838
b5GirVGV,-0.83104,0.057033,-0.012751,-0.86376,0.74924
b9SpMjNB,-0.29753,0.47434,0.21113,0.34809,0.35403
bAFs37yy,-0.76736,0.25984,-0.0071595,-0.59275,0.91436
bDia1hHV,-0.061759,0.40627,0.24334,0.73791,-0.9035
bFkv5Mtr,0.08397,0.37529,0.69258,0.33602,-0.15885
bHe2IXgA,-0.52301,0.16472,-1.0177,1.9635,-1.3212
bWX3vUm5,0.026117,0.29902,0.54385,0.40527,-0.48509
bat8tcGs,-0.078964,0.19325,0.21427,0.7986,-1.2528
bfjej4wu,-0.43561,0.16733,-0.083415,0.48366,-0.5926
bh04YDiP,-0.6574,0.23269,-0.23282,0.24111,-0.077568
c110Fdc8,-0.47688,0.23595,0.30583,-0.4052,0.41968
c32GUzMa,-0.58719,0.09167,-0.19534,0.2657,0.25704
cT6uU0B0,-0.71768,0.30648,-0.20874,-0.11825,0.86353
cWXCiFwh,-0.94695,-0.08929,-0.3539,-0.17671,-0.65169
ceNvS3yd,-0.88348,0.089125,-0.3916,0.034796,-0.0030311
cmwdt4Av,1.06,0.59773,1.8023,0.54993,-0.76406
cn4EHsup,-0.81806,0.10054,-0.35422,0.13548,-0.20614
crVOGGTT,-0.16409,0.61789,0.41749,-0.14142,0.65939
csPEJ1E5,-0.78895,0.1793,-0.31649,-0.23631,0.034485
d0UrRtMk,-0.52833,0.29074,0.22387,-0.63363,1.2062
d6LU4G4I,-0.39759,0.34743,-0.0097997,0.44565,-0.1245
d74T1DVv,-0.57974,0.18705,-0.51928,1.0799,-0.8427
dR6rM1tQ,-0.019996,0.3448,0.60785,0.5679,-1.0035
dUNxOoqg,-0.41621,0.14234,-0.13141,0.565,-0.51667
dUnlyhj7,0.1173,0.32349,1.1735,-0.37913,-0.18565
dVDlnZQ6,-0.97617,0.07912,-0.86671,0.52574,-0.93518
dVT26GDu,-0.17261,0.52447,0.42629,-0.078199,0.46968
de43ycXY,0.64261,0.57761,1.6097,-0.15022,-0.29007
dfIn7m9z,-0.80364,0.12988,-0.35763,0.010129,-0.15333
dhmb9ZY9,1.9178,0.6586,2.392,1.0891,-0.99616
dn8kCuyf,-0.51949,0.14774,0.3305,-0.47961,-0.20835
dpcquvWW,-0.64292,0.21528,0.023848,-0.25104,0.25184
dqcbIMyr,-0.75907,0.018998,-0.29594,0.080047,0.042122
drWgsBf5,-0.34993,0.26645,-0.27782,0.82198,-1.0142
dytx0HSe,-1.0738,0.12047,-0.28858,-0.78106,1.2809
e4KkkIha,1.0496,0.38561,2.0792,0.18277,-0.62638
e9YorH4m,0.090147,0.23288,1.0379,-0.55482,0.08682
eB9gVQ0R,0.01535,0.65165,0.72942,-0.13194,0.63586
eMhLFqU6,-0.62796,0.13867,-0.12167,0.12009,0.011856
eMllg1qm,0.25784,0.55359,1.2308,0.13513,-0.50018
eNPunZ9i,-0.43723,0.31898,-0.032887,0.52988,-0.050312
eS5BSM4J,-0.40026,0.22165,0.3448,-0.40144,1.0437
eVGMFoOI,0.10614,0.31143,1.0138,-0.40628,0.14381
eaIwb3rG,-0.14139,0.45012,0.54279,0.21132,0.69873
eyzw8Vis,-0.56424,0.26701,0.18161,-0.15771,0.75111
f04Ke2bN,-0.85774,0.1796,-0.27648,-0.022895,0.36066
f4GA0te1,-0.69654,0.19422,0.28778,-0.78128,0.36936
f7bd91h5,-0.35617,0.31332,0.36425,-0.36351,0.87027
fB7z9ndr,-0.43968,0.34401,0.42134,-0.26429,0.82478
fEe7AWFA,0.26561,0.40616,0.66975,0.78657,-1.181
fJJIbgY9,0.54929,0.48768,1.7592,-0.12123,-0.50596
fQBURMvg,-0.53551,0.23462,0.055267,-0.064614,0.93429
fS0HpOub,-0.5898,0.28269,0.1642,-0.45924,0.82831
fTDXauuk,0.49624,0.45515,1.4254,-0.15392,-0.36365
favPNA2N,-0.20465,0.38175,0.077847,0.73066,-0.017472
g3Fv0U4k,-0.79194,0.10273,-0.91549,1.0221,-0.82005
g5PKo2E2,-0.030305,0.18921,0.98123,-0.32309,-0.34961
gbjnD5fe,-0.75471,0.27155,-0.045118,-0.53746,0.65038
ge9zqXCv,-0.024747,0.26552,-0.011522,1.2604,-1.3154
geeqJpSE,-0.63989,0.24837,0.14958,-0.63354,0.96648
gqy1J2RS,-0.11561,0.2287,0.67669,0.056595,-0.6233
grlUtS3H,-0.46396,0.15529,-0.14345,0.47162,-0.44089
gx965KYj,-0.31159,0.21583,0.094618,0.40675,-0.96665
h3F08Vjm,-0.27174,0.30134,0.65326,-0.52152,0.95433
h6FQG8Iy,-0.26135,0.38196,0.48757,-0.18499,0.8202
h7ftM8b3,1.0662,0.51099,2.066,0.28615,-0.76577
hLrCHXZv,0.13958,0.26225,0.73506,0.45697,-0.79649
hQ6VBuFx,0.019452,0.65824,0.70027,0.075526,0.60569
hYoR2y7w,-0.25257,0.32879,0.044359,0.63609,-1.2061
hf65yZkM,0.35445,0.43757,0.82145,0.91047,-0.90348
hjuwe1x4,-0.43412,0.27921,0.1461,-0.075106,0.027299
hyINlsFR,-0.051946,0.53149,0.35501,0.63665,0.22207
i0Qlm9Bv,-0.19643,0.3939,0.6319,-0.29305,0.71953
i1VxfxMb,-0.21718,0.35531,0.56596,-0.38555,0.8103
i2l6jXNP,-0.93806,0.098784,-0.43959,0.037995,0.013316
i4FgPZv7,-0.60702,0.37491,0.043417,-0.26734,0.67038
i7XtIkSi,-0.23094,0.40806,0.29918,0.38759,-0.44605
i9z346Ut,-0.57717,0.32601,-0.21843,0.5529,0.085251
iDOat4cZ,1.1279,0.46073,2.0045,0.27656,-0.61108
iNv6RoSO,-0.78098,0.20428,-0.1972,-0.061225,0.50528
iSL9NYzy,2.0037,0.62971,2.0995,1.487,-0.94392
iSqVc1r8,0.67159,0.62249,1.5621,0.073804,-0.33099
iYZMftt6,-0.067348,0.38947,0.25451,0.54287,-1.1174
ieTPaa3c,-0.7664,0.08185,-0.30553,0.024691,0.10219
if7BmzU0,-0.75042,0.25379,0.10087,-0.77415,1.1344
ihNz5bmx,-0.53341,0.2966,-0.21995,0.57693,-0.11561
ikJXKdIN,-0.79117,-0.21274,0.30636,-1.3029,0.68812
iq2kxikN,-0.22888,0.13428,0.38886,0.030691,-0.49907
iuZEDJK7,-0.69672,0.21778,0.17477,-0.74319,0.9196
iyF8gVT7,-0.45895,0.32948,0.32067,-0.28275,0.8106
j06qdQ0V,-0.58251,0.23377,0.034154,-0.11755,0.12427
j7hl8svO,0.25288,0.50577,0.43039,0.84017,-1.2163
j8hMoJUN,-0.72605,-0.13748,0.21547,-0.96166,0.069274
jNaFasbV,-0.75018,0.10984,-0.52566,0.61472,-0.53513
jVVHeYHT,-0.38424,0.33047,0.46334,-0.18828,-0.029005
jXm4ySvK,-0.54507,0.35971,0.057348,0.050989,0.39863
juO5ii5l,-0.16648,0.38936,0.82212,-0.23361,-0.18846
k2hdEBsU,-0.43443,0.20326,0.33973,-0.35937,0.80636
k3ynMfhN,0.21989,0.40996,1.1249,-0.028962,0.011295
k9C9yBtr,0.11713,0.31618,0.70544,0.43273,-0.64077
kAKRvcRo,-0.85506,0.047253,-0.86219,0.90164,-1.0614
kBi3R2oC,-0.30558,0.36702,0.40363,-0.069297,-0.37804
kDWmnsXe,-0.39174,0.26302,0.43035,-0.52957,0.21823
kSGBd2Vh,-0.76546,0.22065,0.15121,-0.8471,0.95586
kT0miHPT,-0.72551,0.14165,0.045701,-0.54481,0.6407
kaW0TfRn,-0.78866,0.24318,-0.15389,-0.46723,0.16676
kmg3SowO,-0.7982,0.11632,-0.45821,0.32967,-0.16531
kpxKSlnF,1.4873,0.66513,1.9058,0.93931,-0.3712
ku2cn1MV,0.64859,0.36338,1.5581,0.16639,-0.56022
l1su5HU9,-0.2464,0.47458,0.29208,0.14875,0.018127
l8Tg2RvD,-0.21643,0.42719,0.49249,0.0083183,0.071571
lB6NsVOc,-0.72006,-0.094314,0.38035,-1.3674,1.1981
lEcdVyKk,-0.80065,0.29509,-0.14976,-0.21019,0.9636
lH4TasGl,0.45554,0.45458,1.3439,-0.14387,-0.41218
lO9aggHW,-0.19934,0.37258,0.11474,0.60765,-0.052666
lW3m9Vzu,-0.72224,0.29909,-0.3098,0.089854,-0.44867
lYLseGDP,-0.27933,0.17421,0.61919,-0.43289,-0.095921
lcOnCdZi,0.35127,0.47359,1.1814,-0.050848,-0.27077
le9YGwON,-0.015584,0.5546,0.5133,0.31322,-0.31889
llMvu3TX,1.3483,0.45913,2.3382,0.020103,-0.34509
lnHh2jFO,0.61502,0.51505,1.574,-0.18098,-0.27333
m07CVXd4,-0.59262,0.27012,0.48976,-0.85303,1.0183
m1lPk91z,-0.24653,0.34204,0.64505,-0.489,0.67219
m9IQdmwa,-0.7627,0.16819,0.027252,-0.6479,0.94493
mG9BRy5x,-0.61988,0.31667,-0.14498,0.075541,0.12371
mVHXnama,-0.58883,0.044585,0.42505,-0.75727,-0.011785
mXyrR6nU,-0.57542,0.17457,0.29207,-0.48176,0.20394
mbzNdxNc,-0.63875,0.20563,-0.18118,0.29926,-0.3497
mntH7g3L,0.62449,0.58622,1.515,0.0084298,-0.24913
msRTXP3H,-0.67666,0.2753,0.016665,-0.11354,0.16335
mxBjvIPR,-0.71724,0.1556,-0.046955,-0.47081,0.29659
n8Opmfbz,1.3211,0.38286,1.7489,0.6466,-0.60286
nOkgU29Q,-0.32359,0.27816,-0.050182,0.49429,-0.39131
nhttf7VM,0.10712,0.48883,0.73696,0.44373,-0.4032
njLbXYa3,-0.62689,0.079395,-0.05349,-0.18758,-0.30507
nwkIpzmh,0.19657,0.35806,0.94249,0.2851,-0.56663
nzB1R9Zg,0.39735,0.41738,1.2786,-0.1396,-0.13628
o1rZRI84,-0.96307,0.066708,-0.44556,-0.2125,-0.94227
o7q5Mbty,0.12562,0.42236,0.60832,0.56813,-0.87474
oCBvysqB,-0.84226,-0.059083,-0.24777,-0.12764,-0.70375
oDmycTPH,-0.79399,-0.20723,0.37722,-1.4266,1.097
oFAXZvQv,-0.77925,0.020721,-0.19009,-0.091865,-0.085835
oHE3M1zX,-0.43737,0.29415,-0.078458,0.6375,-0.17527
oMhVmSpV,-0.94962,-0.048983,-0.47482,-0.01596,-0.30153
oNsDqVbi,0.52654,0.4554,1.7044,-0.23763,-0.35958
oYAJqQk8,-0.88723,-0.1359,0.40146,-1.5547,0.44751
ob5Kb6dW,-0.8046,0.28846,-0.12392,-0.26089,1.0983
obnzqs79,-0.50059,-0.0049839,0.48251,-0.86587,0.26549
oncLcgRP,-0.90261,0.10684,-0.38231,-0.023429,-0.041483
ooWVYaAe,-0.87016,0.12283,-0.86591,0.90206,-0.95436
osdyOUnV,-0.43063,0.24338,-0.13555,0.66921,-0.094368
p7H9CzCv,-0.30509,0.36153,0.031701,0.68806,-0.47356
p7U9hVhY,-0.63186,0.23748,0.033649,-0.23143,0.80356
pE6Cf1RV,-0.4014,0.35236,0.32754,-0.12321,0.47796
pI7qzotI,0.15791,0.30001,0.64545,0.53344,-0.27455
pJrIA4sk,-0.72486,0.095934,0.097855,-0.63579,0.06525
pXne2CLZ,-0.34806,0.20489,-0.47214,1.579,-1.125
pZMcDIOS,-0.75318,0.13973,-0.018488,-0.72619,0.85451
pavfp3cc,-0.076437,0.30849,0.61108,0.072248,-0.62269
pbQdC5L3,-0.45378,0.22524,0.178,-0.35907,0.27814
pgj7aAFP,-0.6635,0.37085,-0.067718,-0.20484,0.44381
pxg8G3ed,-0.15378,0.47315,0.40149,0.20149,0.41795
q36Npk6l,-0.56641,-0.063138,0.38866,-0.83629,0.64048
q4aDOVvq,0.039818,0.35192,0.78498,0.23261,-0.62001
qGmfR9CN,-0.22212,0.28671,0.037998,0.80422,-0.46799
qJ51ODpA,-0.79735,0.10511,-0.53731,0.53479,-0.16599
qQX3cs3I,0.011888,0.41183,0.7763,0.14384,-0.45283
qXeIxPb8,-0.58352,0.30808,0.15109,-0.30929,0.90312
qYQ4MShM,0.26697,0.51892,0.6161,0.77534,-1.003
qa0etnhK,0.36045,0.48927,0.83968,0.7343,-1.1145
qbL4sboq,-0.33668,0.36903,0.11833,0.31569,-0.2928
qbYrsWHq,0.8876,0.49957,1.5376,0.38894,-0.25427
r1zmcUqQ,-0.3357,0.34198,0.6427,-0.30269,-0.27071
r54iHeQC,-0.68804,0.21088,0.15117,-0.6911,0.97758
r6xrAnQV,1.7961,0.40661,1.8723,1.0495,-0.38389
r9HxnQDg,0.045487,0.41994,0.77857,0.099207,0.27434
rG8Puuf9,0.7388,0.56668,1.4091,0.52756,-0.60697
rGuiefuR,-0.60615,0.19142,-0.33553,0.56985,-0.54833
rJ19OhGP,-0.68545,0.28893,-0.084615,-0.17766,1.2012
rOCYepHd,-0.075852,0.3189,0.79424,-0.06283,-0.53693
rQJaOPFI,-0.23988,0.31992,0.48877,-0.23937,0.20032
rQhZtZeh,-0.29599,0.35651,0.59415,-0.18297,0.449
rapmok0w,-0.89291,0.048051,-0.50874,0.26278,-0.16685
rgzfnPVu,-0.13944,0.3185,0.84437,-0.27986,-0.25598
ri4qhb1S,-0.62016,0.090662,0.24483,-0.60538,-0.2921
rqpFYzff,-0.96171,0.1783,-0.22427,-0.65327,0.28071
rrs22coX,-0.21071,0.31035,0.63595,-0.39225,1.024
sEeUCQLc,-0.80146,0.28006,-0.1248,-0.2037,0.63585
sHScwqQl,-0.59226,0.23834,0.25022,-0.57396,0.96859
sNC7DiAt,-0.61731,0.29736,0.05925,-0.53915,0.79274
sNK2TSs3,-0.055973,0.34524,0.71171,-0.22091,1.0018
sO7Su6uw,-0.62479,0.071524,-0.26174,0.31718,-0.21646
sOWZx89o,-0.85595,0.1358,-0.068809,-0.64443,0.92024
sPbRcPjC,0.068988,0.49871,0.54162,0.5297,-0.47173
scVUfTKI,0.17256,0.30815,0.58487,0.8765,-0.60663
seRaGeVv,-0.30702,0.31484,0.42347,-0.058903,-0.12626
sgtwiYWi,-0.9527,0.051771,-0.46581,0.03951,-0.32666
sjmLHcT6,-0.51319,0.046594,0.51035,-0.84849,0.56678
skZUZZGS,-0.46782,0.384,0.08762,-0.061012,0.24946
suAmzADX,0.0308,0.67225,-0.54584,2.2958,-1.3623
t4GWLqlO,0.13693,0.29768,1.1449,-0.10928,-0.46278
t7gy6Jyy,-0.0807,0.056012,0.99463,-0.75659,-0.34682
tBadzH60,1.3895,0.45965,2.2316,0.39398,-0.67223
tXUWm0hp,-0.54982,0.23178,-0.11539,0.41139,-0.24924
te6UPPxf,-0.64267,-0.003535,-0.24399,0.39051,-0.68568
ti2lamkL,-0.054298,0.37871,0.73822,0.17691,-0.54029
tr0lpwuU,0.27293,0.40922,-0.35607,2.5489,-1.6696
ttdB5C73,-0.26109,0.28692,0.52253,-0.13761,-0.1889
twS8YZu9,-1.0199,-0.0094464,-0.26904,-0.67222,-0.16969
tx68W34H,-0.58049,0.24855,-0.43064,0.91752,-0.54166
tyQSX4mY,-0.28855,0.2358,0.8,-0.55364,-0.2411
tylKCRc0,-0.55464,0.19408,0.13047,-0.412,0.45291
u1544WUo,-0.58651,0.10108,0.25709,-0.52004,-0.36057
uAw9an0d,0.018354,0.33801,0.91621,-0.034256,-0.83954
uLZAEXMG,1.345,0.50361,2.086,0.6283,-0.80495
uMwe1s7I,-0.36511,0.27314,-0.50156,1.5503,-1.1981
ufhGeV3q,-0.77386,0.13194,-0.014679,-0.71765,0.36509
uhAeGBHo,-0.39967,0.28071,-0.077134,0.5269,-0.49952
ujHNlqpw,0.88475,0.48901,1.78,0.36068,-0.77103
ulV6kuhB,-0.58118,0.31484,0.2686,-0.50991,0.89702
uohEnNEK,-0.84903,0.098535,-0.85554,1.042,-0.95319
v1lhA8I4,-0.4425,0.10107,0.56794,-1.0668,1.501
v3JzigLI,-0.34526,0.070996,0.52273,-0.69943,0.34981
v5IwjyIg,-0.62193,0.11269,-0.41264,0.3627,-1.1274
v6lp5TK1,-0.35514,0.30218,0.58649,-0.60556,0.60601
v8vOaaWq,-0.81447,0.15957,-0.42842,0.27952,0.10752
vAYKtoil,-0.23385,0.31652,-0.19483,0.86012,-1.3944
vGTNQa6G,1.7395,0.59571,2.0122,1.1097,-0.52352
vQzNxHoL,-0.7982,-0.059942,-0.23055,-0.12032,-0.70757
vfZGBUJm,-0.39352,0.22877,0.18361,0.10727,-0.21561
vlooVUoT,-0.19476,0.4295,0.11204,0.67563,-0.31995
vrACvd4O,-0.48916,0.1987,0.042062,0.11685,-0.51699
w8hdjLwb,-0.23762,0.31492,0.66936,-0.35128,0.16414
wAntv4gH,0.63851,0.53613,1.5304,-0.054882,0.013412
wIUL09q0,-0.63747,-0.091774,0.30409,-0.83198,0.2645
wOzx7Fgz,-0.53775,0.18379,0.072457,-0.25429,-0.025538
wPhjhCJQ,-0.73815,0.27337,-0.13113,-0.24115,1.2849
wQSWWmYB,-0.41497,0.18608,0.46904,-0.44385,-0.031661
wdIMrXwy,1.286,0.49959,2.2704,0.20574,-0.43859
wiL9npQc,-0.78477,0.20785,0.094177,-0.64581,0.72767
wnU95Cxn,0.95299,0.38267,2.0438,-0.077961,-0.56757
wpJbbjJs,0.12438,0.461,0.7667,0.34242,-0.51392
wsOWTAbI,0.42659,0.35084,0.70228,0.84957,-0.64514
wtdBcU3U,-0.47408,-0.023449,0.30024,-0.45926,0.028393
wuKXVxOc,-0.77126,0.10535,-0.20385,-0.096063,0.42327
wyzadAt8,-1.0208,0.19503,-0.38151,-0.75292,1.3977
wzaKzYwi,-0.2017,0.12569,1.0272,-1.0445,0.57042
x6GCk4EV,-0.57372,0.30944,0.37742,-0.68224,0.91697
x6lUi3vf,0.085939,0.3179,0.43042,0.92634,-1.064
x8mwDHv9,-0.60434,0.23672,0.10696,-0.33179,0.45121
xIYm6puH,0.077488,0.54427,0.74762,0.60491,-0.74858
xO6UdpsK,-0.16524,0.42066,0.77858,-0.039063,-0.49857
xQ2bkOvj,-0.54033,0.13064,-0.51217,1.1298,-1.0028
xeXyDCEQ,1.5583,0.65854,1.9645,1.0118,-0.89359
xrggHziO,-0.047106,0.33088,0.70343,0.047901,-0.29519
y1WMCmqQ,-1.1854,0.082485,-0.468,-0.63858,-0.074301
yDngezhM,-0.53708,-0.1497,0.41826,-0.81695,-0.046311
yLiFjMD0,-0.24509,0.55452,0.40453,-0.37296,0.66822
ySwEBO7w,-0.53645,0.065235,-0.18559,0.35768,-0.54344
ydC9UsSm,-0.87522,0.17847,-0.50569,0.29038,0.092714
ydEG4VBd,-0.53054,0.201,0.21289,-0.22157,-0.24712
yf76yWXc,0.56418,0.54071,1.3732,0.12628,-0.40584
yg70e63n,-0.27896,0.38799,0.234,0.2221,-0.40683
ywxtlSKv,-0.98729,0.16164,-0.51297,-0.19958,-0.74956
yzKPQPOR,-0.36779,0.18685,-0.55859,1.431,-1.2828
z5cnOnZ1,-0.71539,0.051885,-0.08263,-0.29939,-0.39121
zFLkOE0e,0.27414,0.33798,0.75294,0.69621,-0.7703
zGi72mxL,-0.11956,0.31045,0.096982,0.77092,-1.1924
zN925UV3,-0.27923,0.26023,-0.0054354,0.80913,-0.61343
zTy2ih7e,-0.80321,-0.0052077,-0.22575,-0.24062,0.3428
zVFzAutw,-0.2205,0.56322,0.43277,-0.095615,0.38521
zYxNAkht,-0.61088,0.035698,0.47326,-1.0874,0.78459
zaWDBai3,-0.24567,0.39062,0.26243,0.38152,0.51584
zg3u0Zsx,-0.1694,0.42968,0.37883,0.23043,-0.18281
zlwLfdsS,-0.17761,0.31632,-0.58784,2.064,-1.266
zmbKzVfl,-0.52129,0.20245,-0.10463,0.42315,-0.114
