PIDN,Ca,P,pH,SOC,Sand
09gt9UK5,-0.2695775438017664,-0.1741120581642227,-0.30628690892638066,-0.5217477501815724,1.6297915028000003
0BVvxJ6a,-0.2695775438017664,-0.1741120581642227,0.11380279920812181,0.1025781050547945,-0.897691283
0KbdgApg,-0.2695775438017664,-0.1741120581642227,0.11380279920812181,0.1025781050547945,-0.17896840043269238
0MnuuduB,-0.2695775438017664,0.3568675482916666,0.11380279920812181,0.4679654595714285,-1.0077724591853146
0PcIsF9z,-0.2695775438017664,-0.1741120581642227,-0.9045554939085367,0.20585012717307696,0.5291082538216219
0ShTFLYJ,-0.2695775438017664,-0.1741120581642227,0.21733743247727275,-0.5217477501815724,0.2736113202307692
0XZh9jka,0.289170966875,-0.17000211894140627,-0.4534177992807018,0.4679654595714285,-1.0077724591853146
0Y7Wegri,-0.2695775438017664,-0.1741120581642227,0.11380279920812181,-0.5217477501815724,0.5291082538216219
0dTqplIM,-0.2695775438017664,-0.17000211894140627,0.11380279920812181,0.4679654595714285,-0.5422962988857142
0lNiZicC,-0.2695775438017664,-0.1741120581642227,0.21733743247727275,-0.5217477501815724,0.2736113202307692
0rGeJ0QN,-0.2695775438017664,-0.1741120581642227,0.15640409563157895,-0.5217477501815724,0.5291082538216219
0sXI9ytQ,-0.2695775438017664,-0.1741120581642227,-0.34977881894117646,-0.7001143394895109,1.1350312371698112
0ukt4aP6,-0.2695775438017664,-0.1741120581642227,-0.34977881894117646,-0.5217477501815724,-0.897691283
1AGspb8f,-0.2695775438017664,-0.1741120581642227,-0.4534177992807018,0.20585012717307696,-0.5422962988857142
1Csy0gvE,-0.2695775438017664,-0.1741120581642227,-0.30628690892638066,-0.5217477501815724,0.5291082538216219
1Ic2hly1,-0.2695775438017664,0.3568675482916666,-0.9045554939085367,-0.5217477501815724,0.5291082538216219
1PPbaTwt,-0.2695775438017664,-0.1741120581642227,-0.30628690892638066,-0.5217477501815724,-0.17896840043269238
1SO5VJNy,-0.2695775438017664,-0.1741120581642227,-0.30628690892638066,-0.5217477501815724,0.5291082538216219
1arHxK3Y,-0.2695775438017664,0.4267564006530611,1.985763346824323,0.4679654595714285,-0.17896840043269238
1fCW4Bba,-0.2695775438017664,-0.1741120581642227,0.11380279920812181,-0.37711593023684203,0.5291082538216219
1qDZNvIm,-0.2695775438017664,-0.1741120581642227,-0.30628690892638066,-0.7001143394895109,0.5291082538216219
28LYJC2V,-0.2695775438017664,-0.17000211894140627,-0.9045554939085367,0.20585012717307696,-0.1323302327317073
2CzACvQq,-0.2695775438017664,-0.050785401053571426,1.985763346824323,0.10973173366666666,-0.897691283
2FT3crfv,-0.2695775438017664,-0.17000211894140627,-0.30628690892638066,-0.29352647404310356,-0.5422962988857142
2Fy2uHVg,-0.2695775438017664,-0.1741120581642227,0.15640409563157895,-0.5217477501815724,-0.9068922319032259
2MkMEApm,-0.2695775438017664,0.3568675482916666,0.11380279920812181,-0.7001143394895109,0.5291082538216219
2NDGWEOe,-0.2695775438017664,-0.1741120581642227,0.21733743247727275,0.1025781050547945,-0.897691283
2NyyCiqn,-0.2695775438017664,-0.17000211894140627,-0.30628690892638066,-0.5217477501815724,0.5291082538216219
2QRzIb84,-0.2695775438017664,-0.050785401053571426,1.985763346824323,-0.5217477501815724,-0.17896840043269238
2QcbdrUZ,-0.2695775438017664,-0.18187585790909092,0.11380279920812181,-0.37711593023684203,-0.9068922319032259
2YgAimWK,-0.2695775438017664,-0.1741120581642227,0.11380279920812181,-0.5217477501815724,0.5291082538216219
2cx85d9H,-0.2695775438017664,-0.1741120581642227,0.11380279920812181,0.1025781050547945,-0.17896840043269238
2homMXMV,-0.2695775438017664,-0.1741120581642227,-0.9045554939085367,-0.5217477501815724,0.5291082538216219
2ldLrUtq,-0.2695775438017664,-0.1741120581642227,-0.30628690892638066,-0.29352647404310356,-0.5422962988857142
2nsACW6G,-0.2695775438017664,-0.1741120581642227,-0.4534177992807018,0.4679654595714285,-1.0077724591853146
2yMbVnWc,-0.2695775438017664,0.3568675482916666,0.11380279920812181,0.4679654595714285,0.5291082538216219
36r8sgGQ,-0.2695775438017664,-0.1741120581642227,-0.30628690892638066,-0.5217477501815724,0.5291082538216219
3NXAXCl3,-0.2695775438017664,-0.1741120581642227,-0.9045554939085367,0.4679654595714285,-1.0077724591853146
3QG0z6fl,-0.2695775438017664,-0.1741120581642227,-0.30628690892638066,-0.5217477501815724,0.2736113202307692
3WS8R9qm,-0.2695775438017664,-0.1741120581642227,-0.4534177992807018,3.178630477537037,-1.0077724591853146
3fRLm8f5,-0.2695775438017664,-0.1741120581642227,-0.9045554939085367,0.20585012717307696,0.5291082538216219
3mZhp1nQ,-0.2695775438017664,-0.18187585790909092,0.11380279920812181,-0.37711593023684203,0.5291082538216219
3pikJXRL,-0.2695775438017664,-0.1741120581642227,-0.9045554939085367,0.4679654595714285,-1.0077724591853146
3pxOEGHL,-0.2695775438017664,-0.1741120581642227,-0.30628690892638066,-0.5217477501815724,0.5291082538216219
3ttdV3f5,-0.2695775438017664,-0.18187585790909092,0.15640409563157895,-0.37711593023684203,-0.9068922319032259
3v4X6Mfe,0.616180074137931,-0.1741120581642227,0.9882740139166667,-0.29352647404310356,-1.0077724591853146
3wORuPiv,-0.2695775438017664,-0.17000211894140627,-0.4534177992807018,0.4679654595714285,-1.0077724591853146
43EfrxZj,-0.2695775438017664,-0.17000211894140627,0.11380279920812181,0.4679654595714285,-1.0077724591853146
457Vwm21,-0.2695775438017664,-0.1741120581642227,0.11380279920812181,0.1025781050547945,-0.17896840043269238
46KNnOdx,-0.2695775438017664,-0.1741120581642227,-0.9045554939085367,0.20585012717307696,-0.1323302327317073
47TwNsVC,-0.2695775438017664,-0.1741120581642227,-0.9045554939085367,3.178630477537037,-1.0077724591853146
49856RpO,-0.2695775438017664,-0.1741120581642227,-0.9045554939085367,0.20585012717307696,-1.0077724591853146
4Ane1o2N,-0.2695775438017664,-0.1741120581642227,0.9882740139166667,-0.5217477501815724,-0.1323302327317073
4AyVUgSc,-0.2695775438017664,-0.1741120581642227,0.6345805968,-0.5217477501815724,0.2736113202307692
4B1951On,-0.2695775438017664,-0.1741120581642227,-0.37061640725,-0.29352647404310356,-0.897691283
4OL39Teo,-0.2695775438017664,0.3568675482916666,0.11380279920812181,-0.5217477501815724,-0.5422962988857142
4eQ90eLY,-0.2695775438017664,-0.17000211894140627,0.11380279920812181,0.4679654595714285,-1.0077724591853146
4o5jwMj8,-0.2695775438017664,-0.1741120581642227,-0.30628690892638066,-0.5217477501815724,0.5291082538216219
4vPgpl2c,-0.2695775438017664,-0.1741120581642227,-0.30628690892638066,-0.5217477501815724,0.3509893878
51r9aA0d,-0.2695775438017664,-0.1741120581642227,0.6345805968,-0.5217477501815724,0.2736113202307692
58SmeRoP,-0.2695775438017664,-0.1741120581642227,-0.30628690892638066,-0.29352647404310356,-0.1323302327317073
5HJp1AXn,-0.2695775438017664,-0.17000211894140627,-0.9045554939085367,-0.29352647404310356,-0.1323302327317073
5MBZW7fx,-0.2695775438017664,-0.1741120581642227,1.3232617415,0.1025781050547945,-0.897691283
5Nq3gHaP,-0.2695775438017664,0.3568675482916666,0.11380279920812181,0.4679654595714285,-1.0077724591853146
5RmwFFK3,-0.2695775438017664,-0.17000211894140627,0.11380279920812181,0.4679654595714285,-1.0077724591853146
5Tu5Jbov,-0.2695775438017664,-0.1741120581642227,-0.4534177992807018,-0.5217477501815724,-0.1323302327317073
5YEolkev,-0.2695775438017664,-0.1741120581642227,-0.30628690892638066,-0.29352647404310356,-0.5422962988857142
5a8sf6QV,-0.2695775438017664,-0.1741120581642227,0.11380279920812181,0.1025781050547945,-0.17896840043269238
5eSvmqYm,-0.2695775438017664,-0.1741120581642227,0.15640409563157895,-0.37711593023684203,-0.9068922319032259
5hkN8fiv,-0.2695775438017664,-0.1741120581642227,-0.9045554939085367,0.20585012717307696,-0.1323302327317073
5oK8Gti5,-0.2695775438017664,-0.1741120581642227,-0.30628690892638066,-0.5217477501815724,1.0433693901800003
5paniGaU,-0.2695775438017664,-0.1741120581642227,-0.30628690892638066,-0.7001143394895109,0.5291082538216219
5vsr7ZUP,-0.2695775438017664,-0.1741120581642227,0.11380279920812181,0.1025781050547945,-0.17896840043269238
60B4xMWI,-0.2695775438017664,-0.050785401053571426,1.3232617415,-0.5217477501815724,0.2736113202307692
64jOUtKy,-0.2695775438017664,0.3568675482916666,0.11380279920812181,0.1025781050547945,-0.897691283
6AJo4xNG,-0.2695775438017664,0.3568675482916666,-0.4534177992807018,0.1025781050547945,0.5291082538216219
6CAvhEte,-0.2695775438017664,-0.1741120581642227,-0.30628690892638066,-0.5217477501815724,-0.17896840043269238
6CuGYjT5,1.5874463772941176,0.4267564006530611,1.985763346824323,1.7673914068888894,-0.897691283
6DGH8ujZ,-0.2695775438017664,-0.1741120581642227,-0.9045554939085367,0.20585012717307696,-0.1323302327317073
6PzsGdVm,-0.2695775438017664,-0.1741120581642227,-0.9045554939085367,0.20585012717307696,-0.1323302327317073
6UcSJMbq,-0.2695775438017664,-0.050785401053571426,1.3232617415,-0.29352647404310356,-0.17896840043269238
6WJbkH8U,0.616180074137931,-0.17000211894140627,0.29226647366666664,-0.29352647404310356,-1.0077724591853146
6eUWsVzw,-0.2695775438017664,-0.1741120581642227,0.11380279920812181,0.1025781050547945,-0.897691283
6gNyO7Do,-0.2695775438017664,-0.1741120581642227,0.11380279920812181,0.1025781050547945,-0.17896840043269238
6jT0AyHe,-0.2695775438017664,-0.1741120581642227,0.11380279920812181,0.4679654595714285,-1.0077724591853146
6nBgCvWu,-0.2695775438017664,-0.18187585790909092,0.11380279920812181,-0.37711593023684203,-0.9068922319032259
6ro5mqg6,-0.2695775438017664,-0.17000211894140627,-0.9045554939085367,-0.5217477501815724,0.5291082538216219
6sGqObX4,-0.2695775438017664,-0.1741120581642227,-0.4534177992807018,0.4679654595714285,-0.5422962988857142
6uEGy0n4,0.616180074137931,0.4267564006530611,2.0412484673333333,0.4679654595714285,-0.897691283
7BZ4LxP8,-0.2695775438017664,-0.1741120581642227,-0.30628690892638066,0.10973173366666666,-1.0077724591853146
7CmigXKi,-0.2695775438017664,-0.1741120581642227,-0.30628690892638066,-0.29352647404310356,-0.17896840043269238
7Ga0LpfR,0.289170966875,3.4192046478,0.11380279920812181,0.4679654595714285,-1.0077724591853146
7PQsFvsG,-0.2695775438017664,-0.1741120581642227,-0.9045554939085367,0.20585012717307696,-0.5422962988857142
7aF7nnwn,-0.2695775438017664,-0.1741120581642227,0.6345805968,-0.7001143394895109,1.6132038662666663
7asGzfX9,-0.2695775438017664,-0.17000211894140627,-0.30628690892638066,-0.29352647404310356,-0.5422962988857142
7cg7C92o,-0.2695775438017664,0.3568675482916666,0.11380279920812181,0.1025781050547945,-0.17896840043269238
7eOxTpsB,-0.2695775438017664,-0.1741120581642227,-0.30628690892638066,-0.5217477501815724,0.5291082538216219
7ey0v7ma,-0.2695775438017664,-0.1741120581642227,-0.9045554939085367,0.4679654595714285,-1.0077724591853146
7gocyrYl,-0.2695775438017664,-0.17000211894140627,-0.9045554939085367,0.20585012717307696,-0.1323302327317073
7gqR3GoA,-0.2695775438017664,-0.1741120581642227,0.15640409563157895,-0.5217477501815724,0.5291082538216219
7og7aUXB,-0.2695775438017664,-0.17000211894140627,-0.30628690892638066,-0.29352647404310356,-0.1323302327317073
7onRfa8F,-0.2695775438017664,-0.17000211894140627,0.9882740139166667,-0.5217477501815724,1.1350312371698112
7umkNuxM,-0.2695775438017664,-0.17000211894140627,-0.9045554939085367,0.20585012717307696,-0.5422962988857142
7vPr9ExD,-0.2695775438017664,-0.1741120581642227,0.11380279920812181,0.1025781050547945,-0.17896840043269238
7zNjpCzu,-0.2695775438017664,-0.1741120581642227,0.15640409563157895,-0.37711593023684203,-0.9068922319032259
7ztsQNj3,-0.2695775438017664,-0.1741120581642227,0.15640409563157895,0.1025781050547945,-0.9068922319032259
86gppwMI,-0.2695775438017664,-0.1741120581642227,-0.30628690892638066,-0.5217477501815724,0.5291082538216219
88thAGdL,-0.2695775438017664,-0.1741120581642227,0.11380279920812181,-0.37711593023684203,0.2736113202307692
8GhU8STP,-0.2695775438017664,0.4267564006530611,1.985763346824323,0.4679654595714285,-0.897691283
8NlzDcWe,-0.2695775438017664,-0.1741120581642227,0.6345805968,-0.5217477501815724,0.2736113202307692
8QAejdLW,-0.2695775438017664,-0.1741120581642227,0.11380279920812181,0.1025781050547945,-0.17896840043269238
8RDeFxWM,-0.2695775438017664,-0.1741120581642227,-0.30628690892638066,-0.5217477501815724,0.5291082538216219
8UXP2NBS,-0.2695775438017664,-0.1741120581642227,-0.9045554939085367,-0.5217477501815724,-1.0077724591853146
8ZoV3KGT,-0.2695775438017664,-0.1741120581642227,0.11380279920812181,-0.5217477501815724,-0.17896840043269238
8ajs2uG8,-0.2695775438017664,-0.1741120581642227,-0.9045554939085367,0.20585012717307696,-1.0077724591853146
8bXnz62p,-0.2695775438017664,0.3568675482916666,0.11380279920812181,0.1025781050547945,-0.17896840043269238
8nO1O1LG,0.616180074137931,0.4267564006530611,1.985763346824323,0.10973173366666666,-0.897691283
8xE1p8g8,-0.2695775438017664,-0.17000211894140627,-0.9045554939085367,-0.11903571944444444,-0.10208884844444442
8yMDVMRM,-0.2695775438017664,-0.1741120581642227,-0.9045554939085367,0.20585012717307696,-1.0077724591853146
98R5VaPi,-0.2695775438017664,-0.050785401053571426,1.985763346824323,-0.5217477501815724,-0.17896840043269238
9DcTz2Ua,0.616180074137931,0.4267564006530611,1.985763346824323,0.4679654595714285,-0.897691283
9G7nfUrK,-0.2695775438017664,-0.17000211894140627,-0.30628690892638066,-0.5217477501815724,0.5291082538216219
9O6GZ1HT,-0.2695775438017664,-0.050785401053571426,1.3232617415,-0.5217477501815724,-0.897691283
9S7fCoAM,-0.2695775438017664,-0.18187585790909092,0.11380279920812181,-0.37711593023684203,-0.9068922319032259
9iQwmFJR,-0.2695775438017664,-0.1741120581642227,-0.30628690892638066,0.4679654595714285,1.6297915028000003
A3Mt6SAQ,-0.2695775438017664,0.4267564006530611,0.21733743247727275,-0.5217477501815724,-0.17896840043269238
AJIsQIcV,-0.2695775438017664,-0.1741120581642227,-0.37061640725,-0.5217477501815724,-0.17896840043269238
AMHKXMh8,0.616180074137931,0.4267564006530611,1.985763346824323,0.10973173366666666,-0.897691283
ASwA2J4E,-0.2695775438017664,-0.17000211894140627,-0.30628690892638066,-0.5217477501815724,0.5291082538216219
AaFvEoHq,-0.2695775438017664,-0.1741120581642227,-0.30628690892638066,-0.5217477501815724,0.5291082538216219
AiIPD6hX,-0.2695775438017664,-0.17000211894140627,-0.30628690892638066,0.4679654595714285,-0.5422962988857142
AsIURvJS,-0.2695775438017664,-0.17000211894140627,-0.30628690892638066,0.4679654595714285,-1.0077724591853146
AsvgbJ0C,-0.2695775438017664,-0.1741120581642227,-0.9045554939085367,0.20585012717307696,0.5291082538216219
AxEhbkCM,-0.2695775438017664,-0.1741120581642227,-0.9045554939085367,-0.5217477501815724,-1.0077724591853146
B7VPkIpx,-0.2695775438017664,-0.1741120581642227,0.9882740139166667,0.1025781050547945,-0.17896840043269238
BBwHqHiH,-0.2695775438017664,-0.1741120581642227,0.11380279920812181,-0.37711593023684203,-0.17896840043269238
BMyps8hr,-0.2695775438017664,-0.17000211894140627,-0.30628690892638066,0.10973173366666666,-1.0077724591853146
BUHS4dQw,-0.2695775438017664,3.4192046478,-0.4534177992807018,1.7673914068888894,-1.0077724591853146
BZB3EYWQ,-0.2695775438017664,-0.17000211894140627,-0.30628690892638066,-0.5217477501815724,0.5291082538216219
C5UPCZcL,1.5874463772941176,0.4267564006530611,1.750642215285714,-0.29352647404310356,-0.897691283
C5gIfQbJ,-0.2695775438017664,-0.1741120581642227,-0.4534177992807018,0.4679654595714285,-1.0077724591853146
CDRuu4Pn,-0.2695775438017664,-0.1741120581642227,-0.34977881894117646,-0.7001143394895109,1.1350312371698112
CQhTYkqE,-0.2695775438017664,-0.1741120581642227,0.11380279920812181,0.1025781050547945,-0.897691283
CSEobMXv,-0.2695775438017664,-0.1741120581642227,-0.4534177992807018,0.4679654595714285,-0.5422962988857142
CYMQE4x0,-0.2695775438017664,0.4267564006530611,-0.34977881894117646,-0.5217477501815724,0.2736113202307692
ChQdtl4J,-0.2695775438017664,-0.18187585790909092,0.11380279920812181,-0.37711593023684203,0.5291082538216219
ChnD1nrN,-0.2695775438017664,-0.1741120581642227,0.6345805968,-0.5217477501815724,0.2736113202307692
CvtbbIcq,-0.2695775438017664,-0.1741120581642227,1.985763346824323,0.1025781050547945,-0.17896840043269238
Cxk06b77,-0.2695775438017664,-0.1741120581642227,0.11380279920812181,0.1025781050547945,-0.17896840043269238
D3QD3ZEJ,-0.2695775438017664,-0.1741120581642227,-0.9045554939085367,-0.5217477501815724,-0.1323302327317073
D8J5C6lA,-0.2695775438017664,0.3568675482916666,1.3232617415,0.4679654595714285,-0.897691283
DCeQwYfT,-0.2695775438017664,-0.17000211894140627,-0.30628690892638066,-0.5217477501815724,-0.5422962988857142
DDEftkx3,-0.2695775438017664,-0.1741120581642227,-0.30628690892638066,-0.7001143394895109,0.5291082538216219
DEwCfeDW,-0.2695775438017664,-0.1741120581642227,0.11380279920812181,0.1025781050547945,-0.17896840043269238
DMkIV4oL,-0.2695775438017664,-0.1741120581642227,-0.30628690892638066,-0.5217477501815724,0.5291082538216219
DnzGfbxS,-0.2695775438017664,-0.17000211894140627,0.11380279920812181,1.6702201587272727,-1.0077724591853146
DoZxo6f6,-0.2695775438017664,-0.1741120581642227,-0.30628690892638066,-0.5217477501815724,-0.1323302327317073
DvhBPGIk,-0.2695775438017664,-0.1741120581642227,-0.9045554939085367,0.20585012717307696,-0.1323302327317073
Dx7GoUcT,-0.2695775438017664,-0.18187585790909092,0.11380279920812181,-0.37711593023684203,-0.9068922319032259
E5hIjohO,-0.2695775438017664,-0.1741120581642227,0.11380279920812181,0.1025781050547945,-1.0077724591853146
E6x4XGHt,-0.2695775438017664,-0.1741120581642227,0.9882740139166667,-0.5217477501815724,1.0433693901800003
EDEpAzh1,-0.2695775438017664,-0.17000211894140627,-0.9045554939085367,-0.11903571944444444,-0.10208884844444442
ETGudkQt,-0.2695775438017664,-0.1741120581642227,0.11380279920812181,-0.37711593023684203,-0.1323302327317073
EUleKrLJ,0.616180074137931,0.4267564006530611,1.985763346824323,1.7673914068888894,-0.897691283
Ehw2Jz6s,-0.2695775438017664,-0.17000211894140627,-0.9045554939085367,0.20585012717307696,-0.5422962988857142
EjqzC4zH,-0.2695775438017664,-0.1741120581642227,0.9882740139166667,-0.5217477501815724,-0.17896840043269238
EkMZO3Qj,-0.2695775438017664,-0.1741120581642227,0.15640409563157895,-0.37711593023684203,0.5291082538216219
EnoNXWvU,-0.2695775438017664,-0.050785401053571426,1.3232617415,-0.5217477501815724,-0.17896840043269238
Epv8ANwr,-0.2695775438017664,-0.17000211894140627,-0.9045554939085367,0.20585012717307696,-0.1323302327317073
Etro9j0B,-0.2695775438017664,0.3568675482916666,0.11380279920812181,0.1025781050547945,-0.897691283
F3MIZj76,-0.2695775438017664,-0.1741120581642227,-0.4534177992807018,-0.5217477501815724,-0.1323302327317073
FB8tU00K,-0.2695775438017664,-0.17000211894140627,-0.9045554939085367,0.20585012717307696,-0.1323302327317073
FLhxBGMK,2.0945746695000005,-0.1741120581642227,0.11380279920812181,-0.37711593023684203,-0.17896840043269238
FRreR8ka,-0.2695775438017664,-0.18187585790909092,0.11380279920812181,-0.37711593023684203,0.5291082538216219
FXne4oAV,-0.2695775438017664,0.3568675482916666,0.11380279920812181,0.1025781050547945,-0.897691283
FaW764jk,-0.2695775438017664,0.3568675482916666,0.11380279920812181,0.1025781050547945,-0.17896840043269238
FeAbMXly,-0.2695775438017664,-0.1741120581642227,-0.30628690892638066,-0.5217477501815724,0.5291082538216219
FeudaFXn,1.5874463772941176,0.4267564006530611,1.985763346824323,-0.29352647404310356,-0.897691283
FldUmFeM,-0.2695775438017664,-0.050785401053571426,1.985763346824323,-0.5217477501815724,-0.17896840043269238
Fnv5tfAm,-0.2695775438017664,-0.1741120581642227,-0.4534177992807018,-0.5217477501815724,-0.1323302327317073
FvrAd3Or,-0.2695775438017664,0.4267564006530611,0.9882740139166667,-0.29352647404310356,-0.17896840043269238
G48zHffi,-0.2695775438017664,-0.050785401053571426,0.9882740139166667,-0.5217477501815724,-0.17896840043269238
G76zCv5N,-0.2695775438017664,-0.1741120581642227,-0.30628690892638066,-0.5217477501815724,-0.1323302327317073
G7JGUdNf,-0.2695775438017664,-0.1741120581642227,0.11380279920812181,0.1025781050547945,-0.17896840043269238
GCo6MONx,1.5874463772941176,0.4267564006530611,1.750642215285714,1.7673914068888894,-0.897691283
GE0vbpVQ,-0.2695775438017664,0.4267564006530611,-0.37061640725,-0.29352647404310356,-0.17896840043269238
GN0DfOqt,-0.2695775438017664,-0.17000211894140627,0.9882740139166667,-0.5217477501815724,-0.1323302327317073
GNsTAb1v,-0.2695775438017664,-0.17000211894140627,0.11380279920812181,0.529847751,-0.10208884844444442
GPwmO21z,-0.2695775438017664,-0.1741120581642227,-0.9045554939085367,0.20585012717307696,-0.1323302327317073
GQYpfLoh,-0.2695775438017664,-0.17000211894140627,0.11380279920812181,0.4679654595714285,-1.0077724591853146
GR9knT8n,-0.2695775438017664,-0.1741120581642227,-0.9045554939085367,0.20585012717307696,-0.1323302327317073
GXtFFbZy,-0.2695775438017664,-0.1741120581642227,-0.30628690892638066,-0.5217477501815724,0.5291082538216219
GYvzvvFD,-0.2695775438017664,-0.1741120581642227,-0.30628690892638066,0.20585012717307696,0.5291082538216219
GemPjTJ9,-0.2695775438017664,-0.1741120581642227,0.11380279920812181,0.1025781050547945,0.5291082538216219
GkLYRm1K,0.616180074137931,0.4267564006530611,1.985763346824323,0.4679654595714285,-0.897691283
GmlqP8eI,-0.2695775438017664,-0.1741120581642227,-0.9045554939085367,-0.29352647404310356,-1.0077724591853146
GqkIrOvf,-0.2695775438017664,-0.1741120581642227,0.11380279920812181,0.4679654595714285,-0.5422962988857142
H0fsegPi,-0.2695775438017664,-0.1741120581642227,0.11380279920812181,-0.37711593023684203,-0.9068922319032259
H4dHpJjU,0.616180074137931,0.4267564006530611,1.750642215285714,1.7673914068888894,-0.897691283
H5QwJCuU,-0.2695775438017664,-0.1741120581642227,1.985763346824323,0.1025781050547945,-0.897691283
H5uwmSZ0,-0.2695775438017664,-0.17000211894140627,-0.9045554939085367,-0.5217477501815724,0.5291082538216219
H8MtbVoL,-0.2695775438017664,-0.1741120581642227,0.11380279920812181,-0.37711593023684203,-0.17896840043269238
H9JrUYnp,-0.2695775438017664,-0.18187585790909092,0.11380279920812181,-0.37711593023684203,0.5291082538216219
HHYmmHVk,-0.2695775438017664,-0.1741120581642227,0.9882740139166667,-0.7001143394895109,1.1350312371698112
HJ5U4uqL,-0.2695775438017664,-0.1741120581642227,-0.9045554939085367,0.20585012717307696,0.3509893878
HNQxYc4w,-0.2695775438017664,-0.1741120581642227,-0.4690996370238095,-0.5217477501815724,-0.1323302327317073
HQYhKHZ8,-0.2695775438017664,-0.1741120581642227,-0.9045554939085367,-0.29352647404310356,-0.5422962988857142
HSCMx0MC,-0.2695775438017664,-0.1741120581642227,-0.30628690892638066,-0.5217477501815724,0.5291082538216219
HXYuE0fx,1.5874463772941176,0.4267564006530611,1.985763346824323,0.4679654595714285,-0.897691283
HdKcxEWr,-0.2695775438017664,0.3568675482916666,0.11380279920812181,0.1025781050547945,-0.5422962988857142
HecW1iCC,-0.2695775438017664,-0.17000211894140627,-0.4534177992807018,0.4679654595714285,-0.10208884844444442
HpbKB8rv,-0.2695775438017664,-0.1741120581642227,-0.9045554939085367,1.7673914068888894,-1.0077724591853146
HrkoYjCg,-0.2695775438017664,3.4192046478,-0.4534177992807018,0.1025781050547945,-0.5422962988857142
I5P2uquT,-0.2695775438017664,-0.1741120581642227,-0.30628690892638066,0.4679654595714285,-0.17896840043269238
I94qkDM7,-0.2695775438017664,-0.1741120581642227,-0.30628690892638066,-0.5217477501815724,0.5291082538216219
I9sQbtt8,-0.2695775438017664,-0.1741120581642227,-0.9045554939085367,1.7673914068888894,-1.0077724591853146
IFxgw6ZX,-0.2695775438017664,-0.1741120581642227,-0.9045554939085367,-0.5217477501815724,-0.5422962988857142
IPPPSyoU,-0.2695775438017664,-0.1741120581642227,-0.9045554939085367,0.20585012717307696,-0.1323302327317073
IQOYQubU,1.5874463772941176,0.4267564006530611,1.985763346824323,1.7673914068888894,-0.897691283
IYNE2SxU,-0.2695775438017664,-0.1741120581642227,-0.4534177992807018,-0.5217477501815724,-0.5422962988857142
IZRFk9kN,-0.2695775438017664,-0.17000211894140627,-0.30628690892638066,-0.5217477501815724,-0.5422962988857142
Iaq3v0t3,-0.2695775438017664,-0.1741120581642227,0.21733743247727275,-0.5217477501815724,-0.17896840043269238
IbVwu1t6,-0.2695775438017664,-0.1741120581642227,-0.9045554939085367,0.20585012717307696,-0.1323302327317073
IcHKTLyo,-0.2695775438017664,-0.1741120581642227,0.11380279920812181,0.1025781050547945,-0.17896840043269238
IpW80wVB,-0.2695775438017664,-0.1741120581642227,-0.9045554939085367,0.20585012717307696,-0.1323302327317073
Itb0PYUV,0.616180074137931,0.4267564006530611,1.985763346824323,1.7673914068888894,-0.897691283
J8fpSwS0,-0.2695775438017664,-0.1741120581642227,-0.30628690892638066,-0.5217477501815724,0.5291082538216219
JE1SlbD0,-0.2695775438017664,0.3568675482916666,0.11380279920812181,3.178630477537037,-1.0077724591853146
JEB4McNb,0.616180074137931,-0.17000211894140627,0.29226647366666664,-0.29352647404310356,-1.0077724591853146
JEE4QVeQ,-0.2695775438017664,-0.1741120581642227,0.11380279920812181,0.1025781050547945,-0.17896840043269238
JJSEU2VQ,-0.2695775438017664,-0.17000211894140627,-0.30628690892638066,-0.5217477501815724,0.5291082538216219
JSsVriP2,-0.2695775438017664,0.4267564006530611,0.9882740139166667,-0.29352647404310356,-0.17896840043269238
JUvQNiOK,-0.2695775438017664,-0.17000211894140627,0.9882740139166667,-0.5217477501815724,0.3509893878
JZbrRtm2,-0.2695775438017664,-0.050785401053571426,1.3232617415,-0.29352647404310356,-0.17896840043269238
JcE9G92B,-0.2695775438017664,-0.17000211894140627,-0.9045554939085367,0.4679654595714285,-1.0077724591853146
JnNYpXHr,-0.2695775438017664,3.4192046478,0.11380279920812181,0.4679654595714285,-1.0077724591853146
JzpbnOtz,-0.2695775438017664,-0.1741120581642227,-0.30628690892638066,-0.5217477501815724,0.5291082538216219
JzzUhPQp,0.616180074137931,-0.1741120581642227,1.985763346824323,0.4679654595714285,-0.897691283
K05R8dQK,-0.2695775438017664,-0.17000211894140627,-0.9045554939085367,0.20585012717307696,-0.5422962988857142
K17pG2mG,-0.2695775438017664,-0.1741120581642227,-0.30628690892638066,-0.5217477501815724,0.5291082538216219
K8BellUe,-0.2695775438017664,-0.1741120581642227,-0.30628690892638066,0.4679654595714285,-1.0077724591853146
KJ2eH6rr,-0.2695775438017664,0.3568675482916666,0.11380279920812181,0.4679654595714285,-1.0077724591853146
KJEJ6Glk,-0.2695775438017664,0.3568675482916666,0.11380279920812181,3.178630477537037,-1.0077724591853146
KSbO0oXS,-0.2695775438017664,0.3568675482916666,0.11380279920812181,0.4679654595714285,-0.897691283
KXtvmd01,-0.2695775438017664,-0.1741120581642227,-0.30628690892638066,-0.5217477501815724,0.5291082538216219
KYiJqBuJ,-0.2695775438017664,-0.1741120581642227,0.11380279920812181,0.1025781050547945,-0.17896840043269238
KmbAyTcE,-0.2695775438017664,-0.17000211894140627,0.11380279920812181,-0.5217477501815724,-0.1323302327317073
KnNyl3rV,-0.2695775438017664,-0.1741120581642227,0.9882740139166667,-0.5217477501815724,1.0433693901800003
Kp2DG8TZ,-0.2695775438017664,-0.1741120581642227,-0.34977881894117646,-0.5217477501815724,-0.17896840043269238
KqQtKWs5,-0.2695775438017664,-0.1741120581642227,0.6345805968,-0.5217477501815724,1.6132038662666663
Ku27g63R,2.0945746695000005,-0.1741120581642227,1.985763346824323,1.6702201587272727,-0.897691283
L2aTVqDq,-0.2695775438017664,-0.17000211894140627,-0.9045554939085367,0.20585012717307696,-0.5422962988857142
L5jvq6G4,-0.2695775438017664,-0.1741120581642227,0.6345805968,-0.5217477501815724,1.6132038662666663
L91hYVQl,-0.2695775438017664,-0.1741120581642227,0.6345805968,-0.5217477501815724,0.2736113202307692
LINAMlbA,-0.2695775438017664,-0.17000211894140627,-0.30628690892638066,0.20585012717307696,0.5291082538216219
LJoUNXSx,-0.2695775438017664,-0.1741120581642227,-0.9045554939085367,0.20585012717307696,-0.1323302327317073
LLtSiyWD,-0.2695775438017664,-0.1741120581642227,-0.30628690892638066,-0.5217477501815724,-0.1323302327317073
LQJtV8kn,-0.2695775438017664,-0.1741120581642227,0.11380279920812181,-0.37711593023684203,-0.17896840043269238
LW9uddw7,-0.2695775438017664,-0.1741120581642227,-0.9045554939085367,0.4679654595714285,-1.0077724591853146
LZ6sdBTR,0.616180074137931,0.4267564006530611,1.750642215285714,0.4679654595714285,-0.897691283
La2Vhnne,-0.2695775438017664,-0.1741120581642227,0.11380279920812181,0.1025781050547945,0.5291082538216219
LaUWSq9B,-0.2695775438017664,0.3568675482916666,0.11380279920812181,0.10973173366666666,-1.0077724591853146
Lk4SfkPQ,-0.2695775438017664,-0.17000211894140627,-0.4690996370238095,-0.11903571944444444,-1.0077724591853146
LllC836d,-0.2695775438017664,-0.1741120581642227,-0.9045554939085367,-0.5217477501815724,-0.1323302327317073
LuGiGeWN,-0.2695775438017664,-0.1741120581642227,-0.30628690892638066,-0.5217477501815724,0.5291082538216219
LzcyHcWa,-0.2695775438017664,-0.1741120581642227,-0.30628690892638066,-0.5217477501815724,0.5291082538216219
M7veP0H4,-0.2695775438017664,-0.18187585790909092,0.11380279920812181,0.1025781050547945,0.5291082538216219
MB8aaJUc,-0.2695775438017664,-0.1741120581642227,-0.9045554939085367,0.4679654595714285,0.5291082538216219
MDpe2zuy,-0.2695775438017664,-0.1741120581642227,0.15640409563157895,-0.37711593023684203,-0.9068922319032259
MEzdmEIU,-0.2695775438017664,-0.17000211894140627,-0.4690996370238095,-0.5217477501815724,-0.1323302327317073
MVnhtivm,-0.2695775438017664,-0.1741120581642227,-0.9045554939085367,0.20585012717307696,-0.1323302327317073
MYU7WDis,-0.2695775438017664,-0.1741120581642227,-0.34977881894117646,-0.5217477501815724,-0.17896840043269238
MZFqh6yw,-0.2695775438017664,-0.050785401053571426,1.985763346824323,-0.5217477501815724,-0.17896840043269238
Mdgy4SsO,-0.2695775438017664,-0.17000211894140627,0.11380279920812181,0.4679654595714285,-1.0077724591853146
Mj8awnzy,-0.2695775438017664,-0.1741120581642227,0.9882740139166667,-0.5217477501815724,1.1350312371698112
MpFPbUJy,0.616180074137931,0.4267564006530611,1.985763346824323,0.10973173366666666,-0.897691283
Mqk7MFBM,-0.2695775438017664,-0.1741120581642227,0.11380279920812181,-0.37711593023684203,0.5291082538216219
Mqs2t1Eo,-0.2695775438017664,-0.17000211894140627,-0.9045554939085367,-0.11903571944444444,-0.10208884844444442
Mv3jFVxp,-0.2695775438017664,-0.17000211894140627,-0.9045554939085367,-0.5217477501815724,-0.1323302327317073
MxODTXvA,2.0945746695000005,-0.1741120581642227,0.11380279920812181,-0.37711593023684203,-0.17896840043269238
N46PbpPM,-0.2695775438017664,-0.1741120581642227,-0.30628690892638066,-0.7001143394895109,0.5291082538216219
N5S5F9Gk,-0.2695775438017664,-0.1741120581642227,-0.30628690892638066,-0.29352647404310356,0.5291082538216219
NLDg5fqw,-0.2695775438017664,0.4267564006530611,0.9882740139166667,-0.29352647404310356,-0.17896840043269238
NOho2ZiM,-0.2695775438017664,0.4267564006530611,1.985763346824323,0.4679654595714285,-0.897691283
NUuY7PFU,0.616180074137931,0.4267564006530611,1.985763346824323,0.4679654595714285,-0.897691283
NV1e8AEO,-0.2695775438017664,-0.1741120581642227,-0.30628690892638066,-0.5217477501815724,0.5291082538216219
NZLXROKC,-0.2695775438017664,-0.1741120581642227,0.11380279920812181,0.1025781050547945,-0.17896840043269238
NaJo7C6o,-0.2695775438017664,-0.1741120581642227,0.11380279920812181,0.1025781050547945,-0.17896840043269238
NgsyGkrO,-0.2695775438017664,0.3568675482916666,0.11380279920812181,0.4679654595714285,-1.0077724591853146
NjOx4Zpo,-0.2695775438017664,-0.1741120581642227,-0.9045554939085367,-0.29352647404310356,-1.0077724591853146
NmQoI7x0,0.616180074137931,-0.1741120581642227,1.985763346824323,-0.5217477501815724,-1.0077724591853146
No4wkdLS,-0.2695775438017664,-0.1741120581642227,0.21733743247727275,-0.5217477501815724,0.2736113202307692
NouMwhOf,-0.2695775438017664,-0.17000211894140627,-0.30628690892638066,0.4679654595714285,-0.5422962988857142
O6YAWd8C,-0.2695775438017664,-0.1741120581642227,0.11380279920812181,-0.37711593023684203,-0.17896840043269238
OAXVphSh,-0.2695775438017664,-0.1741120581642227,0.11380279920812181,0.1025781050547945,-0.17896840043269238
OJBBhb6Q,-0.2695775438017664,-0.1741120581642227,0.21733743247727275,-0.5217477501815724,1.6132038662666663
OSIQXImL,-0.2695775438017664,-0.1741120581642227,0.11380279920812181,-0.37711593023684203,-1.0077724591853146
OUUFc5Zz,-0.2695775438017664,-0.1741120581642227,-0.30628690892638066,-0.5217477501815724,0.5291082538216219
OVk1lquT,-0.2695775438017664,0.3568675482916666,0.11380279920812181,1.7673914068888894,-0.897691283
OXdRxjzz,-0.2695775438017664,-0.1741120581642227,-0.9045554939085367,0.20585012717307696,-0.5422962988857142
OXxW2ekf,-0.2695775438017664,-0.17000211894140627,-0.9045554939085367,-0.5217477501815724,-0.1323302327317073
OXz5OpqR,-0.2695775438017664,0.3568675482916666,0.11380279920812181,0.1025781050547945,-0.897691283
OcBFW1AX,-0.2695775438017664,-0.1741120581642227,-0.30628690892638066,0.20585012717307696,0.5291082538216219
Of9V2rpt,-0.2695775438017664,-0.1741120581642227,0.11380279920812181,0.1025781050547945,-0.1323302327317073
OfLxPhbG,-0.2695775438017664,0.4267564006530611,-0.30628690892638066,0.4679654595714285,-0.17896840043269238
Ojx2vi48,-0.2695775438017664,-0.1741120581642227,0.21733743247727275,-0.5217477501815724,0.2736113202307692
P3M32iuT,-0.2695775438017664,-0.1741120581642227,0.21733743247727275,-0.5217477501815724,1.6132038662666663
P7olVzrO,-0.2695775438017664,-0.17000211894140627,-0.30628690892638066,-0.5217477501815724,-0.5422962988857142
PAPHErnv,-0.2695775438017664,-0.1741120581642227,-0.9045554939085367,0.20585012717307696,-0.1323302327317073
PBjEtfXb,-0.2695775438017664,-0.17000211894140627,-0.30628690892638066,-0.5217477501815724,0.5291082538216219
PZGpoBBj,0.616180074137931,0.4267564006530611,2.0412484673333333,0.4679654595714285,-0.897691283
Pc2RrxXS,-0.2695775438017664,-0.1741120581642227,-0.30628690892638066,-0.29352647404310356,-0.5422962988857142
PcHQ4FOu,-0.2695775438017664,-0.1741120581642227,0.15640409563157895,0.1025781050547945,-0.9068922319032259
PeNyTOVN,-0.2695775438017664,-0.17000211894140627,0.11380279920812181,-0.5217477501815724,-0.1323302327317073
PhUPSU53,-0.2695775438017664,-0.17000211894140627,-0.9045554939085367,-0.11903571944444444,-0.10208884844444442
PmUNeV2O,-0.2695775438017664,-0.1741120581642227,0.6345805968,-0.5217477501815724,0.2736113202307692
PoDJ0uvK,-0.2695775438017664,0.3568675482916666,1.985763346824323,-0.37711593023684203,-0.897691283
PsUJdJdg,-0.2695775438017664,-0.17000211894140627,-0.30628690892638066,-0.29352647404310356,-0.5422962988857142
Q3xLFx1f,-0.2695775438017664,-0.1741120581642227,-0.9045554939085367,0.20585012717307696,-1.0077724591853146
QBGxCvdM,-0.2695775438017664,-0.1741120581642227,0.11380279920812181,-0.37711593023684203,-0.17896840043269238
QCEPyu6L,-0.2695775438017664,-0.17000211894140627,-0.9045554939085367,0.20585012717307696,-0.5422962988857142
QEfwec4s,4.476269254833333,0.4267564006530611,1.985763346824323,3.178630477537037,-0.897691283
QZ87Nnr3,-0.2695775438017664,-0.18187585790909092,0.11380279920812181,-0.37711593023684203,0.5291082538216219
QlyGN9jv,-0.2695775438017664,-0.1741120581642227,0.15640409563157895,-0.5217477501815724,0.5291082538216219
QqgWE1ny,-0.2695775438017664,-0.1741120581642227,0.15640409563157895,0.1025781050547945,0.5291082538216219
QrjjBpZd,-0.2695775438017664,-0.1741120581642227,-0.9045554939085367,0.4679654595714285,-0.5422962988857142
QsaBiX7V,-0.2695775438017664,-0.1741120581642227,0.15640409563157895,-0.37711593023684203,0.5291082538216219
QtBKJuZk,-0.2695775438017664,-0.1741120581642227,-0.30628690892638066,-0.29352647404310356,-0.17896840043269238
QtPRO8OJ,-0.2695775438017664,-0.1741120581642227,-0.30628690892638066,-0.5217477501815724,-0.1323302327317073
R8XcsFnp,-0.2695775438017664,-0.17000211894140627,-0.30628690892638066,-0.29352647404310356,-0.1323302327317073
RROfRt9z,-0.2695775438017664,-0.17000211894140627,0.11380279920812181,0.4679654595714285,-1.0077724591853146
RTcbiDGq,-0.2695775438017664,-0.1741120581642227,-0.30628690892638066,-0.5217477501815724,-0.1323302327317073
RVidM9g0,-0.2695775438017664,-0.050785401053571426,0.9882740139166667,-0.5217477501815724,0.2736113202307692
RZnQSH19,-0.2695775438017664,-0.1741120581642227,0.9882740139166667,-0.5217477501815724,0.5291082538216219
Rc4UK7fT,-0.2695775438017664,-0.17000211894140627,-0.30628690892638066,0.20585012717307696,0.5291082538216219
RcKBKh6B,-0.2695775438017664,-0.17000211894140627,-0.9045554939085367,-0.5217477501815724,0.5291082538216219
ReM5kDa5,-0.2695775438017664,-0.1741120581642227,0.11380279920812181,-0.37711593023684203,-0.17896840043269238
RfntsotG,-0.2695775438017664,-0.1741120581642227,-0.30628690892638066,-0.7001143394895109,0.5291082538216219
RiXMlzXD,-0.2695775438017664,-0.1741120581642227,-0.30628690892638066,-0.5217477501815724,-0.5422962988857142
Rik83O3m,-0.2695775438017664,-0.1741120581642227,-0.4534177992807018,-0.5217477501815724,0.5291082538216219
S3PCzDzO,-0.2695775438017664,-0.1741120581642227,-0.34977881894117646,0.1025781050547945,-0.17896840043269238
S77BviOJ,-0.2695775438017664,-0.1741120581642227,0.15640409563157895,0.1025781050547945,-0.9068922319032259
SDdvtktF,-0.2695775438017664,-0.1741120581642227,-0.9045554939085367,-0.11903571944444444,-1.0077724591853146
SHs1AyfM,-0.2695775438017664,0.4267564006530611,-0.30628690892638066,-0.5217477501815724,-0.17896840043269238
SO4zQy9k,-0.2695775438017664,-0.17000211894140627,-0.30628690892638066,-0.5217477501815724,0.5291082538216219
SOOBCoiG,-0.2695775438017664,-0.1741120581642227,0.9882740139166667,-0.5217477501815724,0.5291082538216219
SXkkPB7A,-0.2695775438017664,-0.17000211894140627,-0.30628690892638066,-0.5217477501815724,0.5291082538216219
Sa93dGqq,-0.2695775438017664,-0.17000211894140627,-0.30628690892638066,-0.29352647404310356,0.5291082538216219
SonIG72a,-0.2695775438017664,-0.1741120581642227,0.15640409563157895,-0.5217477501815724,0.5291082538216219
Suf6hIBc,-0.2695775438017664,-0.1741120581642227,-0.30628690892638066,-0.5217477501815724,0.5291082538216219
Sx2JeSRz,-0.2695775438017664,-0.1741120581642227,0.11380279920812181,0.1025781050547945,-0.17896840043269238
T1Tlftr4,-0.2695775438017664,-0.17000211894140627,-0.30628690892638066,-0.5217477501815724,0.5291082538216219
T7ulR4ci,-0.2695775438017664,-0.1741120581642227,0.9882740139166667,-0.7001143394895109,1.0433693901800003
TA1NB3Br,-0.2695775438017664,-0.17000211894140627,-0.4690996370238095,-0.5217477501815724,0.5291082538216219
TFZUskaK,-0.2695775438017664,-0.1741120581642227,0.11380279920812181,-0.37711593023684203,-1.0077724591853146
TNL8HGWZ,-0.2695775438017664,-0.1741120581642227,0.11380279920812181,0.1025781050547945,-0.17896840043269238
TZ8z1GSF,-0.2695775438017664,-0.1741120581642227,-0.9045554939085367,-0.5217477501815724,-0.5422962988857142
TqhRvkJJ,0.616180074137931,-0.1741120581642227,1.985763346824323,-0.29352647404310356,-1.0077724591853146
TtJCUiY4,-0.2695775438017664,-0.17000211894140627,-0.30628690892638066,-0.5217477501815724,0.5291082538216219
TwDq0lua,-0.2695775438017664,-0.1741120581642227,0.11380279920812181,0.1025781050547945,-0.897691283
Tzyf02sI,-0.2695775438017664,0.4267564006530611,0.29226647366666664,-0.5217477501815724,-0.1323302327317073
U3yI6ZS5,0.616180074137931,0.4267564006530611,1.985763346824323,2.0128859426799997,-0.897691283
UBLnXZAN,-0.2695775438017664,-0.1741120581642227,-0.9045554939085367,0.4679654595714285,-0.5422962988857142
UBWDzleg,-0.2695775438017664,-0.1741120581642227,-0.4534177992807018,0.20585012717307696,-0.5422962988857142
UBqkX6SY,0.616180074137931,0.4267564006530611,1.985763346824323,0.4679654595714285,-0.897691283
UCIAi1Aj,-0.2695775438017664,-0.1741120581642227,0.11380279920812181,0.1025781050547945,-0.5422962988857142
UPbXGvCS,-0.2695775438017664,-0.1741120581642227,0.11380279920812181,-0.37711593023684203,-0.17896840043269238
UeWm1l9F,-0.2695775438017664,-0.1741120581642227,-0.9045554939085367,0.20585012717307696,0.5291082538216219
UhucscY7,-0.2695775438017664,-0.1741120581642227,-0.9045554939085367,-0.11903571944444444,-0.10208884844444442
Uri1SvHV,-0.2695775438017664,-0.1741120581642227,0.11380279920812181,0.1025781050547945,-0.17896840043269238
UzxipGJS,-0.2695775438017664,-0.17000211894140627,-0.30628690892638066,-0.5217477501815724,0.5291082538216219
V74zfaAQ,-0.2695775438017664,-0.1741120581642227,0.11380279920812181,-0.37711593023684203,-0.17896840043269238
VBPxBLTh,0.616180074137931,0.4267564006530611,1.750642215285714,1.7673914068888894,-0.897691283
VLG7CXYS,-0.2695775438017664,-0.17000211894140627,-0.30628690892638066,-0.5217477501815724,0.5291082538216219
VNk52SpF,-0.2695775438017664,-0.1741120581642227,-0.9045554939085367,3.178630477537037,-1.0077724591853146
VOREKsok,-0.2695775438017664,-0.1741120581642227,-0.30628690892638066,-0.7001143394895109,0.5291082538216219
VRhTr5pX,-0.2695775438017664,-0.1741120581642227,-0.30628690892638066,-0.5217477501815724,-0.1323302327317073
VTcG4Kcw,-0.2695775438017664,-0.17000211894140627,-0.30628690892638066,-0.5217477501815724,0.5291082538216219
VeKiWSbS,-0.2695775438017664,-0.17000211894140627,-0.30628690892638066,-0.5217477501815724,0.5291082538216219
VnU8nJHU,-0.2695775438017664,-0.1741120581642227,0.15640409563157895,-0.37711593023684203,0.5291082538216219
VueNCxYv,-0.2695775438017664,-0.17000211894140627,-0.9045554939085367,-0.29352647404310356,-0.1323302327317073
VxuQTRUl,-0.2695775438017664,-0.1741120581642227,0.15640409563157895,-0.37711593023684203,-0.9068922319032259
W5lgaocA,-0.2695775438017664,-0.050785401053571426,1.985763346824323,-0.5217477501815724,-0.17896840043269238
W5mMq9Ef,-0.2695775438017664,-0.17000211894140627,-0.9045554939085367,0.20585012717307696,0.5291082538216219
WDhNqFpS,-0.2695775438017664,-0.1741120581642227,0.11380279920812181,0.1025781050547945,-1.0077724591853146
WE6n1kZi,-0.2695775438017664,-0.1741120581642227,-0.9045554939085367,0.20585012717307696,-0.1323302327317073
WFk6r3vA,-0.2695775438017664,-0.1741120581642227,0.15640409563157895,-0.5217477501815724,-0.9068922319032259
WFyIrsUR,-0.2695775438017664,-0.1741120581642227,-0.4534177992807018,1.6702201587272727,-1.0077724591853146
WG6ZAsqR,-0.2695775438017664,-0.1741120581642227,-0.30628690892638066,-0.5217477501815724,0.5291082538216219
WMq3CZQk,-0.2695775438017664,-0.1741120581642227,-0.9045554939085367,-0.29352647404310356,-1.0077724591853146
WRskmGjh,-0.2695775438017664,-0.1741120581642227,0.15640409563157895,-0.5217477501815724,-0.9068922319032259
WXijSglj,-0.2695775438017664,-0.1741120581642227,-0.9045554939085367,0.20585012717307696,0.3509893878
Wc0stQgu,-0.2695775438017664,-0.1741120581642227,-0.9045554939085367,0.20585012717307696,-0.5422962988857142
WewoSCUB,-0.2695775438017664,-0.1741120581642227,0.6345805968,-0.5217477501815724,1.6132038662666663
WuHuhHWJ,-0.2695775438017664,-0.1741120581642227,0.9882740139166667,-0.5217477501815724,1.1350312371698112
Wv7EBtZb,-0.2695775438017664,0.3568675482916666,1.985763346824323,0.1025781050547945,-0.897691283
WyPlxDn0,-0.2695775438017664,-0.1741120581642227,-0.30628690892638066,-0.5217477501815724,0.5291082538216219
X3WqoSNN,1.5874463772941176,0.4267564006530611,1.985763346824323,1.7673914068888894,-0.897691283
XDhyP9KB,-0.2695775438017664,-0.1741120581642227,-0.4534177992807018,0.1025781050547945,-0.1323302327317073
XQxhDRMG,-0.2695775438017664,-0.1741120581642227,-0.30628690892638066,0.20585012717307696,0.5291082538216219
XjLNAwxW,-0.2695775438017664,-0.1741120581642227,0.11380279920812181,-0.37711593023684203,-1.0077724591853146
XjfVQbXd,-0.2695775438017664,-0.1741120581642227,0.21733743247727275,0.1025781050547945,-0.897691283
Xovczbf6,-0.2695775438017664,-0.1741120581642227,-0.30628690892638066,-0.7001143394895109,0.5291082538216219
Y8H4onBf,-0.2695775438017664,-0.1741120581642227,0.6345805968,-0.7001143394895109,1.6132038662666663
Y8YgzSZ9,-0.2695775438017664,0.3568675482916666,1.985763346824323,0.4679654595714285,-0.17896840043269238
YC4PNV20,-0.2695775438017664,-0.18187585790909092,0.11380279920812181,-0.37711593023684203,-0.9068922319032259
YDHSCRdd,4.476269254833333,0.4267564006530611,1.985763346824323,2.0128859426799997,-0.897691283
YIJ87aME,-0.2695775438017664,-0.1741120581642227,0.11380279920812181,0.1025781050547945,-0.1323302327317073
YKvT4dFv,-0.2695775438017664,-0.1741120581642227,-0.9045554939085367,-0.5217477501815724,0.5291082538216219
YNebALR2,-0.2695775438017664,-0.1741120581642227,-0.30628690892638066,0.20585012717307696,0.5291082538216219
YNrnqFyb,-0.2695775438017664,-0.17000211894140627,-0.30628690892638066,-0.5217477501815724,-0.5422962988857142
YUZ4lR3m,-0.2695775438017664,-0.1741120581642227,-0.9045554939085367,-0.5217477501815724,0.5291082538216219
YYLvjoVC,-0.2695775438017664,0.4267564006530611,-0.37061640725,0.4679654595714285,-0.897691283
Yb8OtMb2,-0.2695775438017664,-0.1741120581642227,0.11380279920812181,0.1025781050547945,-0.17896840043269238
Ycg4lTYw,-0.2695775438017664,-0.1741120581642227,-0.4534177992807018,0.4679654595714285,-1.0077724591853146
Yfk6tekH,-0.2695775438017664,-0.050785401053571426,1.3232617415,-0.5217477501815724,-0.17896840043269238
YoSfgmR6,-0.2695775438017664,-0.1741120581642227,-0.9045554939085367,-0.29352647404310356,-0.1323302327317073
YpzFvexy,-0.2695775438017664,-0.1741120581642227,-0.9045554939085367,0.20585012717307696,-0.5422962988857142
Yxqppfa3,-0.2695775438017664,-0.17000211894140627,0.11380279920812181,0.4679654595714285,-1.0077724591853146
Z16jTUvP,-0.2695775438017664,-0.17000211894140627,-0.9045554939085367,0.20585012717307696,-0.1323302327317073
Z2BdCCbJ,-0.2695775438017664,-0.17000211894140627,-0.30628690892638066,-0.5217477501815724,0.5291082538216219
Z2JJMM6V,-0.2695775438017664,-0.1741120581642227,-0.9045554939085367,0.1025781050547945,0.3509893878
Z5jE1OB5,-0.2695775438017664,-0.17000211894140627,-0.30628690892638066,-0.5217477501815724,-0.1323302327317073
ZFsIqYxA,-0.2695775438017664,-0.1741120581642227,-0.9045554939085367,-0.5217477501815724,-0.1323302327317073
ZHDVsoRh,-0.2695775438017664,-0.1741120581642227,-0.9045554939085367,0.20585012717307696,-0.5422962988857142
ZSmfu2Fc,-0.2695775438017664,-0.17000211894140627,-0.9045554939085367,0.20585012717307696,-0.1323302327317073
ZU8YXF3H,-0.2695775438017664,-0.1741120581642227,-0.30628690892638066,-0.5217477501815724,0.5291082538216219
ZXKaNy6Z,-0.2695775438017664,-0.1741120581642227,-0.30628690892638066,-0.29352647404310356,-0.17896840043269238
ZbYLo0zK,-0.2695775438017664,-0.1741120581642227,-0.37061640725,-0.29352647404310356,-0.17896840043269238
ZedN8Gcn,-0.2695775438017664,-0.1741120581642227,-0.30628690892638066,-0.29352647404310356,-0.5422962988857142
ZgD4Dau6,-0.2695775438017664,-0.17000211894140627,-0.30628690892638066,-0.5217477501815724,-0.5422962988857142
Zgzf79LA,-0.2695775438017664,-0.1741120581642227,0.6345805968,-0.5217477501815724,0.2736113202307692
ZjqzxDOF,-0.2695775438017664,-0.050785401053571426,1.985763346824323,-0.5217477501815724,-0.17896840043269238
ZsZ5aDpq,-0.2695775438017664,0.3568675482916666,0.11380279920812181,1.6702201587272727,-1.0077724591853146
ZtyqE7If,-0.2695775438017664,0.3568675482916666,0.11380279920812181,0.4679654595714285,-0.5422962988857142
ZvUgz01f,-0.2695775438017664,-0.1741120581642227,-0.30628690892638066,-0.5217477501815724,-0.1323302327317073
ZwrhgdQV,-0.2695775438017664,-0.17000211894140627,0.11380279920812181,0.4679654595714285,-0.5422962988857142
a7bhJGBU,1.5874463772941176,0.4267564006530611,1.750642215285714,1.7673914068888894,-0.897691283
aHpv6KzP,0.616180074137931,0.4267564006530611,1.750642215285714,1.7673914068888894,-0.897691283
aINzEBVN,-0.2695775438017664,-0.1741120581642227,0.6345805968,-0.5217477501815724,0.2736113202307692
aP9EtTGF,0.616180074137931,0.4267564006530611,1.985763346824323,0.4679654595714285,-0.897691283
aV6EhtSL,-0.2695775438017664,-0.1741120581642227,0.15640409563157895,-0.5217477501815724,-0.9068922319032259
aVZsXKoH,0.616180074137931,0.4267564006530611,1.985763346824323,0.4679654595714285,-0.897691283
aYVnVJvc,-0.2695775438017664,-0.1741120581642227,0.11380279920812181,0.1025781050547945,-0.17896840043269238
abCzN1zx,-0.2695775438017664,-0.1741120581642227,-0.9045554939085367,0.20585012717307696,-0.5422962988857142
ae7sMiB4,-0.2695775438017664,0.3568675482916666,0.11380279920812181,-0.5217477501815724,-0.5422962988857142
afsVuCGV,-0.2695775438017664,-0.17000211894140627,-0.9045554939085367,0.20585012717307696,-0.1323302327317073
aiwBQETI,-0.2695775438017664,-0.1741120581642227,0.11380279920812181,0.1025781050547945,-0.17896840043269238
aiyli4EI,-0.2695775438017664,0.3568675482916666,1.985763346824323,0.1025781050547945,-0.897691283
apJ7NmzD,-0.2695775438017664,0.3568675482916666,1.985763346824323,0.1025781050547945,-0.897691283
atVjNMtQ,-0.2695775438017664,-0.1741120581642227,-0.9045554939085367,3.178630477537037,-1.0077724591853146
b5GirVGV,-0.2695775438017664,-0.1741120581642227,-0.30628690892638066,-0.5217477501815724,-0.1323302327317073
b9SpMjNB,-0.2695775438017664,0.3568675482916666,0.11380279920812181,-0.5217477501815724,0.5291082538216219
bAFs37yy,-0.2695775438017664,-0.1741120581642227,-0.30628690892638066,-0.5217477501815724,0.5291082538216219
bDia1hHV,-0.2695775438017664,-0.17000211894140627,0.11380279920812181,0.4679654595714285,-0.5422962988857142
bFkv5Mtr,-0.2695775438017664,-0.1741120581642227,0.11380279920812181,0.1025781050547945,-0.17896840043269238
bHe2IXgA,-0.2695775438017664,-0.1741120581642227,-0.9045554939085367,0.4679654595714285,-1.0077724591853146
bWX3vUm5,-0.2695775438017664,-0.1741120581642227,0.11380279920812181,0.1025781050547945,-0.17896840043269238
bat8tcGs,-0.2695775438017664,-0.1741120581642227,0.11380279920812181,0.4679654595714285,-1.0077724591853146
bfjej4wu,-0.2695775438017664,-0.1741120581642227,0.11380279920812181,0.1025781050547945,-0.5422962988857142
bh04YDiP,-0.2695775438017664,-0.17000211894140627,-0.9045554939085367,0.20585012717307696,-0.1323302327317073
c110Fdc8,-0.2695775438017664,-0.17000211894140627,-0.30628690892638066,-0.5217477501815724,0.5291082538216219
c32GUzMa,-0.2695775438017664,-0.1741120581642227,-0.30628690892638066,-0.5217477501815724,0.5291082538216219
cT6uU0B0,-0.2695775438017664,-0.17000211894140627,-0.9045554939085367,-0.5217477501815724,0.5291082538216219
cWXCiFwh,-0.2695775438017664,-0.1741120581642227,-0.9045554939085367,-0.5217477501815724,-0.5422962988857142
ceNvS3yd,-0.2695775438017664,-0.1741120581642227,-0.9045554939085367,0.20585012717307696,-0.1323302327317073
cmwdt4Av,0.616180074137931,0.4267564006530611,1.985763346824323,0.4679654595714285,-0.897691283
cn4EHsup,-0.2695775438017664,-0.1741120581642227,-0.9045554939085367,0.20585012717307696,0.5291082538216219
crVOGGTT,-0.2695775438017664,0.3568675482916666,-0.30628690892638066,-0.5217477501815724,0.5291082538216219
csPEJ1E5,-0.2695775438017664,-0.18187585790909092,0.15640409563157895,-0.37711593023684203,-0.9068922319032259
d0UrRtMk,-0.2695775438017664,-0.1741120581642227,-0.34977881894117646,-0.7001143394895109,1.1350312371698112
d6LU4G4I,-0.2695775438017664,-0.18187585790909092,0.11380279920812181,0.1025781050547945,0.5291082538216219
d74T1DVv,-0.2695775438017664,-0.17000211894140627,-0.9045554939085367,1.7673914068888894,-1.0077724591853146
dR6rM1tQ,-0.2695775438017664,-0.17000211894140627,-0.30628690892638066,0.4679654595714285,-1.0077724591853146
dUNxOoqg,-0.2695775438017664,-0.1741120581642227,-0.30628690892638066,0.4679654595714285,-0.5422962988857142
dUnlyhj7,0.616180074137931,-0.17000211894140627,0.9882740139166667,-0.29352647404310356,0.3509893878
dVDlnZQ6,-0.2695775438017664,-0.1741120581642227,-0.4534177992807018,0.4679654595714285,-1.0077724591853146
dVT26GDu,-0.2695775438017664,-0.17000211894140627,0.9882740139166667,-0.5217477501815724,0.5291082538216219
de43ycXY,-0.2695775438017664,-0.050785401053571426,1.3232617415,-0.5217477501815724,-0.17896840043269238
dfIn7m9z,-0.2695775438017664,-0.1741120581642227,-0.9045554939085367,0.20585012717307696,-0.1323302327317073
dhmb9ZY9,1.5874463772941176,0.4267564006530611,1.985763346824323,2.0128859426799997,-0.897691283
dn8kCuyf,-0.2695775438017664,-0.1741120581642227,-0.37061640725,-0.29352647404310356,-0.17896840043269238
dpcquvWW,-0.2695775438017664,-0.1741120581642227,-0.30628690892638066,-0.5217477501815724,-0.1323302327317073
dqcbIMyr,-0.2695775438017664,-0.1741120581642227,-0.30628690892638066,-0.5217477501815724,0.5291082538216219
drWgsBf5,-0.2695775438017664,-0.1741120581642227,-0.4534177992807018,0.529847751,-1.0077724591853146
dytx0HSe,-0.2695775438017664,-0.1741120581642227,-0.30628690892638066,-0.7001143394895109,0.5291082538216219
e4KkkIha,0.616180074137931,-0.1741120581642227,2.0412484673333333,0.1025781050547945,-0.897691283
e9YorH4m,1.5874463772941176,-0.050785401053571426,0.9882740139166667,-0.29352647404310356,-0.17896840043269238
eB9gVQ0R,0.289170966875,-0.17000211894140627,-0.30628690892638066,-0.5217477501815724,0.5291082538216219
eMhLFqU6,-0.2695775438017664,-0.1741120581642227,-0.30628690892638066,0.20585012717307696,0.5291082538216219
eMllg1qm,-0.2695775438017664,0.3568675482916666,0.11380279920812181,0.1025781050547945,-0.897691283
eNPunZ9i,-0.2695775438017664,-0.17000211894140627,-0.30628690892638066,0.4679654595714285,0.5291082538216219
eS5BSM4J,-0.2695775438017664,-0.1741120581642227,-0.34977881894117646,-0.5217477501815724,1.1350312371698112
eVGMFoOI,-0.2695775438017664,-0.050785401053571426,0.9882740139166667,-0.29352647404310356,-0.17896840043269238
eaIwb3rG,-0.2695775438017664,-0.17000211894140627,-0.30628690892638066,-0.5217477501815724,0.5291082538216219
eyzw8Vis,-0.2695775438017664,-0.1741120581642227,-0.30628690892638066,-0.5217477501815724,0.5291082538216219
f04Ke2bN,-0.2695775438017664,-0.1741120581642227,-0.9045554939085367,-0.5217477501815724,0.5291082538216219
f4GA0te1,-0.2695775438017664,-0.17000211894140627,-0.30628690892638066,-0.5217477501815724,0.5291082538216219
f7bd91h5,-0.2695775438017664,-0.1741120581642227,0.9882740139166667,-0.7001143394895109,1.1350312371698112
fB7z9ndr,-0.2695775438017664,-0.1741120581642227,-0.30628690892638066,-0.5217477501815724,0.5291082538216219
fEe7AWFA,-0.2695775438017664,0.3568675482916666,0.11380279920812181,0.4679654595714285,-1.0077724591853146
fJJIbgY9,-0.2695775438017664,0.4267564006530611,1.3232617415,0.1025781050547945,-0.897691283
fQBURMvg,-0.2695775438017664,-0.1741120581642227,-0.30628690892638066,-0.5217477501815724,0.5291082538216219
fS0HpOub,-0.2695775438017664,-0.1741120581642227,-0.30628690892638066,-0.5217477501815724,0.5291082538216219
fTDXauuk,-0.2695775438017664,-0.050785401053571426,1.985763346824323,-0.29352647404310356,-0.17896840043269238
favPNA2N,-0.2695775438017664,-0.17000211894140627,-0.30628690892638066,0.4679654595714285,0.5291082538216219
g3Fv0U4k,-0.2695775438017664,-0.1741120581642227,-0.4534177992807018,0.4679654595714285,-0.1323302327317073
g5PKo2E2,-0.2695775438017664,-0.1741120581642227,0.11380279920812181,0.1025781050547945,-0.17896840043269238
gbjnD5fe,-0.2695775438017664,-0.17000211894140627,-0.9045554939085367,-0.5217477501815724,-0.1323302327317073
ge9zqXCv,-0.2695775438017664,-0.1741120581642227,-0.30628690892638066,0.4679654595714285,-1.0077724591853146
geeqJpSE,-0.2695775438017664,-0.1741120581642227,-0.30628690892638066,-0.5217477501815724,0.5291082538216219
gqy1J2RS,-0.2695775438017664,-0.1741120581642227,0.11380279920812181,0.1025781050547945,-0.897691283
grlUtS3H,-0.2695775438017664,-0.1741120581642227,-0.9045554939085367,0.20585012717307696,-0.5422962988857142
gx965KYj,-0.2695775438017664,-0.17000211894140627,-0.30628690892638066,0.529847751,-1.0077724591853146
h3F08Vjm,-0.2695775438017664,-0.1741120581642227,-0.30628690892638066,-0.5217477501815724,0.5291082538216219
h6FQG8Iy,-0.2695775438017664,-0.17000211894140627,-0.30628690892638066,-0.5217477501815724,0.5291082538216219
h7ftM8b3,0.616180074137931,0.4267564006530611,1.985763346824323,0.4679654595714285,-0.897691283
hLrCHXZv,-0.2695775438017664,-0.1741120581642227,0.11380279920812181,-0.37711593023684203,-0.17896840043269238
hQ6VBuFx,-0.2695775438017664,-0.17000211894140627,-0.30628690892638066,-0.5217477501815724,0.5291082538216219
hYoR2y7w,-0.2695775438017664,-0.17000211894140627,0.11380279920812181,0.529847751,-1.0077724591853146
hf65yZkM,-0.2695775438017664,0.3568675482916666,0.11380279920812181,0.4679654595714285,-1.0077724591853146
hjuwe1x4,-0.2695775438017664,-0.1741120581642227,0.11380279920812181,0.1025781050547945,0.5291082538216219
hyINlsFR,-0.2695775438017664,-0.17000211894140627,-0.30628690892638066,0.20585012717307696,0.5291082538216219
i0Qlm9Bv,-0.2695775438017664,-0.1741120581642227,-0.30628690892638066,-0.5217477501815724,1.1350312371698112
i1VxfxMb,-0.2695775438017664,-0.17000211894140627,-0.30628690892638066,-0.5217477501815724,1.0433693901800003
i2l6jXNP,-0.2695775438017664,-0.1741120581642227,-0.9045554939085367,-0.5217477501815724,-0.1323302327317073
i4FgPZv7,-0.2695775438017664,-0.1741120581642227,0.11380279920812181,-0.7001143394895109,0.5291082538216219
i7XtIkSi,-0.2695775438017664,-0.17000211894140627,0.11380279920812181,0.4679654595714285,-0.5422962988857142
i9z346Ut,-0.2695775438017664,-0.17000211894140627,-0.9045554939085367,0.20585012717307696,-0.1323302327317073
iDOat4cZ,0.616180074137931,0.4267564006530611,1.985763346824323,0.1025781050547945,-0.897691283
iNv6RoSO,-0.2695775438017664,-0.1741120581642227,-0.9045554939085367,-0.5217477501815724,0.5291082538216219
iSL9NYzy,4.476269254833333,0.4267564006530611,1.985763346824323,3.178630477537037,-0.897691283
iSqVc1r8,-0.2695775438017664,-0.050785401053571426,1.3232617415,0.1025781050547945,-0.17896840043269238
iYZMftt6,-0.2695775438017664,-0.17000211894140627,0.11380279920812181,0.4679654595714285,-1.0077724591853146
ieTPaa3c,-0.2695775438017664,-0.1741120581642227,-0.9045554939085367,-0.5217477501815724,-0.1323302327317073
if7BmzU0,-0.2695775438017664,-0.1741120581642227,-0.4690996370238095,-0.5217477501815724,0.5291082538216219
ihNz5bmx,-0.2695775438017664,-0.1741120581642227,-0.4534177992807018,-0.5217477501815724,-0.1323302327317073
ikJXKdIN,-0.2695775438017664,-0.1741120581642227,0.21733743247727275,-0.7001143394895109,1.6132038662666663
iq2kxikN,-0.2695775438017664,-0.1741120581642227,0.11380279920812181,0.1025781050547945,-0.17896840043269238
iuZEDJK7,-0.2695775438017664,-0.17000211894140627,-0.30628690892638066,-0.5217477501815724,0.5291082538216219
iyF8gVT7,-0.2695775438017664,-0.17000211894140627,-0.30628690892638066,-0.5217477501815724,0.5291082538216219
j06qdQ0V,-0.2695775438017664,-0.1741120581642227,-0.30628690892638066,-0.5217477501815724,-0.1323302327317073
j7hl8svO,-0.2695775438017664,0.3568675482916666,0.11380279920812181,0.4679654595714285,-1.0077724591853146
j8hMoJUN,-0.2695775438017664,-0.1741120581642227,0.21733743247727275,-0.5217477501815724,0.2736113202307692
jNaFasbV,-0.2695775438017664,-0.1741120581642227,-0.9045554939085367,0.20585012717307696,-0.1323302327317073
jVVHeYHT,-0.2695775438017664,-0.1741120581642227,0.9882740139166667,-0.5217477501815724,-0.17896840043269238
jXm4ySvK,-0.2695775438017664,0.3568675482916666,0.11380279920812181,-0.5217477501815724,0.5291082538216219
juO5ii5l,-0.2695775438017664,0.4267564006530611,-0.34977881894117646,-0.5217477501815724,-0.897691283
k2hdEBsU,-0.2695775438017664,-0.1741120581642227,0.9882740139166667,-0.5217477501815724,1.1350312371698112
k3ynMfhN,-0.2695775438017664,-0.1741120581642227,0.9882740139166667,-0.5217477501815724,0.3509893878
k9C9yBtr,-0.2695775438017664,-0.1741120581642227,0.11380279920812181,-0.37711593023684203,-0.17896840043269238
kAKRvcRo,-0.2695775438017664,-0.1741120581642227,-0.4534177992807018,0.4679654595714285,-1.0077724591853146
kBi3R2oC,-0.2695775438017664,-0.17000211894140627,-0.30628690892638066,-0.29352647404310356,-0.5422962988857142
kDWmnsXe,-0.2695775438017664,-0.18187585790909092,0.11380279920812181,-0.37711593023684203,-0.9068922319032259
kSGBd2Vh,-0.2695775438017664,-0.1741120581642227,-0.4690996370238095,-0.5217477501815724,0.5291082538216219
kT0miHPT,-0.2695775438017664,-0.1741120581642227,-0.30628690892638066,-0.5217477501815724,-0.1323302327317073
kaW0TfRn,-0.2695775438017664,-0.17000211894140627,-0.9045554939085367,-0.5217477501815724,-0.1323302327317073
kmg3SowO,-0.2695775438017664,-0.1741120581642227,-0.9045554939085367,0.20585012717307696,0.5291082538216219
kpxKSlnF,-0.2695775438017664,0.4267564006530611,-0.30628690892638066,1.7673914068888894,-0.17896840043269238
ku2cn1MV,-0.2695775438017664,-0.1741120581642227,-0.34977881894117646,0.4679654595714285,-0.17896840043269238
l1su5HU9,-0.2695775438017664,0.3568675482916666,0.11380279920812181,-0.5217477501815724,-0.1323302327317073
l8Tg2RvD,-0.2695775438017664,-0.1741120581642227,0.9882740139166667,0.1025781050547945,-0.17896840043269238
lB6NsVOc,-0.2695775438017664,-0.1741120581642227,0.9882740139166667,-0.5217477501815724,0.5291082538216219
lEcdVyKk,-0.2695775438017664,-0.1741120581642227,-0.30628690892638066,-0.5217477501815724,0.5291082538216219
lH4TasGl,-0.2695775438017664,0.4267564006530611,1.3232617415,-0.29352647404310356,-0.17896840043269238
lO9aggHW,-0.2695775438017664,-0.1741120581642227,0.11380279920812181,0.1025781050547945,0.5291082538216219
lW3m9Vzu,-0.2695775438017664,-0.17000211894140627,-0.9045554939085367,-0.29352647404310356,-0.5422962988857142
lYLseGDP,1.5874463772941176,0.4267564006530611,0.9882740139166667,-0.29352647404310356,-0.17896840043269238
lcOnCdZi,-0.2695775438017664,-0.1741120581642227,0.9882740139166667,-0.5217477501815724,-0.17896840043269238
le9YGwON,-0.2695775438017664,0.3568675482916666,0.11380279920812181,0.1025781050547945,-0.5422962988857142
llMvu3TX,-0.2695775438017664,0.4267564006530611,2.0412484673333333,0.1025781050547945,-0.17896840043269238
lnHh2jFO,-0.2695775438017664,-0.050785401053571426,1.3232617415,-0.5217477501815724,-0.17896840043269238
m07CVXd4,-0.2695775438017664,-0.1741120581642227,-0.30628690892638066,-0.7001143394895109,0.5291082538216219
m1lPk91z,-0.2695775438017664,-0.1741120581642227,-0.34977881894117646,-0.7001143394895109,1.1350312371698112
m9IQdmwa,-0.2695775438017664,-0.1741120581642227,-0.30628690892638066,-0.5217477501815724,0.5291082538216219
mG9BRy5x,-0.2695775438017664,-0.18187585790909092,0.15640409563157895,-0.37711593023684203,0.5291082538216219
mVHXnama,-0.2695775438017664,-0.1741120581642227,0.6345805968,-0.5217477501815724,0.2736113202307692
mXyrR6nU,-0.2695775438017664,-0.1741120581642227,-0.30628690892638066,-0.5217477501815724,1.0433693901800003
mbzNdxNc,-0.2695775438017664,-0.17000211894140627,-0.9045554939085367,0.20585012717307696,-0.1323302327317073
mntH7g3L,-0.2695775438017664,-0.050785401053571426,1.3232617415,-0.5217477501815724,-0.17896840043269238
msRTXP3H,-0.2695775438017664,-0.17000211894140627,0.11380279920812181,-0.5217477501815724,-0.1323302327317073
mxBjvIPR,-0.2695775438017664,-0.1741120581642227,-0.30628690892638066,-0.5217477501815724,-0.1323302327317073
n8Opmfbz,-0.2695775438017664,-0.050785401053571426,1.985763346824323,3.178630477537037,-0.897691283
nOkgU29Q,-0.2695775438017664,-0.1741120581642227,0.11380279920812181,0.1025781050547945,0.5291082538216219
nhttf7VM,-0.2695775438017664,0.3568675482916666,0.11380279920812181,0.1025781050547945,-0.17896840043269238
njLbXYa3,-0.2695775438017664,-0.1741120581642227,-0.30628690892638066,-0.5217477501815724,-0.5422962988857142
nwkIpzmh,-0.2695775438017664,-0.1741120581642227,-0.34977881894117646,0.1025781050547945,-0.897691283
nzB1R9Zg,-0.2695775438017664,-0.050785401053571426,0.9882740139166667,-0.29352647404310356,-0.17896840043269238
o1rZRI84,-0.2695775438017664,-0.1741120581642227,-0.9045554939085367,-0.11903571944444444,-0.10208884844444442
o7q5Mbty,-0.2695775438017664,-0.17000211894140627,-0.30628690892638066,0.4679654595714285,-1.0077724591853146
oCBvysqB,-0.2695775438017664,-0.1741120581642227,-0.4534177992807018,-0.5217477501815724,-0.5422962988857142
oDmycTPH,-0.2695775438017664,-0.1741120581642227,0.21733743247727275,-0.7001143394895109,1.6132038662666663
oFAXZvQv,-0.2695775438017664,-0.1741120581642227,0.15640409563157895,-0.5217477501815724,-0.9068922319032259
oHE3M1zX,-0.2695775438017664,-0.17000211894140627,-0.9045554939085367,0.20585012717307696,-0.1323302327317073
oMhVmSpV,-0.2695775438017664,-0.1741120581642227,-0.4534177992807018,-0.5217477501815724,-0.9068922319032259
oNsDqVbi,-0.2695775438017664,0.4267564006530611,1.3232617415,0.1025781050547945,-0.17896840043269238
oYAJqQk8,-0.2695775438017664,-0.1741120581642227,0.21733743247727275,-0.5217477501815724,0.2736113202307692
ob5Kb6dW,-0.2695775438017664,-0.1741120581642227,-0.30628690892638066,-0.5217477501815724,0.5291082538216219
obnzqs79,-0.2695775438017664,-0.1741120581642227,0.6345805968,-0.5217477501815724,1.6132038662666663
oncLcgRP,-0.2695775438017664,-0.1741120581642227,-0.9045554939085367,0.20585012717307696,-0.1323302327317073
ooWVYaAe,-0.2695775438017664,-0.1741120581642227,-0.4534177992807018,0.4679654595714285,-1.0077724591853146
osdyOUnV,-0.2695775438017664,-0.1741120581642227,0.11380279920812181,0.4679654595714285,0.5291082538216219
p7H9CzCv,-0.2695775438017664,-0.1741120581642227,0.11380279920812181,0.4679654595714285,0.5291082538216219
p7U9hVhY,-0.2695775438017664,-0.1741120581642227,-0.30628690892638066,-0.5217477501815724,0.5291082538216219
pE6Cf1RV,-0.2695775438017664,-0.1741120581642227,-0.30628690892638066,-0.5217477501815724,0.5291082538216219
pI7qzotI,-0.2695775438017664,-0.1741120581642227,0.11380279920812181,0.1025781050547945,-0.17896840043269238
pJrIA4sk,-0.2695775438017664,-0.1741120581642227,-0.37061640725,-0.5217477501815724,-0.1323302327317073
pXne2CLZ,-0.2695775438017664,-0.1741120581642227,-0.4534177992807018,3.178630477537037,-1.0077724591853146
pZMcDIOS,-0.2695775438017664,-0.1741120581642227,0.9882740139166667,-0.5217477501815724,0.5291082538216219
pavfp3cc,-0.2695775438017664,-0.1741120581642227,0.11380279920812181,0.1025781050547945,-0.5422962988857142
pbQdC5L3,-0.2695775438017664,-0.18187585790909092,0.11380279920812181,-0.37711593023684203,-0.9068922319032259
pgj7aAFP,-0.2695775438017664,-0.17000211894140627,-0.9045554939085367,-0.5217477501815724,-0.1323302327317073
pxg8G3ed,-0.2695775438017664,-0.17000211894140627,-0.30628690892638066,0.20585012717307696,0.5291082538216219
q36Npk6l,-0.2695775438017664,-0.1741120581642227,0.21733743247727275,-0.5217477501815724,0.2736113202307692
q4aDOVvq,-0.2695775438017664,-0.1741120581642227,0.11380279920812181,0.1025781050547945,-0.897691283
qGmfR9CN,-0.2695775438017664,-0.1741120581642227,-0.30628690892638066,0.4679654595714285,-0.1323302327317073
qJ51ODpA,-0.2695775438017664,-0.1741120581642227,-0.9045554939085367,0.20585012717307696,-0.1323302327317073
qQX3cs3I,-0.2695775438017664,0.3568675482916666,0.11380279920812181,0.1025781050547945,-0.897691283
qXeIxPb8,-0.2695775438017664,-0.17000211894140627,-0.30628690892638066,-0.5217477501815724,0.5291082538216219
qYQ4MShM,-0.2695775438017664,-0.1741120581642227,0.11380279920812181,0.1025781050547945,-1.0077724591853146
qa0etnhK,-0.2695775438017664,0.3568675482916666,0.11380279920812181,-0.37711593023684203,-1.0077724591853146
qbL4sboq,-0.2695775438017664,0.4267564006530611,0.11380279920812181,0.1025781050547945,-0.17896840043269238
qbYrsWHq,-0.2695775438017664,-0.050785401053571426,1.985763346824323,-0.5217477501815724,-0.17896840043269238
r1zmcUqQ,-0.2695775438017664,-0.17000211894140627,-0.30628690892638066,-0.5217477501815724,-1.0077724591853146
r54iHeQC,-0.2695775438017664,-0.1741120581642227,-0.30628690892638066,-0.5217477501815724,0.5291082538216219
r6xrAnQV,-0.2695775438017664,-0.050785401053571426,1.985763346824323,-0.5217477501815724,-0.17896840043269238
r9HxnQDg,-0.2695775438017664,-0.1741120581642227,-0.34977881894117646,-0.5217477501815724,0.2736113202307692
rG8Puuf9,0.616180074137931,0.4267564006530611,0.9882740139166667,1.7673914068888894,-0.897691283
rGuiefuR,-0.2695775438017664,-0.1741120581642227,-0.9045554939085367,0.20585012717307696,-0.5422962988857142
rJ19OhGP,-0.2695775438017664,-0.1741120581642227,-0.30628690892638066,-0.5217477501815724,0.5291082538216219
rOCYepHd,-0.2695775438017664,-0.1741120581642227,-0.34977881894117646,0.1025781050547945,-0.897691283
rQJaOPFI,-0.2695775438017664,-0.18187585790909092,0.11380279920812181,-0.37711593023684203,-0.9068922319032259
rQhZtZeh,-0.2695775438017664,-0.1741120581642227,-0.30628690892638066,-0.5217477501815724,0.5291082538216219
rapmok0w,-0.2695775438017664,-0.1741120581642227,-0.9045554939085367,0.20585012717307696,-0.1323302327317073
rgzfnPVu,-0.2695775438017664,-0.1741120581642227,-0.34977881894117646,0.1025781050547945,-0.17896840043269238
ri4qhb1S,-0.2695775438017664,-0.1741120581642227,-0.37061640725,-0.5217477501815724,-0.17896840043269238
rqpFYzff,-0.2695775438017664,-0.18187585790909092,0.15640409563157895,-0.37711593023684203,-0.9068922319032259
rrs22coX,-0.2695775438017664,-0.1741120581642227,-0.30628690892638066,-0.5217477501815724,0.5291082538216219
sEeUCQLc,-0.2695775438017664,-0.1741120581642227,-0.30628690892638066,-0.5217477501815724,0.5291082538216219
sHScwqQl,-0.2695775438017664,-0.1741120581642227,-0.30628690892638066,-0.5217477501815724,0.5291082538216219
sNC7DiAt,-0.2695775438017664,-0.18187585790909092,0.11380279920812181,-0.37711593023684203,-0.9068922319032259
sNK2TSs3,-0.2695775438017664,-0.1741120581642227,-0.30628690892638066,-0.5217477501815724,0.5291082538216219
sO7Su6uw,-0.2695775438017664,-0.1741120581642227,-0.30628690892638066,0.20585012717307696,0.5291082538216219
sOWZx89o,-0.2695775438017664,-0.17000211894140627,-0.30628690892638066,-0.5217477501815724,0.5291082538216219
sPbRcPjC,-0.2695775438017664,0.3568675482916666,0.11380279920812181,-0.5217477501815724,-0.5422962988857142
scVUfTKI,-0.2695775438017664,-0.1741120581642227,0.11380279920812181,0.1025781050547945,-0.897691283
seRaGeVv,-0.2695775438017664,-0.1741120581642227,0.11380279920812181,-0.5217477501815724,1.6297915028000003
sgtwiYWi,-0.2695775438017664,-0.17000211894140627,-0.9045554939085367,0.20585012717307696,-0.5422962988857142
sjmLHcT6,-0.2695775438017664,-0.1741120581642227,0.6345805968,-0.7001143394895109,1.6132038662666663
skZUZZGS,-0.2695775438017664,-0.18187585790909092,0.11380279920812181,-0.37711593023684203,0.5291082538216219
suAmzADX,0.289170966875,-0.17000211894140627,-0.9045554939085367,3.178630477537037,-1.0077724591853146
t4GWLqlO,0.616180074137931,-0.1741120581642227,0.9882740139166667,-0.29352647404310356,-1.0077724591853146
t7gy6Jyy,-0.2695775438017664,-0.1741120581642227,-0.30628690892638066,-0.5217477501815724,-0.17896840043269238
tBadzH60,-0.2695775438017664,-0.1741120581642227,1.985763346824323,0.1025781050547945,-0.17896840043269238
tXUWm0hp,-0.2695775438017664,-0.1741120581642227,-0.9045554939085367,0.20585012717307696,-0.5422962988857142
te6UPPxf,-0.2695775438017664,-0.1741120581642227,-0.4534177992807018,-0.5217477501815724,-0.9068922319032259
ti2lamkL,-0.2695775438017664,0.4267564006530611,-0.34977881894117646,0.4679654595714285,-0.897691283
tr0lpwuU,-0.2695775438017664,-0.1741120581642227,-0.9045554939085367,3.178630477537037,-1.0077724591853146
ttdB5C73,-0.2695775438017664,-0.1741120581642227,-0.30628690892638066,-0.5217477501815724,-0.17896840043269238
twS8YZu9,-0.2695775438017664,-0.1741120581642227,-0.30628690892638066,-0.5217477501815724,-0.10208884844444442
tx68W34H,-0.2695775438017664,-0.17000211894140627,-0.9045554939085367,0.20585012717307696,-0.5422962988857142
tyQSX4mY,-0.2695775438017664,-0.1741120581642227,-0.34977881894117646,-0.5217477501815724,-0.17896840043269238
tylKCRc0,-0.2695775438017664,-0.1741120581642227,-0.30628690892638066,-0.5217477501815724,-0.1323302327317073
u1544WUo,-0.2695775438017664,-0.1741120581642227,-0.37061640725,-0.29352647404310356,-0.17896840043269238
uAw9an0d,-0.2695775438017664,0.4267564006530611,-0.37061640725,0.4679654595714285,-0.897691283
uLZAEXMG,0.616180074137931,0.4267564006530611,1.985763346824323,0.4679654595714285,-0.897691283
uMwe1s7I,-0.2695775438017664,-0.1741120581642227,-0.4534177992807018,0.4679654595714285,-1.0077724591853146
ufhGeV3q,-0.2695775438017664,-0.1741120581642227,0.11380279920812181,-0.37711593023684203,-0.9068922319032259
uhAeGBHo,-0.2695775438017664,-0.1741120581642227,0.11380279920812181,0.4679654595714285,0.5291082538216219
ujHNlqpw,0.616180074137931,0.4267564006530611,0.29226647366666664,0.10973173366666666,-0.897691283
ulV6kuhB,-0.2695775438017664,-0.17000211894140627,-0.4690996370238095,-0.5217477501815724,0.5291082538216219
uohEnNEK,-0.2695775438017664,-0.1741120581642227,-0.9045554939085367,0.4679654595714285,-1.0077724591853146
v1lhA8I4,-0.2695775438017664,-0.1741120581642227,-0.30628690892638066,-0.7001143394895109,0.5291082538216219
v3JzigLI,-0.2695775438017664,-0.1741120581642227,0.6345805968,-0.5217477501815724,1.6132038662666663
v5IwjyIg,-0.2695775438017664,-0.1741120581642227,-0.4690996370238095,-0.11903571944444444,-1.0077724591853146
v6lp5TK1,-0.2695775438017664,-0.1741120581642227,0.9882740139166667,-0.5217477501815724,1.1350312371698112
v8vOaaWq,-0.2695775438017664,-0.1741120581642227,-0.9045554939085367,0.20585012717307696,0.5291082538216219
vAYKtoil,-0.2695775438017664,-0.17000211894140627,-0.4534177992807018,0.529847751,-1.0077724591853146
vGTNQa6G,2.7372908910833336,0.4267564006530611,1.750642215285714,1.7673914068888894,-0.17896840043269238
vQzNxHoL,-0.2695775438017664,-0.1741120581642227,-0.4534177992807018,-0.29352647404310356,-0.9068922319032259
vfZGBUJm,-0.2695775438017664,-0.1741120581642227,-0.30628690892638066,-0.5217477501815724,-0.5422962988857142
vlooVUoT,-0.2695775438017664,-0.1741120581642227,0.11380279920812181,0.1025781050547945,0.5291082538216219
vrACvd4O,-0.2695775438017664,-0.1741120581642227,-0.30628690892638066,-0.29352647404310356,-0.5422962988857142
w8hdjLwb,-0.2695775438017664,0.4267564006530611,0.9882740139166667,-0.5217477501815724,1.0433693901800003
wAntv4gH,-0.2695775438017664,-0.050785401053571426,1.985763346824323,-0.5217477501815724,-0.17896840043269238
wIUL09q0,-0.2695775438017664,-0.1741120581642227,0.6345805968,-0.5217477501815724,0.2736113202307692
wOzx7Fgz,-0.2695775438017664,-0.1741120581642227,-0.30628690892638066,-0.5217477501815724,-0.1323302327317073
wPhjhCJQ,-0.2695775438017664,-0.1741120581642227,-0.30628690892638066,-0.7001143394895109,0.5291082538216219
wQSWWmYB,-0.2695775438017664,-0.1741120581642227,-0.37061640725,-0.5217477501815724,0.2736113202307692
wdIMrXwy,-0.2695775438017664,-0.1741120581642227,2.0412484673333333,0.1025781050547945,-0.17896840043269238
wiL9npQc,-0.2695775438017664,-0.1741120581642227,-0.30628690892638066,-0.5217477501815724,0.5291082538216219
wnU95Cxn,0.616180074137931,-0.1741120581642227,2.0412484673333333,0.1025781050547945,-0.897691283
wpJbbjJs,-0.2695775438017664,0.3568675482916666,0.11380279920812181,0.1025781050547945,-0.897691283
wsOWTAbI,-0.2695775438017664,-0.17000211894140627,0.11380279920812181,0.4679654595714285,-0.5422962988857142
wtdBcU3U,-0.2695775438017664,-0.1741120581642227,0.6345805968,-0.5217477501815724,0.2736113202307692
wuKXVxOc,-0.2695775438017664,-0.1741120581642227,-0.30628690892638066,0.20585012717307696,0.5291082538216219
wyzadAt8,-0.2695775438017664,-0.17000211894140627,-0.9045554939085367,-0.5217477501815724,0.5291082538216219
wzaKzYwi,-0.2695775438017664,-0.1741120581642227,-0.30628690892638066,-0.5217477501815724,0.5291082538216219
x6GCk4EV,-0.2695775438017664,-0.17000211894140627,-0.30628690892638066,-0.5217477501815724,0.5291082538216219
x6lUi3vf,-0.2695775438017664,-0.1741120581642227,0.11380279920812181,0.4679654595714285,-1.0077724591853146
x8mwDHv9,-0.2695775438017664,-0.1741120581642227,-0.30628690892638066,-0.5217477501815724,0.5291082538216219
xIYm6puH,-0.2695775438017664,-0.17000211894140627,0.11380279920812181,0.4679654595714285,-1.0077724591853146
xO6UdpsK,-0.2695775438017664,-0.17000211894140627,0.11380279920812181,0.1025781050547945,-1.0077724591853146
xQ2bkOvj,-0.2695775438017664,-0.1741120581642227,-0.4534177992807018,0.4679654595714285,-1.0077724591853146
xeXyDCEQ,0.616180074137931,0.4267564006530611,1.985763346824323,1.7673914068888894,-0.897691283
xrggHziO,-0.2695775438017664,-0.1741120581642227,-0.30628690892638066,-0.29352647404310356,-0.5422962988857142
y1WMCmqQ,-0.2695775438017664,-0.1741120581642227,-0.9045554939085367,-0.5217477501815724,-0.1323302327317073
yDngezhM,-0.2695775438017664,-0.1741120581642227,0.6345805968,-0.5217477501815724,0.2736113202307692
yLiFjMD0,-0.2695775438017664,0.3568675482916666,-0.30628690892638066,-0.5217477501815724,0.5291082538216219
ySwEBO7w,-0.2695775438017664,-0.1741120581642227,-0.4534177992807018,0.1025781050547945,-0.1323302327317073
ydC9UsSm,-0.2695775438017664,-0.1741120581642227,-0.9045554939085367,0.20585012717307696,0.5291082538216219
ydEG4VBd,-0.2695775438017664,-0.1741120581642227,-0.30628690892638066,-0.29352647404310356,-0.17896840043269238
yf76yWXc,-0.2695775438017664,1.5658896019999997,1.3232617415,0.1025781050547945,-0.897691283
yg70e63n,-0.2695775438017664,-0.17000211894140627,0.11380279920812181,0.4679654595714285,-0.5422962988857142
ywxtlSKv,-0.2695775438017664,-0.17000211894140627,-0.9045554939085367,-0.29352647404310356,-0.10208884844444442
yzKPQPOR,-0.2695775438017664,-0.1741120581642227,-0.4534177992807018,1.6702201587272727,-1.0077724591853146
z5cnOnZ1,-0.2695775438017664,-0.1741120581642227,-0.30628690892638066,-0.29352647404310356,-0.5422962988857142
zFLkOE0e,-0.2695775438017664,-0.1741120581642227,0.11380279920812181,0.1025781050547945,-0.17896840043269238
zGi72mxL,-0.2695775438017664,-0.17000211894140627,0.11380279920812181,0.4679654595714285,-1.0077724591853146
zN925UV3,-0.2695775438017664,-0.1741120581642227,0.11380279920812181,0.1025781050547945,-0.5422962988857142
zTy2ih7e,-0.2695775438017664,-0.1741120581642227,-0.30628690892638066,-0.5217477501815724,0.5291082538216219
zVFzAutw,-0.2695775438017664,-0.17000211894140627,-0.30628690892638066,-0.5217477501815724,0.5291082538216219
zYxNAkht,-0.2695775438017664,-0.1741120581642227,0.21733743247727275,-0.5217477501815724,1.6132038662666663
zaWDBai3,-0.2695775438017664,-0.17000211894140627,-0.30628690892638066,-0.29352647404310356,0.5291082538216219
zg3u0Zsx,-0.2695775438017664,0.3568675482916666,0.11380279920812181,-0.5217477501815724,-0.5422962988857142
zlwLfdsS,-0.2695775438017664,-0.1741120581642227,-0.9045554939085367,0.4679654595714285,-1.0077724591853146
zmbKzVfl,-0.2695775438017664,-0.1741120581642227,-0.30628690892638066,0.20585012717307696,0.5291082538216219
