PIDN,Ca,P,pH,SOC,Sand
09gt9UK5,-0.445223548514564,0.134424044082072,-0.969155711340112,-0.629581854944461,1.82567403177553
0BVvxJ6a,0.409905269119774,1.14919909693889,0.637672583466029,0.028081670441805,-1.59850926994337
0KbdgApg,-0.142235522894648,-0.276562221566005,-0.0975545526425277,-0.174355667312995,-0.810194418579594
0MnuuduB,-0.0689233493729946,0.034949939982585,-0.410563534792065,0.480494945833573,-1.06851876557837
0PcIsF9z,-0.382404198148565,-0.240903504577761,-1.34899203995631,-0.0501434960625564,-0.0902093491597033
0ShTFLYJ,-0.458691975881543,-0.264208641802673,-0.627365724337999,-0.807590980243125,0.812824988348505
0XZh9jka,-0.150180138526721,0.332947386666465,-0.77424165113491,1.06536943547164,-0.60565286790668
0Y7Wegri,-0.231094151484223,0.968059421714537,-0.31829548904353,0.372552339931042,0.376349924852472
0dTqplIM,0.0816897758104095,0.578273886452253,0.41039557816768,0.411424319718179,-0.869031762226692
0lNiZicC,-0.459271131850984,-0.30385498139551,-1.50023865869564,-0.819721071184404,0.41818304055898
0rGeJ0QN,-0.411480913810441,0.0964459244336775,-0.91390025905332,0.0484522363140187,-0.0922614597294877
0sXI9ytQ,-0.502216591764674,-0.726904659551552,0.370196051674172,-0.86930335252817,1.35394698629998
0ukt4aP6,0.36616514131787,1.28745790387396,1.98437597663643,-0.878017342168906,0.0727945550385485
1AGspb8f,-0.431141867091657,-0.361518872293335,-1.232438328703,-0.312659815334332,-0.911097185189991
1Csy0gvE,-0.44904254070348,0.10657100658603,-0.251273581300816,-0.744068492907475,1.05692738703921
1Ic2hly1,-0.325624998731601,0.148351719504975,-0.240846877378785,-0.0478327361629925,0.536484767426924
1PPbaTwt,-0.425254687468912,0.766657938006806,-0.610961618223868,-0.503489185190248,1.55192712273461
1SO5VJNy,-0.417629752227359,-0.25260189745779,0.209079720045144,-0.401486431231166,0.74374730702078
1arHxK3Y,0.70776347372095,0.697102526530717,1.47659919789082,0.277713002791586,-0.383679258104909
1fCW4Bba,-0.354208859229359,0.779299116543699,-0.344105776023465,-0.48015199800077,0.723108157082865
1qDZNvIm,-0.468003587866113,-0.150255762782194,-0.198994481595578,-0.693571383906935,1.02701358600048
28LYJC2V,-0.51054544606195,0.315509929699717,-1.19962749527218,0.443553218726754,-1.11482308190013
2CzACvQq,0.336272086610207,0.876162162338745,2.22662280871563,-0.527957043520975,-0.0165739705527192
2FT3crfv,-0.305480753415304,0.54808102133074,0.0873652202528444,0.28243956021232,-0.567714403574097
2Fy2uHVg,-0.452821666378037,-0.229597548493809,-0.478063499433671,-0.499228055839916,-0.55655136542975
2MkMEApm,-0.307564876344053,-0.133649644439881,-0.344636812312795,-0.731891485743934,1.43493380797246
2NDGWEOe,0.78060755805348,0.367571136467814,1.85131504170672,-0.267613908916925,-0.589187195103084
2NyyCiqn,-0.414560050262354,-0.136037912177092,0.0035222552629962,-0.542698916615484,0.650327777765094
2QRzIb84,0.391071761131024,0.939480385966518,2.23544665388529,-0.294517158979859,0.453842148396167
2QcbdrUZ,-0.384632173200612,-0.581853609567851,-0.103302456013321,-0.224194569533266,0.565857291543535
2YgAimWK,-0.320646257452061,0.138839227240121,-0.215136578846213,-0.436108175541641,1.26838861572094
2cx85d9H,0.102351331983333,-0.575231252791459,-0.0792853768237524,0.243784374345926,-1.22025759657333
2homMXMV,-0.395484868866763,-0.324364939383891,-1.4038339502003,-0.334162365441133,0.327585709280875
2ldLrUtq,-0.421549841920602,-0.341512182311402,-0.191652929455744,-0.315799859983696,-0.401609688381379
2nsACW6G,-0.490873607120145,-0.271114444796264,-1.09937162130327,0.608027268667184,-1.29787947684113
2yMbVnWc,-0.370871028642902,0.911094870328724,-1.26005282232688,2.29746644032716,0.349042033481376
36r8sgGQ,-0.456795518095777,-0.261645025084183,0.170214842701766,-0.781493791716523,0.758215389515785
3NXAXCl3,-0.526703759984007,-0.750229683523065,-0.824540451718742,0.252754632994377,-0.961935357609208
3QG0z6fl,-0.446515345934569,0.730777488744367,-1.28289481228174,-0.58742329089763,1.51104570819692
3WS8R9qm,-0.0278192005032524,-1.27376879085167,-0.983975062043926,2.24950737749,-0.84317003750297
3fRLm8f5,-0.324254525035982,-0.0847129495774687,-0.388639055432195,-0.120914848115223,0.160086655202727
3mZhp1nQ,-0.403439416472213,-0.208860990402396,-0.206598490180367,-0.57341814119292,0.858514989022074
3pikJXRL,-0.464172358202047,-0.69252229087572,-0.838787660627178,0.918666102084573,-0.668174434194938
3pxOEGHL,-0.450618483042142,-0.251967835571915,-0.592796187449343,-0.787061182792429,0.666335700417782
3ttdV3f5,-0.251713080898624,-0.263766731466183,-0.690041372453936,-0.210992474662036,-0.538702851705382
3v4X6Mfe,0.626518761907631,0.0525258376047283,1.6658786188365,-0.309968678262206,0.265028767464851
3wORuPiv,-0.460157423883888,-0.317506405987581,-0.839206862777212,-0.0529692583996473,-1.01457885028073
43EfrxZj,0.0308562687526484,-0.181453272383865,-0.366966920795794,0.385540236387026,-0.208101429026146
457Vwm21,-0.165337858643897,-0.115672181367607,0.289431326165963,1.49932416684831,-0.429081272093913
46KNnOdx,-0.441722744329556,0.0962725929849013,-1.22709311777585,-0.100235815714266,-0.22099422380748
47TwNsVC,-0.438692966074452,-0.609926313247396,-1.1944409763832,1.0741990684234,-1.10795992694305
49856RpO,-0.332538775383723,-0.224062376021534,-0.454746990578694,-0.348995709947705,-1.22149103106682
4Ane1o2N,-0.447973792349037,-0.133233349571338,-0.483833037848945,-0.381300686958796,0.37369240380905
4AyVUgSc,-0.472395212767318,-0.220319524091896,-1.0709894728652,-0.476930728298683,0.400979515698338
4B1951On,-0.183367079204043,0.442699170669164,-0.119047839420799,-0.307332865584951,1.4770522354285
4OL39Teo,0.0291364420176112,0.0273561737229939,-0.370132440043195,0.151614745771269,-0.228182895763008
4eQ90eLY,-0.114821478629474,-0.287665082803273,-0.338893872142448,0.30193340234037,0.0546375789352536
4o5jwMj8,-0.434788272049253,-0.333954879280376,-0.375847131984675,-0.649199792288749,-0.0362026869271244
4vPgpl2c,-0.410673975877286,-0.231887630572495,0.542254028977313,-0.596528747365945,0.53802272398167
51r9aA0d,-0.444862426936585,0.0982795482765451,-0.327193434207133,-0.622585698199491,0.302160403955349
58SmeRoP,-0.284426722689465,-0.196011526596018,-0.0433784400945475,0.0129917594845655,-0.806851872123895
5HJp1AXn,-0.381581806123016,0.0624880793586228,-0.84931178297683,0.787573585488291,-0.111648832955205
5MBZW7fx,-0.170140456715147,-0.25575635171631,0.665027002731315,-0.705620617144322,-0.54807809996865
5Nq3gHaP,0.0311094285948864,0.594046595710329,-0.0578106891111677,0.150013546773545,0.179937328050717
5RmwFFK3,0.412738913140813,0.272569989318003,-0.354530395011479,0.614807745029232,-1.51332485950985
5Tu5Jbov,-0.396512084315444,0.28600958129714,-0.578780335072563,-0.0370672814408438,-0.682011805782084
5YEolkev,-0.319311041429587,-0.266127951768045,0.363947922814628,-0.346893804376181,-0.334135948015409
5a8sf6QV,-0.0965663193007031,-0.581870492163717,0.349840619646178,-0.122037369178542,-0.54350074128214
5eSvmqYm,-0.414794861454698,-0.102545664622226,-0.125611029746087,-0.689604288400403,-0.4052599616954
5hkN8fiv,-0.22358007116099,-0.347985705599445,-1.07865071636018,0.539272150646089,-0.777373548328505
5oK8Gti5,-0.407537749637427,0.142899108620081,-0.403954595543515,-0.564250072887956,1.60252880482849
5paniGaU,-0.443127900733287,0.0888728659317656,-0.841912511087771,-0.857507705730878,1.17284642055423
5vsr7ZUP,0.716255769862506,-0.749708897744185,0.82248800372443,-0.220207850076039,-1.12093698092962
60B4xMWI,-0.358542876732789,0.572725311293957,1.16204593376844,-0.530040609816696,0.45931128971392
64jOUtKy,-0.0448107325313647,0.824936589867308,0.07396331411499,2.70821679320726,-1.02655861611714
6AJo4xNG,-0.299214725315082,-0.0050466728494411,-0.0145791323232968,-0.0925843450552299,0.686147419126327
6CAvhEte,-0.399246143839137,0.579214693306907,-0.608291151238665,-0.365245949240113,1.47268202190269
6CuGYjT5,2.55148522022688,-0.577828593586359,2.12382195233525,1.13528254730224,-0.656141430396112
6DGH8ujZ,-0.316588084426646,-0.230611530115686,-0.92454762106278,0.022066638157701,-0.546076878023293
6PzsGdVm,-0.255635855595938,0.0688299464659819,-0.608473952157621,0.496813945595779,-0.219414969101143
6UcSJMbq,-0.227547927619847,0.628512689106772,1.15224146915575,-0.785269344247125,0.328376591582477
6WJbkH8U,0.704942735551033,-1.48050321153707,1.29362786642109,0.143617479090551,-1.32759126858069
6eUWsVzw,0.549149644413912,-0.233897468605307,1.09588660267047,-0.172711935019202,-1.45201851074225
6gNyO7Do,-0.0115429702539476,-0.589670828068868,-0.00403174870648832,0.353484515898836,-1.05353366402426
6jT0AyHe,0.00160233413457058,0.10156303209702,0.442715651161226,0.189036874526297,-0.913719069104882
6nBgCvWu,-0.491234989617294,-0.723275346460994,-0.327569636708919,-0.794965328951672,1.40618151538968
6ro5mqg6,-0.360008825574503,0.110478750546102,-0.552152371766818,-0.259966315239499,0.631808615266543
6sGqObX4,-0.429359574509621,-0.352643444058851,-0.592940367945069,-0.272971364243569,-0.799678279672132
6uEGy0n4,2.25449873172512,-0.683250176262265,1.9392243518254,-0.226779031666383,-0.776425548653236
7BZ4LxP8,-0.212865450776626,-0.451132462672202,0.453422734662655,-0.530011694709592,-0.0649381410738205
7CmigXKi,-0.488863279370253,0.556434517425425,-1.05745664362159,-0.367443442559413,1.21710498534873
7Ga0LpfR,0.409671361004437,0.946118362531345,-0.440733547991499,3.47252511067561,-0.366372568836374
7PQsFvsG,-0.308923866453769,-0.374194946170212,-1.31108995757066,1.40613851468486,-0.693753775376354
7aF7nnwn,-0.541591386954315,-0.210881446416753,-1.25229938340112,-0.829105667651999,1.20141223656049
7asGzfX9,-0.242564126874837,-0.189751309745801,-0.0489728008011285,-0.25763245762237,-0.0727761108882746
7cg7C92o,-0.149637882514341,0.174985893541411,0.349625117995275,0.899043188227165,-0.421922620431165
7eOxTpsB,-0.317287048026321,1.19848822908673,0.969746453503854,-0.598294776018591,0.63123958088019
7ey0v7ma,-0.503921329591484,-0.736926527181564,-0.902309109080415,0.35895613994959,-0.871426380368905
7gocyrYl,-0.307107997922943,-0.045105543510424,-0.392658929114023,0.213783082678054,-0.287084342246368
7gqR3GoA,-0.373927039196627,0.223901546008286,-0.702000052931268,-0.522891377885285,-0.0928857008056957
7og7aUXB,-0.118119052883164,-0.0964432937946116,0.596251428559863,0.248730010708228,0.223858567221875
7onRfa8F,-0.209565409181435,-0.141140039169306,1.33176012637056,-0.471435613223107,1.001955874989
7umkNuxM,-0.245040956143193,-0.00816896676749866,0.00881841563485923,0.409588889444111,-0.8239444464894
7vPr9ExD,-0.0600229626422174,-0.283224252026189,0.0671296615275812,-0.156747919026695,-0.581283833327786
7zNjpCzu,-0.388036651700623,-0.0259048438887584,-0.245926330962496,-0.0357094893452047,-1.0001499444993
7ztsQNj3,-0.361083888515354,0.0361780359177416,-0.135233201909607,0.409469428407033,-0.900282805450904
86gppwMI,-0.586505175044068,-0.0186626763548662,-1.46208787784704,-0.43301899109515,0.948195947007164
88thAGdL,-0.37384603034495,-0.213285735342985,0.139949226348776,-0.336486490582745,0.0867282581862918
8GhU8STP,0.914342281418368,0.1567718930758,1.6750703620117,0.387925795956424,-0.998108638420125
8NlzDcWe,-0.499560968852002,-0.0518130825774829,-1.13931325114236,-0.709478386817408,0.217724838660656
8QAejdLW,-0.200568419906914,-0.139168547374969,0.0149676405084172,-0.0598916660109444,-0.798294852634894
8RDeFxWM,-0.39645400793353,-0.150918616240743,0.656384403927003,-0.720425897359002,0.942935936392115
8UXP2NBS,-0.449608248263571,-0.561828380083474,-0.442966917672244,-0.387595404291744,0.252705080916515
8ZoV3KGT,-0.340130631964936,-0.922183170750547,0.180433053280795,-0.470970418613562,-0.47792244411868
8ajs2uG8,-0.341142018765761,-0.400397514047495,-0.810322483931338,-0.220821329586695,-0.966785588512419
8bXnz62p,-0.236757724535682,-0.260730910537471,0.491166198469815,0.261291538648064,-0.11329120630424
8nO1O1LG,1.93147562485564,0.935704571695986,1.7641700901258,1.11604133320175,-0.668082058316588
8xE1p8g8,-0.387982560244778,-0.382046985424922,-0.336217662486174,-0.294901400132545,-0.834504728987864
8yMDVMRM,-0.404059023578263,-0.377562273710516,-0.781627003557251,-0.672571488870979,-0.943578698985901
98R5VaPi,0.480885346012542,0.561007762999425,2.37181097983283,-0.474218478570581,0.743033631146114
9DcTz2Ua,2.45268689609644,0.252371272379158,2.28393068384219,1.33944510765798,-0.895611293548746
9G7nfUrK,-0.341697880189577,-0.450775457389491,-0.7823585643489,-0.541204619954093,0.631724357851845
9O6GZ1HT,-0.127580984891162,0.413083384984007,1.23101398447291,-0.818588256129745,-0.0658557350899297
9S7fCoAM,-0.398311726964424,-0.211619864892521,0.061895099835027,-0.350105471694588,0.69459786436072
9iQwmFJR,-0.30811923607049,0.622538412153705,-0.246384910724373,-0.485210365851319,1.03007568944804
A3Mt6SAQ,1.73409634370756,-0.488711333472604,1.87867615250236,-0.903459736085108,0.509256315476373
AJIsQIcV,-0.472155853572816,0.0555076012064423,-0.748138865827498,-0.519276547905168,1.7693821655939
AMHKXMh8,2.21496690879635,-0.503617804179617,1.93443201536535,-0.14719991382011,-0.930411127976518
ASwA2J4E,-0.393624660160816,-0.117242202610621,0.342453449935352,-0.345321459065049,0.617352766567128
AaFvEoHq,-0.374779520185964,0.572844194166787,0.134728362479729,-0.820457690317806,0.537258880220186
AiIPD6hX,-0.325965664949789,0.174806793948702,-0.772334254597399,0.402678399853214,-0.0351728643354673
AsIURvJS,-0.410303905761056,1.16786364407489,-0.654968802468876,0.86829354922843,-0.64500381116419
AsvgbJ0C,-0.229590843179704,-0.249691552478257,-0.781311857662669,0.743816414355868,-0.272414169875286
AxEhbkCM,-0.318061636419021,-0.347358767411213,-0.566198472688572,-0.774859018543755,-0.118301266197431
B7VPkIpx,-0.294058381937047,-0.593784841447844,0.918448952642841,-0.683652926667115,-0.137412949973087
BBwHqHiH,-0.209404083886325,-0.500098679908004,0.341061125137378,-0.197570065880872,-0.705879818887938
BMyps8hr,-0.409558633513446,-0.450088209098375,0.109505084849091,-0.278714283594926,-0.903857191411671
BUHS4dQw,0.0877287595853738,1.51541855398679,-0.275962370329226,2.84440725407382,-1.09494906880777
BZB3EYWQ,-0.350931759457396,-0.449884179732317,0.165675324898072,-0.4422673528349,0.998342080709989
C5UPCZcL,2.81017510039609,0.421791383004083,2.04109655805937,0.941519218954514,-0.56523918141095
C5gIfQbJ,-0.314791368830985,-0.516999994250481,-1.27544234417031,0.133904931592299,-0.979245785414264
CDRuu4Pn,-0.332419574231705,0.111712274152868,0.436713888103087,-0.733045255052124,1.12652113374922
CQhTYkqE,1.2024233212202,0.447450107805948,0.739757294424371,-0.423815698892378,-1.76998057214852
CSEobMXv,-0.574291744959391,-0.539160010570627,-0.903285495761833,0.687082102903956,-0.477727304751884
CYMQE4x0,0.161558399215802,1.32065770541769,0.790249073239136,-0.334210886036286,1.66694709320187
ChQdtl4J,-0.385085444071785,-0.326018886009343,-0.46104730932113,-0.644584630228773,0.686570419895799
ChnD1nrN,-0.517660480370071,-0.223590710367118,-1.23748714140456,-0.629396296554555,0.220192260233785
CvtbbIcq,0.860426319337487,0.979059173515702,1.94068214346102,0.345178890703006,-0.391839113160233
Cxk06b77,-0.196476079385818,0.183592158837076,0.682798143789286,-0.0741050499719875,-0.214310174981336
D3QD3ZEJ,-0.0976257892042591,0.533243461611075,0.35434932593603,0.376502795499272,0.200294424696482
D8J5C6lA,0.829373377650022,-0.266094946098523,0.926213053593677,0.227445769492131,-0.498091061512048
DCeQwYfT,-0.191692948686012,-0.343138238541936,-0.0170002293340227,-0.028164040536504,-1.17672765403384
DDEftkx3,-0.419198261744248,-0.234156690441782,-0.977647271097399,-0.610976772852958,1.00669152012729
DEwCfeDW,-0.309286149023434,0.0451173682699716,0.141953909791102,0.127591653345755,-0.209428171255438
DMkIV4oL,-0.459999398003014,-0.274166414009886,-0.513496049603775,-0.65936990277738,0.603915139060128
DnzGfbxS,-0.360426493452971,-0.145060790200277,-0.36926637709033,0.00397614743710102,-1.01645052910325
DoZxo6f6,-0.392901976495809,-0.410271830459249,-0.041093525236274,-0.816472870400768,0.891665575870168
DvhBPGIk,-0.303429890007819,-0.131278463436702,-0.550864842339677,-0.198022341109596,-0.282434531635646
Dx7GoUcT,-0.545111959171077,-0.423783989280209,-0.321546719949638,-0.666475298929304,1.40108037392864
E5hIjohO,0.304247274651982,1.02319402213988,0.0661733058320656,1.06053885721893,-1.16179709289173
E6x4XGHt,-0.423556468654338,-0.185748794608403,-0.429133109620974,-0.421553520144462,1.75092035724901
EDEpAzh1,-0.375379400853915,-0.198120910670315,-0.849337954163807,-0.253452705023555,-1.22954207641337
ETGudkQt,-0.339642919662253,0.919410983709613,0.227680486251906,-0.820470462057611,1.2350319499794
EUleKrLJ,2.28763843653726,0.231712456331809,2.03993582571774,0.512910560462411,-0.511659081597591
Ehw2Jz6s,-0.335339968539038,-0.281253085231387,-0.063239390941724,-0.421617249302265,-0.207661548787172
EjqzC4zH,-0.344039904655257,-0.534043585830812,0.232704519239858,-0.943893553173218,-0.178858296799209
EkMZO3Qj,-0.384819141995245,-0.0199121588965864,-0.170974829499321,-0.785370682169133,0.693884334152929
EnoNXWvU,-0.0923389291052047,0.618953138787978,1.33537892394865,-0.969126772400388,0.446691992558386
Epv8ANwr,-0.220178339661378,-0.267916806545719,-0.205199729839177,0.532557708431651,-0.0330771017501452
Etro9j0B,0.48132790010541,1.41462631165586,0.112506396736654,0.450421292590616,-0.365169651313933
F3MIZj76,-0.244433086626464,-0.0825541090705382,-0.558413808354088,-0.199050743023212,-0.561105052929386
FB8tU00K,-0.528840437314105,-0.168019554256732,-1.39823280093183,0.348277069625242,-0.716980000485345
FLhxBGMK,-0.00610203462391654,-0.193299092428708,0.743979929848492,-0.0406641727003107,-0.893630548166235
FRreR8ka,-0.417029404491209,-0.290285549131169,-0.193351439335274,-0.559318599306189,0.773234616141365
FXne4oAV,0.0460824420857427,0.975774799199948,1.43376321926212,-0.00931894202431285,-0.502981885887925
FaW764jk,-0.217826300157359,0.247804290785505,0.643762792299543,-0.334255597570097,-0.444233948388133
FeAbMXly,-0.500898820003351,-0.227051917484278,-0.717167996697393,-0.745687633409495,0.754265095187073
FeudaFXn,1.91073679492986,1.68101150167291,1.77970399201006,-0.560025417802048,-0.25209162472895
FldUmFeM,1.29376395734888,-0.0710001382940692,1.89729226650258,-0.209864692424651,0.397042685643821
Fnv5tfAm,-0.37362156406519,-0.288984231064978,-0.490833366068136,-0.0849456697635054,-0.820868805186956
FvrAd3Or,-0.362215252614566,0.461334543614761,0.842305178251338,-0.606353064645952,0.688916945325156
G48zHffi,-0.100315406066407,1.00033356543131,2.3285199212362,-0.569054102393805,0.677656461478728
G76zCv5N,-0.44722566226637,-0.180425786276772,0.12148246153886,-0.368249659506396,0.106728801626867
G7JGUdNf,0.0888536436272207,-0.673690362084167,0.567647776221818,-0.257910292066111,-1.00954123271172
GCo6MONx,0.632254816443985,0.297066789856381,1.01004342393599,0.574000847703548,-0.909129644697339
GE0vbpVQ,-0.317146801175491,0.619134927391622,0.260041156507611,-0.539476953840417,1.88117682903512
GN0DfOqt,-0.528466658624875,-0.675673231901873,-0.746305679016634,-0.576327622520347,0.896995320290279
GNsTAb1v,-0.525166211306266,-0.0882332483963951,-1.01147287207755,-0.167908574262961,-0.994336277477351
GPwmO21z,-0.247010099087809,-0.305978538058233,-0.127777777024948,0.3300454584166,-0.507909564121074
GQYpfLoh,0.469626639495841,0.254044719245796,-0.383074943441134,1.7304243555575,-1.31731295011486
GR9knT8n,-0.28127191808807,-0.425518869379871,-1.26468625533428,1.35329648969098,-0.827921451943494
GXtFFbZy,-0.256347465269145,-0.0103891134774883,0.0596631919238884,0.0159540150305447,-0.419343618051364
GYvzvvFD,-0.627667141673305,0.566225239497548,-1.37200039007479,-0.383305174543424,0.342199612791484
GemPjTJ9,-0.459232098023448,-0.298259548052258,-1.42747962695897,0.758099272402178,-0.53855843141397
GkLYRm1K,2.25663123091059,-0.372691650554076,1.8278511586059,-0.0627623883630575,-0.694660650107177
GmlqP8eI,-0.446751370016374,0.463972971264778,-0.604808598805772,-0.70357170011396,0.0480371572413787
GqkIrOvf,-0.47138364988234,0.489474062784164,-0.967905894095745,0.903948920787476,-1.09441972918471
H0fsegPi,-0.437940687349989,-0.22082115637598,0.115407009686174,-0.576541788497184,0.717815655536202
H4dHpJjU,2.86598639381123,0.191669954341316,1.92860755953447,0.744588405591999,-0.978045193239059
H5QwJCuU,3.19043881637309,0.94857519923085,2.12534434427844,0.218053511475827,-0.572874797932259
H5uwmSZ0,-0.472650959272267,-0.128224786121036,-0.535983218270601,-0.756036088386022,0.764400334717861
H8MtbVoL,-0.237259673503325,-0.346342575889814,0.412185352320753,-0.611537447441023,-0.0562188132539851
H9JrUYnp,-0.427077780429877,-0.15669923766727,-0.194461642844058,-0.32810762828189,0.329537335769929
HHYmmHVk,-0.442233227182194,-0.0974274876583485,-0.169905986160993,-0.909617587520809,1.32071207726502
HJ5U4uqL,-0.496663886162013,-0.290941554654771,-1.40382027276421,-0.559466001759253,-0.458724964911616
HNQxYc4w,-0.328946696793234,-0.366068284514954,-0.17388341901493,-0.527170065306666,-0.245116297424924
HQYhKHZ8,-0.443874575620337,1.22721798065628,-0.22899835729157,-0.47608983900885,0.18446641472776
HSCMx0MC,-0.374821134622605,-0.381109333703105,0.0505247820315096,-0.700870362905944,1.17365838533912
HXYuE0fx,2.7500699891239,-0.0402061326831422,1.97210209942717,0.505388435344373,-0.575495958136163
HdKcxEWr,0.0874324677316069,0.114047092969712,0.392203256561027,-0.0683537341427129,-0.275077949875182
HecW1iCC,-0.503528554154109,-0.620800938211878,-0.865793332254816,-0.509276571121406,-1.03368358893329
HpbKB8rv,-0.439713796330587,-0.337529026346135,-1.1500501345733,2.32085690466651,-0.898722392362361
HrkoYjCg,-0.087796196288755,0.862835635412517,-0.393790983215896,0.781631691909261,-1.2333956874499
I5P2uquT,-0.35010447815984,0.434461613127328,-0.160993715983288,-0.564628505873488,1.15339201295675
I94qkDM7,-0.610853387621381,0.00437705406854928,-1.50063931859304,-0.394413164137274,0.572085992140055
I9sQbtt8,-0.351930609985984,-0.670579457359267,-1.05144278028489,2.82733251505922,-0.59803292901768
IFxgw6ZX,-0.258959591462046,-0.306776848277292,-0.285238616361007,-0.40811258583084,-0.197326369215139
IPPPSyoU,-0.61999267944802,-0.101180032648183,-1.2315090073413,-0.232548211824946,-0.869314138683733
IQOYQubU,1.70171423347037,0.32674483346705,1.8556630621751,0.710519703597627,-0.780738968767176
IYNE2SxU,-0.420343852048638,0.0108745832105569,-0.883174048681896,-0.012482104809227,-0.957192484498619
IZRFk9kN,-0.220338595352671,-0.10054964868313,-0.191210519518931,-0.155346353680313,0.176293007315525
Iaq3v0t3,1.40965315620204,-0.687481463291023,1.96373009837297,-0.831100644740209,0.520133392401716
IbVwu1t6,-0.34967790617715,-0.253235705477559,-1.41014688578194,-0.178183258979525,-0.267194154683932
IcHKTLyo,-0.129203665820272,-0.325553273479976,0.317990411235046,0.276734184909551,-1.05136055669579
IpW80wVB,-0.277424610056547,-0.360170333822214,-0.130304516455346,-0.377507763348466,-0.30248771715417
Itb0PYUV,2.20665445014519,0.423638612261979,2.04738997144573,0.674878417652697,-0.756410457742578
J8fpSwS0,-0.394261313762337,0.456299647630715,0.495075671019339,-0.701601086913051,0.517472649981063
JE1SlbD0,0.540493189021863,-0.0140053230736947,0.691749015020362,2.40138464909551,-0.641690234350555
JEB4McNb,0.536792181028351,-0.697882011359447,1.3694392421558,0.452863663331247,-1.18939763971428
JEE4QVeQ,-0.0347409339708118,-1.11552957632788,-0.0107273170002873,-0.403692596846821,-0.802945032310391
JJSEU2VQ,-0.432738805805402,-0.0712622115665598,-0.676725333383453,-0.557419697582264,1.00547617866446
JSsVriP2,-0.158980533135339,0.512844430382573,0.985218134519991,-0.775926551701746,0.725167220929055
JUvQNiOK,-0.207492997913001,0.000132454626555363,0.227324999333062,-0.279958858259711,0.278007690468079
JZbrRtm2,-0.120752854559338,0.785695833848725,1.44639936752437,-0.939360675455921,0.0190615691794007
JcE9G92B,-0.118653458323646,0.0108759495727819,0.300122322872474,0.38116169253742,-0.248912199732548
JnNYpXHr,0.333437841345156,0.647335013631955,0.14566167144147,2.99400324362127,-1.12984238024704
JzpbnOtz,-0.299450223011805,0.498420878195681,0.217666317629799,-0.555820437956965,0.539999111678547
JzzUhPQp,2.3542869991573,-0.641876221344327,1.86768470758274,-0.0384252727077125,-0.549128884313195
K05R8dQK,-0.315669045084518,0.0649030577570795,-0.961954707259703,0.102716518572096,-1.10813008432709
K17pG2mG,-0.278965766607277,-0.388709965229143,0.228657357933272,-0.706691574461377,0.215935566743913
K8BellUe,0.232561816471271,-0.524722840421587,0.398291940164858,-0.0705604122636048,-1.23059158849151
KJ2eH6rr,0.504186576179851,0.297038886766946,0.305210714362538,0.183292309554383,-1.08004346228642
KJEJ6Glk,0.406711386307408,-0.238922740128371,0.911468859576806,1.69202280540967,-0.706954638919761
KSbO0oXS,0.492070059907849,0.715233070555252,-0.142014906886542,2.36280523115485,-1.1857522607148
KXtvmd01,-0.475689796314684,-0.0785468042238435,-0.446304739441867,-0.388713315646569,0.644434443001121
KYiJqBuJ,0.140078101774583,-0.831182972462034,0.823418990389969,-0.447354028353284,-0.82484515613071
KmbAyTcE,-0.219832686217728,0.356348092545021,-0.0220022062798842,-0.322347724319315,0.0284742568685189
KnNyl3rV,0.0994841615268212,-0.309254854957249,0.817574313697259,-0.314216746833805,0.549768454373544
Kp2DG8TZ,-0.306707091932022,-0.183203610751207,0.661385907844106,-0.444278699828437,0.193263717779017
KqQtKWs5,-0.507581070680568,-0.221665607828346,-0.93340013418733,-0.654676699804198,0.534287872138296
Ku27g63R,3.05613170760375,-0.27705025316514,1.58905318891229,0.544625567444571,-0.821785620876935
L2aTVqDq,-0.2962728167588,-0.262285611665343,-1.12690996493108,1.03546633151168,-0.897027683663513
L5jvq6G4,-0.484360638712617,0.104357497172397,-0.86732122745374,-0.632656586952224,0.872126925405742
L91hYVQl,-0.501373484883132,0.344438563856754,-0.605207125607122,-0.725502271419435,0.407744279433908
LINAMlbA,-0.489980747700426,0.316762946907763,-1.31336132911522,0.0590421066590308,0.200618767454629
LJoUNXSx,-0.336354308786763,-0.144221493639744,-1.29088935593655,0.0298686986526735,-0.576535715449263
LLtSiyWD,-0.479740349418782,-0.343019824950499,-0.315651352668246,-0.560041577742055,0.228325667907209
LQJtV8kn,0.169006596033671,0.0413391260463014,1.10163848057362,-0.385202942276414,-1.1061906946722
LW9uddw7,-0.223365674946778,-0.460065551200382,-0.559710483120066,1.07889119973014,-0.794009759064154
LZ6sdBTR,0.567228193928006,-0.216042137927843,1.26446265272113,0.363927944672014,-0.997006656417665
La2Vhnne,0.0459821316856966,0.685591456706135,-0.617157806446885,1.99704411253313,-0.404749441715513
LaUWSq9B,0.0665971913353691,-0.395733415666312,0.0939185351629688,-0.0100992801089746,-1.23663912882654
Lk4SfkPQ,-0.399331598740914,-0.31316455648165,-0.516961642936503,-0.259278444904246,-1.15389961045336
LllC836d,-0.134995710228,-0.0756535749844929,-0.274856034575037,0.539533188279693,0.0272653570881714
LuGiGeWN,-0.54991891417408,0.225107386036708,-1.57138935265624,-0.338994468776943,1.09816980832081
LzcyHcWa,-0.455195165307933,-0.152828175134903,-0.776126676342699,-0.566722906497389,0.891993537647298
M7veP0H4,-0.407335132238931,-0.284330251124975,-1.07121854848794,-0.565507222424467,0.681648976247357
MB8aaJUc,-0.365709867385778,-0.0341501066136128,-1.45565046123257,1.16953567092485,-0.00339389103004768
MDpe2zuy,-0.369415651788248,-0.17442334724963,-0.189975491199454,-0.480911032419367,-1.15228149974803
MEzdmEIU,-0.300344422548823,-0.191839310123797,-0.155945213283533,-0.475005530998327,-0.0988426421445434
MVnhtivm,-0.231347823103275,-0.240838234093089,-0.106104257962877,-0.178971707048457,-0.0858696776308118
MYU7WDis,-0.201703583674663,-0.611170832418982,0.725770642340023,-1.0550659951503,0.113301457353685
MZFqh6yw,1.39090576045545,0.0258462902328369,2.42789472407167,-0.677214019673688,0.345888682085408
Mdgy4SsO,0.330607282189821,5.43738153114657,-0.510196282821796,3.76610861937272,-1.00589852692879
Mj8awnzy,-0.364350581624086,-0.104111164881216,0.322036140851719,-0.704406736302739,1.20895223048529
MpFPbUJy,2.30900397440085,-1.22580956396485,1.9702806765772,0.906243657623269,-0.638373349610255
Mqk7MFBM,-0.32931592060743,0.374520376535061,-0.630818921206127,-0.721003246208967,0.879529470435899
Mqs2t1Eo,-0.413108929035314,-0.203711254223719,-0.766222399001737,0.277690070465834,-0.797710475064234
Mv3jFVxp,-0.229392445100958,-0.0935339836272,0.379970396455739,-0.208022322287667,0.431727668641575
MxODTXvA,-0.0122594836898336,0.575142384498501,0.782360576675262,0.000317049176585226,-1.16956289429357
N46PbpPM,-0.449137544931955,-0.253553722957591,0.218993006040389,-0.754730361517421,1.46134570616738
N5S5F9Gk,-0.630767610008004,-0.240997240640116,-1.73360514678427,-0.408825193041759,0.816372610210086
NLDg5fqw,0.363499742916696,0.267413337382276,0.640310636876358,-0.615445414595184,0.875650564496806
NOho2ZiM,2.66864975373174,-0.0230932138834551,2.05253073544216,0.709098455164117,-1.00900507942913
NUuY7PFU,2.48620936471145,-0.288648675618862,1.85178725530079,0.951449661128428,-0.963645282064214
NV1e8AEO,-0.421206315752396,-0.453148199871736,-0.0731715775276285,-0.409666735789272,1.02103374919935
NZLXROKC,0.000912329679586287,1.13300438207164,-0.149308408469621,1.1299039632981,-1.12612508728867
NaJo7C6o,-0.00346176866852547,0.22015269623936,1.80976001640929,-0.143734470412811,-0.0138832907303614
NgsyGkrO,0.212417598851781,0.109797284388521,0.761694510484576,0.837498623987564,-1.06632293480571
NjOx4Zpo,-0.386952243366899,-0.221144724115142,-1.35549388330889,1.20382103660578,-1.23191069185752
NmQoI7x0,2.04424774048037,0.196599784115566,1.89297868156279,-0.0949177649292087,-0.468711374801397
No4wkdLS,-0.497401343992678,-0.393382224172028,-1.47690602070391,-0.615722268521514,0.549119406043466
NouMwhOf,-0.11421570648828,-0.0149836062611868,0.268773477627231,-0.0895935824543298,-0.444450208865448
O6YAWd8C,-0.155106075060323,-0.706438165964784,0.245458075603486,-0.337015736429261,-0.747626763639745
OAXVphSh,1.68416798175369,0.380315630942546,1.837158357363,-0.474909556050183,-0.373274644635601
OJBBhb6Q,-0.493980040985132,-0.270119293287201,-0.954275064442509,-0.822640682452169,1.45296275290805
OSIQXImL,0.635223546357422,-0.181216824644804,0.48554570328017,0.320369229577861,-1.32795519381546
OUUFc5Zz,-0.429566011245403,-0.258055051514763,0.144676914272698,-0.759825441846526,0.909161270919403
OVk1lquT,-0.0938985573689452,0.4936588479868,0.525843329419628,1.51144267916064,-0.591802453566298
OXdRxjzz,-0.232374858594961,-0.308969508634238,-0.910903667944106,0.158961644188551,-0.636942289244778
OXxW2ekf,-0.359034255726863,-0.371275784543001,-0.619159599419658,-0.359079313123587,-0.380902379740028
OXz5OpqR,-0.125747084652719,0.0194264785494464,0.745183209650216,-0.348866843684233,-0.575459416903547
OcBFW1AX,-0.374722138659153,-0.376458255982168,-1.28011971820102,0.282322634875525,0.566501119502363
Of9V2rpt,-0.196487881527382,-0.00758187958326814,-0.0693254306135891,0.378275851805602,-0.749560016342447
OfLxPhbG,-0.0732224987889996,0.072245694400881,-0.169254086624152,-0.245599656949466,1.36641246763294
Ojx2vi48,-0.474394826213792,-0.307389989091324,-0.966720555141874,-0.512605792742501,0.713911206626949
P3M32iuT,-0.437860326933769,0.311141291797332,-0.568234577826907,-0.617955574850354,0.319450656602411
P7olVzrO,-0.42821833436743,-0.0997989879429454,0.00570459813751464,-0.329756474053558,0.435603089740226
PAPHErnv,-0.440518879108026,0.0225938744911542,-1.2770584429783,-0.424887099713555,-0.653810831491919
PBjEtfXb,-0.359234023029537,-0.19334742248806,-0.175626048230697,-0.438384006730824,0.840104387965428
PZGpoBBj,2.30809816038035,-0.673284557592731,2.06339144529876,-0.283142309596892,-0.64456564966333
Pc2RrxXS,-0.42711992209592,-0.417641127506676,-0.25698269991049,-0.532338390757533,-0.568443811269511
PcHQ4FOu,-0.488648882597725,-0.0785522597898068,-1.0239993560972,-0.468441559539232,-0.188051368738322
PeNyTOVN,-0.317838731483834,0.859388840741339,-0.515681067688501,-0.192013376152537,0.525474286113567
PhUPSU53,-0.377343528246317,-0.221163519286119,-0.508452532721085,-0.346463435315371,-0.592444823680999
PmUNeV2O,-0.544730163362726,-0.265891795935302,-1.65097798247581,-0.790475680264495,0.561816628410152
PoDJ0uvK,1.96669078020343,0.651316715219905,1.75104161171023,0.0110398691947909,-0.790100508691639
PsUJdJdg,-0.23840302553932,-0.359735730605759,-0.338002521023109,0.397293612667408,0.294502768395602
Q3xLFx1f,-0.30452759877659,-0.0909651452311598,-0.601446527222117,-0.247408625876164,-1.09818179222297
QBGxCvdM,-0.141618734775337,-0.49038651427107,0.219170203171992,-0.28055732170404,-0.687592016071992
QCEPyu6L,-0.571035886867713,-0.131673833299703,-1.15823785436094,0.130548018429183,-1.06132499766405
QEfwec4s,3.47902196165282,-0.40972686735688,2.00103659930389,1.27747687750429,-0.772035031954124
QZ87Nnr3,-0.46528159374195,-0.358324791604562,-1.06310483949624,-0.715570695377478,0.937326082507678
QlyGN9jv,-0.583863354726014,0.463542955496339,-0.791971692310657,-0.424328859546822,0.0995487298532684
QqgWE1ny,-0.421039263592639,-0.0635299736715825,-0.327056835527366,0.20393520873087,-0.786653250072168
QrjjBpZd,-0.534861962932536,-0.561140392383292,-1.22864722699426,1.13944371605117,-0.602523340020483
QsaBiX7V,-0.417725121459401,-0.167859554572519,-0.449567420505318,-0.185511147094117,-0.416741479267712
QtBKJuZk,-0.330311549191422,0.417584833741565,-0.288478961618394,-0.391198576027254,1.68059839562479
QtPRO8OJ,-0.46714067480267,-0.479876990165904,-0.903229097339405,-0.564024855627606,0.615703420882175
R8XcsFnp,-0.41331140796942,0.550985032972403,-0.450257360862265,-0.53031777490543,1.16901294140845
RROfRt9z,-0.0159621650139597,0.786708519107115,0.124921624521141,0.384839022944192,-0.701234944258595
RTcbiDGq,-0.380664369751933,0.577249704011279,-0.470105295495629,-0.252105115713574,-0.135440683542934
RVidM9g0,-0.250642715618183,0.271373724257223,1.55975107424095,-0.645000129217042,0.808800075660769
RZnQSH19,-0.471256140819313,0.085758051635317,-0.492389548852894,-0.566524706515558,1.06412999900684
Rc4UK7fT,-0.593349176344447,1.94565608581837,-1.57074034544955,-0.282083714492129,0.715341558568791
RcKBKh6B,-0.420581761802407,-0.0756475704796137,-0.2675526341568,-0.402490237882996,0.777795053199125
ReM5kDa5,-0.126019677972078,-0.126198789937266,0.203688728489167,0.327466911249072,-0.898731590036008
RfntsotG,-0.45575344581354,-0.1054434063786,-0.394848215792387,-0.858394956092893,0.652609948506193
RiXMlzXD,-0.33967880561352,-0.453860857183231,-0.0552637895397411,-0.243897745114402,-0.59933173289066
Rik83O3m,-0.43763468197212,0.022070192361484,-0.232789294084398,-0.273993743218048,-0.444902659032167
S3PCzDzO,-0.170784040723568,-0.0773545104079356,0.466895036721762,-0.320193895376349,-0.734844749591674
S77BviOJ,-0.514818914590511,0.0829587106226299,-1.02842172737113,-0.305963602501273,0.179371389087285
SDdvtktF,-0.319659663280854,-0.323060308254965,-0.539253025916935,-0.261560694888593,-0.812094225683377
SHs1AyfM,-0.277347038966474,0.35145232547859,-0.0457592386023271,-0.356387760908331,1.56816885229172
SO4zQy9k,-0.416437173380508,-0.270161747681858,-0.357810239195732,-0.43533900225979,0.425718377498811
SOOBCoiG,-0.792400354525321,1.40483362488415,-0.401104403411553,-0.558207378560827,0.990079656800582
SXkkPB7A,-0.378335245308239,0.983975131679554,0.536503087385925,-0.478316789038657,0.960140627063903
Sa93dGqq,-0.553806694225749,0.733880845348775,-1.70036250142909,0.528514522319178,0.524350757524482
SonIG72a,-0.574409181630978,0.179649316536436,-0.91423182722831,-0.208634619696084,0.179514150486843
Suf6hIBc,-0.422083581018682,-0.237667329434295,0.0459894592193442,-0.556149599772509,0.613607690550822
Sx2JeSRz,0.0277942750135275,-0.243331173208687,0.347409648055256,1.17629333655795,-0.487840195885585
T1Tlftr4,-0.250492393901287,0.0699908857134529,0.291472921999139,-0.648136963713382,0.641740120873997
T7ulR4ci,-0.474125320089554,-0.0575743563335125,-0.0734797169267074,-0.84109987874318,1.30027367873308
TA1NB3Br,-0.318956488059075,-0.044003702365211,0.154942218255719,-0.471859834902817,0.822574982928769
TFZUskaK,-0.029501633548433,-0.0684334716725067,0.162654353907036,-0.11201660055299,-1.15290934950564
TNL8HGWZ,-0.129351256945187,-0.388294297904632,0.263339069657536,-0.386851851447116,-0.987587813106006
TZ8z1GSF,-0.323567359032325,-0.280801453743522,-0.403609679614592,-0.485596066234232,0.187418969072346
TqhRvkJJ,2.27038964000324,-0.509136690152906,2.00109264253936,-0.189096233648745,0.429718811153575
TtJCUiY4,-0.446481314273342,1.4337667537626,0.345380195098661,-0.579820131521827,0.951817076720743
TwDq0lua,0.938026682541927,1.70253047770552,1.09501443549477,-0.198588536941399,-1.12092920000617
Tzyf02sI,-0.338652795604889,-0.207191643909999,0.143110557187233,-0.588600800130681,0.873898062897459
U3yI6ZS5,3.0482392333629,0.21903697494421,1.97881438448733,1.3187287946635,-0.799927086271255
UBLnXZAN,-0.4791124398281,0.774529213861974,-1.18198075547763,2.49063216125565,-0.0687332833057719
UBWDzleg,-0.394604588178257,-0.356267082014012,-0.998853504652946,0.138570106776092,-0.993078080933882
UBqkX6SY,2.36299566683727,0.0537789185825247,1.93018178553017,-0.232755910239605,-0.693862280557401
UCIAi1Aj,-0.326356811205377,-0.501928060693109,-1.22645179619776,-0.402608725517904,-0.131797191117724
UPbXGvCS,0.0436806612941593,-0.725013091652068,0.37474921323782,0.117281131397633,-1.11406580735271
UeWm1l9F,-0.212253804888508,-0.357125295788105,-1.0275646794899,1.54742719297319,-0.745049025104681
UhucscY7,-0.450965482589242,-0.391981532989436,-0.8552715389899,-0.710670776352464,-0.88126182534814
Uri1SvHV,-0.0989349427268818,-0.449753253969853,0.338628145256749,-0.299641252272991,-0.912039771856839
UzxipGJS,-0.445288420120839,-0.0384377367910759,-0.0365447927788894,-0.371839902397856,0.688941829083912
V74zfaAQ,-0.235296286960344,-0.377907032428725,0.276473598219191,-0.198999357457181,-0.714077469591625
VBPxBLTh,2.51611464280634,0.590660195049235,2.06709528326725,0.61363955520814,-0.915301172479662
VLG7CXYS,-0.267575591340444,-0.00440581655233722,0.00410037116312942,-0.257272764421047,0.632513672654273
VNk52SpF,-0.424478583129096,-0.60714513095395,-0.935750702841459,1.10678284363215,-0.998375834564658
VOREKsok,-0.48429540501643,-0.0402231382538505,-0.424242893929697,-0.807019016423538,1.32469803612826
VRhTr5pX,-0.455184226310986,-0.391125041275486,-0.00524879434487639,-0.646746539686055,0.36449302057117
VTcG4Kcw,-0.218025439057283,1.25526040787478,0.899196122169617,-0.384450448288445,0.597180192219725
VeKiWSbS,-0.391934256585449,-0.183796990842803,0.200220229191513,-0.350397322471646,0.670994878870043
VnU8nJHU,-0.426560493084256,0.0237741594788597,-0.0675830863764206,-0.406127361435213,-0.314781557204936
VueNCxYv,-0.452234344086216,-0.147178306389386,-0.605449720566781,-0.446417010304473,0.384989841148514
VxuQTRUl,-0.439621282605535,0.380179674697258,-0.637007716985686,-0.587871259560024,-0.47801195712523
W5lgaocA,0.931377230154934,1.05832303374796,2.31896146058948,-0.403907312752106,0.278261877984309
W5mMq9Ef,-0.327032197357287,-0.270771145847053,-1.23606216533751,0.110775198942291,-0.0366890795724555
WDhNqFpS,-0.00186626780730868,0.00339850018014353,-0.461659765479175,0.739103244675614,-1.04243411423319
WE6n1kZi,-0.349560031874214,-0.117506637067842,-1.58158104455795,0.541691537692986,-0.438048293929662
WFk6r3vA,-0.43333864351089,0.0527078033427111,-0.585056337349082,-0.334398008480833,-0.162321176095558
WFyIrsUR,-0.391256976012256,-1.34905487156659,-0.593309461990204,0.384100636680905,-0.704292961147308
WG6ZAsqR,-0.470159219778454,-0.247929524286391,-0.449868715830545,-0.810245315074976,1.1445731227695
WMq3CZQk,-0.417704495296882,-0.323130334702664,-0.993107855167216,0.390301009630906,-1.33012356014784
WRskmGjh,-0.450214560854571,-0.420664811321597,-0.754156136223894,-0.414362655001758,-0.981763600542185
WXijSglj,-0.380441330671167,-0.430183926879491,-0.959278218061401,-0.294851659157006,-1.00241437822598
Wc0stQgu,-0.295279871571596,0.0184003746350857,-0.798744384886084,0.197297541130287,-0.924341721113745
WewoSCUB,-0.534491451474281,0.102085317423171,-1.4713540335739,-0.776267121166758,0.869399709417261
WuHuhHWJ,-0.334667038924367,-0.0519535702656992,0.51263884428903,-0.704893928816444,1.0850580808159
Wv7EBtZb,2.5256097029142,0.971656135264301,2.01107337417972,0.11835805977853,-0.830971251451936
WyPlxDn0,-0.44365595329376,-0.0883745261104631,-0.576904396450488,-0.560874448615214,0.641203133106291
X3WqoSNN,2.75219042689878,-0.504531893117554,1.87852688938088,1.25195394117866,-0.718067640032566
XDhyP9KB,-0.446686752408895,0.0575488781140749,-0.426633036436162,0.0524640403959389,-0.570529209914236
XQxhDRMG,-0.491653922233611,0.169031710607757,-1.54265220894416,-0.257266116535948,0.899228578375655
XjLNAwxW,-0.0595941285900247,-0.153435308416504,0.0199460108162755,-0.283346798215022,-1.12188338259084
XjfVQbXd,0.608527882535532,0.039337284732592,1.90952466956925,-0.474343834342652,-0.812085779580881
Xovczbf6,-0.475488416029865,0.510359244258988,-1.0221147030952,-0.788614363555105,1.27069302443143
Y8H4onBf,-0.515274897639017,0.0619414737332503,-0.779617285493351,-0.723815464936264,0.687303391386229
Y8YgzSZ9,2.42951482421108,0.556227079890284,2.08252305544958,0.668247878413897,-0.418063587721164
YC4PNV20,-0.450719506845208,-0.289943496339127,-0.321762351642431,-0.571259437790151,1.28604918371673
YDHSCRdd,3.68896775452021,0.317065114042664,1.86092748041067,1.62243977478457,-0.732445665041381
YIJ87aME,-0.424071459304563,0.45491866700631,-0.784353878754771,-0.48995347618682,0.0221255360220977
YKvT4dFv,-0.255184809145772,-0.192253901144627,-0.222374724369711,-0.274042157895864,0.0500997465584596
YNebALR2,-0.614456183994326,0.198951470139879,-1.24079172539914,-0.293830799110936,0.357798783765633
YNrnqFyb,-0.334598990800886,-0.042265585664596,-0.262613313967808,-0.21992205398153,-0.0277417669899311
YUZ4lR3m,-0.423406143468959,-0.194256315882896,-0.452495183608696,-0.380789304866401,0.367641770927309
YYLvjoVC,0.148357809901862,0.885842842297117,0.730333845933006,0.0626224833837675,0.152769832005151
Yb8OtMb2,0.380586857562251,-0.656908705769523,0.703895558688747,0.204372154267412,-1.17238774369285
Ycg4lTYw,-0.4962314713167,-0.271521192604438,-0.950988260404613,0.348072948494449,-1.4095203359625
Yfk6tekH,-0.124151417304848,0.597067251504322,0.9302228995031,-0.299054681267679,-0.473191760661751
YoSfgmR6,-0.417799079910521,-0.324665093381553,-0.595434076628262,-0.11849198585812,-0.559029706689564
YpzFvexy,-0.33867406364546,-0.0552196036862449,-1.13437168176174,-0.18994829272365,-0.276879534275115
Yxqppfa3,-0.148345423739782,0.0445363021785116,0.0194178877869479,0.407674295376705,-0.198657814966129
Z16jTUvP,-0.288884583781395,-0.115251822599011,-0.261951837632355,-0.0360571383998552,-0.661075638534597
Z2BdCCbJ,-0.34974404383769,0.120732695988737,-0.0800461646418587,-0.457449095396366,1.11598468386361
Z2JJMM6V,-0.38166822543289,-0.237505842775099,-0.35962359021007,-0.303398511650175,-0.0787964693229617
Z5jE1OB5,-0.319179150495391,0.326598475506479,0.708542594250513,-0.336683502059747,0.209762703275092
ZFsIqYxA,-0.41546389591321,-0.154993094644857,-0.217814435661683,-0.490116008730529,0.533391156060451
ZHDVsoRh,-0.302430411592234,-0.322591174066055,-0.536035523302573,-0.212498893438236,-0.337821509914385
ZSmfu2Fc,-0.516241375778308,0.0374220684690244,-0.474513032283587,-0.327143430043373,-0.34511254769737
ZU8YXF3H,-0.501437245096621,-0.272240666770478,-0.689443188919919,-0.748660462094368,1.14341648280481
ZXKaNy6Z,-0.432231679144451,0.264671222810031,-1.43246548843782,-0.330697642817242,1.13181940920264
ZbYLo0zK,-0.24613379903658,0.626297581009252,-0.260427633364056,-0.351595713618883,1.49731062023337
ZedN8Gcn,-0.365035042236623,-0.445252222180858,-0.264958931545844,-0.543712798314608,-0.353445816590507
ZgD4Dau6,-0.218601987604987,-0.401629852684129,0.777405983677209,-0.432252509321987,-0.86967200361802
Zgzf79LA,-0.541622866372773,-0.250394858013532,-1.43762645558805,-0.692192119149948,0.692870078491223
ZjqzxDOF,0.264092562484231,0.827918437513287,2.12472861831945,-0.586353182947245,0.245067369442044
ZsZ5aDpq,0.436466122482094,-0.203180102902817,0.350950293224024,1.23399798647857,-0.706374686485374
ZtyqE7If,-0.126964145556461,0.520141792994073,-0.113815215531265,0.023951605535247,-1.26497173804995
ZvUgz01f,-0.310662552011383,0.505120879563338,0.786844402898845,-0.888120201502142,0.435222358804912
ZwrhgdQV,0.641636741416993,0.713067118989194,1.5979616405254,0.841083677063708,-0.506515074171355
a7bhJGBU,1.97085547513395,0.377017159689039,2.21782120737781,0.911803450517435,-0.684124336848414
aHpv6KzP,2.29528037759645,1.3071835401282,2.05021337979537,1.16577258857905,-0.695750742581884
aINzEBVN,-0.43365743408365,-0.0560378862864778,-1.32750884376685,-0.582631271916491,-0.426548195656089
aP9EtTGF,2.06665406101116,0.986140897478542,1.88484214229636,0.322316716600311,-0.14806768929758
aV6EhtSL,-0.386206336949234,0.422451743503958,-0.062409768854771,-0.570794413361785,-0.30537414917006
aVZsXKoH,1.93410213331526,-0.416351200883573,2.00065855634305,-0.470663830624702,-0.599802344547178
aYVnVJvc,0.0448451844033249,0.134968708875245,0.512906697390944,1.12867498037986,-0.921097264214268
abCzN1zx,-0.380018117022546,-0.408915738123489,-1.29792797832397,0.208169524970775,-1.08017484432816
ae7sMiB4,-0.235866474715111,-0.182492300869231,-0.0641952441723948,-0.387497568667485,0.633770956041925
afsVuCGV,-0.406765385694687,-0.222446478205406,-0.701356079919748,0.156446295772658,-0.460413269771352
aiwBQETI,-0.0694404357719252,-0.439782584388704,0.524915980501629,-0.313059426132202,-0.794795788970811
aiyli4EI,1.58441806419773,1.73009533446143,1.84272629470131,0.891138784659919,-0.471461543902818
apJ7NmzD,2.47604858403763,-0.468688033647227,1.88830420407466,0.575548315980537,-0.654212852286986
atVjNMtQ,-0.440376067241492,-0.503157586137823,-1.34205115513666,2.12929803981906,-1.14012463734781
b5GirVGV,-0.481088170283028,-0.314746484441947,-0.0674863300978939,-0.738364724358984,0.704157080653344
b9SpMjNB,-0.327626843621654,0.0352879021810012,0.705299284938341,-0.438372767577199,0.712150846823262
bAFs37yy,-0.414869409223773,-0.257532789000158,0.123205388522006,-0.824491854934201,1.0174649042016
bDia1hHV,-0.319390642542898,0.53113702929514,-0.328073590238094,0.12087676503353,-0.681465078834613
bFkv5Mtr,-0.40961523836653,-0.171002049310086,-0.440921619972215,0.833432280849276,-0.035853091496934
bHe2IXgA,-0.497789427881444,-0.07796565221291,-1.2934989289171,2.05799229174209,-0.960122465233138
bWX3vUm5,-0.0643324580011798,-0.0688843011378596,0.333468463910069,0.0999217395563361,-0.799851035412396
bat8tcGs,-0.155129692586069,0.0668548415487459,0.0926201244951173,-0.337752009410233,-0.845075902699006
bfjej4wu,-0.542831700787239,-0.348881491971735,-1.02030874086297,0.304005464437113,-1.42520505203447
bh04YDiP,-0.192302901936996,-0.0791442509598082,-0.0520939828439769,0.303613799118044,-0.379475518319163
c110Fdc8,-0.330647963379221,-0.203588292264121,-0.0595263739653367,-0.455336704163801,-0.0192924824940498
c32GUzMa,-0.478835536449327,-0.370062462958463,-1.66429544504686,-0.298161721899954,0.848968728621597
cT6uU0B0,-0.510526616892647,0.29959507841238,-0.638708936909915,-0.382825888820892,0.987915589630129
cWXCiFwh,-0.485405896939165,-0.0443090429212569,-1.17093112591069,-0.445858662094304,-0.684317620375347
ceNvS3yd,-0.430770788910999,-0.288771572249649,-1.40242333847546,-0.231472400677142,0.0641890286341443
cmwdt4Av,1.79935793541415,0.524415377806235,2.10416379894215,0.625582786392388,-0.369163414838092
cn4EHsup,-0.413855449737663,-0.234078160690767,-1.31093120750142,-0.42080445902641,0.135276929323796
crVOGGTT,-0.343265698260557,1.33786633401524,-0.170174356777274,-0.670658465734448,0.953036385872197
csPEJ1E5,-0.466407493207162,-0.24198164933763,-0.79394515426606,-0.534786969984419,-0.425378253704992
d0UrRtMk,-0.468723279706099,-0.102691461224417,-0.466999010602399,-0.947860030499715,1.19055880225806
d6LU4G4I,-0.345607963391642,-0.241731465309295,-1.54878373001395,0.62699048455028,0.137812210990934
d74T1DVv,-0.52528083772446,-0.324446618876305,-1.19860292208811,1.51721414914442,-1.07877440051704
dR6rM1tQ,0.0834322550086604,-0.254111860612656,0.401511487915502,0.00292390787532466,-0.854217380152458
dUNxOoqg,-0.524822156877266,-0.542724210294351,-1.18393640352163,0.0141903684625295,-1.28284888390136
dUnlyhj7,0.0572700622004093,-0.0370282792144283,0.773446889711634,-0.675934620383876,0.415841522061255
dVDlnZQ6,-0.380008593261177,-0.216183117640413,-1.02572260638616,0.0146933221687335,-0.700085095179673
dVT26GDu,-0.457085398278305,-0.591347969426791,-0.843495354098387,-0.407116536110081,0.560828205403259
de43ycXY,-0.204407302852547,1.45970278798615,1.31156431172119,-0.850317679514815,-0.103125367194809
dfIn7m9z,-0.247381521294692,-0.309895198783352,-0.154740171160882,-0.175279474839501,-0.405837794237409
dhmb9ZY9,3.28707662695988,-1.05929015017011,2.14222420053188,1.37960725118371,-0.696768554820234
dn8kCuyf,-0.301909130225326,0.375152482306242,-0.41029668065988,-0.252626561959651,1.39646790671075
dpcquvWW,-0.375239334859106,-0.14241130775383,-0.431165745901341,-0.478727002827824,0.351474679012209
dqcbIMyr,-0.606383970509504,0.140800114587535,-1.3008915448994,-0.249999901735125,0.0332652201709599
drWgsBf5,-0.299577739867315,0.557957491112278,-0.126309550171401,0.70256930040968,-0.588506053799596
dytx0HSe,-0.431442278440027,-0.122606524500932,-1.18317446635707,-0.759475067937572,0.952310865894377
e4KkkIha,2.2056480347807,-0.0155719054254162,1.90684178777279,0.17565488427359,-0.633534052297874
e9YorH4m,-0.395161184433735,0.323555019685806,0.582613554213778,-1.1441898244045,0.685650946388965
eB9gVQ0R,-0.457914123595887,2.67804038987376,0.217468323322397,-0.234527659880112,1.21277807283298
eMhLFqU6,-0.743763950422047,0.375724002328216,-1.61765519731677,-0.142990238417784,0.0474319125189007
eMllg1qm,0.0863861350137874,0.503108752004478,1.30802501568054,0.0954465491429145,-0.757312324337144
eNPunZ9i,-0.645202124130545,0.598477298628662,-1.55806687637866,0.694321146221785,0.092165440660953
eS5BSM4J,-0.39039137368878,0.00760998632276481,-0.222819237345295,-0.766912039125347,1.32104476067585
eVGMFoOI,-0.404541295337943,0.359970975239346,0.311039116211278,-0.681056698506152,0.665321468231439
eaIwb3rG,-0.386976560856484,1.70142675877548,1.1120510672194,-0.135118869884727,0.668854091002077
eyzw8Vis,-0.415471356960342,0.614921915985657,-0.288060565836404,-0.535395858407651,0.920763695872314
f04Ke2bN,-0.268450034727401,-0.107689184545336,-0.697388799561273,-0.0676505320285954,0.136566602019884
f4GA0te1,-0.372709869266132,-0.389124934667124,-0.364276670432543,-0.652627639962936,-0.0122819708663829
f7bd91h5,-0.418399139317379,-0.00928149969891457,0.328381547644004,-0.719308134527728,1.23220780151724
fB7z9ndr,-0.167115163879893,1.58088188553671,0.0735637626177963,-0.442003497376315,0.97696130635613
fEe7AWFA,0.324851964776974,0.784391903024495,0.214590040203397,-0.00835148678957462,-0.63439490700276
fJJIbgY9,0.65922845650624,0.0896505126872334,1.36767721732303,-0.774895361354434,-0.658233694606253
fQBURMvg,-0.367876657297283,-0.322707207550428,-0.227763483102507,-0.503602341828977,0.921937809261925
fS0HpOub,-0.393527845590594,-0.129801682396687,-0.104588300481698,-0.67139337886258,0.629604219482061
fTDXauuk,0.125517939089482,-0.11001320773568,1.06557221709354,-0.530284085236886,-0.403029246957986
favPNA2N,-0.441593065000348,0.977188514134692,-1.45001475129966,0.24531946877095,0.916616470011794
g3Fv0U4k,-0.44976291645253,-0.593058003328482,-0.953143671173458,0.593465098841182,-0.102030458751214
g5PKo2E2,0.595729125157596,-0.922714309060454,0.97123183693759,0.00412777536452578,-0.907517708772326
gbjnD5fe,-0.459430972718142,-0.539170610028423,-0.706716177869292,-0.608519957061418,0.539429945217088
ge9zqXCv,-0.417958292314963,0.994688639862316,-0.715776370316449,-0.0983212825556146,-0.680289346496359
geeqJpSE,-0.478088470629932,-0.232252026029173,-0.25733336765221,-0.804506643511083,0.784138597582159
gqy1J2RS,0.507323136206445,-0.698877144062182,0.334221568393399,-0.095552163311733,-2.02583018426096
grlUtS3H,-0.193591560662493,-0.037336209551654,0.140799793791987,0.678216784926457,-0.676923816821697
gx965KYj,-0.240636912323169,-0.43927810276407,-0.424923971380204,-0.065092707873555,-0.497460641869298
h3F08Vjm,-0.464355343216573,-0.990053823963454,0.135692158160456,-0.664447343465565,1.01609783497135
h6FQG8Iy,-0.421646141930841,1.27619148563198,0.943292093318078,-0.385097535592875,0.958215026687518
h7ftM8b3,2.41294815064589,0.0940553166782969,1.89281937302568,-0.358270704195428,-0.822179306689856
hLrCHXZv,0.12368135742359,-0.730922358770604,0.567749657108461,-0.10046358384251,-1.05917784001642
hQ6VBuFx,-0.175592726583409,1.68705505881152,0.146594617102911,-0.202382023489177,1.17152949465841
hYoR2y7w,-0.523127391769859,-0.17750528373722,-0.914832655818712,0.210205416348039,-0.974616053773853
hf65yZkM,0.643107127489777,-0.15001413310637,0.382407373348658,1.58901078309556,-0.85981518305056
hjuwe1x4,-0.250498349176762,-0.210521574931631,-0.0460176809342399,-0.461130995346149,0.220381460820862
hyINlsFR,-0.469391991778597,1.50541339729252,-0.734202625043335,0.153277095115734,0.852046529906032
i0Qlm9Bv,-0.256785605427945,0.00664279451541349,0.33922235597544,-0.67194515622334,1.03810399610163
i1VxfxMb,-0.347256663721858,0.517761702037289,0.692311788583588,-0.803727932530027,1.23545916275672
i2l6jXNP,-0.370269706606362,-0.080684842998425,-0.803191137544797,-0.196324576986944,-0.209267215462561
i4FgPZv7,-0.386925110774247,-0.171443642306722,0.67681117061643,-0.953164737403338,1.10262404673193
i7XtIkSi,-0.278753080978614,-0.189927418117833,-0.246223859367511,-0.0819651522953631,0.142389032214933
i9z346Ut,-0.28910111933054,-0.00925940693440661,-0.617702826910906,0.604691664681608,-0.0084311343228844
iDOat4cZ,2.16971629808879,0.0110260639777222,1.94685376902485,0.10505915142385,-0.849612184276094
iNv6RoSO,-0.206163567602621,-0.159394493493583,0.0295513089800115,-0.0522728964784126,0.306751770709532
iSL9NYzy,2.60520781804534,-0.72894511957797,1.90991680388605,0.283355516566152,-0.722785661773637
iSqVc1r8,-0.173205316156484,1.33871801375351,0.938419968426637,-0.825076916674052,-0.0250298340947203
iYZMftt6,-0.416284716742905,-0.329788135231688,-0.245301281411938,-0.512407669371122,-0.112461234317811
ieTPaa3c,-0.347121051507466,-0.168079147099983,-0.389486961562467,-0.395844589498865,0.281572668071261
if7BmzU0,-0.413047207382223,-0.226634566535182,-0.26915662080167,-0.786987053000777,0.955283122814364
ihNz5bmx,-0.222055212305841,-0.122549756667228,-0.34818535033494,-0.0734883143003417,-0.472458097576109
ikJXKdIN,-0.523045283591614,-0.053110220521892,-0.906204046309651,-0.794728005444075,0.80380710187158
iq2kxikN,-0.045220293807035,-0.772608938055853,-0.176307395794797,-0.39936091236694,-0.866996829660587
iuZEDJK7,-0.451265319606937,-0.0982919368352349,-0.604147990885394,-0.616461672076432,0.769088636301824
iyF8gVT7,-0.423055374913932,1.51417730278262,-0.126822854970813,-0.603604294846584,0.992139857768595
j06qdQ0V,-0.319255490946925,-0.15033294735902,-0.148462196796925,-0.283462569086774,0.300687640620751
j7hl8svO,-0.175326056713504,0.044016368283581,-0.0251636811623594,-0.28169621923786,-1.05476953409826
j8hMoJUN,-0.485007310045574,-0.356249142241285,-1.44350748436725,-0.648925831324829,0.384266180417484
jNaFasbV,-0.439962686437118,-0.404719736585302,-1.12934949121666,0.0733930380297169,-0.907033272107384
jVVHeYHT,-0.293229368567002,-0.651499153849752,0.625858888010847,-0.457472339234335,0.195868936770333
jXm4ySvK,-0.377231786061639,-0.292946238663685,-0.159376006917431,-0.408869473006191,0.448121180855512
juO5ii5l,-0.1872049057539,-0.597956352679809,0.362202277348023,-0.588805149372626,-0.333983243857288
k2hdEBsU,-0.392379487212086,-0.239182496796155,0.265843298914244,-0.760767935190859,1.19275814471414
k3ynMfhN,-0.0454197466416712,-0.493064042430347,1.22875711016746,-0.486398256890859,0.39024958361425
k9C9yBtr,0.0942954156970085,-0.580796650666791,0.472892401778546,0.401120138102282,-0.95909390117847
kAKRvcRo,-0.369103910387034,-0.574328958787141,-0.956271888561919,-0.0473499456925761,-1.26901420885062
kBi3R2oC,-0.172826405444335,-0.15078535539999,-0.105249252955226,-0.383916959935228,-0.098847152578306
kDWmnsXe,-0.286389359204161,-0.0917292050283479,0.641818491699476,-0.443798917585567,0.489326793948015
kSGBd2Vh,-0.413959157848476,-0.205120398246275,-0.322830347496316,-0.715319890855778,0.617025711784152
kT0miHPT,-0.410377458133612,-0.191548443314812,-0.315300965675706,-0.425755559849832,0.517705123033036
kaW0TfRn,-0.422446574886504,-0.447089261433921,-0.441315464977438,-0.554142801727199,-0.179149568569481
kmg3SowO,-0.327638527292905,-0.25835489530071,-0.767564098730077,0.395460390825831,-0.283598898433
kpxKSlnF,1.56592078209765,1.05549769383983,2.1668132993103,0.434411698869118,-0.376690834760898
ku2cn1MV,1.24325855932084,-0.258024081066517,1.82571200693246,-0.446546756564802,0.772071427059286
l1su5HU9,-0.477367818904987,-0.0297045076103851,-0.542902512746783,-0.347179130319351,0.575791524480966
l8Tg2RvD,-0.334539704495065,-0.224399183897971,1.05823091484212,-0.313066377267193,0.283492262776764
lB6NsVOc,-0.525398212997938,0.0945128381006515,-0.2028255355318,-0.767054692005374,0.606848633788389
lEcdVyKk,-0.424148613956928,-0.324495226187092,-0.327994525394795,-0.462790450890318,0.818780911389623
lH4TasGl,0.00451960179881447,0.186316270146559,1.01353036449474,-0.695100928392865,-0.128158893468047
lO9aggHW,-0.217035156604158,-0.0526448741922266,-0.119378360864099,0.530754914882461,0.0793944226749944
lW3m9Vzu,-0.334168301142588,-0.322981511813447,-0.443443779653436,-0.175006852143937,-0.0637702051255759
lYLseGDP,0.310504945741479,0.852575186892167,0.721585672978616,-0.344919408250152,1.24724525487986
lcOnCdZi,-0.152226206659412,0.392602092635922,1.24177094601324,-0.69532075256167,-0.260838284094397
le9YGwON,-0.21202018452807,0.0486925557788873,-0.0926135616374275,-0.172812698561183,0.558315811303378
llMvu3TX,2.93095243419186,0.909240602054964,2.10918432792695,-0.771218538524369,-0.00374162932952786
lnHh2jFO,-0.00753605100996735,1.68594808839181,1.32535861254896,-1.06259514340445,0.256198544706802
m07CVXd4,-0.416675152603225,1.56779768324833,0.184644647362335,-0.723674976998178,0.975970418560349
m1lPk91z,-0.367991781640332,0.420215365477158,0.488733830178388,-0.76236755631348,1.11887714822577
m9IQdmwa,-0.467639099277964,-0.167994153659803,0.105998564893031,-0.666274281147958,0.880433499443572
mG9BRy5x,-0.435097758283511,-0.126250112978443,-0.71838597349542,0.17706275785028,0.400359964131854
mVHXnama,-0.452208684294049,-0.136809533472406,-1.26934139720684,-0.262190139905064,-0.312805543620726
mXyrR6nU,-0.544135841509404,-0.0406392488205097,-0.751056217040177,-0.460910538784066,1.95817632607696
mbzNdxNc,-0.360964795358385,0.0734904453964917,-0.250088089504038,0.0707631442974905,-0.746731644247776
mntH7g3L,-0.0632901148562822,1.02716609343125,1.23279339354451,-0.93594851380219,0.107562248108141
msRTXP3H,-0.317371361136493,-0.259778420733732,0.533350583857074,-0.272610662940479,0.250640146222416
mxBjvIPR,-0.473744152525663,-0.0821738631989738,-0.175050194044019,-0.515985248779097,0.439220912026663
n8Opmfbz,1.7054570988773,0.805219412027622,2.10824870763131,-0.566059173664082,0.0286198448856542
nOkgU29Q,-0.459017120955605,-0.582889138167049,-1.34885045574881,0.467756420798095,-1.00158814021628
nhttf7VM,-0.0855100883379846,-0.161789053543391,0.97342436437172,-0.0217208498210729,-0.298008221435708
njLbXYa3,-0.341929049795718,-0.265012843114723,0.208075816316588,-0.620838408754535,-0.175691560729083
nwkIpzmh,0.872366215854341,0.486194059218662,1.96465482243411,-0.529305803187032,-0.415920973194481
nzB1R9Zg,-0.273133157984997,0.96599949078814,1.30803074396466,-0.592111221661135,0.590222349697762
o1rZRI84,-0.466957439860593,-0.16511640485134,-0.611098258582109,-0.633038727424365,-0.741122546911399
o7q5Mbty,0.0158389285799124,0.173185731115787,0.239879209892892,0.11842798585495,-0.178112851159341
oCBvysqB,-0.471784630297173,-0.28139919739072,-0.945819177442678,-0.475535680404321,-0.922834946653534
oDmycTPH,-0.483803232647353,-0.0221794199839865,-0.363672070238286,-0.714207265051144,1.02977165548342
oFAXZvQv,-0.351271106257773,-0.0218802558710475,-0.372666563695406,-0.211922561689161,-0.896446115889472
oHE3M1zX,-0.150732093393224,-0.111163714014151,-0.608698846443336,0.848819343148143,-0.182889787814445
oMhVmSpV,-0.476340362241145,-0.343982554959178,-0.912917271582855,-0.437498301188388,-0.971119393676252
oNsDqVbi,0.178738345896483,0.681465479995583,0.706406189327244,-0.838384210148673,-0.613696665805779
oYAJqQk8,-0.441770385110688,-0.120778522079465,-0.312377822761475,-0.887777736242044,0.684212845406811
ob5Kb6dW,-0.438720438816013,-0.410795422905035,-0.388635575316399,-0.690412398130881,0.93458960302693
obnzqs79,-0.492184459658423,0.477551632982307,-0.818258458400103,-0.549210083263212,0.3907384979002
oncLcgRP,-0.237207210394753,0.888866303744853,0.0847327943959504,0.0594833410938029,-0.0424064782753193
ooWVYaAe,-0.341742943933732,-0.63489340934496,-1.16380563062663,1.64564438960838,-0.844093996796836
osdyOUnV,-0.659496618925357,-0.197296917092364,-1.79969311737403,0.672947876497312,0.11363101934495
p7H9CzCv,-0.153136751229426,-0.24441457158114,-1.35092822864541,0.291432232439194,-0.635734118646086
p7U9hVhY,-0.429832454629484,-0.225699308318466,-0.181659746066267,-0.457908868702214,0.351267744220977
pE6Cf1RV,-0.309821334846218,1.82109744376582,0.634126018167699,-0.569014407162106,0.631057422871557
pI7qzotI,-0.399886561874855,0.216616888150563,-0.6412670205651,0.817407801247761,-0.320309145983444
pJrIA4sk,-0.39237222032809,-0.345678498833779,-0.249125988506594,-0.578470815414647,0.135645346307053
pXne2CLZ,-0.408491568814298,-0.632899695751788,-0.960586461894991,0.914273463142081,-0.81878044537981
pZMcDIOS,-0.478949286576623,-0.206312889479753,0.115492023317647,-0.764566745615384,0.924522059605509
pavfp3cc,-0.0110556497636054,-0.767407158382989,0.47277117100104,0.0637439659594929,-0.592459406277124
pbQdC5L3,-0.435939038578394,-0.28697428143398,-0.697483676950205,-0.660525843274206,0.678139254821203
pgj7aAFP,-0.357536720221924,-0.193542142209225,-0.0662172402835974,-0.262496956569023,0.347680665555698
pxg8G3ed,-0.438406717102202,1.22601135140541,-0.677522239749409,-0.393376861861643,1.278432948551
q36Npk6l,-0.487669229497849,-0.293240289833907,-0.449461026208009,-0.778399547753672,0.888452855038476
q4aDOVvq,0.151885277642465,0.381219948551523,0.367304115993191,0.691280325737114,-1.71802947451098
qGmfR9CN,-0.433957328845529,0.0215999686330234,-0.945548458733289,0.432666284683472,-1.08910765643372
qJ51ODpA,-0.327713907063664,-0.0706610090681183,-1.02905803500968,0.369535961510314,-0.320996883765187
qQX3cs3I,-0.079068706762673,0.174820927917737,0.70927615735428,-0.602874638697527,-0.411655650815784
qXeIxPb8,-0.422571721702441,0.191449304419517,-0.516801594417523,-0.404630053622227,0.891224929057142
qYQ4MShM,0.0408202039759037,0.474919948915171,-0.234091178642943,0.7296527068333,-0.839947091449
qa0etnhK,-0.0135419049750002,-0.122894671288518,0.450136346578485,0.214488592569546,-0.351516480655328
qbL4sboq,-0.404862239488756,-0.187497911789796,-0.129552436135238,-0.427669015520342,-0.21164650793763
qbYrsWHq,0.470757684711086,1.8108391888547,2.05044825931797,-0.245462800379894,0.208900882666209
r1zmcUqQ,0.569713600038035,0.464229711566116,1.11268657592969,-0.315844699713368,-1.13109405504861
r54iHeQC,-0.424927584084165,-0.178959493040237,-0.1474538274606,-0.659254429855205,0.729004630049035
r6xrAnQV,2.55958130787043,0.212265819574498,2.25205704348626,0.193881478890945,0.369503940291161
r9HxnQDg,-0.309279102850259,0.334673303414228,0.860938487503356,0.0536019490412674,0.722964420993226
rG8Puuf9,0.190544512228656,-0.139891344797483,0.761771628966782,0.867030989917533,-1.06928543105534
rGuiefuR,-0.349525544184501,-0.0979721125106538,-0.728615849126382,-0.207241949010213,-1.08124232375271
rJ19OhGP,-0.461085335076603,0.803934644608712,-0.431132160552857,-0.586638254001328,1.06267664979099
rOCYepHd,-0.0221251232880528,0.489084082341986,0.732010346821401,-0.931559466216451,-0.217932836049555
rQJaOPFI,0.291159025655181,-0.0281536119830815,1.56372996839928,-0.292058625846307,0.523766058240025
rQhZtZeh,-0.361776064580807,0.598176406016935,0.730774331629046,-0.486693769401051,0.44064029142186
rapmok0w,-0.394104847285619,-0.302752921598633,-1.56061894974755,0.13762712007885,0.0713575994997758
rgzfnPVu,-0.190069060074737,-0.261783898742127,0.488558690966695,-0.378480391997519,-0.389731008041276
ri4qhb1S,-0.44251170112795,0.794319210070856,-0.746451204625983,-0.29058312039459,1.73543868686182
rqpFYzff,-0.373338300028867,0.369790165469005,-0.593472858212693,-0.347651129500988,0.303919204431795
rrs22coX,-0.181829712337601,0.462141766848078,0.111857649065693,-0.406696785385719,1.13832524902659
sEeUCQLc,-0.445731959920063,-0.0993216187061659,-1.00086338280291,-0.344614562773308,0.639783707727006
sHScwqQl,-0.446798819629381,0.605123471159428,0.0245437405199501,-0.749008632814687,1.11817138207013
sNC7DiAt,-0.460685360314417,-0.182257638718052,-0.204739356260747,-0.63153208797129,1.10725873987782
sNK2TSs3,-0.516194143915035,-0.086124083648353,0.147530659710429,-0.409791389468128,1.08358200555098
sO7Su6uw,-0.557900509702746,-0.43447112316237,-1.57573952794509,-0.238869647000054,-0.144452546363125
sOWZx89o,-0.461018445373415,-0.221892984639719,-1.35375910700323,-0.716718497802896,0.714118564360773
sPbRcPjC,-0.0728305140424348,0.204399195824522,0.0831263743840219,0.470742261460195,-1.00204698671098
scVUfTKI,0.6056860018828,2.19439643157765,-0.131450744939484,2.6792794181157,-1.24314375630916
seRaGeVv,-0.331880360640186,0.226476041859699,-0.163265288160797,-0.303687597034033,0.993542520428419
sgtwiYWi,-0.39846380640873,-0.342870563379723,-1.55127228259037,-0.294480039569979,-0.593983067548962
sjmLHcT6,-0.446413340669267,0.0421242013894957,-0.606096826115547,-0.599826404514572,0.557990541760405
skZUZZGS,-0.363112901782666,-0.304811366027086,-0.256965157188077,-0.546861167521239,0.816857605666225
suAmzADX,-0.237553604103952,0.0480953298855334,-0.928291710925041,1.58898712511201,-0.783031427518657
t4GWLqlO,0.0611957775751914,0.540731523698558,0.85819037389085,-0.117864567819091,-0.203342071354858
t7gy6Jyy,0.306825631606939,-0.590092073914526,1.96600152324729,-0.604953891060965,-0.09692376249026
tBadzH60,2.57249136423984,0.221774571088982,1.95895732735838,0.320226747227257,-0.618281013273359
tXUWm0hp,-0.113083246456026,0.511665780464303,-0.138172650156348,0.646460866499979,-0.25035879754886
te6UPPxf,-0.452684614438099,0.33121523295011,-0.414799923660708,-0.113818939365522,-1.12902662590906
ti2lamkL,-0.0554310700003337,0.553218450104899,0.651761785409913,-0.355709404822807,-0.0113656341983065
tr0lpwuU,-0.0644592388235594,-1.67404348835302,-0.960883522857235,2.36339585590418,-0.739618235208045
ttdB5C73,-0.313025787389099,-0.101455630372698,0.072965509847528,-0.371453902815385,1.17921905578282
twS8YZu9,-0.452223647725054,-0.39899630410232,-0.522843206810989,-0.57999870247967,0.387468759133126
tx68W34H,-0.387915902064826,-0.339159024978207,-1.16914416082356,0.22591310700613,-0.912832337147621
tyQSX4mY,-0.343679614412984,0.0985387731755053,0.399550458858393,-0.753214832977345,0.53979504719557
tylKCRc0,-0.416866304801416,-0.125804802797594,0.290169473393461,-0.395357663059608,0.837544909002933
u1544WUo,-0.450653628126182,0.249968848667502,-1.15044581911285,-0.425528800072906,1.72943393942309
uAw9an0d,0.405231970238831,1.21952524261423,0.429034444654102,-0.693976395971221,0.282987916320088
uLZAEXMG,2.5881205947835,0.713654641430457,1.84950872760423,0.687539247408466,-0.607444345787429
uMwe1s7I,-0.396861897632896,-0.131423769295217,-0.67337527350436,0.851724691165547,-0.722030201251807
ufhGeV3q,-0.480944122284235,-0.23522102015783,0.0663174987317952,-0.672535860007267,0.768654403230952
uhAeGBHo,-0.683667863988072,-0.368882277640636,-1.43848710277589,0.600099653946906,-0.508473005745397
ujHNlqpw,1.64500831715842,0.573731490740645,1.79149272219254,0.264762950112663,-0.940909967192598
ulV6kuhB,-0.332888363391719,-0.099359170256633,0.146624206619059,-0.522064149907042,0.935305668459148
uohEnNEK,-0.283574905147247,-0.949354962450148,-0.876625909246961,1.04566189731114,-0.708918819038916
v1lhA8I4,-0.534039762427524,0.19975185151096,0.394323676021664,-0.689227248016562,1.43593386262661
v3JzigLI,-0.496980503043394,0.427734212631614,-0.636282611430681,-0.90132957974561,1.07905368457076
v5IwjyIg,-0.375414157507979,-0.200393821867531,-0.448841189444495,-0.394598276606761,-0.956796193025959
v6lp5TK1,-0.339761985321093,-0.073706205939803,0.377475736623439,-0.774347736653645,1.20646738066675
v8vOaaWq,-0.297231941324862,-0.275542350876903,-0.838265696670435,0.0150014467925009,0.0557278965607716
vAYKtoil,-0.505648910303409,-0.217518842634291,-0.552795400490931,-0.403444884182045,-0.881776813691764
vGTNQa6G,1.82873546450781,0.640358549651378,1.93359286189186,0.624936755484836,-0.417826138152874
vQzNxHoL,-0.527035266862192,-0.448624413271614,-0.936004865057164,-0.585318500194348,-0.940126075413428
vfZGBUJm,-0.284857596680622,-0.129072556052714,0.645159687270696,0.15071794580206,-0.414777095648811
vlooVUoT,-0.429715551386636,-0.0681180053005102,-1.52332793248859,0.860416977817013,-0.820040023769137
vrACvd4O,-0.353310647298425,-0.3560635102929,0.0418244543159501,-0.385137688461807,-0.488053707354393
w8hdjLwb,-0.26426088304228,-0.0613236539104225,0.0300430610268927,-0.314695247347679,1.51652435854447
wAntv4gH,-0.150056805133188,1.06234139056932,2.03006946957454,-0.454155148166171,0.589263331610303
wIUL09q0,-0.510565465934225,-0.227550207667308,-1.10164623734869,-0.80068945442206,0.513029514312869
wOzx7Fgz,-0.375476417735601,-0.250770068327766,0.0691631865777949,-0.679441539729903,0.282989884133456
wPhjhCJQ,-0.432161105423912,-0.0506740154658802,-0.388412938376163,-0.596534372214685,1.15658487420925
wQSWWmYB,-0.467166896061259,0.50390267829928,-0.536287999807097,-0.622169425795629,1.54752964269489
wdIMrXwy,2.18375846939719,1.04875442624126,2.19376585003592,-0.601564855107316,-0.247753023883413
wiL9npQc,-0.45664054584936,-0.220304216460876,-0.849612070408063,-0.6822757017911,0.647698264342791
wnU95Cxn,2.58130120586342,-0.150253203226426,1.79885525732659,0.223545240634404,-0.410375798469327
wpJbbjJs,0.072694611504975,0.143371076896787,0.920803313376776,-0.299875761014991,-0.657241994436966
wsOWTAbI,0.907079223426787,0.901481545371594,1.61137245805375,0.71438525273118,-0.411781546165675
wtdBcU3U,-0.410915232224624,0.0408326579955529,0.0572397995989168,-0.647852970923846,0.368117653827198
wuKXVxOc,-0.665547332306862,0.130030538675175,-1.48822873356596,-0.439741742442859,0.879575281606637
wyzadAt8,-0.484166263735478,0.409031032498041,-1.18535342368833,-0.654125967146186,1.03722391599482
wzaKzYwi,-0.070081658879863,-0.475839117339165,1.50405488860191,-0.853968852773386,0.23293872641405
x6GCk4EV,-0.40444278141438,-0.11346754772212,-0.136355997332135,-0.569669048849332,0.790171142876173
x6lUi3vf,0.202089835062444,0.499872198887415,0.382486288988184,0.318453233756048,-0.556774549138858
x8mwDHv9,-0.358457022760338,-0.129656173192549,-0.232347852041832,-0.410998789606403,0.357360599278347
xIYm6puH,0.711839264640179,1.38502431985711,-0.220894720133392,1.79818354741639,-1.49281083016667
xO6UdpsK,0.510541497713118,0.51617672848879,-0.0612014430379835,0.262969798008051,-1.3073828172774
xQ2bkOvj,-0.422178256167936,-0.672691151991302,-0.896589888598358,0.416799598177171,-0.965431234560081
xeXyDCEQ,2.90021650107658,0.553402346222521,2.06450803259406,1.20575630578973,-0.827036067244552
xrggHziO,-0.184213370177675,-0.16241082559318,0.544505926269292,-0.605524682749003,0.319371699038376
y1WMCmqQ,-0.439478143609111,-0.474992888967712,-0.680164787773936,-0.496292248286593,0.324950109110851
yDngezhM,-0.473991752481095,-0.0553261510079405,-0.506632430423833,-0.652679675083991,0.141709269287407
yLiFjMD0,-0.428407832240477,1.06399909914142,-0.410417285442292,-0.744290455867424,0.92515951367518
ySwEBO7w,-0.344204937008176,-0.575984375879599,-0.530223151492766,0.00632544013583267,-0.976273772068128
ydC9UsSm,-0.362399886943072,-0.301583333959871,-1.36707475700626,1.11988604935883,-0.135599805960455
ydEG4VBd,-0.437667168915698,0.370011755944023,-0.922530659315616,-0.280390025835153,1.32178373437533
yf76yWXc,-0.096850002409011,0.611887717340836,1.07272988864944,-0.760025534505283,-0.248482771917086
yg70e63n,-0.356969899209418,0.852343421117018,-0.410431494676986,-0.42121227730571,0.149820534027808
ywxtlSKv,-0.394134689387145,-0.364941017893156,-0.941501730560053,-0.42220470484717,-0.191371198628663
yzKPQPOR,-0.381170488939704,-0.784383910311642,-0.62634148851591,0.0086939771565339,-0.66298196026904
z5cnOnZ1,-0.364643133795958,-0.266825468616562,-0.302807820356287,-0.545516878395822,-0.639135922683536
zFLkOE0e,0.194528612516673,-0.521908948233103,0.337654984008797,0.700637163127912,-0.936376268690438
zGi72mxL,-0.478012399811132,0.245019929175425,-0.250862791251603,-0.397058655409716,-0.31827634475229
zN925UV3,-0.508743900927904,-0.0334435494761764,-0.779359333405759,0.871895718220417,-1.13119835418724
zTy2ih7e,-0.541011346348708,0.0755709848765216,-1.24820787239032,-0.395968070726442,0.665206018300716
zVFzAutw,-0.227697285519899,0.760312574542926,-0.644187371471179,-0.293276791924609,0.698013429048002
zYxNAkht,-0.507752418814751,0.101559392952327,-1.34428106751014,-0.70303906023146,0.987518881426474
zaWDBai3,-0.39750830876311,1.25406870205936,-0.544059006818527,0.246663352556983,1.10485336786913
zg3u0Zsx,-0.26493445158009,0.587879300497526,-0.518467695930841,-0.137943058855943,0.482739098391376
zlwLfdsS,-0.402152706271803,-0.613380942662331,-0.756154035482379,1.51544377826785,-0.807007530558146
zmbKzVfl,-0.612523691878392,-0.503205168805634,-1.51627000284474,0.151635268055056,-0.0866616041463101
