PIDN,Ca,P,pH,SOC,Sand
09gt9UK5,-0.505919410841488,0.624701183502087,-0.918337495552823,-0.626541287179036,1.58184407416815
0BVvxJ6a,0.429381613674177,-0.461018491051082,0.977620796562295,-0.0601414706843891,-1.48647433131309
0KbdgApg,-0.231079244987808,-0.826509642658567,-0.134076873767082,-0.00332540763186874,-0.644409959587816
0MnuuduB,-0.244203124047369,0.174761256210366,-0.10128104430392,0.355256350306083,-0.721786181198702
0PcIsF9z,-0.468860156354627,-0.376947446462639,-1.49327012691363,-0.0238338793257893,0.00943912448459632
0ShTFLYJ,-0.444085114115865,-0.463988249968634,-0.312739289523539,-0.811168575617706,0.338267675934838
0XZh9jka,-0.420306204237209,-1.08651321543343,-0.867436647476291,0.748126815804812,-0.651285087565748
0Y7Wegri,-0.323554694491587,0.168283805415763,0.539580876575485,0.0512609938106786,0.174548475830518
0dTqplIM,0.236490614485422,0.202378346297278,0.282494079771022,0.228260702588225,-0.895975462507329
0lNiZicC,-0.52890518893303,-0.480295432566891,-1.21031710755898,-0.926905606715696,0.25081250087233
0rGeJ0QN,-0.35610462321635,0.0608328813101196,-1.14550911030437,0.258573801833091,-0.000819981429668625
0sXI9ytQ,-0.44825257937995,0.347645253087692,-0.0449476646954859,-0.723253354134566,1.41365632723425
0ukt4aP6,0.292608749683647,-0.84153391952293,1.39589360120226,-0.752081913450743,-0.155019135280888
1AGspb8f,-0.474170536638312,0.257603542806141,-1.40429487042638,0.00147365145946701,-1.22815044358739
1Csy0gvE,-0.409654327014076,-0.260879969225129,-0.0479488163572573,-0.65847689345793,0.604081440723586
1Ic2hly1,-0.352142924598446,0.0235332679226178,-0.272466077483117,-0.157283729988679,0.61009106892932
1PPbaTwt,-0.345073072733176,0.572640168134008,-0.71951599087613,-0.546738042567145,1.73130080728349
1SO5VJNy,-0.357894605607885,-0.20671168398018,-0.167403068816263,-0.411045470243093,0.607054783971543
1arHxK3Y,0.628175717226681,0.280972410010504,1.71699798378411,1.00242893798481,-0.578772601248883
1fCW4Bba,-0.378308932947691,-0.0424098369308049,0.166253458914628,-0.534553293239624,1.19565972066642
1qDZNvIm,-0.413976385237272,-0.251304393623982,0.176196447579943,-0.681504570203018,1.11092500079746
28LYJC2V,-0.508931930148713,-0.255041477480689,-1.06688157851626,0.44189377699393,-0.851766674435857
2CzACvQq,0.701073836095774,0.322999943486437,2.12615580535254,-0.631407366386843,-0.385365320190362
2FT3crfv,-0.244435381764296,0.28164640065235,0.139025559139469,0.0892935739776139,-0.55304911308558
2Fy2uHVg,-0.449113093908671,-0.0564050648384236,-0.345318112008081,-0.40808930338035,-0.536525123163401
2MkMEApm,-0.488143249911829,-0.399841492844428,-0.849066577948209,-0.633535010675612,1.61234415624001
2NDGWEOe,1.12460594816625,-0.0761170690729925,2.03311563794594,-0.542172992505294,-0.570680611742044
2NyyCiqn,-0.336871250839269,-0.19607702624469,0.0851698471393156,-0.43228000782039,0.595217535023978
2QRzIb84,0.487413563978946,1.13714780699254,2.31879711212999,-0.378928148520293,0.0164115907087477
2QcbdrUZ,-0.148205969727432,-0.501683934222885,0.0429630626253333,0.179877758117541,0.738851252382029
2YgAimWK,-0.376700060939392,-0.000190379784728997,-0.340432859202116,-0.565792425401509,1.42977737156673
2cx85d9H,-0.0180438445086161,-0.905524370293257,-0.0110866840418594,0.11462769841215,-1.15342756429582
2homMXMV,-0.495160423247772,-0.300076754740713,-1.26872924437543,0.196279508710383,0.515383573893445
2ldLrUtq,-0.394692347251527,-0.553827587194872,-0.408873908182795,-0.375118963595314,-0.190316753447514
2nsACW6G,-0.382209002726032,0.564789736610308,-1.03607190601179,1.88682008824395,-1.18598168329154
2yMbVnWc,-0.47623941498263,0.309445281302854,-1.07302309561082,2.94259418107252,0.638794701161731
36r8sgGQ,-0.42775177427386,-0.344702429462472,-0.183886679128778,-0.703789439543551,0.785323546965822
3NXAXCl3,-0.240730084758846,-0.54574824067876,-0.806012513105624,0.736004798384823,-0.936127945947642
3QG0z6fl,-0.569488209254573,0.544585743077994,-1.42733171058936,-0.535432667237449,0.968495341621548
3WS8R9qm,-0.846560311014946,-1.60382235596412,-0.610401263046795,2.71702396807892,-0.802121439169778
3fRLm8f5,-0.330719670046779,-0.0520716535154936,-0.68559085807455,-0.238050027575351,0.427537230662193
3mZhp1nQ,-0.437860471185411,-0.225418949828221,-0.249660690074793,-0.584806677819921,0.745940033775326
3pikJXRL,-0.437698264868644,-0.00304077275576344,-0.92249098233187,1.55757508278441,-0.907038918902601
3pxOEGHL,-0.429769355633351,-0.55855097719806,-0.155334742806315,-0.361855018669486,0.822164259236643
3ttdV3f5,-0.455406699330017,0.100257205660548,-0.207388928186849,-0.217353260912732,-0.151260516609399
3v4X6Mfe,0.582179832065393,-0.867956266401176,2.16123574244146,-0.721139048487155,-0.241918478041923
3wORuPiv,-0.447366564625382,-0.325188997195646,-0.822516209498287,0.0943133628701845,-0.538788963139477
43EfrxZj,-0.0443099549315112,0.814346345058194,0.0080441635240329,0.152900197580404,-0.773957003025044
457Vwm21,-0.106067860864812,-0.460040057381399,0.237612821686408,0.991419295354098,-0.524824819055493
46KNnOdx,-0.513913965917353,0.25211600497436,-1.35172427425275,-0.0977437758466032,-0.329866499885985
47TwNsVC,-0.396442205854517,-0.586662121348866,-0.734062849483986,2.07617970278239,-0.903719910753466
49856RpO,-0.399607690005596,-0.426813629419239,-0.39661105754726,-0.327538875926882,-0.887364525043347
4Ane1o2N,-0.376426703057568,-0.29316587961384,-0.326541747586775,-0.484687124707813,0.276660513400972
4AyVUgSc,-0.42321005423248,-0.268070447135476,-0.489150072967353,-0.599457530576517,0.00347562398304017
4B1951On,-0.122637435127423,-0.272081628986109,-0.301246234247612,-0.0247308554488515,1.21551330667787
4OL39Teo,-0.0760803770975636,0.300248505621912,-0.0844353404970012,0.295179045384158,-0.592653360619212
4eQ90eLY,-0.276784424439886,0.150568670979263,-0.202609705534616,-0.215835550749891,0.320710622876139
4o5jwMj8,-0.337780699449348,-0.409036113171515,-0.645619778404837,-0.587675679422297,-0.060563360647012
4vPgpl2c,-0.400398985494463,1.19772197336355,0.203414544232225,-0.616971071053228,0.507363180468466
51r9aA0d,-0.388705150667141,-0.240542240986264,-0.0477582203412434,-0.667715557998868,0.134791670103028
58SmeRoP,-0.0911986045278465,-0.0849446486982413,-0.231504368402012,-0.276593277379915,-0.394354625327182
5HJp1AXn,-0.378979641167445,-0.167003556171866,-0.85029351357442,0.771841422591605,0.0704770642186256
5MBZW7fx,0.0769203242621772,-1.45049157302707,0.479186458211921,-0.521844700891586,-0.19044270400433
5Nq3gHaP,0.129371919148097,-0.314878759513504,0.0859359863398323,0.408943279607186,0.34531284742375
5RmwFFK3,0.770953756943766,0.122872419978414,0.140250660882402,1.03827911805924,-1.16256502527768
5Tu5Jbov,-0.418100631767591,-0.248649334706091,-0.0914226796863167,-0.476665479715676,-0.953013539399161
5YEolkev,-0.287741310725664,-0.310001583770367,0.0568667699388719,-0.297163552484422,-0.318974625280318
5a8sf6QV,-0.127780037502275,-0.419169382781724,0.0261712851672635,0.0201983234697335,-0.85394380960078
5eSvmqYm,-0.409246568896463,0.890149255691313,-0.0628369792920666,-0.479383572965608,-0.415610990838897
5hkN8fiv,-0.343345406705214,-0.260406321580826,-1.01857116914283,0.643107991508379,-0.747925961834408
5oK8Gti5,-0.39289090616743,0.569444244122606,-0.565979123327106,-0.572714650621961,1.94257755765353
5paniGaU,-0.442471108878805,-0.348389131190745,-0.313280525099433,-0.789328994413223,1.05699983185901
5vsr7ZUP,0.562049475257789,-0.611928138868622,1.45342932615645,-0.0952451604642585,-1.34150081499544
60B4xMWI,-0.213727335207364,0.072375088745129,0.97382929303842,-0.606326496757986,0.471164753062351
64jOUtKy,-0.0623116921303466,0.983735683414116,0.178048572044019,3.44973394088046,-0.835166340753043
6AJo4xNG,-0.41202039176871,0.321397667874342,-0.830215676784435,-0.215902672420264,0.415405959783048
6CAvhEte,-0.489302989185758,0.953731936899954,-0.777830254017256,-0.27744166601479,1.53541731451186
6CuGYjT5,2.54304815688932,0.115771553938541,1.71709145886333,0.299277232849328,-1.05194363738618
6DGH8ujZ,-0.406599558377824,-0.452837020661115,-0.95239981479084,0.0611154954918964,-0.54322024839088
6PzsGdVm,-0.301343520826818,-0.098681562554129,-0.223314965802071,0.402856730835284,-0.41329399678945
6UcSJMbq,-0.0936036148880809,0.0151903687452932,1.23850129073132,-0.64955368348603,0.395862525303462
6WJbkH8U,0.524724002530788,-0.495933337613743,1.84236980613266,-0.0478299992913449,-0.938210558785998
6eUWsVzw,0.58680625822201,0.212299339245283,1.32073114916899,-0.136190464824915,-1.48720993150753
6gNyO7Do,-0.0312727929468692,-0.141144745114118,0.0950114910589768,0.519136558562341,-0.879803893277526
6jT0AyHe,0.0856398145039853,-0.136512959830562,0.509744354737325,-0.0893846812554345,-0.885999692734128
6nBgCvWu,-0.487942753710364,-0.273524613740652,-0.447213322008852,-0.611638489474571,0.744933552270643
6ro5mqg6,-0.407490003509297,-0.172156835509261,-0.364481654058421,-0.34450344443711,0.873805608589152
6sGqObX4,-0.461776771063925,-0.236950765815204,-0.536396677402834,-0.308735102571983,-0.568764873618485
6uEGy0n4,2.32911475860573,-0.682561090433103,1.98335849883631,0.0706725561408645,-0.894959854078754
7BZ4LxP8,0.051680428953649,-0.296956532105842,-0.113981577900975,-0.461736042479905,-0.457534946240022
7CmigXKi,-0.545047010172917,-0.254197917239836,-1.18248573482967,-0.512792497830295,0.766431461984423
7Ga0LpfR,0.0217329785017288,1.06226627224346,-0.705692210738499,3.41439412294605,-0.813584448160495
7PQsFvsG,-0.353628534841893,-0.243801919667262,-1.6625743563717,0.967812785186931,-0.303119459185474
7aF7nnwn,-0.449097907720377,-0.451797150684924,-0.685728051950992,-0.823636307703344,1.14081204100392
7asGzfX9,-0.266690859250186,0.294228524806535,-0.398891648036145,-0.25020268994819,0.364848130055246
7cg7C92o,-0.0948140158271493,0.20562844476109,0.374491350162223,0.788183503782574,-0.279162812313175
7eOxTpsB,-0.350249743053035,0.621195814269707,0.694199002902756,-0.593631818161911,0.757875466819349
7ey0v7ma,-0.380145433446518,-0.689677980179343,-0.464612495442759,0.64345838814871,-1.14772031928339
7gocyrYl,-0.216652376443526,-0.313158815336167,-0.470386445863714,0.416582647354532,-0.32801580002042
7gqR3GoA,-0.452873137873603,-0.410974101878258,-1.09956349270033,-0.430183414646958,-0.546237353423657
7og7aUXB,-0.169004791898164,-0.131441612401506,0.61521364324205,0.192314852387952,0.0770387873853871
7onRfa8F,0.0659630381100296,-0.0412517225561714,1.329179046945,-0.384910617788339,1.27921316506509
7umkNuxM,-0.156957722083601,-0.0577659773034587,0.0659558623421136,0.278143835872264,-0.219996334281153
7vPr9ExD,-0.0916735676002153,-0.343870768311346,0.261147205261669,-0.108500917339709,-0.625123018184603
7zNjpCzu,-0.444905379738049,-0.0575963931893182,-0.170540751158393,0.0199264233243524,-0.622552581744763
7ztsQNj3,-0.412488054291153,0.0530598714849101,0.0622420640538481,-0.0426644598017706,-0.893483062062327
86gppwMI,-0.237128864075301,-0.323629535746971,-1.14548130241915,-0.361700938606458,0.929227799082396
88thAGdL,-0.344436511715001,-0.024518078160982,-0.0331850662910733,-0.407150182639136,0.144497130722421
8GhU8STP,1.4005947020307,0.113861403974655,1.57072241068317,0.829319282308409,-1.08142306725493
8NlzDcWe,-0.490838359711612,-0.468393664660742,-0.830834971323676,-0.715494128481696,0.107120881056526
8QAejdLW,-0.20072243998274,-0.603571991166721,-0.208381420398336,0.0505198009981132,-0.634000360170214
8RDeFxWM,-0.362139955662105,-0.228810122604979,0.59768818666655,-0.607979131553868,1.26650614895899
8UXP2NBS,0.0553342597577112,-0.342847512322593,-0.589087171603332,0.481634490070957,0.451854368182683
8ZoV3KGT,-0.392208035018244,-0.655239628559268,0.171288341659639,-0.402535628906486,-0.38153771341501
8ajs2uG8,-0.318058671508943,-0.592494050416912,-0.200720228380625,-0.18352443022649,-0.660993216712436
8bXnz62p,-0.269051757204573,-0.00413101722272305,0.350067949876736,0.0915251967728282,0.214317873205887
8nO1O1LG,1.78807718881698,0.701709072545113,1.63254600225234,1.74549925056918,-0.954894739024097
8xE1p8g8,-0.420811635986892,-0.302533518171313,-0.331969589273804,-0.200309312661665,-0.313047167340587
8yMDVMRM,-0.484943934542676,-0.440503442870123,-0.780772938953908,-0.574093556790224,-0.747657164808718
98R5VaPi,1.10125847704802,-0.398493378811343,2.21438004378908,-0.568909686970787,0.324495822954996
9DcTz2Ua,2.75221279639745,0.460783931670227,1.88833706096166,0.430751084949925,-0.754998832810563
9G7nfUrK,-0.365117998583161,-0.254201289411056,-0.879554290777445,-0.428715733021182,0.720358355242557
9O6GZ1HT,-0.0771454747609338,0.298384087085638,0.826345832672312,-0.778415260857002,-0.158644292708045
9S7fCoAM,-0.158683747020689,0.089102586684262,0.259237480758109,0.388274227915204,0.792492602904769
9iQwmFJR,-0.195950435110047,-0.211812727596903,-0.471023992299716,-0.44572876378405,0.753542482957536
A3Mt6SAQ,1.56214914921148,0.529706414413131,2.00907280021355,-0.933603014120894,0.40824691352823
AJIsQIcV,-0.500684936313293,-0.117421756532161,-0.992622892708697,-0.538935879154621,1.85331430287326
AMHKXMh8,1.88751345916612,-0.224881073433337,1.98034114800981,-0.10167416117164,-1.01921845166853
ASwA2J4E,-0.354018714893066,-0.113235022471703,-0.188514088869213,-0.337970171521063,0.783628142803508
AaFvEoHq,-0.274508738068966,0.409322141555803,0.126965544778989,-0.674257923207369,0.549763557390118
AiIPD6hX,-0.303981338406027,0.0650646814507446,-0.549777221512015,0.0302492915750454,-0.0446822205259718
AsIURvJS,-0.359639235655003,-0.192411933146374,-0.45436366515624,0.738926226824504,-1.03768349674668
AsvgbJ0C,-0.282300814234601,-0.512220009648707,-0.328192319645122,0.655729819911203,-0.254119750831702
AxEhbkCM,-0.364235113484974,-0.0737517245967515,-0.444246275376685,-0.35989510146061,-0.296790303097095
B7VPkIpx,-0.302471828451578,-0.257675841681623,0.104293373551844,-0.492128028435248,0.10533919017229
BBwHqHiH,-0.14297696217682,-1.02237013359295,0.233914992417037,-0.140041819957023,-0.595465451472992
BMyps8hr,-0.293366215361388,-0.304829929621971,-0.58555149418389,-0.456756331980402,-0.548533525110283
BUHS4dQw,-0.144290927397242,0.562842909398221,-0.129679278430022,2.83631293519544,-1.03050816879131
BZB3EYWQ,-0.345236072278983,-0.154778932126472,0.455999940818125,-0.367305599579768,0.786175963631943
C5UPCZcL,3.38118779654444,-0.477627159293127,1.99572088739066,0.697975284054002,-0.734404476740193
C5gIfQbJ,-0.34339953827362,-0.452555278038931,-1.14148271099076,0.853679879799983,-0.951031448107851
CDRuu4Pn,-0.293966038198954,-0.0406097917921329,0.0959878482865796,-0.716701226645911,1.03584619210585
CQhTYkqE,1.20046998719716,1.68014717904936,0.896535558127432,-0.0679003318316295,-1.60071937178125
CSEobMXv,-0.407805052526379,-0.218122076713533,-0.836596938787592,1.23868148792489,-0.766484776507448
CYMQE4x0,0.527475078558256,0.969352489170772,1.02719495543411,-0.232997762144584,1.26300643406555
ChQdtl4J,-0.393145649150027,-0.224186708782109,0.145738039321693,-0.656154798426288,0.632936572706646
ChnD1nrN,-0.469110141119183,-0.298751164190213,-0.928987547669405,-0.797823496676571,0.166308029084641
CvtbbIcq,0.787186053968295,0.0655009466138733,1.65681682799535,-0.130192375346771,-0.29436100300738
Cxk06b77,-0.0761136457235922,-1.31189133094887,0.45473760539551,-0.159797790594034,-0.31454964201467
D3QD3ZEJ,-0.0267661123540318,-0.00394294676245645,0.378742462245038,0.33555438230768,0.387753601602097
D8J5C6lA,0.904145092806391,0.382225096919269,0.656887918911367,0.702147475349226,-0.575588754764932
DCeQwYfT,-0.164657756941457,-0.280352797239866,-0.0827525731952334,0.137082507176377,-1.20815696149313
DDEftkx3,-0.440330472607107,-0.335447985514634,-0.47763983260451,-0.544239110878414,1.01132396332192
DEwCfeDW,-0.173411954710693,0.114646456771964,0.0955142237191299,0.130077008127902,0.193813470509715
DMkIV4oL,-0.475407158167092,-0.284602773331422,-0.619749587846003,-0.674192409164203,0.556927791520503
DnzGfbxS,-0.257540151628119,-0.221472878996052,-0.248958464139674,-0.259537847758165,-0.900477990063136
DoZxo6f6,-0.415653637685097,0.165710816958894,0.00372130928142051,-0.628484290664308,0.55152522768112
DvhBPGIk,-0.304935082423966,-0.34322525470795,-0.483226124948482,-0.10765361159541,-0.198678884348619
Dx7GoUcT,-0.550033722810594,-0.319228232683337,-0.607582015863846,-0.829732830622115,1.05458282124999
E5hIjohO,0.636949651834255,0.0946797097153244,0.355685878038421,1.21385589789662,-1.0576634846694
E6x4XGHt,-0.367440244488393,-0.132635339352252,-0.361205708318783,-0.521510989382123,1.21573600668814
EDEpAzh1,-0.495700073777156,-0.553134789160857,-0.738772507341026,-0.33044773577914,-0.906197610384847
ETGudkQt,-0.394790506844735,-0.294242725453012,0.0776734839329813,-0.537617195545952,1.0323806741893
EUleKrLJ,1.61381789285141,0.998256137942224,1.92912977449693,0.50849182910148,-0.813061193604466
Ehw2Jz6s,-0.346199684508955,-0.13176809930092,-0.0963248613196855,-0.467609355949495,0.304353400937855
EjqzC4zH,-0.278246298838705,-0.359905861357676,0.0315823697278379,-0.88501614503528,0.0484709482227383
EkMZO3Qj,-0.45979536870938,-0.0889378262581178,-0.501675952858201,-0.660167017927032,1.01542071544988
EnoNXWvU,-0.0213716741260402,0.0306170487192785,1.16924053572484,-0.729532205299461,0.155570463758303
Epv8ANwr,-0.183414535895204,-0.182658653738813,-0.197149304999319,0.316616870032929,-0.0170562460924561
Etro9j0B,0.0341122878223108,1.42897394189627,0.11467377565705,-0.626021445499575,0.063274375489696
F3MIZj76,-0.212014256738724,-0.654600350743414,-0.584457330092936,-0.216158262984894,-1.05330561229008
FB8tU00K,-0.545179083709223,-0.560259733690989,-1.57635866644076,0.184625313781912,-0.580678309056271
FLhxBGMK,0.00750955109709637,-0.142704407848899,0.749544267822685,-0.220444029116202,-0.692457431395301
FRreR8ka,-0.379649116868708,0.616135832557316,-0.374899307455193,-0.554266816887553,0.66957016668672
FXne4oAV,0.319254604601631,-0.376190847070023,1.29287302769833,-0.115899449169186,-0.311839206312959
FaW764jk,-0.213213025475591,-0.158186858029991,0.506251090269502,0.0363173266223826,-0.287337561534409
FeAbMXly,-0.474569489521608,-0.323894088619797,-1.18506317985075,-0.704930979714456,0.602164398364768
FeudaFXn,3.2113272593047,-0.523963419694308,2.06200690107476,-0.538983800220161,-0.675974223244897
FldUmFeM,1.39002088624639,0.285681052680221,2.0272835781227,-0.457113044733281,-0.218766992467609
Fnv5tfAm,-0.451174483522861,0.146766001512397,-0.241767251412445,0.0691170828235594,-0.824374508287378
FvrAd3Or,-0.394378653679707,-0.237636160363633,0.656210263094181,-0.720103850486912,0.649884332240542
G48zHffi,-0.0175517015643681,0.597001366184174,1.56107300654595,-0.608549487122147,0.317579973979395
G76zCv5N,-0.352110912573571,-0.0890614955859634,-0.297484330377138,-0.0302946291324548,-0.0681440839201311
G7JGUdNf,-0.0489333599241148,-1.0291598139655,0.155284601081289,0.0779921521973548,-1.03914883708658
GCo6MONx,0.570694932564671,0.0922780228179337,1.11209126587521,1.15365990869087,-0.912792143039662
GE0vbpVQ,-0.134852929607898,-0.334589424461457,-0.380697836590409,-0.453210281286213,1.93043027469316
GN0DfOqt,-0.404317665992075,1.46302489991073,-0.509193533027597,-0.582751627235736,0.642892215893841
GNsTAb1v,-0.657256759486452,-0.501480273205725,-1.02647048046339,-0.346934456348494,-1.0028172043255
GPwmO21z,-0.274172596102524,-0.282663698061853,-0.166885492105603,0.324553046999543,-0.271053009434873
GQYpfLoh,0.856345568671817,1.24223196281753,-0.304946132478103,1.42970154102831,-0.954056748460885
GR9knT8n,-0.429892166313231,-0.283217815869342,-1.05698063360747,0.614804421501653,-0.182564590608628
GXtFFbZy,-0.0474335684821663,0.171040788364497,0.189831089358092,-0.18606731103061,0.0100416835986316
GYvzvvFD,-0.608484747528175,-0.0145260765116629,-0.954436988251597,-0.235850890485544,0.717772170000777
GemPjTJ9,-0.414421610016646,-0.713709692562975,-1.2991383521318,0.437020449995141,-0.184558702042788
GkLYRm1K,3.30663255424302,-0.863541266823918,1.85478753100199,-0.44097051593168,-0.614550321405685
GmlqP8eI,-0.388150639350627,-0.0359102935355897,-0.77780306532464,-0.591868960111429,0.0853137478512584
GqkIrOvf,-0.373053513305166,-1.05115517836565,-1.03048397405645,1.0761292565954,-0.613596534909588
H0fsegPi,-0.455718566110585,-0.634327479109468,0.172472016546939,-0.536233017249369,0.390945408821822
H4dHpJjU,1.76616683434693,0.467182763018809,1.48268494925078,0.62432135410238,-0.883736264523608
H5QwJCuU,3.05722563897181,0.778819537852851,2.15075215382515,0.3288084392075,-0.797220682943422
H5uwmSZ0,-0.47544619140334,-0.380652180457822,-0.306646655053608,-0.689083010881089,1.08969898745423
H8MtbVoL,-0.253277430541146,-0.144634439288453,0.206616826831021,-0.50075863185527,-0.233762383307846
H9JrUYnp,-0.396634366366828,0.06636169238257,-0.382295118431374,-0.399499950266054,0.814233480800462
HHYmmHVk,-0.399222176727839,-0.233703790905987,-0.41685609301383,-0.81546703504002,1.13828252502225
HJ5U4uqL,-0.574966531422097,-0.745131127271032,-1.6507787282708,-0.558694898757814,-0.757508490306568
HNQxYc4w,-0.322422455192946,-0.432095613187174,-0.441430301993369,-0.564981514593279,-0.221187186888109
HQYhKHZ8,-0.47275123652822,-0.0883680708043664,-0.518947043368204,-0.296605020220856,-0.300877340272281
HSCMx0MC,-0.366925911090654,-0.0961046571966931,0.430101450970684,-0.596017147205971,1.13689210884493
HXYuE0fx,2.23287113456454,-0.499159844628334,1.68757097189464,-0.101207092411829,-0.562674488977263
HdKcxEWr,0.0865818157365364,0.256589943105735,-0.258186929645365,0.108104106773433,0.603368160818192
HecW1iCC,-0.549309815364348,-0.473540000778052,-0.718074021406863,-0.49627315534062,-0.846841654165979
HpbKB8rv,-0.46484059334761,0.150521337982362,-1.33552600023483,3.4109418199959,-1.00469823314454
HrkoYjCg,0.0981766267825519,0.75638841487391,-0.402792379556391,0.505840586803825,-1.28285291528274
I5P2uquT,-0.267084466154779,-0.219915265549708,-0.355891975333661,-0.403684272731942,0.809731572310197
I94qkDM7,-0.597216784380629,0.34323765462099,-1.32223990539156,-0.474373321778491,0.820709374120705
I9sQbtt8,-0.293912813401041,-0.647260107857952,-0.792826931512798,2.4070490034498,-0.583440817244918
IFxgw6ZX,-0.341017412545815,-0.264010612809295,-0.144504273192509,-0.2810330811092,-0.129324868001269
IPPPSyoU,-0.562254153526574,-0.0694266066889418,-1.3297322005237,-0.284067987233548,-1.12834766913453
IQOYQubU,1.5182468661692,0.69373901314334,1.82603048982818,0.254707993113987,-1.07649286737658
IYNE2SxU,-0.447719504852754,-0.276990819002498,-0.253789480447092,-0.0564484376486663,-0.57130867361851
IZRFk9kN,-0.242703992037274,0.464219982876081,-0.171015455925566,-0.239174825476509,0.0650144915327452
Iaq3v0t3,1.67406670992169,0.423898588757603,2.09856779590469,-0.88980652595224,0.0341227158456557
IbVwu1t6,-0.426093140628046,-0.346537307407988,-0.987550872919099,-0.0981440755843445,-0.417863125833993
IcHKTLyo,-0.0403860325794903,-0.389031947964142,-0.184232626563295,0.179504089058211,-0.8495364707096
IpW80wVB,-0.317570500208586,-0.191973914474062,-0.251455591952942,-0.260264927838318,-0.433452411678494
Itb0PYUV,1.66648000552145,1.04042682548652,1.83892460596965,1.41319749685749,-1.08836999737307
J8fpSwS0,-0.355279448225496,-0.061163680930621,0.639296907875509,-0.723347255626008,0.867383087830807
JE1SlbD0,0.803976728329384,1.03322853806486,1.04364371081326,2.01300528708081,-1.26497546276573
JEB4McNb,0.730015706998172,0.00110457210113622,1.30255861124995,0.182550635867642,-1.36124672625207
JEE4QVeQ,-0.0529780594167361,-0.673215707724728,-0.132339063788099,-0.448148692363799,-0.767406957363383
JJSEU2VQ,-0.393371255511336,-0.21041438692886,-0.0860416358875868,-0.500569395833564,0.870888441620584
JSsVriP2,-0.249277588819557,0.385694432231084,1.06315406635889,-0.707987114516752,0.429660946473066
JUvQNiOK,0.0021730135168852,-0.471896207797789,-0.0577090727666277,-0.21917662294992,0.328671258975331
JZbrRtm2,0.033899547017974,0.5771441951714,1.22869599251281,-0.624748170195401,-0.0572139140032733
JcE9G92B,-0.267459370534777,-0.0548195238371532,0.223034971222197,-0.226501089301664,-0.448954264874866
JnNYpXHr,0.161439997604216,0.566325748912886,0.127287343670877,1.972154872486,-0.731518939978275
JzpbnOtz,-0.369972689479235,0.794323557561502,-0.358575982328866,-0.679466290609504,1.01151172205388
JzzUhPQp,3.58029529730578,-0.115074175706551,1.82603796852875,-0.341298149114948,-0.764956683703541
K05R8dQK,-0.184935000592955,0.745232007613853,-0.856278268118351,0.109473270434204,-1.2273856254241
K17pG2mG,-0.485060658900018,-0.637340362093386,0.797225486654198,-0.692113740225702,-0.0562353901678475
K8BellUe,0.093646981473889,-0.623938217242396,0.758935243956314,-0.191011268151645,-1.04828951471723
KJ2eH6rr,-0.0214599828555047,0.832981618381049,0.31623424556754,-0.280079232165727,-0.86059641769164
KJEJ6Glk,0.552691508544946,1.06913682037589,0.899262678833821,1.53334937876152,-1.35636830713318
KSbO0oXS,0.472198828397901,3.50169945899862,0.00812901849171752,3.56677517972703,-1.09943305425573
KXtvmd01,-0.409444864938259,-0.272626267838379,-0.540603842598778,-0.384895263009815,0.377197219029783
KYiJqBuJ,0.228382874773913,0.0661616113014165,0.82778494755394,-0.55753971018092,-0.828475150981294
KmbAyTcE,-0.305827553318474,1.1264592046236,-0.491472358588418,-0.150245008714293,0.295757907147603
KnNyl3rV,-0.294864156475749,-0.304704595106872,0.411616457853383,-0.436559250777645,1.0835573443277
Kp2DG8TZ,-0.31870189638797,-1.18888766427196,0.273972370828648,-0.582558988366589,0.238065552956547
KqQtKWs5,-0.448908972601217,-0.354082481672489,-0.629560039536949,-0.511939405015961,0.519333143034442
Ku27g63R,3.36970535591436,0.984528708204095,1.84007176615021,0.675836902634797,-0.501599650092878
L2aTVqDq,-0.345319035675798,-0.344265234079575,-0.823952907099254,0.721311648442941,-0.992590239242009
L5jvq6G4,-0.469609238746948,-0.338757675703731,-0.531613344477372,-0.627228425226063,0.676184438309548
L91hYVQl,-0.479220113302503,-0.261175833909589,-0.174111714507986,-0.64023948255937,0.189930498342183
LINAMlbA,-0.368377927940803,0.178054841640836,-0.665457216338234,0.00534407156892557,0.600895570349746
LJoUNXSx,-0.464810682182644,-0.394363483582827,-1.33889091191494,-0.0503772430357193,-0.508157646996198
LLtSiyWD,-0.331736729773476,-0.37801918873807,-0.220504679651401,-0.507733944415051,0.0811721686491414
LQJtV8kn,-0.0747620817363189,-0.877889245231817,0.601200582387196,-0.34152610830722,-1.02259782120213
LW9uddw7,-0.385681669266187,-0.630740038039902,-0.482893728515884,2.01697715719459,-1.05836790252969
LZ6sdBTR,0.583849311701833,0.122199951559379,1.09867917399502,0.459127091220478,-0.908484110369988
La2Vhnne,0.139246134847724,-0.265969228869485,-0.0485204396479926,1.79641811971686,-0.604845941332601
LaUWSq9B,0.0194332462302978,-0.94410963307642,-0.184364592698016,-0.0436392376619438,-0.879864047477095
Lk4SfkPQ,-0.396691062419756,-0.48592820829518,-0.548283963348091,0.0632886720092485,-0.807182359090455
LllC836d,-0.18205816616337,-0.147940345865484,-0.181070673382768,0.280247745076378,0.0568630314445687
LuGiGeWN,-0.330934929706362,-0.135437080591689,-1.07077479940287,-0.437315931619406,0.954571682044206
LzcyHcWa,-0.422612246928947,-0.20927429672035,-0.884272442507513,-0.512159639486873,0.661906175489589
M7veP0H4,-0.410794979205157,-0.144145498733233,-0.874637035082619,-0.518875221608488,0.647385617539467
MB8aaJUc,-0.410277790007238,-0.133013975455413,-1.3383686494702,0.785893291898595,0.18457487785735
MDpe2zuy,-0.456639497038224,0.153929274123088,-0.0209651926202626,-0.424334691850324,-0.722059932738128
MEzdmEIU,-0.305510976647108,-0.429326958686955,-0.224115215959333,-0.367161612369241,0.0502047151110259
MVnhtivm,-0.373251158299964,-0.237565871069626,-0.0138601555370802,-0.0624309480949533,-0.0949634798773027
MYU7WDis,-0.196599758920743,-0.434659845886689,0.286309193200542,-0.805353385986679,0.328957449367097
MZFqh6yw,2.12426081428638,0.800921164391293,2.56462167430335,-0.405479918426068,-0.0316420353601714
Mdgy4SsO,0.634448373397923,2.11492665471954,-0.198983210528409,3.52538874444645,-0.882989999444293
Mj8awnzy,-0.34089546901067,0.161323385326547,-0.327255387762146,-0.77831324814951,0.92698619530303
MpFPbUJy,1.13778893050181,-0.0173865048923589,1.73404992745681,0.743301466779888,-0.813327872113614
Mqk7MFBM,-0.321099559944241,-0.162308651590697,-0.467764905289111,-0.670093336364343,1.42028926002321
Mqs2t1Eo,-0.386466526397968,-0.295533569399014,-0.524123917172257,0.544656907570336,-0.798599832239719
Mv3jFVxp,-0.269112608710628,0.0957521381407915,0.0571464947090105,-0.180110456258507,0.410914836745114
MxODTXvA,0.00460051267157127,-0.0941388046541973,0.709061283691717,0.0588832223003688,-0.850248246361952
N46PbpPM,-0.406433662029722,-0.314621102746904,0.300402726847533,-0.76595323961398,1.34058958800086
N5S5F9Gk,-0.46927999509309,-0.626405664463042,-1.61479460938816,-0.5320632808025,0.954334673884083
NLDg5fqw,0.0116893060944383,0.952241885761257,0.253065165406061,-0.309476029351503,0.849625392626435
NOho2ZiM,1.95755838547146,0.289549295870869,1.71414474540346,0.555514672607231,-0.924285720460781
NUuY7PFU,1.28600649531828,0.522631457568083,1.86688831517314,1.56290054812974,-1.20351129451623
NV1e8AEO,-0.375827311205145,-0.104758728500163,0.280494332907284,-0.464301863516504,1.04951453402579
NZLXROKC,0.0162062786908051,0.280025240779393,-0.159291947561168,1.17109432532014,-0.917703402514614
NaJo7C6o,0.411746037129397,-0.229313992165697,1.4421819410313,0.195910304755625,-0.0295426045448756
NgsyGkrO,0.146117325120039,1.43388423398544,0.449237994494059,0.607126109937648,-1.11102633191733
NjOx4Zpo,-0.329476082462504,-0.814388618549214,-1.31402354573247,0.72239620478263,-1.65537356288428
NmQoI7x0,0.909339227374729,-0.0684994159407384,2.03596958130588,-0.769168556835035,-0.485627695745747
No4wkdLS,-0.49134098034715,-0.353253618158288,-0.9151986579653,-0.786535165634429,0.260698598574974
NouMwhOf,-0.122887751567784,-0.218024924987435,0.384161037711126,-0.254466024433577,-0.476570690350597
O6YAWd8C,-0.246948600515837,-0.778977661340445,0.256965419757842,-0.288228371795202,-0.823552218395752
OAXVphSh,1.80151877393927,-0.288017030379449,1.77740874781919,-0.286751907275231,0.138667890464587
OJBBhb6Q,-0.473418752512623,-0.486331653717013,-0.589909682217536,-0.74246967959495,1.33139306960343
OSIQXImL,0.513592406639459,0.116805378910753,0.544632309039884,0.505795546965047,-1.29707928396893
OUUFc5Zz,-0.411990307975616,0.352074093467356,0.381558823745264,-0.618668690840042,1.09300260975965
OVk1lquT,0.278004302375263,-1.14416680430536,0.395777061198509,1.56229939619824,-0.149246594729802
OXdRxjzz,-0.332256844069615,-0.237730124841455,-0.490575450205654,0.221075879576687,-0.743372558776081
OXxW2ekf,-0.341262418445851,-0.264880225024967,-0.521759272183065,-0.518959903334403,-0.213382614508198
OXz5OpqR,0.0338137920242458,-0.740857618959543,0.716894061178229,-0.411906916646577,-0.101487852829022
OcBFW1AX,-0.496835966396319,-0.469119479268173,-0.768313975176718,-0.219616216576883,0.919361626500991
Of9V2rpt,-0.153736029387295,0.106108601427794,-0.303654742582339,-0.024323630235382,-0.727454216908986
OfLxPhbG,-0.0733283621329737,0.371091447946963,-0.140589082550225,-0.310979452114703,1.38063890328107
Ojx2vi48,-0.469911977712365,-0.279110883711127,-0.352258072367739,-0.659077847221064,0.509042198032015
P3M32iuT,-0.392915537708146,-0.335404501194561,-0.656051177883478,-0.710527566953972,0.407273912955409
P7olVzrO,-0.388434386046114,0.315835849531021,-0.0157587324432328,-0.292560048431293,0.493068461939489
PAPHErnv,-0.478182144822686,-0.216803211586927,-1.33261151380934,-0.15359038243026,-0.921285569729329
PBjEtfXb,-0.377063676199879,-0.123287115517322,-0.27089477385694,-0.402314529502019,0.400762540972342
PZGpoBBj,2.8080173138815,-0.271908543849771,2.14293303265051,-0.210691632172962,-0.806409249480651
Pc2RrxXS,-0.420898930233628,-0.307186066169429,-0.175440996943112,-0.502198225962014,-0.538242153834759
PcHQ4FOu,-0.485946023964304,0.117521917502921,-0.582763405310214,-0.314518314901154,-0.0149425107282434
PeNyTOVN,-0.368925163172209,0.0712214313003456,-0.50299120881808,-0.193024247919571,0.85692004829396
PhUPSU53,-0.411431165671034,-0.425981287403656,-0.176438156808592,-0.152328307215225,-0.548080593314494
PmUNeV2O,-0.496946105386114,-0.402151522191413,-1.30244822908895,-0.913811379327718,0.466339688622565
PoDJ0uvK,1.98618300222194,0.897885351680511,1.62986215715058,0.104036441083717,-0.64255969732092
PsUJdJdg,-0.266687157879844,-0.0578842911458113,-0.475327465509088,0.156390491776461,0.291206493110799
Q3xLFx1f,-0.253541334395205,-0.328224093332342,-0.333176615194952,-0.221071805925305,-0.955240309329371
QBGxCvdM,-0.167591120496089,-0.529352624008235,0.18892961586757,-0.403476365915365,-0.668633763470074
QCEPyu6L,-0.649135343375157,-0.20555241260098,-1.27334092942961,0.185293884277903,-0.978540764763483
QEfwec4s,2.43387102788701,-0.171305079563212,2.05168696679911,1.70777686758357,-0.696579954096207
QZ87Nnr3,-0.462681617794245,0.772417004018647,-0.629767870955968,-0.665497203186835,0.931062759398444
QlyGN9jv,-0.474187701328046,0.119622611869152,-1.00408527886157,-0.349714666212945,0.243210796640559
QqgWE1ny,-0.379465252571167,0.0283551661135189,-0.54555427755261,0.495629748289986,-0.324328144561068
QrjjBpZd,-0.331406177076751,-0.139805630599351,-0.985893890528745,1.33902773260795,-0.979458447017507
QsaBiX7V,-0.388148158843141,-0.0729382914241226,-0.163184720736215,0.0794230184812277,-0.0462052420308234
QtBKJuZk,-0.394559002862862,0.603366913835152,-0.441819995732916,-0.49928533123783,1.41145492391753
QtPRO8OJ,-0.355670895591904,0.623770675173461,-0.984957766037907,-0.569250278842409,0.434145977029767
R8XcsFnp,-0.49984936201898,0.1059778018668,-0.68646294448454,-0.506730672930285,1.11074607252404
RROfRt9z,-0.0986556391359755,0.00294384473818651,0.423315633308865,0.513434050105652,-0.855499177123661
RTcbiDGq,-0.389877063618038,-0.39434990124015,-0.573565102307827,-0.298213353993217,-0.133034487374136
RVidM9g0,-0.306029468849909,0.0459389448437896,1.65040642891381,-0.709898645296368,0.632547743328985
RZnQSH19,-0.429123881800674,-0.263789944831443,-0.681067201804324,-0.469473455180053,0.896071177310498
Rc4UK7fT,-0.613937007256431,0.00562170064639957,-0.969030396746374,-0.00174448667378043,0.946910508113124
RcKBKh6B,-0.420731018567606,0.183398230745747,-0.108734328324036,-0.182240119613585,1.05846811184502
ReM5kDa5,-0.209371520830983,-0.539921031101464,0.0594993649654097,-0.0437438910603637,-0.849751092408744
RfntsotG,-0.414487255769203,-0.357565567422555,-0.3468760131114,-0.773559657037547,0.639558949571452
RiXMlzXD,-0.336019984701556,-0.408853402888786,-0.262217437837391,-0.129458290048081,-0.275985443136187
Rik83O3m,-0.362811031117429,-0.0296449158591855,-0.262482273317525,-0.316749435548794,-0.149888902574567
S3PCzDzO,-0.226696078765535,-1.11635148981536,0.159829981757025,-0.470842547557877,-0.429309156331817
S77BviOJ,-0.502727102794427,-0.000443739162860587,-0.506918333596784,-0.388637272255644,0.265869686685546
SDdvtktF,-0.292057867641991,-0.519894111011882,-0.41815195939215,-0.115291403136115,-0.823104922911305
SHs1AyfM,-0.359608457604179,0.49602941371222,-0.0469079583264541,-0.316156353486359,1.35643914923858
SO4zQy9k,-0.406712067213214,-0.241418967546019,-0.368950055328636,-0.469019130117735,0.0656374928901181
SOOBCoiG,-0.338686370257129,0.373072872582192,-0.0654561669878245,-0.389039020647339,1.08836066259522
SXkkPB7A,-0.409501548150612,0.030574447476713,0.265452649789608,-0.324955051384968,0.943752469459685
Sa93dGqq,-0.627297460348684,0.246292627819464,-1.00514141425366,-0.0539314993082173,0.58138174009766
SonIG72a,-0.501581306540766,0.0825434584274795,-1.02306426153934,-0.30791439312461,0.0466442036035063
Suf6hIBc,-0.402744348054695,-0.126081560796497,-0.23863558475793,-0.463520562582696,0.849731182677701
Sx2JeSRz,-0.228286365885624,-0.362515228037076,-0.0307201898492575,0.663004073417295,-0.397063206618983
T1Tlftr4,-0.304003089982458,0.245100672758108,0.567492119430618,-0.642434305856473,0.575525573948408
T7ulR4ci,-0.3861121101532,-0.401647987895833,0.0461504749323879,-0.811468680285828,1.27876882554133
TA1NB3Br,-0.352943357181297,-0.213088816109199,0.0771935257113174,-0.418280559481558,0.736389325993925
TFZUskaK,-0.114736723973236,-0.286641138279621,-0.0668537738583368,0.0172919547492336,-1.38913034039825
TNL8HGWZ,-0.0897550113120388,-0.81426664466233,0.23903456203349,-0.301126460204956,-0.774507652160772
TZ8z1GSF,-0.345299183747613,-0.178271784923438,-0.308701264614033,-0.483256685796238,0.142333616609196
TqhRvkJJ,0.941720472032849,-1.13435382869503,2.0067025468734,-0.597679647241666,-0.235724565881664
TtJCUiY4,-0.430062980422087,0.188308250902716,0.360879115213436,-0.531003556723005,1.05461094032572
TwDq0lua,0.799000093754223,0.9449662462626,1.27961201250304,0.200477312785678,-1.47744611649763
Tzyf02sI,-0.428560456369547,-0.60015450380345,0.371355600564432,-0.478538616734737,0.915296728861216
U3yI6ZS5,2.77839190130038,0.750932273422579,1.80668896852587,0.856634676490054,-1.09403225384096
UBLnXZAN,-0.35458961522726,-0.835603253067613,-1.2521535010742,3.23740610230697,-0.521894654012387
UBWDzleg,-0.458131046511224,0.432114996484279,-1.13426762311212,0.157220170142239,-1.2701240297232
UBqkX6SY,1.41360837560174,0.234570299821647,1.72897287715698,0.0788531314516766,-0.817664415359024
UCIAi1Aj,-0.437746492545253,0.455353158197703,-1.21654926739471,-0.312343968512284,-0.361665418842543
UPbXGvCS,-0.100342978923943,-0.454436286422795,0.15350350319093,-0.0384805246288752,-1.19669460033925
UeWm1l9F,-0.313036436985392,-0.374828350035171,-0.712028457324646,0.846491385848209,-0.677479753568522
UhucscY7,-0.390412901145738,-0.593207635951512,-0.588990924177496,-0.645042660085396,-0.848788782911958
Uri1SvHV,-0.123008689108602,-0.40585648843302,-0.0798793261655433,-0.292375348488493,-0.964789765138872
UzxipGJS,-0.426210459134743,-0.191099259294549,-0.177528785661677,-0.426459451313831,0.783002188444009
V74zfaAQ,-0.225823596459945,-0.730698348600269,-0.219495614093403,-0.0297562568375904,-0.851234314000751
VBPxBLTh,1.54461412359324,0.859885044816535,1.62242890698563,1.0797191566336,-1.21116725807142
VLG7CXYS,-0.30601871658272,0.0838273440774818,0.210069121255646,-0.251098832544245,0.630616463911428
VNk52SpF,-0.411663266903153,-0.429942785165879,-0.804177435975905,1.98328762918676,-0.970933717889978
VOREKsok,-0.441986917063569,0.220305671626366,-0.37972916456297,-0.748027101145711,1.36435626559863
VRhTr5pX,-0.406667470015299,-0.299213504716916,-0.131862083581476,-0.614846444449479,0.347580026889784
VTcG4Kcw,-0.271290612364388,0.337884674695275,0.575595391189154,-0.329028425600777,0.36903249463096
VeKiWSbS,-0.344616139686002,-0.514751535440724,0.0413617906897311,-0.251816193411288,0.50465542701979
VnU8nJHU,-0.374854068089206,0.871517254012236,-0.089296027081548,-0.209407358711953,0.0255444506124821
VueNCxYv,-0.426609940812777,0.0314277805189232,-0.564601365223227,-0.318405753158782,0.215139995781733
VxuQTRUl,-0.423867953503744,0.0135607751140524,-0.0280466220645834,-0.31989512891455,-0.639826439258984
W5lgaocA,1.49647699497268,0.196892855965439,2.24380828732854,-0.42352581638846,-0.0376869230390662
W5mMq9Ef,-0.425103211621215,-0.14711459446686,-0.843257619025287,0.642617375018013,0.0380762892397687
WDhNqFpS,0.192357544549494,-0.389815158642548,-0.403461114158422,1.25835727457203,-1.58774094576525
WE6n1kZi,-0.455575765367211,-0.317499086708796,-1.41483810989537,0.472544945922978,-0.486736666397516
WFk6r3vA,-0.440154063794191,0.171803051523552,-0.270382042313735,-0.361873686868734,-0.30847702266607
WFyIrsUR,-0.525350617496167,-0.638047699592575,-0.483308126011604,0.0752917349087751,-0.967006380976278
WG6ZAsqR,-0.435455116029642,-0.339699725020396,-0.180009572272643,-0.714972190385495,0.969743918327683
WMq3CZQk,-0.22740816723101,-0.801129134834305,-1.35761387611439,0.125624440284523,-1.76925612164669
WRskmGjh,-0.420520762626376,-0.228016278131486,-0.266943624355582,-0.440372777443217,-0.867581068486834
WXijSglj,-0.46376821148825,-0.551803151543055,-0.695763848837567,-0.259821305311546,-0.646459010755169
Wc0stQgu,-0.253962615830882,-0.324517820894704,-0.315903683924712,0.350609838273208,-0.894731087630026
WewoSCUB,-0.514944209415946,-0.408332368395752,-1.11424023485682,-0.703316424432685,0.704899137625786
WuHuhHWJ,-0.267796602821468,-0.107321675706639,0.779193504200775,-0.703494539159246,1.27391450071336
Wv7EBtZb,1.79328234062336,0.996740641331034,1.48361846215473,-0.0844416158420553,-0.637981891846966
WyPlxDn0,-0.412407039670277,-0.0584043330818019,-0.450775073031508,-0.524507490650146,0.627258726780303
X3WqoSNN,2.07158332875884,0.257962617971039,1.46760155584554,0.360333981237437,-0.989741473013151
XDhyP9KB,-0.442217570735074,-0.276820020422849,-0.277621900169988,0.0436713968243603,-0.61111663185399
XQxhDRMG,-0.408148561547617,-0.349396801425536,-1.21124702765036,-0.396341714517222,1.01096662488882
XjLNAwxW,0.0280501376271324,0.514625340460649,0.0830712716977863,-0.0964307662907372,-1.22861625505433
XjfVQbXd,0.310884237159313,0.279458299503565,1.88481829140665,-0.159541511774809,-0.422683053031568
Xovczbf6,-0.466188074592141,-0.149246616606411,-0.69941005160044,-0.744228317343496,1.51171713801639
Y8H4onBf,-0.471610717397272,-0.384912307241211,-0.358757561983009,-0.691639853362763,0.817487531855096
Y8YgzSZ9,3.3460566590667,2.09926345018967,1.73531935525571,0.761085599150971,-0.804632553745451
YC4PNV20,-0.514233829490275,-0.280615161900335,-0.448606099423875,-0.58576203552415,1.00551760536178
YDHSCRdd,3.5279248289226,-0.130000004583537,1.96934904690312,1.86582649019812,-0.804406265789808
YIJ87aME,-0.390393454727116,-0.219937877466871,-0.0433395819638379,-0.644359549826183,0.503680054371449
YKvT4dFv,-0.328272216312444,-0.282774236785166,-0.418709408350045,-0.169240783286606,0.161420797683478
YNebALR2,-0.588147525999316,0.529475734184494,-1.07391172497768,-0.464963319954178,0.905262011922322
YNrnqFyb,-0.315728773814858,0.215461667589033,-0.430988300489209,-0.0755424161928038,0.224444464740365
YUZ4lR3m,-0.436356235694325,-0.159462033872462,-0.572579425506519,-0.22068973025542,0.258916707368888
YYLvjoVC,0.139782690437672,-0.496752522501838,0.20388926787377,-0.220802213367218,0.770121105570278
Yb8OtMb2,-0.0581321407315382,-0.414141455650057,0.549834196819535,-0.00722384221565505,-1.08000946339108
Ycg4lTYw,-0.382444169272561,0.411839277623316,-0.854987999017664,0.389194739788772,-1.38507195059056
Yfk6tekH,0.0944147900687144,0.600238820319961,0.973456981585275,-0.431895727877012,-0.368972753790028
YoSfgmR6,-0.512373274608322,-0.157296028458252,-0.248177465772817,-0.663928429093244,-0.0955720992931317
YpzFvexy,-0.410897187865349,-0.230503069550594,-0.653037030893443,-0.0263109083019069,-0.44835415797075
Yxqppfa3,0.0777896058575414,0.570361149726346,-0.105071726314735,0.158717390071565,-0.526311565630806
Z16jTUvP,-0.354679029276031,-0.231317572616467,-0.671708525874999,0.100510716640715,-0.260180612594306
Z2BdCCbJ,-0.322340147207855,0.264520795879219,0.642654694696073,-0.411492888240031,0.754484201064944
Z2JJMM6V,-0.0348866373389286,-0.166887151429535,-0.198281865348998,0.845888003254801,0.117688629333667
Z5jE1OB5,-0.299985119344629,-0.0519889049773389,0.51183724194083,-0.199707632486656,0.263826736227703
ZFsIqYxA,-0.370348624832907,-0.0674694866233821,-0.203774775356291,-0.295318725692045,0.408144098203268
ZHDVsoRh,-0.272203607437869,-0.430320860509055,-0.242342694960097,0.0130475404250114,-0.139041440832664
ZSmfu2Fc,-0.377525814970189,0.105347680237466,-0.67317805055657,-0.245714251878723,-0.144615181181142
ZU8YXF3H,-0.435006199846157,-0.229310946796769,-0.240835806557208,-0.706193766664478,1.13307995757626
ZXKaNy6Z,-0.549571084290108,-0.413213118153687,-1.65756747121713,-0.520021038920478,1.5844216905285
ZbYLo0zK,-0.218785678223745,-0.313662593872649,-0.387323228858896,-0.542449335772549,1.41753290492849
ZedN8Gcn,-0.363148510458995,-0.457537534942048,-0.450692332121089,-0.424367675338738,-0.371109024289551
ZgD4Dau6,-0.157090358528226,-0.223773199008139,0.58053615413988,-0.347662283675367,-0.622713083831321
Zgzf79LA,-0.544854319908807,-0.392185297141478,-1.51747570331289,-0.707967259951495,0.289353500940045
ZjqzxDOF,0.384269658191371,0.573279130975335,2.02518526549377,-0.549534818870143,0.140089942954615
ZsZ5aDpq,0.176987932517256,0.933840351691828,0.311958010594688,1.19602210457923,-0.867547356589647
ZtyqE7If,-0.184523810283895,0.163346497124374,0.426502869412633,-0.051749184991233,-0.975917058790772
ZvUgz01f,-0.312358649278347,0.731135698420735,0.703687899594562,-0.753091036069426,0.912985775123332
ZwrhgdQV,0.394558520489887,0.521270216452478,1.0791317156961,0.590207198836849,-0.519771644823814
a7bhJGBU,2.00750363869701,0.293412557724523,1.99317674033178,1.20417354774904,-0.99687643390025
aHpv6KzP,2.98518016784495,-0.103035593074263,1.98927215262037,0.897346244949172,-0.844497114912772
aINzEBVN,-0.336356577410332,-0.473703883456471,-0.791992586043051,-0.604045144357803,-0.311057545711647
aP9EtTGF,2.66047850174064,-0.244265730455634,2.03973612998001,-0.121073062580757,-0.477620328156328
aV6EhtSL,-0.397446754995264,0.0256726178919943,-0.0962258823808714,-0.695401375711836,-0.362810150696432
aVZsXKoH,2.12936588318294,-0.239410299542175,1.91321938124498,-0.237227752726526,-0.757887777320729
aYVnVJvc,-0.0500941699643625,-0.108729324647122,0.426240733516973,0.75011533952672,-0.693582306509419
abCzN1zx,-0.303646847269589,-0.333581259028135,-0.875124310123926,0.252421582749827,-0.903757132050427
ae7sMiB4,-0.245888522898046,0.195479614079242,-0.50457513624364,-0.26912081300048,0.42637328539489
afsVuCGV,-0.347022133717306,-0.0580931635660594,-0.586404931181759,0.175052730162802,-0.35794509704965
aiwBQETI,-0.12465198177978,-0.570361517631605,-0.0538252003137919,-0.386204995522556,-0.786618063375635
aiyli4EI,1.81889978393565,1.44984205066603,1.79095196560348,1.051026661066,-0.445213518149299
apJ7NmzD,2.51306257442445,0.0478441375234873,2.05873631520137,0.102688692683178,-0.700812975400676
atVjNMtQ,-0.243190468149412,-0.690018364573464,-1.21320705917196,2.12689930284077,-1.1386440206181
b5GirVGV,-0.45694702618021,-0.396912759947789,-0.155431791519437,-0.705495039772315,0.48296156354191
b9SpMjNB,-0.274160581605929,0.588863853428624,0.709564169626232,-0.214026012529227,1.16774104727459
bAFs37yy,-0.409921088799924,-0.406990763137548,0.496393384136422,-0.618106894912769,0.874822337197059
bDia1hHV,-0.126978183375617,1.45907910758899,-0.340313213926786,-0.083686230214999,-0.812759063725089
bFkv5Mtr,-0.302812822145073,0.109943522649381,-0.0853055568258982,0.611063536782399,-0.295864016424334
bHe2IXgA,-0.384131576058385,0.058731676653448,-1.14183950483141,3.28542500251798,-0.854825906731915
bWX3vUm5,-0.141057960031855,-0.305455717498514,0.181509704995434,0.089173546169491,-0.781654006860457
bat8tcGs,0.0946326986293445,-0.2035700186765,0.261711191950364,-0.0490204252300947,-1.3024780753702
bfjej4wu,-0.499830286353882,-0.543726570375036,-1.11033980951196,0.053373911261641,-0.702265256360871
bh04YDiP,-0.222391107494681,-0.271022131216002,0.0558903923760322,0.210628563441537,-0.246528568554265
c110Fdc8,-0.332842694494942,-0.205653174828554,-0.0250908404551745,-0.372287338732014,-0.10143432057536
c32GUzMa,-0.485849177354466,0.648449325999468,-1.67678369073076,0.0147979471354306,1.054189853802
cT6uU0B0,-0.476602379249046,-0.0723828973301801,-1.21846796112727,-0.417783111514256,0.677783922927904
cWXCiFwh,-0.471890929210283,0.0674046583772313,-0.482142067722559,-0.417338835841912,-0.606423136512564
ceNvS3yd,-0.474462800295675,0.121906520193963,-1.43066845086245,-0.275664396655789,-0.352006989456526
cmwdt4Av,1.97862879459407,1.37113034762084,1.75820885855938,0.214023545583864,-0.674340569928214
cn4EHsup,-0.437763133057613,-0.253997849090789,-1.29236109352895,-0.280028396023639,0.0121305467471544
crVOGGTT,-0.41472326528955,0.24125911796061,-0.196425375602523,-0.607723222866349,1.13743670193705
csPEJ1E5,-0.425673238063505,0.117475411105441,-0.274853660649016,-0.436747782804708,0.0750854582725546
d0UrRtMk,-0.427239294135493,-0.392527820089896,-0.613617047174298,-0.861734781026318,1.14792515891773
d6LU4G4I,-0.456501524472826,0.715407810570189,-1.69012673962589,0.332172353175369,-0.0123906346372441
d74T1DVv,-0.461652584872398,-0.984818079416433,-1.26287943296725,1.20772323742296,-1.26806635006194
dR6rM1tQ,0.0146667538525042,-0.46975740695504,0.856282979913318,0.10990801381377,-1.00933583541389
dUNxOoqg,-0.39211462404309,-0.763441645343427,-0.837450420006997,-0.200694588239935,-0.53482357820342
dUnlyhj7,-0.037895889960786,-0.00209279426892556,0.608189516404254,-0.613511413007329,-0.136549340596156
dVDlnZQ6,-0.413240907644938,-0.567790051166086,-1.0430741783331,1.14544804553617,-1.23433942000026
dVT26GDu,-0.383629308673215,1.68552892371228,-0.775440135397379,-0.412693928648017,0.562341653491239
de43ycXY,0.0926986702181639,0.593744996093909,0.959537537237604,-0.586876403559726,-0.438597900947756
dfIn7m9z,-0.299336563095853,0.0346079735132908,-0.322730021726584,-0.144530548916004,-0.336607597647667
dhmb9ZY9,3.32584272622699,1.53968141924763,1.85263040668039,0.736551883643201,-0.589829357966373
dn8kCuyf,-0.316577099344291,-0.305526572537338,-0.656997633413843,-0.39233760670499,1.21218781515183
dpcquvWW,-0.343473774402474,-0.238682856572485,-0.27896477293904,-0.412504414895006,0.12254516543245
dqcbIMyr,-0.55237081320402,-0.514182059178274,-1.55893190961134,-0.234067652340614,0.208945815810797
drWgsBf5,-0.340006209646897,-0.259125762372098,-0.252843533294159,0.567295623630759,-0.568521828153957
dytx0HSe,-0.449371544911756,-0.273482717894582,-0.70952485402238,-0.753951778249159,1.12586582600045
e4KkkIha,2.51504412575716,-0.70411241410268,1.85453899802203,-0.299048009050926,-0.799539619573151
e9YorH4m,-0.353921075736352,0.401127348760699,0.747146441468746,-0.760670346835687,0.565031535247444
eB9gVQ0R,-0.480046506068145,-0.00704513762848106,-0.278570251995833,-0.132292947700357,1.11735024679408
eMhLFqU6,-0.564137379070189,-0.178245829605889,-1.27432782322503,0.0273111298683371,0.622331034325468
eMllg1qm,0.183715496254589,-0.327985630581005,1.13398576924912,0.161063732129081,-0.682398410689753
eNPunZ9i,-0.565456762350425,-0.348794855899649,-1.10020820741654,0.589919785358797,0.445546882122661
eS5BSM4J,-0.331026791385844,0.0989306929366004,-0.324006742335406,-0.626031018607549,1.26043482723388
eVGMFoOI,-0.40281423055054,0.310407591483485,0.620341253555907,-0.718371134039709,0.494625060078234
eaIwb3rG,-0.373178789680023,1.14953419108111,0.724882359929851,-0.215768478111051,0.635378710949811
eyzw8Vis,-0.499777908998019,0.0540004479887274,-0.296391426756049,-0.355871058996197,0.914288455480132
f04Ke2bN,-0.367704445531525,0.0154029315411532,-0.750637456381244,0.181092076215168,0.0408958358257492
f4GA0te1,-0.348784401734063,-0.490921694234879,-0.32916839397439,-0.54985704967115,-0.0468695032467589
f7bd91h5,-0.381949980328815,-0.162663235792064,0.164102804814186,-0.729265278574096,1.27431533234538
fB7z9ndr,-0.453394310873266,0.280835343397327,-0.178759026903718,-0.222612748685451,1.10557985294045
fEe7AWFA,-0.00547893693759288,-0.0815375294718988,0.451133133139646,-0.0501878943286081,-0.725697771511441
fJJIbgY9,0.548392613357868,0.264421740648923,1.17669273523776,-0.191271047658911,-0.722283054672544
fQBURMvg,-0.321566010494711,0.0103734140953745,0.735971920523284,-0.432070170339946,0.845668224521258
fS0HpOub,-0.370067569124764,-0.0548436952544352,-0.116856672280924,-0.425601243263829,0.499648803933748
fTDXauuk,0.113080303647421,0.209071780270341,1.05634142253374,-0.484340913878118,-0.248832753869988
favPNA2N,-0.378328253640222,0.448467216630254,-0.668591106803048,0.10985594691924,1.04753260067163
g3Fv0U4k,-0.502509013314473,-0.189458500878177,-0.920636477413618,0.336502451705907,-0.587168379118522
g5PKo2E2,0.249111048405668,-0.0566777862298124,1.28520736803354,-0.092419237320715,-1.07573819793589
gbjnD5fe,-0.416127680631039,-0.395766907016113,-0.479115351178902,-0.677496124470276,0.344328532929501
ge9zqXCv,-0.465033680275173,-0.340356295418682,-0.756022861130498,0.147662469426369,-0.987159802894206
geeqJpSE,-0.438902959866663,-0.351362435001382,-0.295518512871713,-0.76627711382574,0.493821031412407
gqy1J2RS,0.272387984808275,-0.213338291696427,0.51260103983746,-0.352692911100729,-1.7628266455634
grlUtS3H,-0.0365495028952178,-0.239710534506422,-0.0542989457959566,0.703021714380461,-0.613556480395945
gx965KYj,-0.278756848012422,-0.089929875954685,-0.303105803312843,0.0877894335517119,0.054989382090631
h3F08Vjm,-0.302032916612249,-0.015135023377391,0.169473721565352,-0.41477003105013,0.939018133158486
h6FQG8Iy,-0.385944817829748,0.811100369469002,0.746623201619068,-0.624074661133766,0.828240656390414
h7ftM8b3,2.26142004356265,-1.04115860722847,1.80470792153162,-0.259574879594519,-0.854979487698625
hLrCHXZv,0.0340763730651917,-0.735906463203055,0.377654506142785,0.240226820662899,-1.08191202125221
hQ6VBuFx,-0.482534950884892,0.199142737394001,-0.118362527208132,-0.295108787470984,1.3463799090069
hYoR2y7w,-0.256264407257141,-0.485037693443895,-0.953072929541433,0.317159184707455,-1.07465943805554
hf65yZkM,0.57726381608961,-0.476111334220577,0.50210116909296,1.570808821328,-0.949241378568373
hjuwe1x4,-0.288743820397549,0.410663094345476,-0.275267960433689,-0.393480491574359,0.335899360957902
hyINlsFR,-0.500202689023279,0.411061358180977,-0.747472281381794,0.182680778294746,1.05829808399296
i0Qlm9Bv,-0.228914600679566,0.300271031024422,0.697822055914662,-0.620177363300788,0.876293126033648
i1VxfxMb,-0.308096051984606,-0.108010144873726,0.403758340554596,-0.784993774410878,1.1164892158425
i2l6jXNP,-0.449023047879255,0.173904244013221,-0.938763202209911,-0.253260050347982,-0.0742446097100635
i4FgPZv7,-0.467303088392453,-0.302922591693213,0.168868064839487,-0.655723480512327,1.16710629391729
i7XtIkSi,-0.336521555110285,-0.305840521760253,-0.40949204548513,-0.251434014591694,0.317800322124963
i9z346Ut,-0.192846102382494,0.0814142981387692,-0.574824590850783,0.464179544763608,0.566616023404413
iDOat4cZ,2.43410727982387,-0.308429522090112,1.95581978221103,-0.67781923556794,-0.982863946023384
iNv6RoSO,-0.257945468898551,-0.066526222883724,0.0738754549793829,-0.0466921285068996,0.213918618710736
iSL9NYzy,3.20105367132046,0.274183107845186,1.8138768389274,0.93911135786875,-0.79789012276154
iSqVc1r8,0.0893751219124171,-0.00157064608871128,0.694613883406105,-0.369399194758484,-0.191780178021025
iYZMftt6,-0.378456203435135,-0.196307935470258,-0.215159271676968,-0.460363443861847,-0.592795296283425
ieTPaa3c,-0.400489811157883,-0.0984362198407015,-0.587285439433012,-0.139057178064388,0.0159792106977791
if7BmzU0,-0.454450565514548,-0.364268879574263,-0.397635269716451,-0.707083075358811,0.844596803878188
ihNz5bmx,-0.31634490843322,-0.588549298050109,-0.191420545011535,-0.0411289580772299,-0.693008517147999
ikJXKdIN,-0.484712989415823,-0.397592266001204,-0.940887049403187,-0.830307589424731,0.947683815144804
iq2kxikN,-0.196739476472012,-1.30954046683974,-0.267632212123038,-0.107219700323492,-0.825901725765386
iuZEDJK7,-0.415420713038007,-0.320524721122016,-0.379067831140005,-0.667903666778379,0.602931271317583
iyF8gVT7,-0.500167330614616,0.253610508099817,-0.412349622290059,-0.417796074042938,1.37672676802739
j06qdQ0V,-0.40972350964965,-0.101707751758201,-0.189435291754523,-0.0115741324546453,-0.0313203618116109
j7hl8svO,-0.256979164107822,0.297333030816152,-0.0959319425655579,-0.337057478746917,-0.71190895689275
j8hMoJUN,-0.460585120871831,-0.356421513696463,-0.968841291422181,-0.808077898507573,-0.0539400520725208
jNaFasbV,-0.515616436355723,-0.0682173250788523,-1.15868751019117,-0.000771382447208294,-1.14302225728526
jVVHeYHT,-0.221591142157788,-1.00695403623468,0.19098513356841,-0.722674975315311,0.171727014902989
jXm4ySvK,-0.375899716042622,-0.270623109043128,0.124214807194795,-0.314602090738292,0.549943998559683
juO5ii5l,-0.148110571283643,-0.315367528939671,0.00168509347541303,-0.583501840337192,0.102498230150315
k2hdEBsU,-0.357563051877553,-0.00303124090141824,-0.288332613667261,-0.687337211370567,0.985080870390017
k3ynMfhN,-0.100093249943882,0.17609842823628,1.11923865665022,-0.41701695515272,0.571970714244355
k9C9yBtr,-0.0656905736317604,-0.278837510937533,0.273899575852974,0.540262573890093,-1.01649235888501
kAKRvcRo,-0.203496994499165,0.653902672185342,-0.716235991389397,1.41372132819272,-1.53728079837966
kBi3R2oC,-0.217541607047088,-0.0579191952177762,-0.306195851014172,-0.240907114499375,0.0643674266284634
kDWmnsXe,-0.238572583991739,-0.5683379288025,0.879286545889064,-0.677513137253222,0.506553936995936
kSGBd2Vh,-0.439255012115927,-0.49816545601496,-0.130548774419182,-0.795272104871221,0.760405899535702
kT0miHPT,-0.413874919133061,-0.256134322915563,-0.112813780856489,-0.321149224104365,0.214996502627219
kaW0TfRn,-0.371655020133066,-0.327423978976823,-0.396300096901932,-0.535422169446474,-0.131368960959635
kmg3SowO,-0.392419496805894,-0.193129528171544,-0.74753542602573,0.462222432034312,-0.36595197156521
kpxKSlnF,2.30651886059655,1.00511756968907,2.00182881514965,0.0424901580003449,-0.256589598721271
ku2cn1MV,0.701038397942144,1.42827325081953,1.61581989983586,-0.291704446818042,0.54521344991302
l1su5HU9,-0.424138029909129,0.387583986346214,-0.586496845436859,-0.32394845732464,0.746013360983481
l8Tg2RvD,-0.293665119386874,-0.825087286278933,0.516044346345605,-0.649262578626728,0.508189195581624
lB6NsVOc,-0.433163366063984,-0.215780351776803,0.0381824098483319,-0.753255577496482,1.0883758811896
lEcdVyKk,-0.395752852677791,-0.0367118816025428,-0.0948759711280986,-0.428286235389588,0.743781527659637
lH4TasGl,0.0274550695234765,0.216498268184895,0.945563726074935,-0.550069042880883,-0.257821803530533
lO9aggHW,-0.125488612720173,0.426848419281949,0.0543909544017283,0.422446774804238,-0.223275441657332
lW3m9Vzu,-0.413307796716046,-0.206386686638592,-0.668208163620831,0.156471220808401,-0.222250779387843
lYLseGDP,0.0384740338946472,0.784192490621135,0.387704042249186,-0.607958151525245,0.787602787077455
lcOnCdZi,-0.0230144327623045,-0.168601470341124,0.652974091574115,-0.744698860776038,-0.0685092419897437
le9YGwON,-0.253901005889635,-0.4749102783519,-0.228572275665061,-0.124940511542,0.400202773635138
llMvu3TX,2.85802126400216,-0.856989568713748,2.19188796034819,-0.576440792039207,-0.21106567402875
lnHh2jFO,0.0188249924450886,0.674311030967105,1.33365113389087,-0.735295936918163,-0.128559567963622
m07CVXd4,-0.415280554733349,-0.0532509497313726,0.562904670282454,-0.653259791110662,1.19962794203303
m1lPk91z,-0.287437277342854,0.403352706675138,0.336599122047061,-0.778800989440208,0.745517378629873
m9IQdmwa,-0.419955869340969,-0.171666439677858,-0.30441565127457,-0.515593877628454,0.635602711175024
mG9BRy5x,-0.173782640428666,-0.142982966221347,-0.867910452197067,0.426318260188538,0.45485350777965
mVHXnama,-0.394888970923803,-0.336017415324155,-0.929389104665538,-0.465844101018699,-0.383907972681345
mXyrR6nU,-0.476457603947729,0.697818848685427,-1.22359028703146,-0.554847367387431,1.45264836856942
mbzNdxNc,-0.271380094720601,0.00823973640431808,-0.510395706404311,0.0731057388626211,-0.8277377048294
mntH7g3L,0.0517368358034468,0.343603000523492,1.1090061754846,-0.541257020344889,0.182800622207716
msRTXP3H,-0.282274632479405,-0.093611292637001,0.213342659803044,-0.211669708989078,0.273024251071989
mxBjvIPR,-0.395646976618664,-0.386657276378165,-0.119621524694324,-0.574232176330095,0.463105072568234
n8Opmfbz,2.58116968579536,-0.0663809831416591,2.07911546805681,-0.629459033164271,-0.201166933139944
nOkgU29Q,-0.428134262160736,-0.158468289039627,-1.45806907380069,-0.0759775393676583,-0.617088828228105
nhttf7VM,-0.0100938591397946,-0.799024017149669,0.403103507542941,-0.0466905228398014,-0.213090340431273
njLbXYa3,-0.411674499161258,-0.281527836310242,0.215478656580818,-0.582053974966692,-0.701938427001094
nwkIpzmh,0.374529596608159,-0.542326158242885,1.10328510655134,-0.359317450705337,-0.0645345754276913
nzB1R9Zg,-0.149070891786218,0.456570264549973,0.804932275775085,-0.568635803374857,0.387209625591105
o1rZRI84,-0.376773910210802,0.092191730378758,-0.437327354910588,-0.501238491210378,-0.37532646938486
o7q5Mbty,0.079713110479616,0.191766521937862,0.653885806043949,0.0558368041481493,-0.838267942023564
oCBvysqB,-0.502541983945404,-0.215314707077272,-0.306192262154798,-0.503076490508511,-0.476813558731907
oDmycTPH,-0.468616284614058,-0.512503403802237,-0.443618995867063,-0.8187153566567,1.04744970294088
oFAXZvQv,-0.455996360345064,-0.0848766451960548,-0.149714342287136,-0.200254032377454,-0.590480052325338
oHE3M1zX,-0.223086908059586,-0.0905406944579518,-0.796300517947479,0.400076242267779,-0.238059223112823
oMhVmSpV,-0.513124392945277,-0.0392473490499734,-0.521399851015544,-0.511979556303557,-0.798525569682561
oNsDqVbi,0.1588584527858,0.279059758957986,1.03117784229656,-0.283137319304761,-0.438082448387129
oYAJqQk8,-0.450799840131523,-0.483817185981716,0.136986816841329,-0.94651965472072,0.67622260282513
ob5Kb6dW,-0.433602992308907,-0.525472048879574,-0.110444734095018,-0.540045342702933,0.912335460908499
obnzqs79,-0.510701189543302,-0.201822386504249,-0.49074537063072,-0.736407781632227,0.0896059576197811
oncLcgRP,-0.295678826714787,-0.392930635816098,-0.192960238363069,-0.00634860646146415,-0.198626071731697
ooWVYaAe,-0.368336077023243,-0.687076622693313,-1.24944429775123,2.69508736970451,-1.19371401109444
osdyOUnV,-0.607512551033949,-0.209599009661825,-1.22074045113675,0.388793364612487,0.650559509054439
p7H9CzCv,-0.55548788859769,-0.167803293429965,-1.58970280063772,1.10617449060472,-0.705738804350249
p7U9hVhY,-0.386681848400801,-0.151431005980359,-0.393316576584296,-0.0832215625680388,0.130747409739457
pE6Cf1RV,-0.301433114963891,0.250011967390943,0.364814122656789,-0.516626013199159,0.73120822083439
pI7qzotI,-0.267337343217646,0.415672879933813,-0.632510754847393,0.436509113653616,-0.435036988888952
pJrIA4sk,-0.346335478575369,-0.267106616510302,-0.292193021825675,-0.541659388168068,0.128819047364803
pXne2CLZ,-0.506843190899884,-0.926777764525012,-0.570029397525242,1.56571960287706,-1.11786875884236
pZMcDIOS,-0.470209799259661,-0.236287814359167,-0.415236047715013,-0.791789044428498,0.855367782965695
pavfp3cc,0.0339491493728137,-0.477804384988982,0.12145836270434,-0.122109314564524,-0.863687180857425
pbQdC5L3,-0.42264400289484,0.37319772062896,-0.649672020268068,-0.648683949989601,0.488522793861436
pgj7aAFP,-0.327105511129742,-0.214052658268886,-0.346090232386474,-0.161689021842581,0.162640134491531
pxg8G3ed,-0.514259802751502,-0.759428903832801,-0.827498059674917,-0.215549636450768,1.20922834382564
q36Npk6l,-0.467344769490894,-0.300197501687501,-0.663773495307833,-0.842252792689207,0.865007369631941
q4aDOVvq,0.474568473644311,-0.00326161684770464,0.607368056942195,0.694763629239931,-1.45345603679859
qGmfR9CN,-0.343796166928608,-0.580366956857383,-0.593952393972363,0.649513523419308,-0.485282727108653
qJ51ODpA,-0.394390875967645,-0.284334207792009,-0.813073867628224,0.648855087167493,0.0621512052821728
qQX3cs3I,-0.190936488026526,-1.78773109936932,0.0731764789297731,-0.387347250841347,-0.0229674995269451
qXeIxPb8,-0.373319285670307,0.210841393052654,-0.232572623770122,-0.184926912492877,1.08375663848688
qYQ4MShM,-0.052213098999433,0.229634287855081,-0.0112947295320322,0.688709332639957,-1.20461757597461
qa0etnhK,0.00587149861955277,-0.0518441254791025,-0.0287831661952436,-0.0637304865986405,-0.707419143510859
qbL4sboq,-0.37892514741284,0.0128605293696429,-0.144660053593489,-0.50511304414393,0.164602609548773
qbYrsWHq,0.744401780583233,1.21845683494473,2.33851776258216,-0.296167180625365,-0.228861303008688
r1zmcUqQ,0.264923114514599,-0.297455126233992,0.559946862914935,-0.551845329000376,-0.782334334051881
r54iHeQC,-0.426623810870876,-0.197314727464036,-0.281605703474257,-0.64094953239194,0.713404775597833
r6xrAnQV,3.06159615082012,0.801153385212099,2.30701719304954,0.00166322877034496,0.0095659177736308
r9HxnQDg,-0.215320606806742,0.592821812522841,0.456517919184119,-0.3586403502986,0.613987555914974
rG8Puuf9,0.561207795066968,0.0665975165145999,0.688615189405458,0.806872543254025,-0.865263910781243
rGuiefuR,-0.0362967277521344,-0.028200837740288,-0.774095264639732,0.00530660273512189,-1.56680789808214
rJ19OhGP,-0.424975563599011,-0.0885980825697639,-0.286109992865483,-0.552953968843358,1.39446226706095
rOCYepHd,-0.0215961140338723,-0.489964294024329,0.304705928388073,-0.614912048035719,-0.0126583131865508
rQJaOPFI,0.0717352490632637,-0.453479899380999,1.49750747269551,-0.495284071204352,0.464284501744996
rQhZtZeh,-0.288968771821592,0.867952547198626,0.621331042947328,-0.499470034602953,0.653752567189887
rapmok0w,-0.489498051694975,-0.261709922145119,-1.39467532806987,-0.145254750241213,-0.0347780522088114
rgzfnPVu,-0.208074268893003,-1.0155430656388,0.344606596895923,-0.421668985135185,-0.344024078288285
ri4qhb1S,-0.409775424136576,-0.035248035631425,-0.500513722015404,-0.67272797500226,1.46911191385659
rqpFYzff,-0.124162067506268,-0.118723219875025,-0.165606144037396,0.247365493732038,0.465662274642216
rrs22coX,-0.338077599753475,-0.041348596042313,0.50071733372686,-0.305675346905245,1.0927435212284
sEeUCQLc,-0.346720945815838,-0.0314553139126967,-0.912412283762901,-0.365293713593974,0.49922680923255
sHScwqQl,-0.399253558588607,-0.218354850422984,-0.0611063038144337,-0.802658410043573,1.29371520476516
sNC7DiAt,-0.518551059041661,-0.29038336041414,-0.303614923384338,-0.742247696236997,1.07906114477999
sNK2TSs3,-0.369155037916347,0.268468610314463,0.322316172190658,-0.457617021844243,1.11283062125448
sO7Su6uw,-0.627644882872274,-0.899928565104732,-1.5313687689554,0.047884732370785,0.0190391152088881
sOWZx89o,-0.489209139877082,-0.230323183693589,-1.26952332760414,-0.558133494281632,0.550706687762234
sPbRcPjC,-0.0496675095221519,0.0379012429006369,0.198450076871701,0.233830115046984,-0.849038083816703
scVUfTKI,0.554549366297865,4.25790223294437,0.138005676406871,3.11047711846664,-1.10649256266598
seRaGeVv,-0.35388991802884,-0.203753484588374,-0.287888289379976,-0.20291938547849,0.904859279453654
sgtwiYWi,-0.451801145229933,-0.375121205625797,-1.07094868163763,-0.0765432564392372,-0.913568924199194
sjmLHcT6,-0.459229488877189,-0.411215124640877,-0.418282872846522,-0.644553399413142,0.478479306724881
skZUZZGS,-0.405053690004407,-0.104546861971778,0.334753532331773,-0.568169522865625,0.65111260403244
suAmzADX,-0.475583882659309,-0.852212450895008,-0.463454940093762,2.66559222075133,-0.702101502268867
t4GWLqlO,-0.026642361610505,-0.241103830242111,0.79869941000819,-0.527087026041185,-0.147859083032093
t7gy6Jyy,0.215505524324424,0.987171998451179,1.78174938889682,-0.916624218969791,0.187197929095727
tBadzH60,1.98183258081946,0.0225874410990975,2.15414795830191,-0.310339229330844,-0.599050825805653
tXUWm0hp,-0.0811354436464757,-0.321608955227273,0.121920037198837,0.662938539230954,-0.148370396129286
te6UPPxf,-0.45895786089499,-0.218102947909325,-0.191086280355243,-0.140391306069918,-0.771740343769528
ti2lamkL,0.140625485692476,-0.00703313162149379,0.140311500850253,-0.46192180880913,-0.161885795124388
tr0lpwuU,-0.858842041562266,-0.737001375898428,-0.702687292233278,2.87034805418871,-0.955046369492051
ttdB5C73,-0.271850715432284,-0.197069449585977,-0.00225444807729187,-0.147313735399111,1.38231640706161
twS8YZu9,-0.421826592955839,0.706156437626614,-0.322435295043581,-0.700212124233255,0.591543195193521
tx68W34H,-0.439162505237043,-0.0646944542354981,-1.30309023436832,0.463655374597394,-1.0396397663034
tyQSX4mY,-0.278025078750622,-1.12767536597808,-0.230163510371532,-0.595237684516966,0.266007185237851
tylKCRc0,-0.425576323878132,-0.107880910361876,-0.0392161281910942,-0.442986289601368,0.686857162176606
u1544WUo,-0.539985466422807,-0.0872433626610029,-1.15197546148775,-0.656552615835369,1.50592139273607
uAw9an0d,0.400419604504935,0.0827878046967323,0.0569553832924307,-0.359748594126675,0.519647876522909
uLZAEXMG,2.93145666739352,-0.303747941906346,2.0360590001282,-0.20209620710846,-0.814811115457381
uMwe1s7I,-0.494671164202951,-0.85697024241943,-0.352627550174919,1.09552990262178,-0.732337223803269
ufhGeV3q,-0.402841566935239,-0.675721057858341,0.0516181202775722,-0.603753176448919,0.427639036956325
uhAeGBHo,-0.564420563667389,-0.652816006296133,-1.4329059389229,0.733826247229976,-0.687639953913921
ujHNlqpw,1.20055681778311,0.508458348005062,1.62724430968652,-0.196720487691056,-0.843473634306816
ulV6kuhB,-0.412895828312574,-0.345899908576082,0.420740921103241,-0.442307065940712,0.797525561007878
uohEnNEK,-0.275006072489119,0.584654250520409,-0.737661318753497,0.583738977418339,-1.2691769597657
v1lhA8I4,-0.404619251301287,0.0876908447798428,0.463494845117886,-0.548047231206104,1.26444071829028
v3JzigLI,-0.481289596766584,-0.389531419884275,-0.595657134561268,-0.856786694912186,0.881617479822834
v5IwjyIg,-0.458334435885247,-0.889765382302277,-0.343574231743385,-0.266640879968758,-0.833386893812608
v6lp5TK1,-0.276706217142824,0.00997904616631412,-0.184891000874986,-0.833669176338376,1.02502630831889
v8vOaaWq,-0.420745166276095,-0.1255577066797,-1.08263496446462,0.440520876379318,0.00875858057703082
vAYKtoil,-0.310869960186166,-1.21591946293081,-0.706054502833957,-0.373508732362955,-0.877721542011612
vGTNQa6G,2.92319636168119,0.857858507890052,1.85611259815282,0.224220713853857,-0.212165845771402
vQzNxHoL,-0.43387347642477,-0.38999408080956,-0.851595860072092,-0.497608210968242,-0.704594116281612
vfZGBUJm,-0.270341733342218,-0.150809033239366,0.0330089696106277,0.0711430277775584,-0.446206294052173
vlooVUoT,-0.445643396621551,-0.363262429831201,-1.11738654014374,0.362588184335864,-0.790497737044631
vrACvd4O,-0.28999213566804,0.686379385950767,0.364210994472005,-0.329086339236072,-0.380882781598367
w8hdjLwb,-0.176456579847252,-0.348210481878352,-0.140175351209013,-0.379903095221845,1.44880652754938
wAntv4gH,0.0640346143441031,0.702372587226206,1.82879550712272,-0.579755869291938,0.484632983916718
wIUL09q0,-0.540997078636687,-0.309294350146334,-1.04217734440879,-0.751752113714324,0.320581064895627
wOzx7Fgz,-0.353182561499471,-0.295489528094208,0.0927960522294384,-0.503502400753115,0.299992749920988
wPhjhCJQ,-0.405281302366564,-0.0704674524374157,-0.0499855211199191,-0.564917219221401,1.14381984644116
wQSWWmYB,-0.469282276942785,1.14506625833494,-0.592798230991996,-0.40100349329901,1.77859729204468
wdIMrXwy,2.02126935019217,-0.263937677756337,2.29774503673949,-0.637765403149366,-0.261102116151532
wiL9npQc,-0.425666625373865,-0.278337315479362,-0.953877902816374,-0.712079281464924,0.444847757109971
wnU95Cxn,2.92521801710141,-0.409748714484201,2.04138491056029,-0.270582178114996,-0.673803427203169
wpJbbjJs,-0.0460640454899105,-1.16680623764239,0.500635091150655,-0.325310685021836,-0.440048251609507
wsOWTAbI,1.35820614237715,1.26976536405969,1.3316172506844,0.584133873069707,-0.512268744718234
wtdBcU3U,-0.457927231366489,-0.200991040505138,-0.0973315738158933,-0.688485820227825,0.555640020786961
wuKXVxOc,-0.519618299256865,-0.449658793081641,-1.16411633247224,-0.338282133672506,1.0144374355481
wyzadAt8,-0.459782426650464,-0.288775679944284,-1.01736599696039,-0.599050506021341,0.954055982297681
wzaKzYwi,0.206594381519878,0.51177797143306,1.82470674639586,-0.830278953243543,0.45166768041923
x6GCk4EV,-0.365426216312756,-0.244637595651983,-0.160027903676223,-0.462327500059681,0.691372292783818
x6lUi3vf,0.108143152087955,0.103195397494159,0.528442117158439,0.611055181006135,-1.21670218735948
x8mwDHv9,-0.337647714630244,-0.123119783121121,-0.319942086015266,-0.322374751953854,0.265924977579961
xIYm6puH,0.417786805205691,-0.454322368113397,-0.0466419225368286,1.37640319454618,-1.07211078923709
xO6UdpsK,0.331600896176917,-0.478767303357197,0.214508479368223,0.767411980192985,-1.19862619617597
xQ2bkOvj,-0.567413706999022,-0.705553922138055,-0.830365777906333,0.00859122384463066,-0.91747498565911
xeXyDCEQ,2.56916968492712,0.186948941034514,1.80053658136405,0.511248225752332,-1.1561791872764
xrggHziO,-0.0774474459771129,-0.492630337470762,0.0691357510533493,-0.400657065441345,0.522954617087858
y1WMCmqQ,-0.154758113195312,-0.272021719391022,-0.56138337030194,-0.439390376548892,0.186189366377822
yDngezhM,-0.361459638920998,-0.284714143709045,-0.245603172484029,-0.833826743562253,-0.0230743978520581
yLiFjMD0,-0.412973044150514,1.17102210049456,-0.488813208105927,-0.708658139571793,1.16593293967092
ySwEBO7w,-0.447031247389516,-0.197333260053297,-0.233569318706186,-0.0827477739884021,-0.818921681117783
ydC9UsSm,-0.466987943308632,-0.332768546435085,-0.958743493416947,0.936179857647587,-0.0545778090126598
ydEG4VBd,-0.530410871149791,-0.240951750245274,-1.04663941557737,-0.243726277403068,1.599355857819
yf76yWXc,-0.0285564596964895,0.105487248626114,0.679135209899739,-0.635564757540559,-0.019522148322058
yg70e63n,-0.381934930671862,-0.103638086328111,-0.706650069392734,-0.375233680013663,0.351841237882712
ywxtlSKv,-0.386887047948676,-0.559982995328716,-0.679551580949092,-0.402370353126861,-0.424166819397311
yzKPQPOR,-0.611713710388992,-0.93160045032767,-0.40988626257783,-0.156594271908446,-0.780290259448513
z5cnOnZ1,-0.435345344947187,-0.427451594177986,-0.410447763788109,-0.417089774195096,-0.575898119522062
zFLkOE0e,0.18642907421917,-0.43128433643108,0.440964822965834,0.484478184369082,-0.91544105072425
zGi72mxL,-0.311471921296798,-0.112850177597372,-0.356207921764899,-0.283800243937209,-0.984840841556117
zN925UV3,-0.49640642030978,-0.627646390068612,-1.19916079034882,0.50408713360197,-0.500559299946765
zTy2ih7e,-0.430646081666373,0.752788662250506,-1.42842214699406,-0.566755736669813,1.09834880911286
zVFzAutw,-0.382962582246247,-0.0581729637312983,-0.575559354793396,-0.158508010402512,0.708303574949773
zYxNAkht,-0.484129373979424,-0.395027003210895,-1.13152156583583,-0.690037401037382,0.981274783005691
zaWDBai3,-0.503508072581231,0.0810657040509074,-0.76599072885042,-0.00555198417551975,1.33801422684136
zg3u0Zsx,-0.327125683894954,-0.194400128039527,-0.539070189301047,-0.165268705380224,-0.0161274627130482
zlwLfdsS,-0.577469399378943,-0.00666472191063496,-0.479781311798328,1.33581263677955,-0.937333930199799
zmbKzVfl,-0.618901038311356,-0.706639040193851,-1.21533202998937,0.103105291645804,0.224505350095467
