PIDN,Ca,P,pH,SOC,Sand
09gt9UK5,-0.518453017964877,0.130469164636919,-1.10317239470979,-0.641233574595009,1.83268755517094
0BVvxJ6a,0.8325562881207,-0.190259953169625,0.425877225095016,-0.205594609625743,-1.16280196493981
0KbdgApg,-0.28247619545307,-0.320531766757074,-0.344111293739215,0.235970698588665,-0.671490100849316
0MnuuduB,-0.191626172643557,0.587164326008695,-0.0415081872077656,0.423581443938749,-0.897213838057308
0PcIsF9z,-0.555093087217399,0.0380948298033055,-1.09734031305298,0.388198175888305,0.217794680971827
0ShTFLYJ,-0.358765716104964,-0.273353184087893,-0.995254598107743,-0.873531219589526,0.535206074914663
0XZh9jka,-0.409560992019462,0.470496723504411,-0.738749005628494,0.202044516367089,-0.384450754527179
0Y7Wegri,-0.302733129243202,0.37828489287636,0.421575732111067,-0.0917902339385803,0.527437363457129
0dTqplIM,0.239075141046229,0.177555506432851,0.477946242630327,0.296761722649681,-1.13911589012349
0lNiZicC,-0.395993948515182,-0.542465186907531,-2.13839230031312,-0.921644460069065,0.0951811114684072
0rGeJ0QN,-0.458379297470512,0.119305158720502,-1.05855288703147,0.279138347177516,-0.0382637801496908
0sXI9ytQ,-0.426694782248702,-0.0344175446514875,0.349286569241052,-0.836574499763385,1.37835339511316
0ukt4aP6,0.465514599380829,0.683500712163217,1.60066892660179,-0.752039262567863,0.366872306950744
1AGspb8f,-0.432877011356306,-0.0396134994500816,-0.97978355433233,-0.039097312507065,-1.17930278938917
1Csy0gvE,-0.454688699292477,-0.0427715424766299,0.244014137118947,-0.684370900699646,0.873241550409168
1Ic2hly1,-0.389118468712171,0.206818617814048,-0.0376597173453364,-0.274773466604551,0.43704757358843
1PPbaTwt,-0.346543912419708,0.202151503566669,-0.699243752549221,-0.700884545555038,1.83519415382818
1SO5VJNy,-0.415552401390523,-0.137199888915799,-0.266470496386205,-0.41151059436572,0.539570721394807
1arHxK3Y,0.411925982874689,0.533029195048079,1.68387490648616,0.695778577327044,-0.610655158710501
1fCW4Bba,-0.348855423360029,-0.275187496084269,0.0436081032264357,-0.299875466892914,1.04964020706062
1qDZNvIm,-0.414860223912113,-0.163266241484239,0.242397989722688,-0.701544573602953,0.871484028744442
28LYJC2V,-0.471877475084207,-0.249916751878265,-1.15284667099204,0.278550056424272,-0.933617148806179
2CzACvQq,0.42716601424124,1.61491588431799,2.26919226965731,0.0266319401626047,-0.240729924038728
2FT3crfv,-0.252208162642326,-0.33059789420049,0.256213789920726,0.106187370422701,-0.535367850534999
2Fy2uHVg,-0.415212319278573,-0.0778370330726832,-0.407292558178659,-0.313118891516533,-0.337147037966344
2MkMEApm,-0.269338829141468,0.0269399826210192,-0.559304309575162,-0.699460086461872,1.64097848269112
2NDGWEOe,1.01089584484681,2.32243089150689,1.8661888631892,-0.665969730692604,-0.511073244311092
2NyyCiqn,-0.42187248162908,-0.115294923997095,-0.16796413039024,-0.414807975556599,0.650050496954444
2QRzIb84,0.415283757475642,1.81069214091543,2.45258582136615,-0.483147447056694,0.374741658993286
2QcbdrUZ,-0.301214083311909,-0.398439102287907,0.11177104523119,0.481895956720121,0.720995825992715
2YgAimWK,-0.391656157372367,1.39500020277776,0.40952384795536,-0.546845235461264,1.50907763382264
2cx85d9H,0.0119684266152613,-0.290078709022051,-0.283375104914447,0.240584241541736,-1.10177589337851
2homMXMV,-0.520802689036048,-0.0846036416107089,-1.18609248433687,-0.0304760287892908,0.362752477438182
2ldLrUtq,-0.421021513612961,-0.483217141298258,-0.172082330891022,-0.0115735795159396,-0.228252859318385
2nsACW6G,-0.461975918146225,-0.6618992320458,-0.701036411582936,1.89576753915795,-1.3408463115158
2yMbVnWc,-0.177382778227284,0.194103419011685,-1.23770003951824,3.4499042314102,0.373731701455222
36r8sgGQ,-0.438027285242012,-0.169980455990241,0.184395211753144,-0.666283318635676,0.644876242834758
3NXAXCl3,-0.551780273721571,-0.373196774208542,-0.925219955141143,0.483172835670865,-0.715618745336337
3QG0z6fl,-0.488059211603997,-0.405909237682613,-1.27826502206551,-0.589300158863279,1.76892702412027
3WS8R9qm,-0.545480259078536,0.86831528465283,-0.530798648436198,3.02807302940604,-0.593357040222269
3fRLm8f5,-0.339539983158962,-0.0374267413003838,-0.436907643719675,-0.153464310342261,-0.00935144556018516
3mZhp1nQ,-0.527761177010449,-0.345555834484243,-0.398249041071686,-0.651294214494479,0.917981606080132
3pikJXRL,-0.467520737389463,-0.0658735536463825,-1.03476809461742,0.367707722720437,-0.788630663258904
3pxOEGHL,-0.400997304231909,-0.164405510883029,-0.596363491155968,-0.477474205260977,0.551298254840965
3ttdV3f5,-0.388433907536217,0.0954156556754384,-0.284055992045766,-0.211950162064918,-0.559055074334957
3v4X6Mfe,1.46562376650202,0.994270660608609,1.90326736587951,-0.696349958180001,0.18363732895259
3wORuPiv,-0.422215484958861,-0.289725233925862,-0.59225333372457,-0.188446239705424,-0.987650101216945
43EfrxZj,0.00265529094777827,0.222356288979433,-0.0615875600976695,0.203167478954058,-0.339171693074463
457Vwm21,-0.0316519203346311,0.435822255591939,0.0790500392523767,0.35341144919434,-0.349299854697665
46KNnOdx,-0.532849168106553,0.1556228987448,-1.26779507307552,-0.21686746484111,-0.162879976843774
47TwNsVC,-0.473940946004669,-0.461695464404194,-0.787149219044175,0.758289292527081,-1.04106848892809
49856RpO,-0.375020494316991,-0.679483936541032,-0.557155374476149,-0.338432914171257,-0.78809847670515
4Ane1o2N,-0.390852087272367,-0.242134289855982,-0.330662304323478,-0.454775933538703,0.383034451026892
4AyVUgSc,-0.484443204382231,-0.340139951948899,-1.07788026207453,-0.746877565579431,-0.299760769364627
4B1951On,-0.120660489151173,0.0490376606472864,-0.174435053155889,-0.127601223009912,1.17349454905813
4OL39Teo,-0.0428218789652966,0.443053681404579,0.0234399663871153,0.488832609759126,-0.265560235090555
4eQ90eLY,-0.109301185723524,0.447322947390602,-0.127885262511212,0.108148618688229,-0.0465545016413132
4o5jwMj8,-0.385536016155142,-0.233135109593836,-0.695931568142041,-0.556870167958933,-0.0802914610560893
4vPgpl2c,-0.40548250977015,0.0765745132215721,0.305484449287263,-0.546580293142814,0.614873187617622
51r9aA0d,-0.350848632402021,-0.380479139224258,-0.331820495165121,-0.632367911573424,-0.113997874886646
58SmeRoP,-0.128117299482877,0.0333069643237183,-0.0945436585894703,-0.132762637424645,-0.803883825713826
5HJp1AXn,-0.422984222199662,0.357940387678879,-0.935732354566213,0.85931519207772,-0.0784682569323731
5MBZW7fx,0.32501292115852,-0.644388259981945,0.54850417337231,-0.210995202532115,-0.176468319508237
5Nq3gHaP,0.076897576212597,0.13876418743427,-0.0501552750299112,0.733086013290283,0.0707615340989987
5RmwFFK3,0.41747508632529,-0.263823375840263,-0.165518282078063,0.391648172259316,-1.80332287114505
5Tu5Jbov,-0.438410732807485,-0.255627613242312,-0.209693258931283,-0.155493858628701,-0.592859717561539
5YEolkev,-0.324397117364012,-0.427362302060509,-0.017676738380444,-0.140912742450144,-0.381217220504045
5a8sf6QV,-0.158078681430473,-0.51677387717276,-0.00311800872111239,-0.212821731805741,-0.718397539366519
5eSvmqYm,-0.296173673507141,0.0396328321686673,0.0353647349769596,-0.481083850036311,-0.270390989518644
5hkN8fiv,-0.367374114687794,-0.00638219190480099,-1.04762103469314,0.630551064443606,-0.577239997618639
5oK8Gti5,-0.455136861574103,-0.00911168354888969,-0.697334380534175,-0.46442003111821,2.0194354566262
5paniGaU,-0.440322724260422,-0.0308161968366683,-0.694346384887332,-0.770038303205931,1.1310395126461
5vsr7ZUP,0.399770110144687,-0.0327205699362667,1.12412706984467,-0.436933568924241,-1.12482870520331
60B4xMWI,-0.291855669318791,0.287890498672984,0.939252737087602,-0.680275534305286,0.417994844962345
64jOUtKy,0.172088895799892,0.287035881193315,-0.226195197431757,1.60185881565092,-0.704249293592358
6AJo4xNG,-0.396562827636846,0.212072952614991,-0.574169076071519,-0.0253734437972425,0.461864050909249
6CAvhEte,-0.433825695349723,-0.572527158351526,-0.976167172807953,-0.451058539126373,1.85826390207481
6CuGYjT5,2.30836733839756,0.0667465840694415,1.89730397141499,0.206431243559108,-0.999146765184901
6DGH8ujZ,-0.41369528131336,0.221407839611147,-1.09485050340793,0.170029162473631,-0.433471446081873
6PzsGdVm,-0.293092128308607,0.147147420754835,-0.159727686139011,0.313624278435807,-0.231888135832401
6UcSJMbq,-0.213559811512523,0.40417663151584,0.931098976274206,-0.675040656056786,-0.0742716151943007
6WJbkH8U,1.06810701564121,-0.800640075289159,1.90582188780209,-0.186868293579784,-0.671225887967935
6eUWsVzw,0.325098535686802,-1.08564934465504,1.57548017956886,-0.0917390211708816,-1.56303148890771
6gNyO7Do,-0.0469824176883903,-0.304826575230913,-0.148210127009864,0.596323369576887,-1.13251577558355
6jT0AyHe,0.0251402364627459,-0.139057808144032,0.757248287987155,0.240601932831054,-0.888592889041955
6nBgCvWu,-0.484186248628156,-0.161576496555616,-0.185826005621028,-0.56130509220134,0.95761727789389
6ro5mqg6,-0.425368957752718,-0.108193344461269,-0.462475839947884,-0.320233739535551,0.618845409032757
6sGqObX4,-0.422553567293427,-0.560705349571657,-0.286424325971586,-0.518117010282713,-0.920199029848257
6uEGy0n4,2.15708300363804,-0.0516683742270397,1.93804002722778,-0.577811204406104,-0.704102767764325
7BZ4LxP8,0.021878803484562,-0.235564401800578,0.152771875701889,-0.491570517913553,-0.317130129009167
7CmigXKi,-0.276028263520035,-0.264471868384045,-1.20492568203473,-0.719173948623022,1.34644210580807
7Ga0LpfR,0.104960729963705,1.21505684142731,-0.518766552223845,3.66759369997123,-0.975265897357554
7PQsFvsG,-0.411570117898707,-0.368311293781841,-1.30386046198326,0.80543371604602,-0.444788686015865
7aF7nnwn,-0.494851351742231,-0.326956256014803,-1.05551374737233,-0.817201644348324,0.798366992893755
7asGzfX9,-0.164664446206065,-0.230978173798762,-0.30652200816658,-0.386102084228543,0.202749801759395
7cg7C92o,-0.0133805619236856,-0.493771357636532,0.242810583426436,1.27431709051324,-0.273857307531791
7eOxTpsB,-0.313868808651616,-0.0969685000136711,1.01804058283087,-0.649930262177044,0.566135189828924
7ey0v7ma,-0.513069308929179,-0.543927766100924,-0.626766535060233,0.0157659121399416,-1.27499843107442
7gocyrYl,-0.269249270711198,0.436194151176733,-0.392170805801351,0.122289200182238,-0.280824605028486
7gqR3GoA,-0.448889034523866,-0.263526612517585,-0.878986057278725,-0.516442199964094,-0.385882425965415
7og7aUXB,-0.00828365595867853,0.387842253967719,0.336662398066159,0.271475589810109,0.0813666348087183
7onRfa8F,-0.0325237715323933,0.166357766210119,1.59194400180628,-0.477278895428024,1.16316449264947
7umkNuxM,-0.20735712719779,0.0684830575308009,0.395829187445715,0.317321106525188,-0.341056659972552
7vPr9ExD,-0.171588823918629,-0.382723563459513,-0.127227587905762,-0.249250193880112,-0.573007834061439
7zNjpCzu,-0.362085685341716,-0.125945670244521,-0.348362858046135,-0.250543039106013,-0.795590278321862
7ztsQNj3,-0.344370873209196,0.129414184067639,-0.221741461007293,-0.0813199733767654,-0.702138466477036
86gppwMI,-0.528288980492058,0.18500061272025,-1.07891831196772,-0.350381973314418,0.792267850347124
88thAGdL,-0.360108582170112,-0.238571008901732,-0.0569331283447688,-0.390681797564234,0.263739704229122
8GhU8STP,0.518895649221492,0.63350748623857,1.68392239519264,0.284116132307743,-0.845360394434328
8NlzDcWe,-0.521241198209733,-0.436757265762357,-0.818031056708278,-0.771990622338955,-0.242937481205783
8QAejdLW,-0.245480965382306,-0.27246836499767,0.0682884602271552,0.0739756444166172,-0.802506609352754
8RDeFxWM,-0.409762772546677,-0.115333425847162,0.686448912148475,-0.596431420284815,1.10875368179298
8UXP2NBS,-0.131600911688376,-0.152914940906954,-0.411773490818373,-0.123616349547527,0.160905982354328
8ZoV3KGT,-0.400676799716322,-0.806606506123816,0.062351558138961,-0.356195088812607,-0.317276024282335
8ajs2uG8,-0.308690192964182,-0.667030145746705,-0.496063453839267,-0.250068473326825,-0.855497568114781
8bXnz62p,-0.0363652221720734,-0.0607201735140268,0.211512729469274,0.34171311016736,0.0218615171990213
8nO1O1LG,1.34485744890074,0.0282185231478959,1.78328959529703,0.887801615547549,-0.997976223437245
8xE1p8g8,-0.432594378191069,-0.526959045142417,-0.458244873770641,-0.423447262300017,-0.194697461973282
8yMDVMRM,-0.329023415694601,-0.545866137364297,-0.959636445678506,-0.440103173942791,-0.654209758816008
98R5VaPi,0.915125543650398,1.7315052141876,2.57948444692564,-0.585426622139898,0.506131357816621
9DcTz2Ua,2.39465098616611,0.229449163258109,2.11346462682985,0.122865800086204,-0.820198251028787
9G7nfUrK,-0.336760854724904,1.94308506756153,-0.262914830909276,-0.550864600295945,0.57967356623769
9O6GZ1HT,-0.055037595969889,0.274960425767864,0.603463438845719,-0.874473668951595,-0.32376285729724
9S7fCoAM,-0.311190069116317,-0.392715675861961,0.258224941168308,0.0242246635193221,0.899449442371977
9iQwmFJR,-0.253387357066343,-0.121825005355867,-0.400625418535559,-0.607456501293009,0.877755587878406
A3Mt6SAQ,1.43094370798311,0.370384021884013,1.90310750377932,-0.710552935319203,0.683922011078905
AJIsQIcV,-0.400879097125401,-0.709325975846597,-1.05057338724755,-0.586713936027616,1.66747396465476
AMHKXMh8,1.8183808953486,1.35201833866338,1.91867824670647,-0.0953163406034866,-0.543380517900697
ASwA2J4E,-0.386767224822659,-0.141461928584432,-0.165037884072431,-0.35615334366341,0.541326025973595
AaFvEoHq,-0.0455468635247544,0.00719339872639637,0.414490011778617,-0.545901408885867,0.555036653482884
AiIPD6hX,-0.27876739327251,0.0576263941390887,-0.71879873433727,0.477191916787446,0.173197801223157
AsIURvJS,-0.238338899343878,0.102783918183035,-0.106326512837593,0.647824601817711,-0.742787632515257
AsvgbJ0C,-0.233628477633876,0.142295203117543,-0.437014369716204,0.370220719987599,-0.0302011258273232
AxEhbkCM,-0.383873495444528,-0.294752446182138,-0.497122297970749,-0.645954333484591,0.0856184445664631
B7VPkIpx,-0.246858670542622,-0.268811970441607,0.420347678483712,-0.835393613163521,0.211670746491442
BBwHqHiH,-0.206154263323961,-0.452175264740228,0.278936867818737,-0.0441415833704187,-0.5654982503075
BMyps8hr,-0.327494021639139,-0.313986321208151,-0.371565570050429,-0.445944926842889,-0.630493395197271
BUHS4dQw,0.138447940053419,-0.132461507765833,-0.236456169621637,3.1077591851728,-0.964297668372369
BZB3EYWQ,-0.354880304763028,0.224353522430961,0.0377029299043748,-0.426258880377822,0.686230746441137
C5UPCZcL,2.49073085465759,-1.25798162690105,2.11792742536129,0.439578691533159,-0.568103210273276
C5gIfQbJ,-0.409256306922997,-0.523432079939043,-0.866597858400207,1.42610575888737,-1.08507436947184
CDRuu4Pn,-0.389984146843425,-0.388470687364634,-0.101453703357856,-0.747924663666421,1.23792957328754
CQhTYkqE,0.956055695847868,0.823191870695906,0.379691121322447,-0.283457279436588,-1.38205242003973
CSEobMXv,-0.529697353748106,-0.0599805943494558,-0.920131803347266,0.893205381211345,-0.450606668226965
CYMQE4x0,0.173064045920024,0.469547164551964,1.16779159608535,-0.281058530462401,1.71889438931121
ChQdtl4J,-0.438907879335367,-0.203384214041325,0.150633669392825,-0.667313788355893,0.879135040905403
ChnD1nrN,-0.369349907547829,-0.626047157919084,-1.30098601203914,-0.799912634104415,-0.29840848710162
CvtbbIcq,1.35493064221599,0.0176586530140654,1.58727191228152,0.0509752470024837,-0.429696708727027
Cxk06b77,-0.0527317528397055,-0.10301029971719,0.380760235068825,0.125742766145695,-0.334313377081876
D3QD3ZEJ,-0.133674206741518,-0.0132755459621461,0.622534214772377,0.408009102494039,0.270115420138694
D8J5C6lA,0.898650475005978,0.587528912116798,0.593140089212456,0.37285060916668,-0.429154311217995
DCeQwYfT,-0.236406178443399,0.100863330393004,-0.0288563426029698,0.220044576764471,-0.899306629720366
DDEftkx3,-0.452295521756109,0.151918972503748,-0.655803648674631,-0.602754897037293,1.06341916885341
DEwCfeDW,-0.242847946946471,0.00714143921140531,-0.161863940895919,0.395533203594505,0.2155285009385
DMkIV4oL,-0.388345306958065,-0.375079821431009,-0.814841463516845,-0.620219942630513,0.503172051227742
DnzGfbxS,-0.242943521706923,-0.244453923015541,-0.0378045793995204,-0.327326503517641,-0.644391704230719
DoZxo6f6,-0.430143692432566,-0.107102518047274,0.0831430660613931,-0.495132274473342,0.604432023382672
DvhBPGIk,-0.364006570079001,0.0629563710307877,-0.180469684390712,-0.266239858763616,-0.182487627647389
Dx7GoUcT,-0.499888991527221,-0.245970994654645,-0.273751591983528,-0.806061815868088,1.16032412416171
E5hIjohO,0.574456387181529,0.555988446234211,0.278480051270358,1.24064110641591,-1.31420002722144
E6x4XGHt,-0.403233378641065,-0.44198479908664,-0.501903034226313,-0.475823569655287,1.96139686220241
EDEpAzh1,-0.293110305612248,-0.699726745404559,-0.633437650478196,-0.636236931096448,-0.811916312153003
ETGudkQt,-0.331428022791767,1.65361754234573,0.388815890308641,-0.696246506672596,1.16727237704952
EUleKrLJ,1.71587689851113,0.31338896034064,1.91739267883968,-0.205519905732541,-0.627355957284578
Ehw2Jz6s,-0.306718074230262,-0.52206721856753,-0.104884073364043,-0.5341781754643,-0.0885601314407757
EjqzC4zH,-0.275003255364074,-0.294740830253753,-0.0547231762770105,-0.766052944364816,0.197246226742522
EkMZO3Qj,-0.408956834414077,0.315456388898002,-0.217694942916609,-0.645557624180887,0.880585153209217
EnoNXWvU,-0.185348782429845,0.798780253012142,0.896544051277932,-0.755899222191453,0.0960368041361821
Epv8ANwr,-0.202653461395641,-0.142150998470767,0.190332580416977,0.341861446533578,-0.149232199867993
Etro9j0B,0.439004783896486,1.39738974407393,0.132594394996428,-0.0531565418332096,-0.272179924863358
F3MIZj76,-0.348522723840306,-0.151217420837973,-0.914007186719686,-0.258614113744075,-0.892247556189986
FB8tU00K,-0.573683317700827,-0.385296481285529,-1.40245072242618,0.242793820739158,-0.649296314096315
FLhxBGMK,-0.0704467267827901,-0.119388070497774,0.551169585452494,-0.650760328722105,-0.912102741741178
FRreR8ka,-0.462945085601521,-0.291505587821357,-0.312581877349291,-0.285388243324968,0.890338140070462
FXne4oAV,0.0979687991058851,0.636316598079806,1.68163575163943,0.101458132321816,-0.932457181065186
FaW764jk,-0.0613339560029001,-0.310851143565126,0.342292692722122,0.102809445847541,-0.203519967352135
FeAbMXly,-0.480961333267027,-0.255548072474662,-1.17702767809543,-0.697010181043345,0.640694474555089
FeudaFXn,2.1385810038615,2.042165457551,1.87764826370322,-0.530222408712377,-0.476978411493646
FldUmFeM,1.53071716108326,0.944814776835245,2.13766968621055,-0.503916038463078,0.241599112410367
Fnv5tfAm,-0.454875011962577,-0.158701514935643,-0.36404861544233,0.00854571701637967,-0.862222495162948
FvrAd3Or,-0.374898105647562,-0.0696175339773726,0.513156254432124,-0.690624259898202,0.471878160577123
G48zHffi,0.319613682398132,1.32560462004347,1.99433636515455,-0.524543706559631,0.337938353525657
G76zCv5N,-0.402978160457532,-0.337913805216861,-0.166231836028713,-0.261125818703655,-0.200122929962336
G7JGUdNf,-0.10190441011929,-0.507199779644073,0.0528143417765651,-0.165404568008271,-0.685807900755112
GCo6MONx,0.460392993931974,0.427161490126225,0.674458681399372,0.512414874943053,-0.928125681059608
GE0vbpVQ,-0.116845966718429,-0.0291969964688113,-0.216188401571232,-0.548379502205563,1.67752554141053
GN0DfOqt,-0.461368274047987,0.563881448575711,-0.266292782113924,-0.564703558266124,0.692630562613689
GNsTAb1v,-0.585509950271305,-0.568638705051383,-1.27793148932589,-0.139849741839955,-1.11765826217697
GPwmO21z,-0.246092824044591,-0.379665530571217,0.0257129657996353,0.111957988857465,-0.429170749075011
GQYpfLoh,0.467278189505506,0.284781244066403,-0.401077937094814,1.06411062905823,-1.41853580632267
GR9knT8n,-0.379581838793342,-0.349776981517092,-1.16230494192359,0.440525773892032,-0.334452068097894
GXtFFbZy,-0.00962203387297165,1.0973128963368,0.449454932245919,0.122809234396735,-0.365700718397315
GYvzvvFD,-0.740187732509529,0.514165346947644,-0.925687611820007,-0.189070909768143,0.18826114683323
GemPjTJ9,-0.617169914373782,-0.233672777070468,-1.17637033519788,-0.0944019021454904,-0.478243546073708
GkLYRm1K,3.08560789624316,0.728968916294342,1.77967107170675,-0.425484321001587,-1.06406413125716
GmlqP8eI,-0.407623269224667,-0.287971831898733,-0.798653375354076,-1.11751184373956,0.247308207516942
GqkIrOvf,-0.510162661364189,-0.184405980689135,-0.928966584668035,0.539949259862941,-1.03210788337372
H0fsegPi,-0.470074422982808,-0.382824611187944,0.0248675372305753,-0.454324683520885,0.648115588239602
H4dHpJjU,1.4832877640562,0.21673316146757,1.73466199267152,0.187249010257739,-0.808555796409745
H5QwJCuU,2.90617782209541,1.9607800435406,2.05402576896005,0.761503436651942,-0.887530353880579
H5uwmSZ0,-0.462666986990176,-0.130073524051768,-0.3323327462745,-0.720614846252928,0.939637477236937
H8MtbVoL,-0.253831322405815,-0.317373356976134,0.133179459971654,-0.472822132460172,-0.128001722176127
H9JrUYnp,-0.461847056277544,-0.0830814713569984,-0.340162193680354,-0.104676156081958,0.989538613712394
HHYmmHVk,-0.461934552018812,-0.11299452012839,-0.493495387706975,-0.814665955219188,1.41414580846955
HJ5U4uqL,-0.524640350264798,-0.378299428326139,-1.50086683906767,-0.66474511954408,-0.369042305955178
HNQxYc4w,-0.304577145198851,-0.193169449304264,-0.617114049716091,-0.53840092050447,-0.457221384757375
HQYhKHZ8,-0.40258920695873,-0.00756176144721595,-0.5983976824837,-0.523257017075717,-0.00816635806040987
HSCMx0MC,-0.414628924620413,-0.10265608720221,0.661284641785656,-0.66090496177922,0.989671563196045
HXYuE0fx,1.97449962596382,0.657048286230421,1.99634162151845,-0.281691566852973,-0.671116646220002
HdKcxEWr,0.130585626447336,1.85440059770786,0.207468185888786,0.352321294386656,0.0790144747807232
HecW1iCC,-0.332230164416113,-0.569822412863006,-0.816847178131164,-0.601559327878393,-1.02297048238887
HpbKB8rv,-0.468392898045297,0.0713230310050654,-1.30170872984695,1.63420204000323,-0.824031790759374
HrkoYjCg,-0.148619701742529,0.0395351004315773,-0.400800987850063,0.779957326842005,-0.989347752450593
I5P2uquT,-0.1955720506844,-0.226617816498431,-0.445718970359713,-0.352449505544768,0.734041810150984
I94qkDM7,-0.551279830149624,0.325608233077511,-1.33598819595096,-0.485148287541724,0.595897094001994
I9sQbtt8,-0.457300166283604,-0.693098259256246,-0.840848450916426,2.32930232988547,-0.578326156770107
IFxgw6ZX,-0.248819921507497,-0.403656459219707,-0.101472378344651,-0.428092091801606,0.0468581731970443
IPPPSyoU,-0.562452399573474,-0.61137910917128,-1.26281294908885,-0.259108373958245,-1.12386302162245
IQOYQubU,0.783624655017903,0.653270929729004,1.7389678864194,-0.335622014611454,-0.733168515318096
IYNE2SxU,-0.364674886746957,0.0641086430675971,-0.323104585056503,-0.102838226423109,-0.721029245625966
IZRFk9kN,-0.195659421846879,0.644433903446758,0.0622979836045149,-0.622819820174114,0.321623730235977
Iaq3v0t3,1.86725383031132,0.0723243756195055,1.89099986124344,-0.73075189643091,0.357096420013157
IbVwu1t6,-0.442119396579614,-0.332149981064937,-1.16845568861986,-0.244771005032539,-0.333339387219487
IcHKTLyo,-0.119410148802122,-0.646482785740995,-0.0577873363066082,0.163185662991442,-0.775368156805431
IpW80wVB,-0.372555765400234,-0.0303864235203041,-0.0241568425793687,-0.200895073101388,-0.313619241749
Itb0PYUV,0.92321074270228,1.05724844213452,1.91988007355361,0.812215461764439,-0.902287091842967
J8fpSwS0,-0.358622100685066,0.337323121539458,0.817618544612335,-0.739693155460102,0.853506727198168
JE1SlbD0,0.770049669802241,0.0879862786308264,1.1441840877281,1.86159369111357,-1.02229115933303
JEB4McNb,0.544700234342255,-0.206480851454272,1.29510165919959,0.0479315503212745,-0.741378710811622
JEE4QVeQ,-0.239309013400737,0.215756085352003,-0.254667805735377,-1.14446774161382,-0.777193730389683
JJSEU2VQ,-0.442851686115092,-0.1067983678748,-0.0444423712866245,-0.576008884977676,0.709739831270031
JSsVriP2,-0.145242497321068,0.383940083334269,0.800724889412299,-0.642324989357906,0.241766362011219
JUvQNiOK,-0.0847681914927305,-0.237884363560858,-0.0961636486377825,-0.340632256580452,0.0339698548889055
JZbrRtm2,-0.0863820062337372,0.645536169761616,1.00479907267889,-0.906534969119405,-0.140451488218628
JcE9G92B,-0.15492801220862,0.685276699868493,0.0421982530650857,0.482328247973589,-0.14374619326013
JnNYpXHr,0.361189548071312,0.274999472752133,0.108988433192825,1.46768045207688,-1.16762868814299
JzpbnOtz,-0.363414175163218,-0.00225130816905015,-0.0816475141398073,-0.568749451506899,0.704362452627957
JzzUhPQp,2.62043538841774,0.960167695569269,1.72859402813359,-0.292829532887136,-0.749260640854191
K05R8dQK,-0.254454634262956,-0.178215349847716,-0.526432587674123,-0.0796783408250418,-1.07447179095482
K17pG2mG,-0.371090100223612,-0.153684492316145,0.511421016909927,-0.643793527773868,0.208552900763471
K8BellUe,-0.00485890858556946,-0.621649066939448,0.861673227245935,-0.19099848535351,-1.48363163158527
KJ2eH6rr,-0.018525538760926,-0.846602725227963,0.303324470795676,-0.27030790472944,-1.19631192338091
KJEJ6Glk,0.535277119287696,0.287579232267141,1.20785476461352,1.54787362614845,-1.18592927104842
KSbO0oXS,0.39139199361659,1.49427926046216,-0.18780423743091,2.72400406011211,-1.20442327640299
KXtvmd01,-0.474703009139269,-0.166416499926568,-0.260173554235401,-0.483167285163109,0.449882589262566
KYiJqBuJ,0.00263184800984875,-0.254603066583912,0.973902030206797,-0.983675891771636,-0.70261308406885
KmbAyTcE,-0.199488009074214,0.0367673464007579,-0.0655907896551799,-0.295486557950436,0.29609607205445
KnNyl3rV,-0.147237209604606,-0.208629669617449,0.493567136994939,-0.428318411973721,0.704611372520815
Kp2DG8TZ,-0.179541106905399,-0.192157378060198,-0.0833888855484485,-0.381424287025913,0.545822052013958
KqQtKWs5,-0.526541906031235,-0.276982406045819,-0.797058293328206,-0.510395669054628,0.174086497731408
Ku27g63R,2.42018945637036,1.63820676030957,1.86034605532017,0.253498826984778,-0.946518226879939
L2aTVqDq,-0.377746846284767,0.142943595500967,-1.09987624041485,0.437161798227408,-0.825706352556135
L5jvq6G4,-0.524538701692253,-0.274346747619165,-1.22811394669537,-0.600024947262578,0.493209314461917
L91hYVQl,-0.475366496771546,-0.557543842545522,-0.323478933255351,-0.753571231632312,0.113408908012997
LINAMlbA,-0.655181535382909,-0.0699618476541559,-0.906096990936192,0.114285529646111,0.297423471863506
LJoUNXSx,-0.418133803984721,0.0313271438008618,-1.27760882918183,-0.0103965988506073,-0.31704241201107
LLtSiyWD,-0.342655109756058,-0.440566770759412,-0.390805806061599,-0.351015630600102,0.0995296006649542
LQJtV8kn,-0.0412105594090506,-0.675695361545885,0.763384042448557,-0.514518585676234,-0.992970837394238
LW9uddw7,-0.370691095778659,-0.26825636375667,-0.661835328187091,0.738634336242135,-1.03518223991222
LZ6sdBTR,0.657243144706884,1.13827096203307,1.395225578601,0.582917843230269,-0.832324154085403
La2Vhnne,0.136353705215039,0.673865184198152,-0.0518420603680218,2.53515786678051,-0.418905096672803
LaUWSq9B,-0.115408460261545,0.179472907546957,-0.150618379631043,-0.034565165542514,-0.849942536821019
Lk4SfkPQ,-0.417138400140029,-0.356918150640652,-0.193367509147971,-0.0490394597419635,-0.850506196065624
LllC836d,-0.194188425995217,-0.0585740290855425,0.173394924206131,0.378493487284796,0.0277883722770884
LuGiGeWN,-0.523296487185253,0.197130271041787,-1.40763820575259,-0.4358962031925,0.941156209990775
LzcyHcWa,-0.427133345934006,-0.148432498456143,-0.602752104765005,-0.636583784346238,0.813667985497755
M7veP0H4,-0.462571706851864,0.142111337128684,-0.553508681679198,-0.428753698301237,0.774518387575762
MB8aaJUc,-0.511942745142522,-0.0666369567870878,-1.33349467028683,0.104703369389319,0.242916683384703
MDpe2zuy,-0.383494084691281,0.0669872654667558,-0.224632153186298,-0.407604210479417,-0.779677821261063
MEzdmEIU,-0.245906971197429,-0.289630182524918,-0.032391528784758,-0.411166136143292,0.119248008400072
MVnhtivm,-0.309368709999781,-0.334766691384297,0.150725730476948,-0.0599913542353213,-0.184656993357222
MYU7WDis,-0.251282274092762,-0.23731174233741,0.305002258691124,-0.868582686265235,0.35725688119981
MZFqh6yw,1.93396215701298,1.66694256845991,2.26429214305148,-0.366754576818795,0.235731786480418
Mdgy4SsO,-0.084343752902277,2.54221979512785,-0.317136764096323,3.28678192517543,-1.3305718726849
Mj8awnzy,-0.341654127456864,-0.122335951352616,0.469442984653184,-0.652779246846849,0.970980941692502
MpFPbUJy,1.92259483943349,-0.306698943358608,1.83067645576753,0.896279712345829,-0.670267474056233
Mqk7MFBM,-0.11327436593026,0.54758978448247,-0.0962290354013793,-0.701552929285861,1.60637782929639
Mqs2t1Eo,-0.414951878045788,-0.472552598191243,-0.919371212262876,0.0410288097465882,-0.792545417015973
Mv3jFVxp,-0.209232376478316,-0.263374435107917,0.350571676307782,-0.224944364127029,0.588601663611462
MxODTXvA,-0.0673045555165904,0.321322131253133,0.509089512992369,-0.399079952510653,-0.951580753156094
N46PbpPM,-0.424096263090792,-0.0888785661045651,0.26935833442781,-0.631337733568729,1.41680510167796
N5S5F9Gk,-0.737283748275492,0.0345409405663481,-1.80115750531616,0.0822550560846061,0.699585923054459
NLDg5fqw,0.411863410008797,0.281980301452095,0.462291647035456,-0.0809173933647257,0.716679952392692
NOho2ZiM,2.34579467663628,0.793056461048205,1.78132983920595,-0.145529277479289,-0.868073861781107
NUuY7PFU,1.50332824025583,0.532376703895125,1.77586980880304,0.625542675551255,-1.14972189660305
NV1e8AEO,-0.353670594416413,0.0955064029686786,0.596323334667499,-0.453521103970351,1.00461070688183
NZLXROKC,0.186128188673624,0.0920499894801267,-0.455137025490643,0.371924040229926,-1.14200089800057
NaJo7C6o,0.613083849158149,0.162823513988928,1.70856182499966,0.331300653455686,0.0531650675387994
NgsyGkrO,0.130078038120936,-0.0522512544902116,0.924610304513652,0.814144580889272,-1.22559524935882
NjOx4Zpo,-0.237520434361239,-0.469445003228778,-1.21130713478633,0.868875351597193,-1.44442468707429
NmQoI7x0,2.89747788577919,0.0748357352055914,2.03485463726345,-0.537283846025995,-0.211366523322456
No4wkdLS,-0.416010205740221,-0.162477236494132,-1.72278672610271,-0.756546338096226,-0.0791215106399252
NouMwhOf,-0.0824338799999679,-0.0378683140134908,0.29989627068642,0.137447322796402,-0.560711401942353
O6YAWd8C,-0.158489088776258,-0.146690895976363,0.211659326092865,-0.215793376672264,-1.10912439988419
OAXVphSh,2.16003176480454,-0.709927172175123,1.89565717452597,-0.128984408886299,-0.0459222926947358
OJBBhb6Q,-0.482551089266899,-0.432400374688562,-0.870018594878313,-0.831841207363097,1.12240516700497
OSIQXImL,0.405593955647475,1.04568814445339,0.357145351386648,0.351621666260953,-1.25530259994761
OUUFc5Zz,-0.439460594696472,-0.24294184221514,0.231723846682048,-0.692594288347844,0.984551609022339
OVk1lquT,0.231791037900669,-0.143684180792049,0.677265504492309,1.98174904987406,-0.220217683820114
OXdRxjzz,-0.341538441332988,-0.197709014490527,-0.518608779794749,-0.0611345442823748,-0.573228147606769
OXxW2ekf,-0.287632753989972,-0.0516964134071477,-0.293740728377887,-0.327166212338019,-0.192798603129356
OXz5OpqR,0.0266490823841795,-0.107781817991303,0.723470729819921,-0.0777782129955438,-0.197393323429962
OcBFW1AX,-0.695262690947744,0.738934140727605,-1.17904187630326,0.362767337258576,0.520929277130049
Of9V2rpt,-0.173151652943852,0.356182908383277,-0.287820211617311,0.237202411125716,-0.702466870125451
OfLxPhbG,-0.161822087751639,0.188457888747431,-0.1328960881049,0.0776641614409589,1.58869265637675
Ojx2vi48,-0.39673709728945,-0.343610802575345,-1.08301719935342,-0.668901652174682,0.310078128965316
P3M32iuT,-0.374260786488123,-0.319328826522799,-0.584772959819376,-0.848355553043252,0.166007109782981
P7olVzrO,-0.401920926178104,-0.200101854350722,-0.0961806096467347,-0.115842297809872,0.19444340582646
PAPHErnv,-0.480133151505128,-0.0712951002135332,-1.2369616989045,-0.0197005708460937,-0.401416099561144
PBjEtfXb,-0.365713691341105,-0.0721161776924212,-0.39023422379341,-0.445344477070636,0.352184506024312
PZGpoBBj,2.33536583579708,0.0725082301735594,1.90107578241091,-0.603553369137874,-0.74046219529196
Pc2RrxXS,-0.3816315181636,-0.235238325923582,-0.0780373667141832,-0.370277725557946,-0.287185476217098
PcHQ4FOu,-0.44517481833845,0.124833197040201,-0.902684496081776,-0.242751275160377,0.065420107718749
PeNyTOVN,-0.24801407866907,2.66390180743,-0.439713670020493,-0.186022989801658,0.549435852400767
PhUPSU53,-0.392940434576112,-0.33888216857648,-0.480207376319935,-0.27687998846141,-0.523558594452286
PmUNeV2O,-0.394995170487225,-0.516735668176966,-2.11796459105477,-0.756374062011559,0.404020382732662
PoDJ0uvK,2.55572771983442,1.55528729186073,2.08274022488131,0.111498504539675,-0.866054657537177
PsUJdJdg,-0.14995767687212,0.156440708384396,-0.290177001390588,0.409922782556276,0.414389751557045
Q3xLFx1f,-0.3014853044411,-0.53365196646392,-0.391206285637388,0.00737656952332371,-0.833425400347499
QBGxCvdM,-0.151669369473711,-0.757139398684153,-0.107633209660734,-0.665498261268662,-0.620135451698349
QCEPyu6L,-0.602878699261252,-0.70242651022053,-1.33417126549384,-0.00012420742509262,-1.07795556906357
QEfwec4s,2.71552964001921,0.744086709181469,1.93941313415851,1.26681387011189,-0.92308078716608
QZ87Nnr3,-0.518422199556187,-0.134880613650239,-0.613528755146941,-0.70102772778505,1.10904690851723
QlyGN9jv,-0.483655055760674,0.0202467048155302,-0.947289794059563,-0.462249572229597,0.0122151090117816
QqgWE1ny,-0.379038270370645,-0.0138306334247525,-0.55904482808729,0.43061428947287,-0.551936182639008
QrjjBpZd,-0.442826420508363,-0.170123207828875,-0.840549843724487,1.20817670229862,-0.558738874310733
QsaBiX7V,-0.407852559517519,0.290332313202257,-0.148122502399339,-0.0581750993074715,-0.196480991332219
QtBKJuZk,-0.291272297334387,-0.111018515546863,-0.144194921221594,-0.516312545408589,1.42170565725902
QtPRO8OJ,-0.376701124099482,-0.201126490299407,-0.732912591780282,-0.578001947145993,0.617318355399258
R8XcsFnp,-0.386733490123746,0.571422667929815,-0.381460188318236,-0.400122565276846,1.21503251858069
RROfRt9z,0.0320425012639499,0.154835916484096,0.190606472895976,0.156871358115533,-0.883875846162317
RTcbiDGq,-0.361370468823028,-0.339160808281117,-0.57496269342959,-0.0371724321546656,-0.288300922067423
RVidM9g0,-0.244743102010167,0.543028177862324,1.84886236094774,-0.656434110722683,0.672028210539566
RZnQSH19,-0.444418706138915,0.271786993966094,-0.771864849319373,-0.387261908951169,1.13753557949148
Rc4UK7fT,-0.687330488443139,0.382788442341853,-1.27149358526972,-0.224539906924002,0.745577115648875
RcKBKh6B,-0.398844091131017,0.00958552817655364,-0.0954954757707196,-0.290981112627225,0.851140793923681
ReM5kDa5,-0.134589632609999,-0.461167121255416,-0.134564861527883,0.0474534179802913,-0.774689427932624
RfntsotG,-0.447289593211667,0.020902883311732,-0.096651614156358,-0.769267578165945,0.759035893743478
RiXMlzXD,-0.333765613054028,-0.34317934591164,-0.0972290883479938,-0.254024118537361,-0.416561291152097
Rik83O3m,-0.415816504425736,0.25422751641517,-0.184429028893056,-0.265047456488514,-0.266198482409276
S3PCzDzO,-0.130960719077815,-0.576765436067292,0.241387754232012,-0.669620485017557,-0.351806351566589
S77BviOJ,-0.503152074915818,0.413916434206168,-0.655737291646046,-0.233861857600539,0.546033263210473
SDdvtktF,-0.341641994887567,-0.611283830192615,-0.368789379413389,-0.207734040816288,-0.692005499662862
SHs1AyfM,-0.310451971523913,0.0785810193139036,-0.152967041763287,-0.249520711885884,1.48290009826639
SO4zQy9k,-0.34488468025467,-0.128487906025421,-0.407238157604925,-0.488193412930927,0.561090137548259
SOOBCoiG,-0.376035623032754,-0.076167280456657,-0.275764407371493,0.123606253162198,1.2143384416746
SXkkPB7A,0.0269468516074277,0.285571399639878,0.870042173772844,-0.272101079566077,0.807228738423573
Sa93dGqq,-0.480246219571386,0.532648005741767,-1.39783668791787,0.515090028419295,0.572034846159827
SonIG72a,-0.515769092686641,0.239016497920344,-0.647025892836737,-0.355939745086749,0.116571368507626
Suf6hIBc,-0.40095940190768,-0.131538754619802,-0.395838231847566,-0.536584280482907,0.650966393381488
Sx2JeSRz,-0.15962728808272,0.240170372622185,-0.111760767545324,0.345592574391564,-0.230542759354503
T1Tlftr4,-0.0858366144760374,0.10324572263013,0.682450620435274,-0.626055564408963,0.577554993054374
T7ulR4ci,-0.419867855135945,-0.0199872167206459,-0.0372248564123189,-0.796928665653802,1.495813836614
TA1NB3Br,-0.39559399826823,-0.0732534864352227,0.00226434499796396,-0.44149719383558,0.419565824716854
TFZUskaK,-0.00199901869172614,-0.68851886392387,-0.0430940504013562,-0.00193047540911488,-1.36493638730692
TNL8HGWZ,-0.176102199519018,-0.664104946394114,0.0450936960237513,-0.201321165181325,-0.744802004855572
TZ8z1GSF,-0.310711686780418,-0.338504754821741,-0.142564760786065,-0.434050199098064,0.0862602560701763
TqhRvkJJ,2.61565628584925,-0.638788054671275,2.10946598041955,-0.70491794016551,-0.0266408595113723
TtJCUiY4,-0.024638538843665,0.445736192167379,0.417355619233947,-0.565409556852534,1.31056845926487
TwDq0lua,0.683593964187557,-0.137349125193017,0.646109351435609,-0.147602102391761,-1.10086389173613
Tzyf02sI,-0.541558812718623,-0.301414994472229,0.0965678594656404,-0.398656959050922,0.967741844646789
U3yI6ZS5,2.40228492672794,0.82598652078096,1.88734558960746,1.05006995423005,-0.909633039805793
UBLnXZAN,-0.429861984592944,-0.718387302768918,-1.26176165341196,2.48770030988967,-0.373270054729704
UBWDzleg,-0.395728921669242,-0.55624888429222,-1.12998594961093,-0.00656517796943864,-1.03793649899389
UBqkX6SY,1.61974831259437,1.12986735009634,1.89992605545671,-0.208391516779162,-0.613122496034289
UCIAi1Aj,-0.397629095096086,-1.14592057598628,-1.37108905839418,-0.464869857798502,-0.206152394417317
UPbXGvCS,0.00839061851868244,-0.64106391575648,0.00647482297111696,-0.354910735594595,-0.869365864726043
UeWm1l9F,-0.311183376961018,0.131728908197752,-0.770807354789787,1.23973081003148,-0.439501436275724
UhucscY7,-0.192970537747926,-0.382650392087607,-0.368513710833547,-0.739682198789239,-0.769734236502838
Uri1SvHV,-0.143513926805555,-0.622197619765154,0.010433977201969,-0.672464863750856,-1.04780211035714
UzxipGJS,-0.468148121513804,0.208249016614671,-0.201387915060988,-0.418495821989287,0.407605520079079
V74zfaAQ,-0.249799871648939,-0.410569515408153,-0.193632645980253,-0.103237375231888,-0.839785520826089
VBPxBLTh,1.61108844501667,1.01494155223893,1.89864674218797,0.541219677169881,-1.0159979885447
VLG7CXYS,-0.30164012396491,0.924299588192053,-0.0801903678169354,-0.246078975922961,0.818989241531097
VNk52SpF,-0.375863821231438,-0.792884880917165,-0.828432021034924,2.974807061213,-1.11464780528213
VOREKsok,-0.509570147522477,0.11671004150014,-0.249002824185492,-0.767042865149243,1.31997000052318
VRhTr5pX,-0.367247168541521,-0.114592636876198,-0.118098584517221,-0.544476000916593,0.339027333855356
VTcG4Kcw,0.0141020187148976,1.10370604510933,0.708317955030978,-0.319328644213803,0.552758419264699
VeKiWSbS,-0.355619343051818,-0.0910202192453917,-0.00359453748403549,-0.386833824345719,0.478734899872821
VnU8nJHU,-0.353276030963016,0.460279864525893,0.0882594508415498,-0.297978222779988,-0.1342462047981
VueNCxYv,-0.415060156205369,0.458360269005031,-0.674180619487385,-0.39050858859765,0.340272543404835
VxuQTRUl,-0.418631886074064,0.27683347334198,-0.0697587015316364,-0.249066423459938,-0.893328796811858
W5lgaocA,1.62515596273407,1.512284967007,2.36019252852593,-0.210598638476589,0.455568311876778
W5mMq9Ef,-0.374107567075064,-0.282613758739458,-1.04209041572488,0.440493182375086,-0.0640115861369194
WDhNqFpS,0.109482203856986,0.585602514881906,-0.366538139044078,1.30047935109332,-1.38005075608558
WE6n1kZi,-0.446765032417069,0.255315033150817,-1.40744878053536,0.212247607402758,-0.292135151408378
WFk6r3vA,-0.439956938622642,0.21779174214287,-0.36697166293783,-0.231179999729704,-0.231812993996728
WFyIrsUR,-0.497007280444894,-0.762831017623324,-0.329360343324966,0.50324928930672,-0.801493821086613
WG6ZAsqR,-0.457540420579945,-0.210686332624178,-0.2542377944299,-0.668636681302207,1.1803066105913
WMq3CZQk,-0.215465955073519,-0.645379147702233,-1.08105046483989,0.114127632816911,-1.5442212954264
WRskmGjh,-0.454699922221705,-0.0719567795003033,-0.423539701671618,-0.493486773905793,-0.630060446090425
WXijSglj,-0.434305043315407,-0.613128711215805,-0.81324251188002,-0.301737105017038,-0.561930708855788
Wc0stQgu,-0.377527530146587,0.189052287741752,-0.638419857481696,0.134088073516239,-0.812845755018335
WewoSCUB,-0.545379334224781,-0.286740898203375,-1.38417749999053,-0.82253765834839,0.499215932858528
WuHuhHWJ,-0.333772531658534,0.00979803593396708,1.30212820119015,-0.655819107586962,1.07953962956157
Wv7EBtZb,1.01802873837941,0.0185849792717504,1.72427589727745,-0.192774301008174,-0.679911544843933
WyPlxDn0,-0.400608138732679,0.106380831722084,-0.227831228348852,-0.556654773539952,0.536236147253222
X3WqoSNN,2.55078226014981,-0.61022532179162,1.72906578681467,1.11348161155674,-0.845842521892316
XDhyP9KB,-0.410594432345147,-0.0683892479132238,-0.309524263922967,-0.0757348413167243,-0.766544952180065
XQxhDRMG,-0.602469716238516,-0.133156666442001,-1.3007839916577,-0.267901464056113,0.651256334796903
XjLNAwxW,-0.148737888589211,-0.272252386881448,0.114548820637493,-0.157154164197715,-1.32041141306615
XjfVQbXd,0.711199454005608,2.05295351882309,1.70244169735493,-0.32820044048121,-0.607215908630424
Xovczbf6,-0.459100834822438,0.640349502602181,-0.713995055817525,-0.74124212158905,1.28592834028653
Y8H4onBf,-0.521428928201862,-0.328317579329383,-0.734938483848067,-0.659300713431861,0.621303290132955
Y8YgzSZ9,1.31542783032384,0.675610169539462,2.0368701234242,1.00951209192387,-0.730573292633641
YC4PNV20,-0.490016054010534,-0.22341792582028,-0.16198230175869,-0.533039164964717,1.24704731420166
YDHSCRdd,2.18426858225834,1.78445580168145,1.74534892329187,2.01038701594835,-0.861886683903366
YIJ87aME,-0.292879904156278,-0.678181685200301,-0.0810255767835393,-0.451045409316966,0.481069040562778
YKvT4dFv,-0.334145005549942,-0.25192929446662,-0.166607495350833,-0.0890787692515835,0.105585700299684
YNebALR2,-0.695827198455093,0.296619141056198,-1.29128148620222,-0.366823469761373,0.417521289877369
YNrnqFyb,-0.30150235420377,0.243128517933916,-0.0818038627740834,-0.109476221467844,0.271124474893496
YUZ4lR3m,-0.360080711219289,-0.13451095285918,-0.37546718199708,0.0772027953860987,0.370563173512212
YYLvjoVC,-0.0130336115555463,-0.261089112767111,-0.055697106841296,-0.227777181833948,0.143731771503483
Yb8OtMb2,0.0772483259194799,-0.471617119302124,0.514866974618929,-0.109629037235256,-1.0305508423399
Ycg4lTYw,-0.367721270318116,-0.349953672388958,-0.876846918724827,0.427883917068847,-1.46754229921416
Yfk6tekH,0.0114857789804154,0.318863423493272,1.06152950864074,-0.0789608877099886,-0.713902034322913
YoSfgmR6,-0.415979981697754,-0.101353819816228,-0.49253644901077,-0.412483547583915,-0.112424606064216
YpzFvexy,-0.416546411697668,0.508583412832914,-0.889851723619658,-0.277730992004771,-0.122980151465439
Yxqppfa3,-0.097181664763757,-0.465438852791177,-0.078788916233004,-0.18642858964465,-0.819407389923119
Z16jTUvP,-0.394972133282977,0.219096891241683,-0.675211596926572,0.266791164336357,-0.310087391249455
Z2BdCCbJ,-0.370804742011353,-0.245970231783777,0.437747121725869,-0.466034111851533,1.04457709354922
Z2JJMM6V,-0.133769264576299,-0.148695365514449,0.130627106103021,0.0794086085572557,0.136023887188284
Z5jE1OB5,-0.306161633859314,-0.00883947836282981,0.280427462396721,-0.135698110397541,0.150895267451778
ZFsIqYxA,-0.418493528230442,0.0241665795010779,-0.367433218817995,-0.286882115511426,0.181176208823681
ZHDVsoRh,-0.333284659864952,-0.0900730480039998,-0.45867818944243,-0.218622202267024,-0.1147727194507
ZSmfu2Fc,-0.52162576447358,0.375966855807548,-0.590401164136726,-0.279703484375752,-0.38516648651371
ZU8YXF3H,-0.457262284070118,-0.133636787277828,-0.387348616974429,-0.885144243145,1.06613648748805
ZXKaNy6Z,-0.459630097637516,-0.321777127826662,-1.46871256983193,-0.629899357433665,1.30561524038366
ZbYLo0zK,-0.165140358032881,-0.30501729414274,-0.394391865547422,-0.532839113816878,1.54427903207055
ZedN8Gcn,-0.401999613908878,-0.273475105450205,-0.0869833759459763,-0.402866169719383,-0.293556733119943
ZgD4Dau6,-0.171487508109871,-0.0951068270814355,0.327372848506647,-0.4073589901585,-0.844339011047056
Zgzf79LA,-0.552484429142723,-0.474625718388337,-1.70121715030444,-0.845323068808838,0.409581296534742
ZjqzxDOF,0.393489819388181,1.53826978036931,2.0945763161685,-0.588225314136322,-0.15050283669848
ZsZ5aDpq,0.161139138362329,0.283174302339604,0.278301617394101,1.01196773601153,-1.08137967061467
ZtyqE7If,-0.13232257437238,-0.0099787530474913,0.5659183451477,0.0106487461904156,-0.936956424490876
ZvUgz01f,-0.240647684508371,-0.00444123483181023,0.967715315380874,-0.668985845813544,0.636143905367737
ZwrhgdQV,0.80787538804146,0.953672438414036,1.60016094348026,1.02022316081304,-0.476108310854492
a7bhJGBU,1.84903789409522,0.270106356645683,1.93114316032141,0.0206543203981229,-0.855514493838186
aHpv6KzP,2.301869628118,-0.977670050745971,1.91562790600284,0.816581682209311,-0.863932215446925
aINzEBVN,-0.304278384269855,-0.967437051650967,-1.12650567172636,-0.606546584138242,-0.647330208199889
aP9EtTGF,2.85998081898841,-0.0725470234700302,2.07037720141988,-0.125765081556938,-0.64631660183419
aV6EhtSL,-0.259670124316311,-0.100196913708277,-0.0168886318425564,-0.557005503299981,-0.0673550690883674
aVZsXKoH,2.24402437726102,1.24928857574573,1.90818159270335,-0.462502931780987,-0.6991547783284
aYVnVJvc,-0.0464389078998708,0.188130862025066,0.281379806224844,0.355859626664375,-0.732032078456324
abCzN1zx,-0.398002295982143,-0.274447385513415,-1.19567410091103,-0.0206021076279417,-0.828243169607022
ae7sMiB4,-0.176966152162735,0.111655979697072,-0.199520307758054,-0.434932530132703,0.332437065549295
afsVuCGV,-0.463402680352213,-0.182154349079266,-0.842191538511805,0.183039101494174,-0.373492588636997
aiwBQETI,-0.140187443806112,-0.681058657544904,-0.165534349496818,-0.44564844423954,-0.527132664432023
aiyli4EI,1.6344772275322,2.12171772684224,1.73231969646158,0.778369613582337,-0.728138885479419
apJ7NmzD,3.1700519499953,0.887042690000929,2.04886222913441,-0.132649018715282,-0.61777906869285
atVjNMtQ,-0.498127353259849,-0.851055607721759,-0.872355260469638,1.88135803675622,-1.37037461906026
b5GirVGV,-0.454071191863297,-0.3241334704563,-0.0940037216616682,-0.685381813924524,0.747588670853248
b9SpMjNB,-0.295050297607888,0.534022088443571,0.443160605506721,-0.471358712537659,0.733033332730519
bAFs37yy,-0.41220847330986,-0.100408797999818,0.0118585341207333,-0.683199672467809,0.834623324042762
bDia1hHV,-0.248560718524188,-0.235979093182518,-0.0762386612365177,0.11066171110689,-0.825110682052887
bFkv5Mtr,-0.343360668595461,0.246047258626772,-0.45320210895819,0.659788661013529,-0.159397447595819
bHe2IXgA,-0.269493267179844,-0.680801238617464,-0.956011849289905,3.52660315149752,-1.01988741876748
bWX3vUm5,-0.0812202387035972,-0.0324577103777874,0.0899836808622697,-0.147412560929511,-0.925530542714526
bat8tcGs,-0.0591223199824455,-0.63807873501732,0.19106059465564,-0.143793027653665,-1.4384237172252
bfjej4wu,-0.542546569705146,-0.484127015115892,-1.02270886158942,-0.000984989302295823,-1.08659401520511
bh04YDiP,-0.296853650240867,-0.158182830225672,0.28348232709553,0.201472275919667,-0.343992290662612
c110Fdc8,-0.334415850270143,-0.286229188770445,-0.257739329516875,-0.466367793257466,-0.0532698439929647
c32GUzMa,-0.411655004701571,0.602347346539891,-1.56171708697552,-0.157082991142887,0.765105828368756
cT6uU0B0,-0.506230100912012,0.407954657237105,-0.935874781520272,-0.367328415305883,0.916718838151877
cWXCiFwh,-0.296018232583039,0.1471676967661,-0.33749860520626,-0.483411455853755,-0.662949422988091
ceNvS3yd,-0.515534437494102,-0.038168810260676,-1.29530614804806,-0.12130563744696,-0.230284778140855
cmwdt4Av,1.47427334945444,0.566458346335601,1.96452572981669,-0.0420473513596336,-0.736814412873879
cn4EHsup,-0.548647843792351,-0.166172278186895,-0.857395696642855,-0.135451866215528,-0.0259033206367506
crVOGGTT,-0.178859414172135,2.27570476387521,-0.6789656137444,-0.456599326840245,0.897647710051746
csPEJ1E5,-0.466938717173053,0.274345691409707,-0.201303316624837,-0.553180621684548,-0.240954268605018
d0UrRtMk,-0.453006183579883,-0.111283824777378,-0.255643000208189,-0.882607155948015,1.30770752489084
d6LU4G4I,-0.43790694730795,-0.329133920800131,-1.59434386019068,0.0165072043264434,0.0952990829557522
d74T1DVv,-0.421296255974879,-0.256380545451681,-1.22652109031881,1.02887312399259,-1.04287710381883
dR6rM1tQ,0.00265755610203743,-0.755775715526727,1.13460167633236,0.169364133665295,-1.26650697668507
dUNxOoqg,-0.479465238753919,-0.543619988601843,-0.86887769327675,-0.0402209114201717,-1.01291298279784
dUnlyhj7,0.209261882161298,-0.269986177520521,0.897446724117096,-0.796270262111467,0.0716104172287756
dVDlnZQ6,-0.446786925033936,-0.312907913253106,-0.932956799387123,0.908325539574398,-1.04671823721869
dVT26GDu,-0.38100385470495,0.426710664928524,-0.237599423341116,-0.423985933889522,0.797594680091335
de43ycXY,0.166935408163538,1.3973448475258,0.789517288942201,-0.527841851178589,-0.305502218034275
dfIn7m9z,-0.347777693241956,-0.0995186324030738,-0.0062233368385758,-0.150348184274777,-0.329726889494267
dhmb9ZY9,2.90951797378046,1.75205577620867,1.92933112715722,0.926738049523539,-0.737812304824684
dn8kCuyf,-0.337652977883971,-0.110622210099371,-0.418051951103623,-0.543075146988376,1.06906367815561
dpcquvWW,-0.42231926155097,-0.0856539374152398,-0.19189859070825,-0.361957091678981,-0.0798601113454892
dqcbIMyr,-0.601519327776562,-0.380486389870954,-1.28659009972004,-0.20033029411947,0.108818178901024
drWgsBf5,-0.402241906335933,1.25577800866082,-0.365581242198434,0.191725521255253,-0.645984608051058
dytx0HSe,-0.453556331881456,-0.0425964615945376,-0.865836944084026,-0.76647365056455,0.981439969974223
e4KkkIha,2.20326316418022,0.903314600360466,1.71685309294724,-0.726178275451593,-0.798594368269789
e9YorH4m,-0.26505293173405,0.254667302636352,0.971987271278041,-0.901764106988369,0.439706312245637
eB9gVQ0R,-0.0910892063196907,0.533589939777591,0.392936818194443,-0.383670256706927,1.34640181395964
eMhLFqU6,-0.748259572917524,-0.450997940655744,-1.39268516253371,0.313917288234473,0.0266902639156029
eMllg1qm,0.169853066109759,0.986967544029973,1.431461873135,0.0894378829499845,-0.874177296527569
eNPunZ9i,-0.333235963983237,0.615000272678789,-1.28397775735038,0.744334144209457,0.192834938682327
eS5BSM4J,-0.441086328115972,-0.432342668723303,-0.32916390564135,-0.594509268893833,1.3279775654814
eVGMFoOI,-0.338833016907203,-0.0975741672904264,0.583337299764664,-0.701874032135246,0.22885436321184
eaIwb3rG,-0.00591471116184075,0.986866287081739,0.737909414795253,0.0155335128574095,0.906646627168442
eyzw8Vis,-0.337520000245539,0.287798114890273,-0.363009882331868,-0.541167834850335,0.897583688879018
f04Ke2bN,-0.382144566532965,-0.125958986913844,-0.854328762468956,0.0516494715204731,0.309626378022168
f4GA0te1,-0.387088298533723,-0.415029052921637,-0.458429697446593,-0.527711729111532,-0.169402286991549
f7bd91h5,-0.414311630235528,-0.00630640462363965,0.130804307412998,-0.739287043514467,1.46372010161745
fB7z9ndr,0.0516932986288689,1.23567486989815,0.511032708998617,-0.304233116050709,1.00801319980856
fEe7AWFA,-0.0356490776892263,0.0283939465301421,0.146044326719834,-0.0211250413686811,-0.984746394996803
fJJIbgY9,0.572810695258889,1.31467007223237,1.12033103074603,-0.587707924453904,-0.654974019685117
fQBURMvg,-0.388292148156909,-0.346974717990773,0.262360818975808,-0.469078697046656,0.867569746685448
fS0HpOub,-0.437456421437327,0.0555797236699426,-0.176022073782314,-0.430522735690876,0.826201256148084
fTDXauuk,0.228791743470968,0.287805710528723,1.156882187577,-0.44139524479968,-0.651158123663227
favPNA2N,-0.276744994482535,1.36823531382958,-0.889457790476553,0.791079698287271,0.824329454278832
g3Fv0U4k,-0.508455827279636,0.033609590990419,-0.779425177800065,0.791751502301653,-0.278780539116542
g5PKo2E2,0.308134922629126,-0.579564203447121,1.20832451577746,-0.0290503694342398,-1.17677506125637
gbjnD5fe,-0.450625916335497,-0.240828488202413,-0.568222312506933,-0.625450246213488,0.334103915452279
ge9zqXCv,-0.284774195144226,-0.457469989566274,-0.526321490297723,0.305646743279669,-0.619433543661697
geeqJpSE,-0.440016071805817,-0.227359503679701,-0.362666720207382,-0.729166967031011,0.76149530008309
gqy1J2RS,0.223581557220449,-1.45028450321237,0.413996672808875,-0.131090329913816,-1.71553019801364
grlUtS3H,0.0165331083680756,-0.417060064030124,0.0478877178122213,0.551641569673443,-0.783371895149265
gx965KYj,-0.237634453229792,0.310605908242005,-0.343602439189861,-0.109037248419098,-0.0279121146861051
h3F08Vjm,-0.465416193108746,0.10802631353568,-0.180963517159959,-0.344693986807232,0.920677616514698
h6FQG8Iy,-0.0552025446085845,0.32210279759999,1.64062556797497,-0.653794295303255,1.04802169826236
h7ftM8b3,1.98632775353899,0.758454662444019,1.82993612006599,-0.300562797640776,-0.834817857623107
hLrCHXZv,-0.0533863739196098,-0.689334309724825,0.0642118151355222,0.0855207365163168,-0.680031309228131
hQ6VBuFx,-0.150151444154556,0.253444453351862,0.198974016187642,-0.247032408340917,1.1345584918229
hYoR2y7w,-0.443636058473305,-0.751137099897705,-1.14445789917773,0.252047714812926,-1.0088355781284
hf65yZkM,0.353089826834912,-0.311804638616042,0.432935241672623,1.38814388790265,-0.891201336886366
hjuwe1x4,-0.320571191135614,-0.208566686817219,-0.329379239214058,-0.321828401426856,0.577513993385019
hyINlsFR,-0.189266822816646,-0.251779404186458,-0.759016178022197,-0.0241950264406957,0.969091564949875
i0Qlm9Bv,-0.22381982835541,-0.0225616306518928,0.915406054582227,-0.649506119281459,1.0366334990913
i1VxfxMb,-0.334582634180253,0.0357741123935927,0.584174230967565,-0.782194170544309,0.956274378591181
i2l6jXNP,-0.467838603332152,-0.0223970480713951,-0.855800366597033,-0.330906544743085,-0.288354429547205
i4FgPZv7,-0.651131985057132,0.0833889400044313,0.562295248984519,-0.662186963713563,0.772598297638133
i7XtIkSi,-0.26362341403273,-0.388044652623034,-0.294679665265762,-0.215519312150279,0.480581438580196
i9z346Ut,-0.285895947201232,-0.161845921226413,-0.523175211369685,0.636450139104323,-0.00170249546287482
iDOat4cZ,2.05996757869646,0.804896059407594,1.86510992978872,-0.205531200673974,-0.645367842893052
iNv6RoSO,-0.264816102982208,-0.175167026371703,0.1478090674049,-0.0740906065580214,0.431115424711064
iSL9NYzy,2.59936217995123,-0.0918523287562929,1.72295196069316,1.20876889948975,-1.11264558201582
iSqVc1r8,0.103717195484863,1.06315880261972,0.612976876088224,-0.457482980363895,-0.387581362789254
iYZMftt6,-0.314857598661261,-0.679784175369547,0.0911944978764871,-0.393437821915502,-0.529573749346459
ieTPaa3c,-0.406797521245238,-0.207294738083125,-0.532304760646731,-0.222485596195562,-0.0230578099991631
if7BmzU0,-0.445068175704795,-0.190030388943893,-0.412208064113696,-0.667276347797586,0.76026880387938
ihNz5bmx,-0.381750555802564,-0.0407672241767224,-0.350180294178719,-0.051013471690565,-0.525541917898896
ikJXKdIN,-0.530460806243359,-0.351822490014012,-1.08624860694279,-0.847781198589456,0.891602904012684
iq2kxikN,-0.163266350304225,-0.420720371732738,-0.272149721574075,-0.0790795523482373,-0.990474813602863
iuZEDJK7,-0.474442769269663,-0.233938682641913,-0.450987353420939,-0.633764404948976,0.641191537709031
iyF8gVT7,-0.0414478981262405,0.546354626548493,0.191409302311032,-0.433123178056969,1.19880872992018
j06qdQ0V,-0.374588901343545,-0.236942675336043,-0.0509387401103227,-0.0902572024802032,0.0941925580385189
j7hl8svO,-0.147208892333497,0.487580814441783,-0.313684964067732,-0.200215099426315,-1.0201851270461
j8hMoJUN,-0.358129542727863,-0.210254584384252,-1.60957593310582,-0.707399662191015,-0.220543365724382
jNaFasbV,-0.561778298673038,-0.479446990893641,-1.11293405083939,-0.0284711605351137,-0.879453299418351
jVVHeYHT,-0.181310973442002,-0.513721559167788,0.330208342973056,-0.272616362540061,0.347450765628408
jXm4ySvK,-0.337874038220894,0.101750029442661,0.027886778665524,-0.294982944384998,0.73730478354757
juO5ii5l,-0.183533967021382,-0.638014438315883,-0.0700425766730138,-0.737233690993103,-0.157066885422212
k2hdEBsU,-0.429720778919391,-0.0620483574843404,0.0411196153963591,-0.6683950927847,1.17914332964739
k3ynMfhN,0.0209851518451247,-0.25141682142454,1.64589860099732,-0.437932339036277,0.520592812442147
k9C9yBtr,-0.0304165314329629,-0.228765828854222,-0.0769653543937773,0.389004769379232,-0.953648521168229
kAKRvcRo,-0.293151533160323,-0.630971310544993,-0.649193459099239,1.04019295101933,-1.05042506845751
kBi3R2oC,-0.110112156400678,0.180586953915629,0.00746576686713119,-0.422032668330612,0.185858388040747
kDWmnsXe,-0.284049030031635,-0.450741794752605,0.868056201763256,-0.0263215809015841,0.656907536279506
kSGBd2Vh,-0.364099148359949,-0.163208050437101,-0.212869085025046,-0.725268742363329,0.687620119966324
kT0miHPT,-0.374227472564028,-0.329873376188071,-0.0707367178384742,-0.305482073369812,0.215038989952516
kaW0TfRn,-0.444023915711662,-0.377931121976378,-0.463079214432359,-0.606443996073269,-0.136174144984659
kmg3SowO,-0.417472541331289,0.0966138893467553,-0.924087413201382,0.843381630524529,-0.289691136361092
kpxKSlnF,1.70436763143753,0.482436295606331,2.10915442771547,0.209424301156859,-0.607496497330049
ku2cn1MV,1.05298453629345,0.0056068704719897,1.88184662060878,-0.320619890372447,0.549493137092964
l1su5HU9,-0.367828101681664,0.168902377838667,-0.423299359147265,-0.272118631859142,0.757167111216304
l8Tg2RvD,-0.140620379607969,0.0366262735920584,0.505582505208227,-0.133535510954717,0.564057810291203
lB6NsVOc,-0.422008718704465,-0.311780831638202,-0.0189042936055862,-0.684395530979952,0.751028588654733
lEcdVyKk,-0.415811208209583,0.00148298362059505,-0.110688873466513,-0.653492781048307,0.69515397850422
lH4TasGl,-0.0401405575298154,-0.297290853159856,0.681554489202303,-0.703942757256351,-0.198100287353951
lO9aggHW,-0.268865026680111,-0.0580631806729472,-0.26179230567132,0.328030386285508,0.281783529316069
lW3m9Vzu,-0.250013374694974,0.451841611041076,-0.581922680372962,-0.111635176761119,-0.123992323393236
lYLseGDP,0.185703533368696,-0.588355932504683,0.455559386369092,-0.143657195441784,1.07092108664531
lcOnCdZi,-0.170781098954173,0.0978570058500174,0.639856923163029,-0.701654007391878,-0.286346656065445
le9YGwON,-0.0683670092011115,0.887054473953486,0.106665671561874,-0.261319567930257,0.487469671489752
llMvu3TX,2.33661007421466,0.0036557185698296,2.07743089824602,-0.762346445545386,-0.258902763956811
lnHh2jFO,-0.107703335572577,0.716339779524816,1.10267522484633,-0.782892152158572,0.152708590329105
m07CVXd4,0.00134708110719045,0.618639553964749,1.32187319324681,-0.540844511277068,1.40464069992146
m1lPk91z,-0.391998807277768,-0.174095631371083,0.992482067414506,-0.715314143771255,0.847770314219081
m9IQdmwa,-0.44239356573533,-0.173458329630329,-0.229793896383572,-0.584256646446834,0.843106779953889
mG9BRy5x,-0.298219948000801,0.257421974755655,-0.701784757456812,0.0770625731728911,0.198906706639762
mVHXnama,-0.46816466772751,-0.708725604643351,-1.00896019140372,-0.446334835777296,-0.603445879896488
mXyrR6nU,-0.439905156600705,-0.114329520389093,-0.87146978095379,-0.528900839255992,2.2056097994576
mbzNdxNc,-0.337720197615254,0.166122402879199,-0.55996268945693,0.193052418996454,-0.610733010464789
mntH7g3L,0.0436428990665299,1.08002923184736,0.97140313950575,-0.844338872437066,0.11060329231996
msRTXP3H,-0.286808563402153,0.0126740962683444,0.124152489182514,-0.22757934541583,0.528468752415724
mxBjvIPR,-0.440335933152576,-0.311447389313361,-0.326176085733346,-0.574981680919599,0.100426036117603
n8Opmfbz,2.15331028642713,0.567801877946235,2.23313473729154,-0.417584985996552,-0.0675213146211613
nOkgU29Q,-0.504010128621192,-0.486353069496231,-1.37331734058426,0.464628657900162,-0.777334186369534
nhttf7VM,0.0937480139822651,0.342876034201782,0.635167901976682,-0.0296004434702582,-0.369939628693382
njLbXYa3,-0.320583697606107,-0.347277405740425,0.213275243014726,-0.6164670793341,-0.375972956464985
nwkIpzmh,0.48296375230325,0.963914468501749,1.56308412807738,-0.548526019177596,-0.282803514870891
nzB1R9Zg,-0.142622418475168,-0.050557331789115,1.28212047652681,-0.48682572657259,0.281044248002375
o1rZRI84,-0.355142675287004,-0.447085727140847,-0.637118150354281,-0.605875531702244,-0.363323637928659
o7q5Mbty,-0.0645581013751662,0.209707655032675,0.776328457185352,-0.097355182071059,-1.03749466324402
oCBvysqB,-0.432732535181323,-0.107729197855928,-0.351250743576262,-0.55994105394979,-0.679830627421934
oDmycTPH,-0.500361026619597,-0.49039758484049,-0.625558736272853,-0.865692140117363,1.14252459952296
oFAXZvQv,-0.284342219942549,0.306945793038218,-0.22650827605274,-0.129077712387258,-0.429578046703161
oHE3M1zX,-0.2913352915381,0.205006571499663,-0.737234590347376,0.309630443018629,-0.157476980777777
oMhVmSpV,-0.269290915420111,-0.175695036476935,-0.75118951118355,-0.572219583421144,-0.84088590203837
oNsDqVbi,0.136336540364094,1.48763668120071,0.637556917592316,-0.550164125163428,-0.536385903750214
oYAJqQk8,-0.365743659884867,-0.520109249477424,-0.530538682662132,-0.987912795868777,0.732907801639278
ob5Kb6dW,-0.393748892743869,0.117932112717896,0.181834751241919,-0.589878538105611,0.871671053029742
obnzqs79,-0.477949061595417,-0.421542042776436,-0.754003327800105,-0.783236053567852,-0.239540501661009
oncLcgRP,-0.207366824712159,-0.203286959006638,-0.0985880166865123,0.435348828612046,-0.14542638769871
ooWVYaAe,-0.317689874823417,-0.557032133174872,-0.939625319126771,2.31847141599745,-0.902339955499483
osdyOUnV,-0.705036254185096,-0.077713163885836,-1.2163882946948,0.231048650929897,0.230939673346743
p7H9CzCv,-0.645134056298397,0.271136581198001,-1.22665854811356,1.1835265739917,-0.500381579631029
p7U9hVhY,-0.409227376541193,-0.1360755126676,-0.542627065753639,-0.49210279949264,0.193434553670368
pE6Cf1RV,-0.312150427177944,0.57007432936127,0.652871969180746,-0.56551329241261,0.59802764654442
pI7qzotI,-0.354526166273646,-0.0303957325030158,-0.654651028837769,0.493202144059492,-0.5838391179836
pJrIA4sk,-0.388017026536277,-0.231698884265979,-0.0478142915437551,-0.507561400322035,0.063303924342912
pXne2CLZ,-0.426912907952372,-0.579165883985595,-0.62910737670156,1.06642545767947,-1.04357104631641
pZMcDIOS,-0.452941478163181,0.033723191968917,-0.443770664232307,-0.67880765663985,0.938667657718932
pavfp3cc,0.0283706233563769,-0.600504437154029,-0.00133824899346941,-0.0993622714202777,-0.710331819639119
pbQdC5L3,-0.542914076281606,-0.325835515386045,-0.682711518175684,-0.761100041005309,0.863620323299189
pgj7aAFP,-0.407469199196722,-0.13912097491334,-0.421371143996258,-0.175733931740198,0.0491669984635683
pxg8G3ed,-0.187131983266853,-0.100838033813321,-0.724885012158468,-0.290012067247691,1.00610644185475
q36Npk6l,-0.506228151787334,-0.313405564655065,-0.626113724422259,-0.75567717657188,0.728166757365313
q4aDOVvq,0.486765194170239,-0.454530467925559,0.196646451949657,0.630119671634003,-1.60156103740858
qGmfR9CN,-0.454935470625299,-0.841670823345658,-0.789278095383364,0.322199162495355,-0.843602986742924
qJ51ODpA,-0.358842802701813,0.390872767486102,-0.982049795738052,0.623673932499601,-0.07088069542364
qQX3cs3I,-0.0318356002111443,-0.201789193813298,0.179327184457678,-0.29812913039432,0.086735224716435
qXeIxPb8,-0.407007953172045,0.139701960925382,-0.372393240944375,-0.34396231955326,0.813131347862824
qYQ4MShM,-0.034824068257365,0.811022548703718,-0.124051288858441,0.632006030240249,-1.19659498637415
qa0etnhK,-0.101623767477785,1.69049044760303,0.221435378196495,0.173611645496947,-0.812652737521904
qbL4sboq,-0.321467267066971,-0.337809064687473,-0.138672423402745,-0.23355980234748,0.334905877843428
qbYrsWHq,0.985728134881195,2.0284597324713,2.30376244296221,-0.323671795187086,0.261805616772593
r1zmcUqQ,0.277550410290299,-0.8178865603791,1.15908840061147,-0.280050029338007,-1.13871650923868
r54iHeQC,-0.439411402378871,-0.1549192807091,-0.283174996080927,-0.68853297307075,0.642464997282934
r6xrAnQV,2.48169511022957,0.923814443912975,2.46735323193358,-0.188577419766901,0.16822180360952
r9HxnQDg,-0.196010021669202,-0.0664309695613652,0.916300612132387,-0.452163398073418,0.824902858913769
rG8Puuf9,0.555216637039548,-0.226109772943013,0.648231718815607,0.386572365804779,-0.757279793573604
rGuiefuR,-0.211498326951573,-0.376707981067371,-0.786268415884978,-0.15140936671374,-1.26719633078914
rJ19OhGP,-0.449386535462934,-0.0126029906345252,-0.353650693896082,-0.750119273729268,1.05768042483513
rOCYepHd,0.0512520624947978,0.167629485335302,0.184777656255108,-0.681989656036638,-0.203862188994833
rQJaOPFI,0.123503857251912,0.752198184852753,1.4793170139906,0.0245140822110237,0.751751181973437
rQhZtZeh,-0.0635142073664401,0.126625725816645,0.784880968801867,-0.481864038952935,0.506148208298331
rapmok0w,-0.432644459264467,-0.264416551290929,-1.43938923412305,-0.145421534945478,0.250616205651666
rgzfnPVu,-0.161334694744884,-0.336576202949875,0.161771392741774,-0.536946616499336,0.0153310830117287
ri4qhb1S,-0.352425078335515,-0.414136256768203,-0.964833128449261,-0.555720588813877,1.72754347700553
rqpFYzff,-0.318828074394168,0.292845371699454,-0.101825930678778,-0.316035876041673,0.233060402944307
rrs22coX,-0.242200816195631,0.773807102514781,0.369088668647327,-0.355708839611091,1.09739169926442
sEeUCQLc,-0.419566382216192,0.0825098359563571,-0.802551294539789,-0.587168919450181,0.397552786245242
sHScwqQl,-0.371841237392765,-0.00383250637637576,0.174922974919931,-0.821760709539314,1.33675913644697
sNC7DiAt,-0.516345772405378,-0.14021462792151,-0.190798058984355,-0.706606046745659,1.15311580739148
sNK2TSs3,-0.519455344498645,-0.0427733164042109,0.265870906390633,-0.262871484823259,1.1778484984536
sO7Su6uw,-0.755312726956185,-0.196258050183051,-1.52451702365441,0.632640757503229,0.00742779085718822
sOWZx89o,-0.429471696269379,-0.30405950550621,-1.44347953365184,-0.689071095358005,0.763264790289482
sPbRcPjC,-0.0872459121890929,0.148439127989344,0.0636485062905561,0.121501792958035,-0.836885312730179
scVUfTKI,0.166544594061233,3.00895352600113,0.292293542152755,2.80090077880919,-1.23301209490515
seRaGeVv,-0.311272281815496,0.134036573644138,-0.197877587350194,-0.188162109641744,0.880074621197299
sgtwiYWi,-0.428348098920904,-0.689753362915361,-0.968571080918324,-0.0595773188145531,-0.744499745108484
sjmLHcT6,-0.470871871563885,-0.222875509707689,-1.19900802118261,-0.599087071007491,0.223812380540664
skZUZZGS,-0.383156050373,0.567693551722726,0.251845874348764,-0.54679800220879,0.84357829556541
suAmzADX,-0.366073477508275,-0.120921146852706,-0.888868091190228,1.0410899232895,-0.571266967795548
t4GWLqlO,0.212027452921608,-0.331622514648478,0.91661003337149,-0.362020563094379,-0.060134325286425
t7gy6Jyy,0.372361644300775,0.583112086400591,2.14716997535357,-1.01699805532571,-0.205844307346337
tBadzH60,3.33306498910612,0.918358114309443,2.10710618248781,-0.241805904703624,-0.246224014221769
tXUWm0hp,-0.0130529936330204,-0.367093464004298,0.0130821120581851,0.727772644681056,-0.261212185425389
te6UPPxf,-0.389339929347827,-0.966897133327795,-0.38802234912454,-0.185496188079639,-0.948270318283437
ti2lamkL,0.0564496168824918,0.0797884966057265,0.101240174001704,-0.463539747276774,-0.080488240668479
tr0lpwuU,-0.788505539476131,0.947933488285035,-0.569617129237498,3.10466071782723,-0.714966090114593
ttdB5C73,-0.247946233327287,-0.256087306313365,-0.0110000735326285,-0.118913431349227,1.38115899641804
twS8YZu9,-0.457271591622294,-0.266266992214415,-0.0472485224672924,-0.355544119579605,-0.0423524368181966
tx68W34H,-0.465109787468841,-0.469739336157628,-1.22713317809269,0.333767633624418,-0.897115588363248
tyQSX4mY,-0.119688132662288,0.0201387486280022,-0.0188169461416521,-0.803696190163807,0.441268485804448
tylKCRc0,-0.370318163028086,-0.201491473722644,0.29874335475178,-0.416694132878958,0.601062153712303
u1544WUo,-0.333188440600837,0.0545656995011518,-1.31818061870276,-0.667971085505694,1.70357017795568
uAw9an0d,0.400518493510573,0.318099050514431,0.285901776640071,-0.214518131845594,0.42995970354747
uLZAEXMG,2.4226773325697,0.801647324821272,1.87966715640777,0.110573064501928,-0.774972490362179
uMwe1s7I,-0.401053649072453,-0.688593674991575,-0.47966839124346,0.211298054717652,-0.704337543595664
ufhGeV3q,-0.460259139612896,-0.423648777037921,-0.0535319990434872,-0.521188389088981,0.697278198066877
uhAeGBHo,-0.423027831263795,0.0358950182595402,-1.18738818558749,0.525046559402289,-0.595899776086305
ujHNlqpw,1.38608085840306,1.5706904695185,1.74398630277043,-0.143420665706786,-0.740360279247894
ulV6kuhB,-0.368527237250443,-0.0248019692783882,-0.116655226488514,-0.500388601711088,0.784322515298291
uohEnNEK,-0.163432009065794,-0.062001511194769,-0.559858455768381,1.28641849595864,-1.06580109047071
v1lhA8I4,-0.357260471211995,-0.159999457568573,0.511897100478524,-0.469503377310754,1.30417123794418
v3JzigLI,-0.523760902431836,-0.33291457575197,-0.508416789755533,-0.934679806175626,0.936254017070246
v5IwjyIg,-0.369034180794447,-0.199017706065435,-0.491748877883717,-0.341231800608177,-0.93412241052252
v6lp5TK1,-0.346857010681447,-0.188757091023537,0.210698731458687,-0.763062408748375,1.15138228805437
v8vOaaWq,-0.457000188722221,-0.228641568252091,-1.061581704159,0.133873920126259,-0.0376567629822577
vAYKtoil,-0.444440427869196,-0.468226468736166,-0.516882759581706,-0.529184639057963,-0.780116521141556
vGTNQa6G,2.82420008059861,0.591708157447942,1.82751055650848,0.459811132246115,-0.577536110248656
vQzNxHoL,-0.495480332005533,-0.611340546338131,-0.725734985518846,-0.498667269823313,-0.700761812946678
vfZGBUJm,-0.234018260924844,-0.334743741657457,0.464008762662641,0.100446099064258,-0.32469023551333
vlooVUoT,-0.462821003565327,-0.154678012344062,-1.37019943195354,0.756911783322207,-0.675922864986989
vrACvd4O,-0.282785014803676,-0.267466502788661,0.192874216324506,-0.332322743777234,-0.554209208864484
w8hdjLwb,-0.218848633478569,-0.199297652648645,0.0867340661768664,-0.446857583238266,1.77984121111953
wAntv4gH,-0.0483878393312327,1.51225698584002,2.43527524568818,-0.509400764156946,0.675424063208078
wIUL09q0,-0.513396967617943,-0.402153412520821,-1.31639307601575,-0.751408967680669,-0.0535473223470941
wOzx7Fgz,-0.390711475021324,-0.347684768154177,0.320118744157442,-0.632984101116874,0.102016586450109
wPhjhCJQ,-0.502550805452189,-0.36791701880974,-0.280849242088351,-0.566884820382057,1.09020987004445
wQSWWmYB,-0.41820688434521,-0.185153964897572,-0.680144882895621,-0.375565828058346,1.7317290721818
wdIMrXwy,2.74182150092708,0.292975110495067,2.09837348641335,-0.411572142692084,-0.421742633758724
wiL9npQc,-0.416179648979107,-0.049011487580822,-0.828328571218519,-0.681128477233641,0.463328682787173
wnU95Cxn,2.95685692960976,1.28978370081467,1.6790283612608,-0.575078687007536,-0.59053160935264
wpJbbjJs,0.108812977599009,0.126347707551,0.492973448870749,-0.280524765078661,-0.593291653887509
wsOWTAbI,1.52076470061647,1.02498073283483,1.59178880046702,0.670048983798726,-0.398154623519735
wtdBcU3U,-0.481963648656633,-0.208977748597007,-0.0327715282515111,-0.5771711985954,0.122341109685332
wuKXVxOc,-0.581673851099217,0.170396560027,-1.23714179923332,-0.425440851015214,0.609382520618133
wyzadAt8,-0.446784155316643,0.19362905439013,-0.857645051131723,-0.576132197081266,0.932752240496988
wzaKzYwi,0.0485800267924441,-0.0963578161832915,1.5849913085499,-0.77929677227979,0.366555274909224
x6GCk4EV,-0.426904768866562,-0.0865480979537288,-0.293836648801043,-0.527646569606342,0.726157894043334
x6lUi3vf,-0.0207749661893809,0.00180162537592744,0.680892371187229,0.569603102642291,-0.966192385297818
x8mwDHv9,-0.36516947825011,-0.0920451065917987,-0.208462973889445,-0.351375250837463,-0.0677213948088356
xIYm6puH,0.313161825475535,0.611508117093963,-0.221981141447562,1.35376224868574,-1.61875875362066
xO6UdpsK,0.374086378557982,0.698883845597034,0.0731276594787547,0.330798178497094,-1.62141290122255
xQ2bkOvj,-0.390751257803726,-0.2676785738226,-0.766310227090747,0.151038750686743,-0.974496360459194
xeXyDCEQ,2.99264289931857,-0.119678157941528,1.86082213780614,0.697317587090918,-1.25748224295716
xrggHziO,-0.203938729898207,-0.217671427097525,0.307630026361711,-0.566735941414549,0.412655174845789
y1WMCmqQ,-0.385785835067666,-0.359857620964893,-0.486762303844466,-0.152833203077612,0.303287064349085
yDngezhM,-0.464427008533637,-0.381089694619673,-0.869379518633521,-0.837101232629043,-0.140935756234208
yLiFjMD0,-0.171384317909535,1.72874823917919,-0.830119663219888,-0.681892986448877,1.0930216362539
ySwEBO7w,-0.38524879694701,-0.533682238187321,-0.470334655422551,-0.0130190117271574,-0.892793109154557
ydC9UsSm,-0.500670741691193,-0.133952851104415,-0.938673907406864,0.572027232708377,0.0590557235217952
ydEG4VBd,-0.378338436762942,-0.0983819664291275,-1.14626879233701,-0.217179612432607,1.26417798493884
yf76yWXc,-0.117047726857669,0.611061876039207,0.809524602605462,-0.631369079409632,-0.177546769410069
yg70e63n,-0.382617260427744,-0.0955415362078279,-0.470485379020654,-0.38754201766837,0.178312242534247
ywxtlSKv,-0.241808421175312,-0.0588487275437235,-0.818446841644624,-0.660447145906591,-0.448761330417014
yzKPQPOR,-0.422276722974828,-0.0828869204653357,-0.522390492080072,-0.279611825639234,-1.07859836731101
z5cnOnZ1,-0.392282944193477,-0.3478644099445,-0.354786811430897,-0.501745057228097,-0.67763282685737
zFLkOE0e,0.213729333562458,-0.625502413156403,0.352122372357571,0.360632388723689,-0.880617119068006
zGi72mxL,-0.274881410309239,-0.51828301757543,-0.304440303740178,-0.0851774951715462,-0.777356691906626
zN925UV3,-0.547177661982609,0.352714046852708,-1.13373776559525,0.251819181869142,-0.880775583500105
zTy2ih7e,-0.520456753516169,0.362350876534168,-1.14268520555401,-0.458185123667609,0.58529518335197
zVFzAutw,-0.359576830797315,0.16182418203102,-0.302571852318274,-0.532963799199534,0.603219698994593
zYxNAkht,-0.534271817949127,-0.217520028650764,-1.56731054218134,-0.679896561686222,0.815116261831154
zaWDBai3,-0.0699038137926419,0.216789580455229,-0.594568939309908,-0.152251045177654,1.14492006196472
zg3u0Zsx,-0.234025101584803,0.0396931919486168,-0.279322037371807,-0.1157127447949,0.306525408243122
zlwLfdsS,-0.531428164344895,-0.303631446249825,-0.43216649904596,0.62218801578308,-0.787871690421224
zmbKzVfl,-0.636534860007921,-0.192237115526824,-1.35823411115857,0.261838124549583,-0.0843861347774878
