PIDN,Ca,P,pH,SOC,Sand
09gt9UK5,-0.443397089155383,-0.499207487654933,-1.04528313772919,-0.737068900967988,1.7783804119197
0BVvxJ6a,0.654311209529758,-0.252171618200614,0.830473543558877,0.436931824185439,-1.47349278540496
0KbdgApg,-0.262537678060963,-0.255646169160101,-0.164491280984333,0.0432645482698032,-0.732682626097704
0MnuuduB,-0.083864585253262,-1.5039630894638,-0.433701009242184,-0.165121267681503,-0.931542538074448
0PcIsF9z,-0.439511991962854,-0.619196463138008,-1.58189559198484,0.553987214737854,0.117594862474345
0ShTFLYJ,-0.456732235710683,-0.450531665852682,-0.990475224946479,-0.94151387918767,0.521767704770611
0XZh9jka,-0.243120208294217,-0.40996069988815,-0.858353404712222,1.89576771947008,-0.591852336040465
0Y7Wegri,-0.43824319635825,0.230803249337627,0.44015676202585,0.0214458742057509,0.4138267408737
0dTqplIM,0.0649105678357394,-0.00579031884282615,0.35667608254086,0.244846211334631,-1.25841485191219
0lNiZicC,-0.603688721631385,-0.74623632764012,-1.60554079800909,-0.994239725942067,-0.000822480641181165
0rGeJ0QN,-0.378807826735416,-0.17829206988919,-0.941618745203811,0.368611942971165,-0.302030246789302
0sXI9ytQ,-0.398774877704085,-0.221337625713373,0.112096134490742,-0.856378910208073,1.34996143115383
0ukt4aP6,1.50311806139093,-0.123484431762418,1.40404178221911,-0.787668089087259,0.191877403907708
1AGspb8f,-0.580076205844753,-0.338610186899934,-0.992427653900752,0.0253259334626923,-1.20149708338954
1Csy0gvE,-0.429928490141381,-0.120324422009534,0.0482345676369323,-0.656344714886634,0.95623651808463
1Ic2hly1,-0.344963175869031,-0.259894822483605,-0.316212217039186,-0.129198054467251,0.733127876857945
1PPbaTwt,-0.452139241888461,0.0775798754212873,-0.53100916691366,-0.645512039676144,1.68892828500519
1SO5VJNy,-0.404354619877983,-0.088515908899184,-0.226280685381474,-0.446057198065462,0.515208707302155
1arHxK3Y,0.945184194101855,-0.0411401767132801,1.84173730498186,0.503331915372768,-0.455137283657227
1fCW4Bba,-0.584086113557747,0.0822659024952411,-0.192001671814238,-0.0818426734377383,0.749565099553783
1qDZNvIm,-0.344069103913105,-0.334653976509754,-0.171722168525075,-0.535374399706584,1.06465554972297
28LYJC2V,-0.612772841934301,0.075782843428169,-0.977109462054192,0.40074029230316,-0.830161893188725
2CzACvQq,0.744945063250571,0.254863997778562,2.19234311242792,-0.435219924912293,-0.341016095530524
2FT3crfv,-0.153880491671907,0.100172371476313,0.170235244881868,0.0982564909324365,-0.750662657237563
2Fy2uHVg,-0.429940491170303,0.16790522635682,-0.727248682737166,-0.571646084534405,-0.209549835159838
2MkMEApm,-0.484436798471965,0.0758278763278261,-0.522598596232805,-0.711138739191869,1.63789326151328
2NDGWEOe,0.991278845041648,-0.281075540272115,2.07407050514442,-0.45003877440483,-0.302310935566099
2NyyCiqn,-0.359949882555414,-0.236781372281119,-0.122163701347184,-0.472924631315224,0.594063400508324
2QRzIb84,0.155477238393454,1.18159335573138,2.4299891003897,-0.455131084291668,0.291844854343327
2QcbdrUZ,-0.187959899750389,-0.194202254659561,0.213585480611388,-0.210819476392212,0.579021614805644
2YgAimWK,-0.416942885152665,0.974535293699164,0.0552968197690748,-0.490067238832177,1.46905786133631
2cx85d9H,0.0119871811099104,0.358001123128016,-0.0488996966235305,0.230480042892865,-1.37572510188937
2homMXMV,-0.509421259458462,0.120569522790139,-1.69570592322221,-0.128165644347895,0.59753940386048
2ldLrUtq,-0.419392067106964,-0.425272125507801,-0.414397688412783,-0.203369053683648,-0.195499724808936
2nsACW6G,-0.298640064486745,-0.463829612598864,-0.992203181837491,3.50494326219726,-1.21154452319074
2yMbVnWc,-0.407235411571875,-0.33365418374322,-1.52940156966384,2.30124527591544,0.430062934500358
36r8sgGQ,-0.446258963474792,-0.349672947531223,-0.0116394272669586,-0.644910175858616,0.696634029871558
3NXAXCl3,-0.520016927187007,-0.248818486899614,-1.03366685995354,0.151240892609864,-1.32609722524091
3QG0z6fl,-0.249291818185507,-0.294530612533706,-0.978104457220357,-0.550847194847153,1.50808959021805
3WS8R9qm,-0.0827967406740935,1.09071991412266,-0.785584972395853,4.06737971651983,-0.66393564011001
3fRLm8f5,-0.399198666442189,-0.465145383364218,-0.617873200702645,-0.020469491065685,0.217752307304136
3mZhp1nQ,-0.473827101939232,-0.376126676579848,-0.382156452364006,-0.568172298381077,0.809656613675333
3pikJXRL,-0.438284050517017,-0.485898251900355,-1.0079738315582,0.345426177396401,-1.0848864956359
3pxOEGHL,-0.452416153136114,-0.279244992673179,-0.418976466408981,-0.628216232313492,0.838506431665588
3ttdV3f5,-0.403521176075713,-0.0421924485595105,-0.386873879998478,-0.342339311695098,-0.515459804368465
3v4X6Mfe,0.580763338820216,-0.699315412054563,2.20491652214795,-0.784177935661229,0.19013959926651
3wORuPiv,-0.391977799649357,-0.0835658841937977,-0.58315974299997,0.0263506002105508,-0.858937853590607
43EfrxZj,0.0802465998770444,-0.385793508625581,-0.245069504555073,0.441672492310293,-0.499710584349863
457Vwm21,0.150499560505767,-0.383162394578176,0.096164148674752,0.859370433469903,-0.598615645745866
46KNnOdx,-0.443691602068711,-0.0415307867334125,-1.09488797848019,-0.176392597064166,0.304968100728006
47TwNsVC,-0.458445575995905,-0.716801443450256,-0.882545624128804,1.4453039246852,-1.15501702133281
49856RpO,-0.448861905889859,-0.278412619464405,-0.444874435990826,-0.382069739446979,-1.06821097018402
4Ane1o2N,-0.399712238365709,-0.213889328989982,-0.251888495557686,-0.411743161066929,0.557618656109912
4AyVUgSc,-0.495869695103478,0.00518876039415785,-0.676076306527964,-0.67909516248099,0.0374567073446996
4B1951On,-0.106142802342888,0.706081431170095,-0.326428369652557,-0.315741553539481,1.24158633217534
4OL39Teo,-0.188271167640423,0.176597554629832,-0.160799297011524,0.474241747260116,-0.188808327125912
4eQ90eLY,-0.220943711661226,-0.270086568129799,-0.187872049819614,0.29414578451105,-0.171235025005759
4o5jwMj8,-0.361523446315184,-0.468174368378855,-0.477168009645128,-0.552588783036553,-0.0206219471742213
4vPgpl2c,-0.307167876271152,-0.183574270317769,0.171148655806602,-0.505403642644663,0.441231110080751
51r9aA0d,-0.515755931969225,-0.321399422960791,0.111623254785979,-0.837649320587977,0.0743612677801005
58SmeRoP,-0.256926980127775,-0.0644460808110062,0.141365141306986,-0.103989300504792,-0.674393898113984
5HJp1AXn,-0.383497756784868,-0.123361115660745,-0.828576853327281,0.626974268290781,0.367470004251425
5MBZW7fx,0.229440615104268,-0.253034811853831,0.351208481363085,-0.346867450111081,-0.171811873848744
5Nq3gHaP,0.192031327430675,1.75920495616581,0.204029208484565,0.745410131253995,-0.219936237086996
5RmwFFK3,1.06974416612808,0.574508330615515,-0.0757608185062415,0.373957461452635,-1.26743825253547
5Tu5Jbov,-0.423224702341579,0.628535175909388,-0.303428234689012,-0.123211988393898,-0.528658803246926
5YEolkev,-0.24157464595445,0.184367739146247,0.150407037192849,-0.302063440236842,-0.349723734622906
5a8sf6QV,-0.173762196436519,-0.343698026723903,0.430239097992752,-0.00725144336797662,-0.514276037569526
5eSvmqYm,-0.40352171752371,-0.231039884780035,-0.155478653770452,-0.510336008351787,-0.0740045273481778
5hkN8fiv,-0.388825834800721,-0.357715271084105,-0.857852243172693,0.778742797538817,-0.892957654934757
5oK8Gti5,-0.419021245846974,0.0298034605065192,-0.76585257435982,-0.619187548910343,2.01103355927202
5paniGaU,-0.402764943583978,-0.240220267471877,-0.657623470224248,-0.577752206992685,1.00378208553548
5vsr7ZUP,1.21909820478712,-0.20942033647856,0.956338135896123,-0.204901579228022,-1.18799020280444
60B4xMWI,-0.188847591597928,-0.0925529368077325,0.518524819441726,-0.570454397265286,0.481384638435518
64jOUtKy,-0.119522530678683,-0.27103169632435,-0.0297564977075319,2.3831533408599,-1.01908388966522
6AJo4xNG,-0.328398268317094,-0.230747548884311,-0.420944549835593,0.114748763736452,0.690145656457768
6CAvhEte,-0.417224935791188,-0.10723930477808,-0.9600112594759,-0.500333511572544,1.64300344725418
6CuGYjT5,2.51870699542801,0.297247992709908,2.14244388916575,0.344410141040762,-0.770428735169552
6DGH8ujZ,-0.34619614475688,-0.220088934474856,-1.05879097537073,0.196757505243771,-0.443703329486214
6PzsGdVm,-0.305103789491497,-0.11645572682869,-0.518110388356624,0.405111554078636,-0.00327306951897581
6UcSJMbq,-0.0830965902525087,-0.0450203739997107,0.953591011281471,-0.604136266655548,0.13249909633996
6WJbkH8U,1.39910432589974,-0.90629559860105,1.67149196001901,-0.578854671345274,-1.09284868941591
6eUWsVzw,0.708133236274493,-0.870925047379815,1.42996656713009,-0.229247218834406,-1.433383881413
6gNyO7Do,-0.0233887864337929,-0.185702642396831,-0.0128224814732819,0.545854348020521,-1.32300237799704
6jT0AyHe,0.0137231528850526,-0.0640116123624527,0.347875056957809,0.221246330474783,-1.05351963700782
6nBgCvWu,-0.456268937360385,-0.0579913332496428,-0.257372089908201,-0.453408987325477,0.864159459311139
6ro5mqg6,-0.393867712097891,-0.354619972732756,-0.434515367342149,-0.384435348048718,0.606936667131355
6sGqObX4,-0.407884359041191,0.01854297190579,-0.911814860584669,-0.436758166867798,-0.573070424777204
6uEGy0n4,2.4716585047561,-0.97009631061465,1.92231629127493,-0.366415722221214,-0.645106762138888
7BZ4LxP8,-0.0684103780603164,-0.380523929329481,0.0727092232809195,-0.516775290723547,-0.82630451587088
7CmigXKi,-0.475533121531371,0.404512951146457,-0.880768644016082,-0.579785430740413,1.09871497917671
7Ga0LpfR,0.115729914285353,-0.120936296930139,-0.39315673486836,2.15710380571931,-0.557880615628163
7PQsFvsG,-0.466477111866714,-0.0134611878866914,-1.3315363821192,1.07708813576407,-0.436841780982257
7aF7nnwn,-0.499157169682319,-0.535157693045781,-0.600785830168936,-0.81417893635707,0.842612771249134
7asGzfX9,-0.308418136323447,-0.478566929554424,-0.149085091625039,-0.272288046696108,0.36307489029446
7cg7C92o,-0.16221101422328,0.0560340667592078,0.379630131516088,1.31347584975241,-0.171403489015023
7eOxTpsB,-0.33200541319945,0.16703521421489,0.626699189117461,-0.618558156412604,0.621084924047518
7ey0v7ma,-0.476806806106495,-0.406347986661166,-0.973693994362234,0.241675073663936,-1.17802920311105
7gocyrYl,-0.31754469144261,0.206600276026599,-0.528570451896991,0.795296679789679,-0.25767415818817
7gqR3GoA,-0.422984408838415,-0.362329414209801,-1.12252635132843,-0.441549958592696,-0.690775298544462
7og7aUXB,-0.142588024880463,-0.163182664306263,0.359014864542811,0.266270347754403,-0.092139272274573
7onRfa8F,0.379037726473449,0.658972254957424,1.17030994272694,-0.408321046289413,1.18767670855015
7umkNuxM,-0.273732416639687,-0.15631570386031,0.147632013489584,0.596433710420237,-0.529437446424847
7vPr9ExD,-0.0775402755127668,-0.565042246770817,0.359273974736185,0.0602657101384553,-0.578022622004057
7zNjpCzu,-0.381826560674737,-0.469456327634923,-0.197784596457991,-0.180585529671502,-0.547695312183027
7ztsQNj3,-0.374078997921901,0.186936408555252,-0.200142785312523,-0.0962818492552387,-0.598075284662969
86gppwMI,-0.545216925773383,0.403612090145898,-1.21189493339934,0.0170489914724684,0.925310015333319
88thAGdL,-0.305857926281736,-0.0652476071408751,-0.271226349920999,-0.330387403994064,-0.0933576921854591
8GhU8STP,1.07344834591682,0.422061816859906,1.8634698678875,0.272460898319141,-0.801344071993699
8NlzDcWe,-0.537214218593679,-0.394591642413719,-0.953481243410929,-0.750988190827848,0.0618931536697867
8QAejdLW,-0.123562441083246,-0.140553663210865,-0.0461841019692927,0.0751820353902543,-0.855048295569731
8RDeFxWM,-0.39532341495034,0.00474904877035068,0.448550689745063,-0.632349045744391,1.13306688757734
8UXP2NBS,-0.257614799538562,-0.322495534839673,-0.62426651660311,-0.537262462056085,0.15455216515525
8ZoV3KGT,-0.494133143202513,-0.46617823392106,0.454023793016096,-0.411126255125933,-0.433491581046693
8ajs2uG8,-0.364357501966732,-0.414296308768378,-0.442240848867288,-0.288121331113643,-1.0697700414201
8bXnz62p,-0.182694107155283,0.253814242054488,0.293319197074442,0.489055513470945,-0.0559829102480037
8nO1O1LG,1.68908334646717,1.38902228107479,1.79080426489386,0.839560222307512,-0.578701882111698
8xE1p8g8,-0.444631799949545,-0.405288798512344,-0.467269262017704,-0.425490521192419,-0.703093715560241
8yMDVMRM,-0.523458389389365,-0.515625252809999,-1.04126136613227,-0.438694252041286,-0.579762439348557
98R5VaPi,0.598823051677447,0.842465268299755,2.20168921086995,-0.514923234964183,0.708034665544173
9DcTz2Ua,2.66972326945281,-0.542312806024215,1.96890132492601,0.328657778020704,-0.889148214293167
9G7nfUrK,-0.429123228513803,-0.23315925589199,-0.553948678279629,-0.515513420882269,0.886080385144079
9O6GZ1HT,-0.169474361631596,-0.203796441359275,0.908301173029674,-0.670438108447763,-0.26795894745419
9S7fCoAM,-0.198779374725504,-0.110358133154968,0.450901906015952,-0.248474126872036,0.884315758654387
9iQwmFJR,-0.157561923306369,0.204743601228925,-0.569265939535686,-0.549498331876751,1.00321262283947
A3Mt6SAQ,2.06062214409552,-0.594068220023972,2.00692682365862,-0.830295952600755,0.794565748905839
AJIsQIcV,-0.436293690174108,-0.226498192459298,-1.03773608810387,-0.3292001930516,1.93590798360836
AMHKXMh8,2.28764720624551,-0.0320730211772086,1.60478190578315,-0.492533500069136,-0.800466616794785
ASwA2J4E,-0.351361206177817,-0.239945621733747,0.154345397620118,-0.456860247256603,0.564665080413223
AaFvEoHq,0.133186230530563,0.105478118468199,-0.0260333512943761,-0.727833651725395,0.595589230712073
AiIPD6hX,-0.257489435570956,0.605785803045268,-0.656846537522501,0.118089891724806,0.0447461650344931
AsIURvJS,-0.316019343137789,0.317550866395671,-0.423344648780761,1.04075979367353,-0.980952779995231
AsvgbJ0C,-0.241763877634735,-0.203352522440102,-0.720059293141396,0.606614730788107,-0.0484571996111232
AxEhbkCM,-0.453820202692218,-0.66444452473778,-1.00315251474366,-0.818615254054641,0.266826894437386
B7VPkIpx,-0.305399969156248,-0.337844891866649,0.425255327014957,-0.712803900728181,0.165497644541697
BBwHqHiH,-0.155746210820584,-0.43762406194049,0.344141176806253,0.130726715074048,-0.817234159455415
BMyps8hr,-0.279233127799903,-0.522531994266651,-0.507309634735088,-0.307987420912345,-1.09635624130631
BUHS4dQw,0.426981806320966,-0.0112747515111661,-0.288139675547945,2.16481195298176,-1.00545978813919
BZB3EYWQ,-0.381564940853536,-0.138425437483931,0.389369777415288,-0.358665036242104,0.927259117038954
C5UPCZcL,2.74995702907092,0.0562338505530365,1.8582409665309,0.437943129581368,-0.556824665805943
C5gIfQbJ,-0.376572039275893,-0.694362126229402,-1.34070412370413,1.18779783421191,-0.945592614019551
CDRuu4Pn,-0.254662794979336,-0.208918881997138,0.309276613660577,-0.712920008556707,1.08884030728091
CQhTYkqE,0.812399636065932,0.658641317290203,0.840350892472844,0.515770276176786,-1.49731829282669
CSEobMXv,-0.382420618945054,-0.690014821966975,-0.832187239444944,1.28861127651095,-1.01204460272493
CYMQE4x0,0.557450137011218,0.887225517066026,0.779754647027157,-0.152927209974134,1.97933850743051
ChQdtl4J,-0.379376664856987,-0.18784458979558,-0.107944818799576,-0.558709501242735,0.541741407195735
ChnD1nrN,-0.498051408218274,-0.202245892949839,-1.01881382469753,-0.829680283308325,-0.0244943080148299
CvtbbIcq,2.01041454485189,0.309906674054238,1.56810862809576,-0.18449300736021,-0.364753345991063
Cxk06b77,-0.126337907581477,-0.603512917111661,0.544033807066453,-0.104609886536301,-0.383126431577435
D3QD3ZEJ,-0.180162261119855,-0.037176968144106,0.424715051528604,0.153693426351726,0.296210695467562
D8J5C6lA,0.711064212758704,0.720214215662249,0.786261304897619,0.390446231231177,-0.20176449163355
DCeQwYfT,-0.210915173284082,-0.145290967256811,-0.251581879040523,0.194743019652128,-0.856542489157363
DDEftkx3,-0.404821590232356,0.0765896050491105,-0.481195824956169,-0.566632980681825,1.12106560948798
DEwCfeDW,-0.334120403300581,-0.396672068292661,-0.0144922061525827,0.282314798326329,0.302174798025186
DMkIV4oL,-0.455423172807849,-0.312755739140327,-0.785955466443957,-0.554731119165388,0.543518836569989
DnzGfbxS,-0.33041515571467,-0.348939236049567,-0.286972233039037,-0.086810816816775,-1.18078020773485
DoZxo6f6,-0.353047182188582,-0.136657614764626,-0.167766602034188,-0.518637591117842,0.56904340192003
DvhBPGIk,-0.336114484596778,-0.303929052267199,-0.192294263893759,-0.0838780726250984,-0.415096285601569
Dx7GoUcT,-0.548962082886964,-0.312186349736658,-0.36870932699231,-0.82471882995081,0.955015144280219
E5hIjohO,0.576131072700138,0.0926814433113616,0.20765593159002,1.18270641278069,-1.04191189141375
E6x4XGHt,-0.435090596097729,-0.211741892899283,-0.276597756670388,-0.57228185556534,1.87472619112228
EDEpAzh1,-0.484796126330785,-0.352118010841745,-1.00663010512444,-0.326658247113804,-1.45453772636696
ETGudkQt,-0.488435550566557,0.458305139778697,0.0677447624664012,-0.579538550328377,1.47442365765838
EUleKrLJ,2.40993455068659,-0.416754940240815,1.96418477298873,0.322282119224653,-0.545812039678915
Ehw2Jz6s,-0.41008757659026,-0.306931397006085,-0.247851484151677,-0.462157536471677,-0.0181164354590619
EjqzC4zH,-0.303255009691424,-0.334013788596646,-0.161840122840023,-0.947083632445707,0.170390808949155
EkMZO3Qj,-0.491540553275709,-0.273852178710245,-0.332897412842903,-0.58428379369306,0.686553155925612
EnoNXWvU,-0.102651630442509,1.17931739365204,1.02447537972817,-0.695908352126708,0.166303122216597
Epv8ANwr,-0.223024539207045,-0.180442211055994,-0.0725392087496466,0.487131440740809,-0.124487348574645
Etro9j0B,-0.0107744502645403,0.371012044675856,0.394828634565594,-0.102368715536469,-0.227913242862162
F3MIZj76,-0.377870481519841,-0.420772421655021,-0.725327777031452,-0.291588818056271,-0.75048957529246
FB8tU00K,-0.527993294596603,-0.0603594264777468,-1.05229189415889,0.213636860031222,-0.450732579399269
FLhxBGMK,-0.120341014087154,0.740775702246875,0.704055157934218,-0.207103233984935,-1.06077051822233
FRreR8ka,-0.407961142976733,-0.535961321121264,-0.709128936602503,-0.458224921591374,0.738243977410032
FXne4oAV,0.222338561350744,-0.376228092694748,1.1891127358183,0.000230081153130422,-0.600972691013784
FaW764jk,-0.24871917268831,-0.527247823926005,0.752359560673857,-0.0157536366847334,0.194291967870815
FeAbMXly,-0.490856270280961,-0.323896920953422,-0.975121388091481,-0.706393520082022,0.680479893240108
FeudaFXn,2.67156374336098,0.180102455352278,1.91881813746168,-0.576971090909902,-0.4795579189523
FldUmFeM,1.93117814448552,0.661146261896576,1.93027963221118,-0.650756653144419,0.275030294968121
Fnv5tfAm,-0.396268532532998,-0.6750673985004,-0.868302341035275,0.0384506741615333,-0.715374601476976
FvrAd3Or,-0.293225533697597,-0.23157710490763,0.509111710921509,-0.58273939194156,0.516069788409453
G48zHffi,0.0311822221326136,0.985165008091329,1.60531798470934,-0.480211811396794,0.494545506404783
G76zCv5N,-0.371865809116828,-0.139008844243893,-0.275004419197659,-0.373166943401512,0.161821261529809
G7JGUdNf,-0.210250102684582,-0.289357635816187,0.597357448229161,-0.292692419934259,-1.20288469360336
GCo6MONx,0.856519111995416,0.0897833166290842,0.966610078656409,0.747610875665783,-0.658646073155749
GE0vbpVQ,-0.0150181107330186,-0.0578090098035341,-0.107430368707039,-0.50272108477358,2.14071038276043
GN0DfOqt,-0.578740859144814,0.626302565004711,-0.308763047342436,-0.657379282340141,0.791473232209365
GNsTAb1v,-0.634864613975918,-0.23976483208096,-1.05795374589778,-0.556042468015788,-1.06903794264352
GPwmO21z,-0.292065894498437,-0.290587488288194,0.190666641946844,0.184497982709791,-0.348154657717267
GQYpfLoh,0.886578715390192,0.377333474875061,-0.198137961229611,0.641602114626748,-1.18274012229866
GR9knT8n,-0.480132021771169,-0.0973857768719961,-1.16183517027967,1.00776108295841,-0.429546674707025
GXtFFbZy,0.0782196088533002,0.176591448533581,0.291936885432457,0.0409829785349987,-0.218751474078776
GYvzvvFD,-0.620304165340211,-0.0754138745719777,-1.13339251516922,0.449111467395225,0.697060074496201
GemPjTJ9,-0.581123837015648,-0.168851147146168,-1.25477422096759,0.263676318850821,-0.354171652297324
GkLYRm1K,2.76038161804437,-1.20953596904538,1.81339333114457,-0.497451326321388,-0.788801760276703
GmlqP8eI,-0.524679148054399,0.243991563351697,-0.970414320662714,-1.35101710710278,0.120558304054677
GqkIrOvf,-0.382547488755022,-0.441818645621118,-0.81599655929203,1.21011507196712,-0.505624841697564
H0fsegPi,-0.397642682802413,-0.0287120255309012,-0.128562884569298,-0.46748715775283,0.34770138435344
H4dHpJjU,2.34095620594295,0.49639386297252,1.7036845308711,0.487866194714301,-0.764995963088664
H5QwJCuU,3.24454610107768,0.716508121062602,2.30935500949254,0.226926962307071,-0.604418487862867
H5uwmSZ0,-0.483272391794717,-0.283617250768574,-0.296388686526687,-0.647125047706151,0.771599798562057
H8MtbVoL,-0.323915390382634,-0.0389068188542614,0.21997262284774,-0.512670609263749,-0.435447653113938
H9JrUYnp,-0.354649624461997,-0.0968414264183892,-0.323131907762515,-0.198460980707632,0.686179190975917
HHYmmHVk,-0.352194992510399,-0.32403643678387,-0.236107944776803,-0.888329719689541,1.11222341318871
HJ5U4uqL,-0.521268225020468,-0.629601544049368,-1.35587489599995,-0.197620010030555,-0.727850137530023
HNQxYc4w,-0.31303801862903,-0.409515137674545,-0.3962011052084,-0.46821462447301,-0.182224320573109
HQYhKHZ8,-0.38154075222652,-0.261980136897255,-0.475967107320904,-0.337779806371417,0.257957245429998
HSCMx0MC,-0.395445309945496,-0.0537196684660629,0.406140839726653,-0.621573835477334,1.10753138548546
HXYuE0fx,2.85676936131879,0.0409072786537657,1.65936762491675,0.177851290882391,-0.571292236365438
HdKcxEWr,0.0395987890732839,1.194410264049,0.130148037361019,0.508164992407768,-0.18412017565659
HecW1iCC,-0.460279173660838,-0.515644163067558,-0.967548513024205,-0.234914852971268,-1.14318632688238
HpbKB8rv,-0.453743297507554,-0.00764155408178943,-1.45715353689512,1.84562767457069,-0.842904320420735
HrkoYjCg,-0.0945453744538778,0.0475163730983604,-0.695145540392402,0.682520936769309,-1.11899203249973
I5P2uquT,-0.32440883855787,1.15112915652297,-0.207484872716546,-0.487869365008863,0.631987146577401
I94qkDM7,-0.689296627819411,-0.416486924154535,-1.49924506959022,-0.462587689531966,0.623776329508717
I9sQbtt8,-0.457105200010725,-0.348606450673001,-1.02339479825044,2.68567946390939,-0.786647202044601
IFxgw6ZX,-0.377806285858682,-0.616948106492296,0.0909368920651593,-0.388370481747663,-0.071101265165106
IPPPSyoU,-0.60411299286829,0.298907087764211,-1.01685158127835,0.225231926709833,-0.98551959968609
IQOYQubU,1.67997406404781,-0.284131355619626,1.71337564790965,0.153179346527535,-0.670209292219444
IYNE2SxU,-0.417092473966223,-0.0170445395230741,-0.577971025888511,-0.236024017732607,-0.74159853313321
IZRFk9kN,-0.352693257632501,2.42415391362462,-0.00343389435666823,-0.167002349767721,0.247198440956462
Iaq3v0t3,1.93609173181844,0.770730512831345,2.27953328072539,-0.671837804572087,0.602808323153386
IbVwu1t6,-0.378755228990152,-0.328004786662856,-1.18669581012059,-0.0791417810901792,-0.352634088087901
IcHKTLyo,-0.184542074001759,-0.459950128388522,-0.00754030646402395,0.243540510219443,-1.28247036823155
IpW80wVB,-0.279544389368303,-0.290639567294984,-0.461855502267216,-0.124255138583852,-0.135331907163093
Itb0PYUV,1.74291607508861,-0.360297243660543,1.81582733904816,0.806344067698936,-0.749110380996982
J8fpSwS0,-0.434258508282698,-0.233268733232604,0.670906208849862,-0.757144480005899,0.791687308311373
JE1SlbD0,0.84861375862551,-0.00871591590019652,0.974844888162927,2.25925315475145,-1.01613537869038
JEB4McNb,1.17946582502096,-0.387514843284414,1.43979211297053,-0.244418382501079,-1.2604887207544
JEE4QVeQ,-0.275607898840225,0.156085128834331,0.297324122519906,-0.913045750335388,-0.809869383210532
JJSEU2VQ,-0.378890564993599,0.00282804841536465,-0.414069802462429,-0.406390358518903,0.970338303346325
JSsVriP2,-0.286936924757526,-0.5003326964112,0.893975305968677,-0.649931840726325,0.368523449043399
JUvQNiOK,0.39373788071307,-0.21153710904607,-0.155609141954596,-0.326978273911087,-0.13302244093868
JZbrRtm2,-0.0766597480334288,-0.169139423841402,0.986400084430469,-0.732204204308615,-0.13966511875161
JcE9G92B,-0.227742296988736,0.0339630737265857,-0.00583361860201552,0.528016697836478,-0.140200905421647
JnNYpXHr,0.1168537537334,0.587785725869481,0.177948117669124,1.38625160488788,-1.11927457103396
JzpbnOtz,-0.413182535368621,-0.0674309270942024,-0.316169409318266,-0.655579712129755,0.606331893469658
JzzUhPQp,2.31476194735555,-0.704832824684496,1.70770778161592,-0.431299715506302,-0.511382222922153
K05R8dQK,-0.348462232473417,-0.0535367422042833,-0.679039187447899,0.449957469742421,-1.17017315809685
K17pG2mG,-0.383868005968415,-0.460517001347788,0.88245606937157,-0.74153014352378,0.200898964560126
K8BellUe,-0.00191990224642505,-0.46085820521343,0.588947667686153,-0.243826176958097,-1.59212045554616
KJ2eH6rr,0.32861843520052,-0.767017075491291,0.169880019497385,-0.329506716514379,-1.18477806772617
KJEJ6Glk,0.394819753027921,0.491979421625203,0.946057193041902,1.35442525974708,-1.21300482088398
KSbO0oXS,0.733183740231046,3.91779510468958,-0.199542046410346,2.67247990276396,-1.08713213774413
KXtvmd01,-0.421703029482477,-0.249291084963993,-0.222175395002245,-0.441883894019504,0.575424536248075
KYiJqBuJ,-0.169965982965511,1.17131209235721,0.818341812930361,-0.821831914119553,-0.970238937049487
KmbAyTcE,-0.308101251525034,1.27410210828434,0.118500283635817,-0.233945690766761,0.364464242792062
KnNyl3rV,0.272599566902177,-0.19986176823995,0.601964898499066,-0.56095425220873,0.828163228443457
Kp2DG8TZ,-0.326265181222442,-0.18770633957368,0.0367319835175343,-0.521835266839811,0.662795567957275
KqQtKWs5,-0.524577120550574,-0.319298697265917,-0.742170978696771,-0.567591082207206,0.50057474045818
Ku27g63R,2.91919696878275,-1.41416836531633,1.7542016724802,-0.10909471818566,-0.784988777849751
L2aTVqDq,-0.288250067317048,-0.335473702883458,-1.31911460613261,0.837167504487742,-1.00748866759767
L5jvq6G4,-0.545396252003393,-0.210910653452049,-0.893069972793252,-0.662604867242569,0.491426247305666
L91hYVQl,-0.511386511670839,-0.291968932563505,-0.341083720579172,-0.830442725459372,-0.0448949405849648
LINAMlbA,-0.275394831549432,0.114315276094395,-1.02585168789438,0.274710792936741,0.58928486743636
LJoUNXSx,-0.392420729542652,-0.358741929824505,-1.30573480477301,-0.0855578239212835,-0.426027980716989
LLtSiyWD,-0.370420918005356,-0.221017333553675,-0.37139240011342,-0.34654371886808,0.0968853588309286
LQJtV8kn,-2.66516795356195e-05,-0.645727757901061,0.826929939274546,-0.217956315036414,-1.14309022476701
LW9uddw7,-0.305913996003369,-0.0545932527554221,-0.791021985627771,1.87823196618057,-1.1476731386977
LZ6sdBTR,0.962407617098996,-0.328667068671601,0.901683897750867,0.36043285384656,-0.74934591107736
La2Vhnne,0.11693058712144,0.152526673588653,-0.390151235995642,1.9713541173518,-0.463240819634875
LaUWSq9B,0.012302887515011,-0.186242479506963,0.107645467688815,0.0262034689592533,-1.23499004296313
Lk4SfkPQ,-0.329661871845091,0.0322847872965639,-0.431310656969608,0.0833878795278443,-0.878106644035644
LllC836d,-0.188659865014511,0.138171149983488,-0.0750264882685651,0.600142175469682,0.169780346809288
LuGiGeWN,-0.429894910911181,0.257644100939992,-1.12002911650128,-0.231350725127072,0.991663034820308
LzcyHcWa,-0.440280948342268,-0.280041094835095,-0.747198202184379,-0.536877799462045,0.803324319565375
M7veP0H4,-0.421414348758348,-0.353498616902911,-1.10361747624853,-0.395144515300963,0.641647768164416
MB8aaJUc,-0.669745688789706,-0.550651965371923,-1.51877118037823,0.355197901914512,0.0707973348556026
MDpe2zuy,-0.395515940778521,-0.330440954230738,-0.328802566526946,-0.420733217949565,-0.790233953325348
MEzdmEIU,-0.371142201073354,-0.289421769440258,-0.0844509584656015,-0.411944289429972,-0.0729054347131331
MVnhtivm,-0.213931452705891,-0.269167955462068,0.0954818275709817,-0.0657754214517415,-0.143144892136218
MYU7WDis,-0.240424386350209,-0.598689141131394,0.079358248205837,-0.706449981331496,0.455779079112669
MZFqh6yw,2.50167405662012,0.983886111784645,2.42719471011287,-0.197386663698192,0.393606389273882
Mdgy4SsO,0.0677025591309845,1.54367165567376,-0.614439691908639,4.38480256382349,-1.10957778023389
Mj8awnzy,-0.204369011900623,-0.178899626673222,0.0990929957609416,-0.675805569829468,1.10864061264454
MpFPbUJy,2.24417757464429,1.42032970967918,1.65178620461231,0.378483181155334,-0.723786288634388
Mqk7MFBM,-0.461367578751487,-0.0769551643374277,-0.201436011998731,-0.44368903986509,1.46297174728465
Mqs2t1Eo,-0.464634675063136,0.0279292659429077,-0.850373232089095,0.0985479427650837,-1.06994519284008
Mv3jFVxp,-0.172772425353026,0.0862450860889366,0.460751921948465,-0.196833311379641,0.572335590511422
MxODTXvA,0.113390657934873,1.18223775082121,0.72771825112225,0.0765187756388473,-1.17039680555059
N46PbpPM,-0.423111282164761,0.54873766095427,0.70336391823417,-0.713139677952937,1.42186061832172
N5S5F9Gk,-0.654826378831432,0.0958124928218392,-1.87701684648099,-0.490185497408274,1.06103102311465
NLDg5fqw,0.250411019599564,0.167688258728757,0.434019349355308,-0.606934457820663,0.768885862383296
NOho2ZiM,2.84203805811581,-0.877319297663546,1.73216232626447,-0.0385740657908758,-0.695435295557937
NUuY7PFU,2.11632439332026,2.60956757588473,1.85818363707448,1.11889218689357,-1.06449066338765
NV1e8AEO,-0.333843401688205,-0.456301068970546,0.217527898097216,-0.335279332046209,1.09929545057001
NZLXROKC,-0.0405463863828062,-0.0190544383957026,-0.233060419404525,1.69354283288754,-1.29625258463367
NaJo7C6o,0.163689802082461,-0.281182631829331,1.56663408409165,-0.168870704869916,0.0441592990834784
NgsyGkrO,0.0278838145419934,-0.046072158936694,0.904889372010678,0.333518559087874,-1.30364340298375
NjOx4Zpo,-0.404938556554606,0.0198859153951097,-1.37826556620902,0.668777330394795,-1.59401254265494
NmQoI7x0,2.4766287306444,-0.355814935730228,2.04717065085385,-0.867143685865696,-0.47503639328663
No4wkdLS,-0.492783206343581,-0.0766355162403875,-1.28615862226007,-0.812156360219489,0.118291754697476
NouMwhOf,-0.0965694358608749,-0.196652128917817,0.120973771494453,-0.104093173556961,-0.735710031853248
O6YAWd8C,-0.155265165765504,-0.470332212314917,0.393066557436955,-0.0850311511462943,-0.838624922125578
OAXVphSh,2.55989250680302,-1.00002020016244,1.78453208047554,-0.219570638037778,-0.0587908920258135
OJBBhb6Q,-0.482832973134072,-0.267156804134256,-0.577206487019419,-0.785889257532547,1.07127934072037
OSIQXImL,0.22406564968589,-1.25813515537842,0.27704940235567,-0.0324630377167838,-1.02375828489659
OUUFc5Zz,-0.442551947853637,-0.137257105588911,0.23268403801391,-0.710602434925474,1.01350201773782
OVk1lquT,-0.0394672520285399,-0.2109488588121,0.636169764873521,3.22172167504771,-0.504420070231351
OXdRxjzz,-0.244563113480819,-0.219068900946202,-0.615556346511441,-0.0336847523860428,-0.436307047851817
OXxW2ekf,-0.391118320430642,-0.346884743371204,-0.58172423333287,-0.465383467652713,0.162018781165273
OXz5OpqR,-0.0966182036425061,-0.279712836084949,0.43166555178537,-0.151202751110572,-0.193710143126288
OcBFW1AX,-0.423312002323475,0.54811916229569,-1.15306103056657,0.193448635229404,0.735802703444696
Of9V2rpt,-0.272857286708141,-0.515739534855737,-0.142687407259091,-0.0718354047985832,-0.815823801433774
OfLxPhbG,-0.315668055724852,-0.0291739598160102,0.40605948049148,-0.173994375417559,1.32034066547858
Ojx2vi48,-0.488829623977276,-0.185938671217724,-0.786805095972907,-0.674931676219215,0.538140685559491
P3M32iuT,-0.475124779305546,-0.331708844796614,-0.488998628498151,-0.73055166580656,0.439141552655067
P7olVzrO,-0.414604043988368,-0.354990020921231,-0.0187811017445121,-0.329120664530788,0.24239640461492
PAPHErnv,-0.457149190653297,-0.0820127539777982,-1.03499736811487,-0.253616691314158,-0.226797164107117
PBjEtfXb,-0.302248597078153,-0.244896735015546,-0.0287505070954116,-0.402830878356292,0.604031474259556
PZGpoBBj,2.50168616422925,-0.654398905268573,1.95239677205154,-0.307801170463394,-0.722393749352516
Pc2RrxXS,-0.414166021161337,-0.4833744940588,0.0466126761085789,-0.499529359612706,-0.0631175316290255
PcHQ4FOu,-0.448924933439082,0.0881050153403163,-0.707771865234779,-0.384374523159645,0.457669300922483
PeNyTOVN,-0.418891732138123,0.850945605097222,-0.603616489347289,-0.220400093644584,0.621163054594126
PhUPSU53,-0.450417618589487,-0.113727042183046,-0.385643437827561,-0.0162564575719842,-0.427903893059555
PmUNeV2O,-0.518068301624116,-0.448606156733753,-1.38887171783034,-0.894396516180015,0.362707611055675
PoDJ0uvK,2.1426093689518,-0.0997162663701891,1.57681604824052,-0.325085735328776,-0.763367473245955
PsUJdJdg,-0.21233043714211,1.55704773794271,-0.656982307573538,0.323725449151189,0.461008672611369
Q3xLFx1f,-0.292820138501471,-0.211807091500567,-0.178374666313139,-0.141183919700893,-0.862677919974603
QBGxCvdM,-0.222378536615729,-0.587022216305534,0.274023442753082,-0.362652700702304,-0.685420149648665
QCEPyu6L,-0.651224474190545,-0.175554274695201,-1.27352299270359,0.442622183419146,-1.19648094883618
QEfwec4s,3.52674748828042,-0.609688267331206,2.10432047260355,1.34380584455309,-0.748306275660828
QZ87Nnr3,-0.464348328458709,-0.346645261263516,-1.00799702672982,-0.673218250886078,0.81451331307003
QlyGN9jv,-0.548222533487559,-0.147791478663584,-0.788445254565777,-0.480127029201541,-0.0605580934450651
QqgWE1ny,-0.36813361710038,-0.364953817895272,-0.47536168537501,0.0325067486251773,-0.281999616021557
QrjjBpZd,-0.385566498131813,-0.355386307846818,-1.19768971664286,2.79581048532014,-0.94035049307241
QsaBiX7V,-0.42876677016415,-0.0524307251419553,-0.582287589868293,0.00311573645768848,-0.137895321726586
QtBKJuZk,-0.131003675894971,-0.308301440699902,-0.0533852181204335,-0.399412296661148,1.6444793248088
QtPRO8OJ,-0.452942641403362,-0.330596006987308,-0.848322934828375,-0.581873073977275,0.460974342970363
R8XcsFnp,-0.501350332680011,1.24130861758813,-0.415642221723996,-0.56305124630521,1.41672110712361
RROfRt9z,-0.0465344037174662,0.221874244489703,0.32582712460356,0.240143674459166,-1.07028372768225
RTcbiDGq,-0.42474273530226,-0.389573231303515,-0.584525406000574,-0.228768580310417,0.109587909426688
RVidM9g0,0.047783961433599,-0.00509634898982004,1.3246947416863,-0.700028737913364,0.621430800551385
RZnQSH19,-0.535221629016646,-0.172935492896704,-0.44991273061442,-0.654740750243201,1.11486616842361
Rc4UK7fT,-0.586707507236133,0.505746941252309,-1.18265467962882,0.0862059796554378,0.905502499729274
RcKBKh6B,-0.443573345869417,-0.129598552583082,-0.139598874909726,-0.291686528852293,0.974359517010737
ReM5kDa5,-0.18420097278238,-0.325502451768476,0.0252554522694156,-0.0078119946198489,-1.04681233236374
RfntsotG,-0.433526384242396,-0.241287028213685,-0.0194992489322108,-0.714291316277604,0.698458225104118
RiXMlzXD,-0.371966498354524,-0.198956076649271,0.0420118277056053,-0.217942302326391,-0.557246735525225
Rik83O3m,-0.425749826682047,0.109434367100268,-0.286931852821528,-0.341705133614965,-0.323371038239229
S3PCzDzO,-0.12613133870987,-0.619357937481361,0.0983758766036331,-0.586760398188897,-0.35651361891285
S77BviOJ,-0.469927671098571,-0.044572309291731,-0.584817513452745,-0.330872404709674,0.68527993980001
SDdvtktF,-0.285503587144579,-0.423856973015225,-0.277922535620878,-0.166295910784356,-0.841760400674388
SHs1AyfM,-0.26135378541452,-0.0402455479459543,-0.0294413464428426,-0.286277171610474,1.18385118499987
SO4zQy9k,-0.393457092150423,-0.104311086873612,-0.252555022136125,-0.436167824270833,0.550561278273674
SOOBCoiG,-0.322104715393463,0.521533493351526,-0.0748747179847769,-0.461575446081908,1.00459117559875
SXkkPB7A,-0.365033561137376,0.730458575447248,0.494498641837153,-0.47605378091781,0.967794849213602
Sa93dGqq,-0.464517537701887,0.437198638396463,-1.20056714547422,0.532004741165203,0.698057360046834
SonIG72a,-0.523920122944069,-0.333130303497365,-0.93237205041026,-0.35763191854494,-0.0645013698126638
Suf6hIBc,-0.431868409379522,-0.194287127897069,0.260661889777516,-0.488263826500025,0.627555220820501
Sx2JeSRz,-0.204794344498266,-0.283582842102527,0.0985130505244146,0.217075767529997,-0.475304597464814
T1Tlftr4,-0.156714809128684,0.365837684320554,0.246841547399775,-0.68987752256044,0.781706408637599
T7ulR4ci,-0.34134573392147,-0.31023285639848,-0.0645644560705486,-0.78571491682684,1.43813441142657
TA1NB3Br,-0.356429637953521,-0.157980757493062,0.272561315611137,-0.40396865772262,0.468442093761358
TFZUskaK,0.0122673469377757,-0.364982481571114,0.02953057671375,-0.0853290830657768,-1.21775225327596
TNL8HGWZ,-0.303803351081925,-0.891526425037304,0.17174555061749,-0.26900100696142,-1.01706835574296
TZ8z1GSF,-0.353470393635045,-0.365328029041451,-0.218805629336645,-0.489320572372122,0.628702854525895
TqhRvkJJ,1.56771038571976,-0.032014771072554,2.30837056219881,-0.736098261538342,-0.430443438856943
TtJCUiY4,-0.471520052383213,0.324516109618127,0.557593639709477,-0.783013733413635,1.01625611466969
TwDq0lua,0.869158965551266,0.829740861842692,1.69184667485302,0.0669104290745275,-1.4256875650729
Tzyf02sI,-0.472325710802581,1.24533969176607,0.262467737129326,-0.460510207939893,0.916123282531741
U3yI6ZS5,2.21495343527598,0.359221165716142,1.9582780028262,1.05334789617305,-0.781912155183725
UBLnXZAN,-0.595094572579575,-0.395916052554974,-1.32281565741227,4.1839628021247,-0.285878874430879
UBWDzleg,-0.259359633959882,-0.320828585691651,-1.06506581244557,0.415995865403925,-1.06862568428487
UBqkX6SY,2.00209326810696,0.830788223625564,1.73100481639919,-0.235163618179849,-0.539810907600333
UCIAi1Aj,-0.471059189179246,-0.235441338970857,-1.21406571982111,-0.488844583521982,-0.0336090536283965
UPbXGvCS,-0.188262227930782,0.145682265166421,0.158845229523247,0.119025895750164,-1.53772463023184
UeWm1l9F,-0.339713123940382,-0.0272466913417646,-0.971344697552052,1.46407769490055,-0.214667907881251
UhucscY7,-0.146566585898858,-0.422597025622475,-0.891498691505338,-0.459113547268345,-1.06305350978038
Uri1SvHV,-0.17856418148298,-0.611840693996044,0.25261086252303,-0.291035410887458,-1.04299711964624
UzxipGJS,-0.45640431503758,0.0735090355196178,-0.40594868254149,-0.357894167885853,0.50890700845568
V74zfaAQ,-0.153029025170383,-0.234911279809857,0.032771007550598,-0.0113453585701677,-0.767175352269275
VBPxBLTh,2.18814278178955,-0.168737266556555,1.84701229243783,0.859554996580134,-0.830264702792613
VLG7CXYS,-0.262969631573085,0.0390932724986527,0.0074682063942301,-0.32416006173992,0.700710024870684
VNk52SpF,-0.365638986298111,-0.544384196176776,-1.08507390390151,4.56753312431599,-1.05362693084735
VOREKsok,-0.457591901862106,-0.41929439478204,-0.633727214125944,-0.764203794710017,1.28257515681254
VRhTr5pX,-0.434404558556386,-0.182649091143631,-0.151563428810541,-0.561488688994239,0.274017479367465
VTcG4Kcw,-0.195744372473702,0.645730348145574,0.509061349300841,-0.486395127979687,0.424777787585065
VeKiWSbS,-0.291109678033715,-0.227425848872175,-0.0291721784822012,-0.375390781820213,0.456837265060557
VnU8nJHU,-0.413668118154295,0.3807922612542,-0.107302233155407,-0.231823100586027,0.0352674628663094
VueNCxYv,-0.459484166966136,-0.212999829141607,-0.874905562626446,-0.341731288692214,0.36242283016479
VxuQTRUl,-0.422874698672358,-0.0096953683464295,-0.301159722874567,-0.437410204388556,-0.000794868790075303
W5lgaocA,1.72014330512312,1.31514689122997,2.3110522994802,-0.378910782253971,0.131975773581331
W5mMq9Ef,-0.312041187773951,-0.308136779793298,-1.00671113058896,0.167133750011996,-0.0582943982258739
WDhNqFpS,-0.00620413861245404,-0.126627291565619,-0.541792841964493,0.849065612907777,-1.08127492021622
WE6n1kZi,-0.415486047597061,-0.085139163667266,-1.47781942290447,0.363510643889143,-0.297926140697663
WFk6r3vA,-0.4357336292941,0.238515088647769,-0.264006789344242,-0.268470944382663,-0.21800419944391
WFyIrsUR,-0.298957284976775,0.128337283124694,-0.661380226847241,1.69324288355578,-1.00157656781354
WG6ZAsqR,-0.443968916263928,-0.311474692418668,-0.344405589703806,-0.771271758266182,1.1934693754957
WMq3CZQk,-0.431476353877933,-0.00320963753529155,-1.09482313155131,0.504588305556604,-1.37705423036867
WRskmGjh,-0.453143330116684,-0.0272680355431602,-0.655817627103912,-0.589285364105267,-0.524260639640455
WXijSglj,-0.427024386287366,-0.503136547071505,-1.23091068355454,-0.310071450078695,-0.835851936815056
Wc0stQgu,-0.265706854860918,-0.266807365860781,-0.491027714658833,0.425113781270463,-0.725604600434594
WewoSCUB,-0.587674885003065,-0.318092146366337,-1.2478665259987,-0.785294981304347,0.713024269751415
WuHuhHWJ,-0.246358566318665,-0.0210400643488755,1.20586830307382,-0.752412402117569,1.10070612709346
Wv7EBtZb,1.89921056876261,-0.0804368420118718,1.75006162429774,-0.0257138906306914,-0.524598202393959
WyPlxDn0,-0.437305354399985,0.00909942559291703,-0.399331043944486,-0.5151882315859,0.783495697166094
X3WqoSNN,2.18469636153813,0.816971028997913,2.05114844147002,0.87662713200661,-0.858808441104462
XDhyP9KB,-0.428996198012549,-0.101500792026996,-0.307046837849162,-0.0388075597955817,-0.679753603039662
XQxhDRMG,-0.566080270854612,0.307810804452209,-1.23950736498306,-0.0476484870014888,0.757812419432054
XjLNAwxW,0.00439359583674042,2.3700622114365,0.0209434821234644,-0.00948331249554028,-1.27348105586161
XjfVQbXd,1.10463175515296,0.0259113008579874,1.76097058781808,-0.339409614628929,-0.65420843031557
Xovczbf6,-0.504116874818662,-0.161188417557621,-0.734260131689323,-0.733083145346951,1.1823525789963
Y8H4onBf,-0.519315108211384,-0.24109241798037,-0.65255283415102,-0.656978883808413,0.763554040292339
Y8YgzSZ9,2.00160203199669,-0.936569517999023,1.82525754708487,0.335788309504297,-0.565178458619949
YC4PNV20,-0.400358947863767,0.111713289978314,-0.228420886666141,-0.540170977231628,1.02947765137508
YDHSCRdd,3.64483848587624,-0.416641090206272,1.80119488625825,1.35978495051387,-0.707367621747472
YIJ87aME,-0.365891024430884,0.368829460988247,-0.533275791234618,-0.734755286934,0.21514034226409
YKvT4dFv,-0.327794748337915,-0.224312084598001,-0.309418188553064,0.0820176469267646,-0.209857285664371
YNebALR2,-0.539055074905843,-0.331218627337739,-1.08072586528354,-0.234335895521576,0.704292988383927
YNrnqFyb,-0.390638692765679,-0.028008061087159,-0.151206074615191,-0.249260076156782,0.0812347328229686
YUZ4lR3m,-0.373422878231453,-0.512939881776325,-0.640118245682534,-0.206621605403535,0.457720751850477
YYLvjoVC,0.276500907762384,-0.298435015000299,0.0708065724255175,0.054728400932399,0.568673262287684
Yb8OtMb2,0.244486242930762,-0.168683335300525,0.495428710265816,0.0321655938728646,-1.21315454690636
Ycg4lTYw,-0.34786447668575,-0.486810687365042,-0.855577278851031,0.719231666355956,-1.33526631018361
Yfk6tekH,0.143271058605846,0.148816762635051,0.781008118152661,-0.211961395637555,-0.653961419887981
YoSfgmR6,-0.469903964177423,0.244603759796961,-0.598276442370723,-0.622055799515864,-0.09095473317459
YpzFvexy,-0.33437055333829,-0.157567340683964,-1.0023781612245,-0.0248868770072697,-0.514101056323767
Yxqppfa3,0.169692248349945,0.349914341331472,0.219245266483498,0.314554137962594,-0.79729901158719
Z16jTUvP,-0.337966472613281,-0.280598378968637,-0.744624184018354,0.146985162270343,-0.355769758985677
Z2BdCCbJ,-0.338942226032435,-0.00677200059159489,0.408297336181583,-0.341847996842746,0.972311977179621
Z2JJMM6V,-0.271500730478361,-0.045830590213379,-0.141970865471197,0.004313736534595,0.0250102782370519
Z5jE1OB5,-0.25206460108879,0.0815769310503068,0.173799181470324,-0.0895687626821488,0.24956751994292
ZFsIqYxA,-0.393719000433631,-0.173470216528399,-0.515222476607728,-0.20933951276146,0.228266593098398
ZHDVsoRh,-0.225702478013374,-0.364215668516443,-0.185629562734937,-0.152194360227175,-0.0750228785075554
ZSmfu2Fc,-0.451405497965308,-0.483755193056164,-0.581070644148034,-0.279084401905035,-0.439526189863611
ZU8YXF3H,-0.466340248287515,-0.462661115382063,-0.438309431748813,-0.792742295106806,1.03840772918747
ZXKaNy6Z,-0.171229509426447,0.0594082218422154,-1.21835862057612,-0.487099537426822,1.28501766567389
ZbYLo0zK,-0.0855908844100037,-0.127435427121099,-0.36660283595176,-0.507780421752518,1.57541933171946
ZedN8Gcn,-0.352244451160356,-0.343379555313876,0.0828933103117315,-0.401157137634134,-0.256649120112884
ZgD4Dau6,-0.152508967425131,-0.439885932210854,0.312127184253719,-0.309230686117759,-0.914356617320652
Zgzf79LA,-0.585183948303222,-0.0309079061707403,-1.41980973360854,-0.717829216748268,0.628429540576028
ZjqzxDOF,0.554091645606954,0.639347883077744,2.25441242183726,-0.580765679260657,-0.0330638097328849
ZsZ5aDpq,0.309606087910654,0.128417062720564,0.422869922798948,0.984866631832358,-1.13409442745261
ZtyqE7If,-0.0953118647744798,0.00261350794338272,0.137031508135529,-0.0634775179917788,-1.28550404891666
ZvUgz01f,0.193104676371842,-0.0710692547948927,0.626576526778248,-0.725600945491094,0.516489087595563
ZwrhgdQV,0.736827618777278,0.441176919614171,0.817331350402356,0.65137816685651,-0.327207298790257
a7bhJGBU,2.1889437688848,0.330076681138986,1.94688809311247,1.04742104064939,-0.822294167483333
aHpv6KzP,2.9858152355424,0.32656449893972,1.9514953539285,0.74501445785971,-0.821720759714796
aINzEBVN,-0.472816048035636,-0.925600092572519,-1.30822982490674,-0.633576771038735,-0.699557326478559
aP9EtTGF,2.51681607003179,-0.211253509411148,1.6618143914374,-0.415133112314048,-0.45986563811035
aV6EhtSL,-0.405460040706415,-0.195246082181335,-0.322274538671378,-0.532844425611243,-0.166312368340595
aVZsXKoH,2.14843456370031,0.171239905262827,1.89934301206897,-0.454683121638708,-0.550834124410639
aYVnVJvc,-0.11255234947876,0.396629908652436,0.36140192048601,0.582119421347182,-1.06284526241436
abCzN1zx,-0.384777808789283,-0.23003109644119,-1.06611100062281,0.271024250053106,-0.849499314891679
ae7sMiB4,-0.198148291575762,-0.0141769132730925,-0.406349176304501,-0.342637079034687,0.511803006927033
afsVuCGV,-0.461924165317482,-0.458165895029403,-0.703818074300086,0.243770004548903,-0.42309292979258
aiwBQETI,-0.212342757620684,-0.75400884484058,0.0720404988644784,-0.396831334875178,-0.630710738804918
aiyli4EI,2.36269500171034,0.106858302401942,1.7444548027795,1.47819159427947,-0.598254102247885
apJ7NmzD,2.66264146122525,0.292056439876844,1.88360179789855,-0.2568019649177,-0.557000512808529
atVjNMtQ,-0.392519440757477,-0.429375372576698,-1.25846000832385,3.85122064437891,-1.40873911074134
b5GirVGV,-0.445656940282937,-0.216627473523187,-0.0595097627389025,-0.716631978895692,0.848529065665534
b9SpMjNB,-0.229256097786836,1.18749804100897,0.604989391775369,-0.357040093659061,0.671164271753677
bAFs37yy,-0.380485110093761,-0.269872941953409,0.192485427529453,-0.615068259283271,1.03422037372961
bDia1hHV,-0.244224889685985,0.363567929495619,-0.16195131402053,0.123194818420915,-0.983816080403954
bFkv5Mtr,-0.430549444859354,0.812502896792565,-0.274532342096143,0.148056513642193,-0.216171720164221
bHe2IXgA,-0.520866057024368,-0.0967791192980888,-1.15354711634385,5.13867698214656,-1.06662452590441
bWX3vUm5,-0.0709643861062209,-0.545469151792128,0.0254248567198024,0.179868044877625,-0.741320037281214
bat8tcGs,0.263937327034672,-0.199045085217443,0.316647619099552,-0.160852605726541,-1.44780203009707
bfjej4wu,-0.42157147433612,-0.362935484624254,-1.11425893254772,-0.225503141112819,-0.986568417400859
bh04YDiP,-0.23842051635601,-0.145506274979627,0.195827075978531,0.189470629657432,-0.600413094030971
c110Fdc8,-0.361107122196747,-0.348514350951825,0.00195358191118541,-0.490248128538378,-0.0284902289073774
c32GUzMa,-0.486922125740531,0.233407654140807,-1.69508102507734,-0.14122040009488,1.12271216241035
cT6uU0B0,-0.462488399934712,-0.0676963564675419,-1.0564884985424,-0.400328310475373,0.866492361365467
cWXCiFwh,-0.466944051754102,-0.18672905247412,-0.725220347809081,-0.465865876639955,-0.637665862635013
ceNvS3yd,-0.460875865801267,0.14213696124478,-1.31971279109609,0.162894675272874,0.00446456643621838
cmwdt4Av,2.4850155637627,0.264540390282437,1.97990145189675,0.376820866128354,-0.517047848082678
cn4EHsup,-0.42153074694999,-0.212228516089851,-1.32820063821073,-0.35326686899738,-0.182292656572871
crVOGGTT,-0.487957714686781,3.87173905119056,-0.562429893929423,-0.244705224230549,1.02007143962097
csPEJ1E5,-0.416491277195312,-0.141276979709131,-0.484590010640292,-0.627887625809492,-0.320900025650387
d0UrRtMk,-0.363382238784547,-0.251758689769504,-0.517055757628719,-0.967211804001952,1.21904854207801
d6LU4G4I,-0.450541482525067,-0.327120543147485,-1.6550470391508,0.602953594177685,0.0931033780432613
d74T1DVv,-0.673653826785644,-0.458750530060578,-1.09539410594048,1.50707674647011,-1.11172102743447
dR6rM1tQ,0.142539570918251,0.0357799589294244,0.606266223391018,-0.056215264988833,-1.33842413042328
dUNxOoqg,-0.283139172553247,-0.0973859214296611,-0.937049968403389,0.0440032769162064,-0.91422388413575
dUnlyhj7,0.442897054621436,-0.471075689883284,0.93918582719584,-0.762441006779317,0.166820434984804
dVDlnZQ6,-0.274916550292748,-0.70689774469007,-1.35757047832075,0.243289246624263,-0.790357438839525
dVT26GDu,-0.346309939428645,0.198906457101265,-0.612793717800766,-0.45477993060757,0.774766422686007
de43ycXY,0.139253601543088,0.0519207475650637,0.926740401559183,-0.812031984136735,-0.1579668503761
dfIn7m9z,-0.314041982534814,-0.323379029842576,-0.112417504446015,-0.014886477225394,-0.380737181926271
dhmb9ZY9,2.48434144523717,1.56744640842717,1.79276204585676,0.8354217645983,-0.747552922380211
dn8kCuyf,-0.161791821635026,0.26370673431238,-0.427441537774843,-0.606210664189962,1.46007644406657
dpcquvWW,-0.33392657145533,-0.0744670385215447,-0.0757058380109499,-0.330177623653171,0.052489937751633
dqcbIMyr,-0.68647717197698,-0.399346766392987,-1.43794537583072,-0.21584896633391,0.293885441278714
drWgsBf5,-0.295447306069606,1.7398400294303,-0.266346463264513,0.705859862902977,-0.787745228652422
dytx0HSe,-0.451698748567495,0.576117869097887,-0.681497944053758,-0.774102862945047,1.2359460853077
e4KkkIha,2.49062011796272,-1.05225776749212,1.80331931757669,-0.360638127460477,-0.539132030735671
e9YorH4m,-0.418634373016382,-0.155011866128817,0.913871415904969,-0.845259578164255,0.207025256941269
eB9gVQ0R,-0.565876683256705,1.38481161967282,0.14965772578058,-0.587929828034059,1.29728236429518
eMhLFqU6,-0.629940759171176,1.01549021219879,-1.20347234781578,0.631059703218433,0.194588995978372
eMllg1qm,0.40916511819167,-0.397802693766061,1.30376467268711,0.0607677956861722,-0.71167999770471
eNPunZ9i,-0.662439973353914,1.10298209541223,-1.12148059072245,0.743689431865201,0.371921562855636
eS5BSM4J,-0.30133323199731,-0.204640887214765,0.178224773857002,-0.717299657705458,1.07523573639542
eVGMFoOI,-0.348376559813397,-0.348358775538106,0.342562396557641,-0.592826757989549,0.681866457583412
eaIwb3rG,-0.377869125991277,1.79856690735095,0.799041126508965,-0.217155909707832,0.935169797975564
eyzw8Vis,-0.441820033569588,0.570128532925678,-0.151965805920401,-0.604991195513362,1.06219966455815
f04Ke2bN,-0.299297378771775,-0.140436647267598,-1.07907409814745,0.0421225281027944,0.141434851744498
f4GA0te1,-0.370833792780298,-0.296761086231414,-0.431815566439286,-0.569533181421832,-0.110959371048338
f7bd91h5,-0.322974224352659,0.00730777523137931,-0.269820293967382,-0.779396083826039,1.14558781090102
fB7z9ndr,-0.452005082355077,1.67005333684504,0.0352808986593943,-0.568562405039584,1.1588238783461
fEe7AWFA,-0.0492350582112958,-0.025938411128923,0.130913148879781,0.136723335271291,-1.2620591510062
fJJIbgY9,0.628464393506793,0.719865121130851,1.33120992561247,-0.355800642382418,-0.4806137798083
fQBURMvg,-0.361212596393126,-0.175800479464143,0.112050668068506,-0.425605153549998,1.02595960434293
fS0HpOub,-0.394393687060382,-0.126872270647329,0.436818757136728,-0.571220920195059,0.583812740418348
fTDXauuk,0.0164147364253452,-0.612368393083068,1.05841670237502,-0.532331645152452,-0.488991018119799
favPNA2N,-0.279643323081463,1.65556680551144,-0.929466991070245,0.4464698319325,0.834217974517132
g3Fv0U4k,-0.44195419299271,-0.675689345478892,-1.07011988716409,1.37608348572728,-0.332286257047935
g5PKo2E2,0.144618551737647,0.132371307127249,1.44557372940441,-0.341560576763797,-1.04687165945873
gbjnD5fe,-0.446029779970635,-0.38186201021327,-0.520299478592443,-0.666273290150969,0.833985206287763
ge9zqXCv,-0.266394042161171,0.124888058211773,-0.508080912022321,0.24917527981366,-0.794091980834988
geeqJpSE,-0.458157694678536,-0.389994081522054,-0.361598981027683,-0.706524618158674,0.791721013770994
gqy1J2RS,0.814747965951089,-0.205384182958574,0.259058590223067,0.442181263667475,-1.75361652376346
grlUtS3H,-0.206655452350629,-0.138567008799039,0.0538014007085841,1.26448248946804,-0.743353288673579
gx965KYj,-0.209348341487836,-0.21900624134408,-0.283520776937949,-0.0154968988510549,-0.354636909641339
h3F08Vjm,-0.436508660712069,0.561796911496336,0.36035155250646,-0.547384955361772,0.717370504794432
h6FQG8Iy,-0.409135323243591,1.22151914248095,0.837473606107472,-0.70877803434586,1.178646251898
h7ftM8b3,2.15014558149003,-0.707662992441313,1.73311483570642,-0.409133491959366,-0.704362877595105
hLrCHXZv,-0.0935481513236659,-0.555315191144348,0.683363500880684,0.0771455054440589,-1.19955796331885
hQ6VBuFx,-0.534169928431449,1.30552101526812,0.106322672143614,-0.519355339403521,1.29115318191282
hYoR2y7w,-0.477121876680247,-0.35524081870062,-1.04528340971104,-0.206668002782893,-1.2588803969776
hf65yZkM,0.43259588028502,-0.233426055423658,0.437372495414391,1.83860661093694,-0.965815914524432
hjuwe1x4,-0.343420066761191,-0.251968156456613,-0.0918325475610877,-0.62192410745664,0.141385614357647
hyINlsFR,-0.396469953364445,0.208117511103877,-0.829936889329666,-0.300987920712806,1.02586998966252
i0Qlm9Bv,-0.158571177220433,-0.364843995225401,0.519572642372332,-0.521177753886805,0.955511763076486
i1VxfxMb,-0.269909647046415,-0.29141620436971,0.528102227720556,-0.736618511812345,0.991353097471176
i2l6jXNP,-0.452273395935383,0.73473343963478,-1.01253437699378,-0.0142163449282017,-0.323636314687642
i4FgPZv7,-0.378496724051197,-0.0182350939504155,0.427398897604288,-0.812663305949166,0.725591977725639
i7XtIkSi,-0.338828577721928,-0.0402784816028112,-0.227133581049371,-0.292809506742933,0.587309221420252
i9z346Ut,-0.330540488937576,-0.356000124888747,-0.547886371523863,0.479125314003744,0.139936037755391
iDOat4cZ,2.27931686160334,-0.402987853827127,1.56414868525575,-0.535191604217143,-0.711634107685875
iNv6RoSO,-0.276002227881206,0.00502645009794867,0.0613328413695294,-0.0318988680810584,0.496955060298208
iSL9NYzy,2.76726703037801,-0.30254282733565,1.89225551846557,0.899141126294851,-0.877589956629736
iSqVc1r8,-0.0208118446194346,0.115871390288848,0.417019397899185,-0.690572297960669,-0.0795821298413351
iYZMftt6,-0.329851542240266,-0.420200214824943,-0.255250832448428,-0.291355196787049,-0.862538512730853
ieTPaa3c,-0.30974153892908,-0.0609767527546105,-0.629404216631109,-0.110650899074895,0.152847972366557
if7BmzU0,-0.424613365208266,-0.382232568989718,-0.296580411042158,-0.668272833808089,0.737705278550389
ihNz5bmx,-0.304692130207965,-0.277001256735758,-0.458620398173605,-0.0463285981977587,-0.851131702469919
ikJXKdIN,-0.512829009924353,-0.547644945440393,-0.898635604521794,-0.814662447853862,0.658061220415765
iq2kxikN,-0.206495420074707,-0.187314855496962,-0.072102390911693,-0.36358979365247,-1.0336011579103
iuZEDJK7,-0.454601055006983,-0.336777714844314,-0.277810066140019,-0.732416971384138,0.712794301756524
iyF8gVT7,-0.501271093125767,-0.331635520358132,-0.0868077240749435,-0.870377072097931,1.04497460877331
j06qdQ0V,-0.354300929760779,-0.000918076601531378,-0.485080817787066,-0.17409429030689,-0.0387795707659934
j7hl8svO,-0.0319606527919578,-0.552059841067583,-0.193919612550088,-0.279706169873572,-0.814134723669692
j8hMoJUN,-0.49484421992405,-0.129105330972037,-1.15068633823747,-0.751303819336349,0.0592535828408561
jNaFasbV,-0.539852741525104,-0.306682247843288,-1.13445168080201,0.451362762816818,-1.09573701338531
jVVHeYHT,-0.34562255070151,0.124624677775973,0.26182692792418,-0.680102933262553,0.199030165349455
jXm4ySvK,-0.29167685958436,-0.350072704072623,-0.448610676263927,-0.271616158082907,0.729472943212666
juO5ii5l,-0.169563579624585,-0.519386921453469,-0.125017854940427,-0.533186277879914,-0.292849875645944
k2hdEBsU,-0.314769706143216,0.013929887814682,-0.196951883620781,-0.698392681066922,1.03079262502363
k3ynMfhN,0.37536996055561,0.100654172552707,1.40270598291274,-0.461489030963422,0.325220517124384
k9C9yBtr,0.0801287512125285,-0.622002102069095,0.229244088381603,0.485475163624805,-1.30712999026984
kAKRvcRo,-0.210288848165815,-0.551076178546306,-1.09054751147075,0.914795360133845,-0.904569417243006
kBi3R2oC,-0.209040863027204,-0.496762477274759,-0.367515096202595,-0.324092979405735,0.159871082376659
kDWmnsXe,-0.241287525326729,-0.0397825684040055,1.09202285631923,-0.386535748315203,0.545493351317498
kSGBd2Vh,-0.463061410216997,-0.330652132800517,-0.135877771279063,-0.772802163096525,0.641192355661355
kT0miHPT,-0.403836224602407,-0.162752111322427,-0.134052317066735,-0.364009366916159,0.299787118862006
kaW0TfRn,-0.379855484915189,-0.0878117837089469,-0.591747185115546,-0.528073546403546,0.0283847673570671
kmg3SowO,-0.385201371553754,-0.201209210243933,-0.988152725609339,0.505525004158018,-0.0676249195423249
kpxKSlnF,2.38783798948376,0.638814361546177,1.83945564586814,0.0459061138501584,-0.214237406168838
ku2cn1MV,1.62846375821495,-0.167960117063836,1.34541911315392,-0.0536148855465969,0.905890607454121
l1su5HU9,-0.521235176144025,-0.501544518954499,-0.543463166049392,-0.319761068112229,0.696857980173097
l8Tg2RvD,-0.372083673442898,-0.265319326471261,0.617371608447271,-0.534336369467923,0.672578193944954
lB6NsVOc,-0.461622991911072,0.323932965357209,0.232831836984718,-0.828282337939638,0.990156631750883
lEcdVyKk,-0.41065056081029,-0.0470807649958342,-0.492719261655923,-0.503104032276622,0.774444835119274
lH4TasGl,-0.153778384851866,-0.347699133782158,0.917126947644271,-0.680007990840924,-0.318492886861034
lO9aggHW,-0.150997825748972,-0.948705693516801,-0.140985733369939,0.226174605144751,0.0699922720909734
lW3m9Vzu,-0.432777753001769,-0.439114063861088,-0.501474101167886,-0.056241741562042,-0.0379897725806117
lYLseGDP,0.643805867110434,-0.330547735552102,0.396203654017607,-0.635762569938125,1.3071790634217
lcOnCdZi,-0.057383003071278,-0.202569698498864,0.990644900200924,-0.555893300995403,-0.033056629419778
le9YGwON,-0.443012911476354,1.53545021069822,0.106639478804878,-0.175101452682838,0.306826372517297
llMvu3TX,2.62048256055063,-0.338067023095946,2.07336665119155,-0.814222449175925,0.00917974357480413
lnHh2jFO,-0.00474532384218128,0.251735693990394,1.3381234195393,-0.680872432824427,0.0942511206440076
m07CVXd4,-0.306910473388855,1.43341676236474,0.497403532393119,-0.88383689595523,1.27642688175922
m1lPk91z,-0.202979072684375,-0.0845837634948245,0.535314560511452,-0.756125477662191,1.14297325503358
m9IQdmwa,-0.458171579146378,-0.181500066438823,-0.260479486968423,-0.566654313027361,0.90720954863433
mG9BRy5x,-0.216789251595512,-0.123558134758441,-0.853008041851633,-0.011864338315276,0.591305895412413
mVHXnama,-0.427260054811803,-0.463419388613138,-1.08185701124215,-0.526645467561952,-0.743490971540552
mXyrR6nU,-0.303809979832272,-0.299077865561089,-0.845214964418522,-0.508339739046077,1.77472444439635
mbzNdxNc,-0.349012298167917,0.0275911202175058,-0.555983201894457,0.0249971930187107,-0.565340651102161
mntH7g3L,-0.0808329978221494,0.309023908856163,1.25586795810212,-0.651497571649013,0.129593792590753
msRTXP3H,-0.307118308645117,-0.291871526152683,0.000227696615434067,-0.152086340097987,0.552381957921958
mxBjvIPR,-0.419608254636273,-0.219114884996686,-0.421890145490278,-0.524031287036225,0.192135166339319
n8Opmfbz,1.63361918727832,1.00038367352572,2.38520922291436,-0.396529615090032,-0.120355929028901
nOkgU29Q,-0.514161656832269,8.72945927316644e-05,-1.22194103084483,0.29149584900894,-0.379259249235526
nhttf7VM,-0.0914031990418747,-0.172279448502746,0.628388178223266,0.169233770996395,-0.392464560419458
njLbXYa3,-0.261930169076166,-0.203962715797106,0.185856440194153,-0.613542180618456,-0.37940111664167
nwkIpzmh,0.874179555812897,1.24121021494455,1.43235505660914,-0.241413783190322,-0.311225251643602
nzB1R9Zg,-0.0309948890152495,-0.132479230807272,0.811050139647673,-0.369302503582485,0.330764098687435
o1rZRI84,-0.540701810247444,-0.462781418858725,-0.883477440815886,-0.335273569748638,-0.66194956698845
o7q5Mbty,0.0390516051122569,0.161623514629272,0.215737667295712,-0.0159087938901444,-1.22659991876202
oCBvysqB,-0.460767709069473,-0.109358717793243,-0.776180891861875,-0.603885275758006,-0.693036383520201
oDmycTPH,-0.504586398249973,-0.201131288189138,-0.494210908124864,-0.768141171256209,0.95320928077963
oFAXZvQv,-0.395852954254622,0.171886994326721,-0.412224392889541,-0.0996161983367266,-0.601168604262087
oHE3M1zX,-0.22200523466064,0.262275172522596,-0.571429364803935,0.585506504446252,-0.423424177643636
oMhVmSpV,-0.430444062775538,-0.627410778588787,-0.959748355909518,-0.398932713672617,-0.836978552010352
oNsDqVbi,0.196294509045616,0.563436519117525,0.773234653175383,-0.335233274416768,-0.481454986010553
oYAJqQk8,-0.459503339134847,-0.497002322112708,-0.544814091598534,-0.60615670448569,0.680445684585007
ob5Kb6dW,-0.359334717801712,-0.000116988454222937,-0.393137949103266,-0.358552800596345,0.918434747474016
obnzqs79,-0.513121243529242,-0.416358163764894,-0.564408645118252,-0.774763969239742,0.303684480495545
oncLcgRP,-0.274950102756199,-0.182153745543286,-0.215169751035252,0.225206128590889,-0.136443962078394
ooWVYaAe,-0.297883233517435,-0.620974207353142,-1.34057521783652,2.04314011776563,-0.787560730074825
osdyOUnV,-0.51182107620786,0.107386120682667,-1.34609557914957,0.136121700113805,0.696129140400952
p7H9CzCv,-0.507762799668497,0.0884811379401498,-1.26626340894238,0.540136088413375,-0.266627429353864
p7U9hVhY,-0.422299096689045,-0.0948250653143487,-0.504836167812861,-0.373026651451875,0.392469346955949
pE6Cf1RV,-0.272091460778319,-0.0494629905002074,0.418954999964375,-0.617419412519562,0.577657266087168
pI7qzotI,-0.237772216350634,0.0553119791867955,-0.464483870416392,0.337607272633101,-0.501572828418541
pJrIA4sk,-0.351474316301835,-0.312911958297576,-0.133790775890823,-0.614188013291007,0.132340122988155
pXne2CLZ,-0.41199482237366,0.0183397215552978,-0.723963550468389,2.99591390740865,-0.97743693137464
pZMcDIOS,-0.454110994038471,-0.169016587583011,-0.387726015401587,-0.745579734183407,0.94444751994012
pavfp3cc,0.18816063374107,-0.431197353197102,0.225474933896225,-0.026986162102595,-0.718836271720268
pbQdC5L3,-0.493603528488675,-0.523734147079825,-0.627284148146167,-0.680369833417378,0.657863993948719
pgj7aAFP,-0.379183538397101,-0.14956754439197,-0.478518176692713,-0.164558620791502,0.276933729522349
pxg8G3ed,-0.386607654580101,1.02825865956566,-0.584948107591336,-0.658989073101767,1.14324492766906
q36Npk6l,-0.452633265014273,-0.273233432017104,-0.438509981633697,-0.732759319761547,0.649111387051145
q4aDOVvq,0.659587234593562,-0.858343167514562,0.256927094534175,1.30590579669037,-1.41749609262383
qGmfR9CN,-0.351412078504572,-0.0859155538840686,-0.83468607499975,0.594629858106826,-0.583170986388054
qJ51ODpA,-0.391069905628594,-0.0703465003180518,-1.10416927011232,0.475119807886505,-0.108050320767505
qQX3cs3I,-0.157382447174295,-0.628719773262266,0.325810300102057,-0.363843636724794,0.0983741850814782
qXeIxPb8,-0.432130575582703,-0.109127732025053,0.0967581403339224,-0.350421001563544,0.86416047599032
qYQ4MShM,0.111479251497173,0.19145548114653,0.00361640950868468,0.603042224903459,-1.05045292604554
qa0etnhK,-0.127023086176123,0.0129829525899996,0.127869846351665,0.29967745099162,-0.962041356773935
qbL4sboq,-0.384393858931346,-0.729524360345703,-0.212263799096934,-0.324583147839896,0.187492920132387
qbYrsWHq,0.0710350259677944,0.834207423413602,2.35504315058586,-0.16543626658958,0.0545954904763439
r1zmcUqQ,1.07923363024214,-0.423685234643479,0.964123624643643,-0.0983795482152657,-0.835627581254005
r54iHeQC,-0.448497364211631,-0.31576448970669,-0.0445155924945531,-0.609814943744487,0.651185352228918
r6xrAnQV,2.72188329741199,-0.993882818877947,2.56552958947601,-0.277669701422992,0.210349935761137
r9HxnQDg,-0.0952279468722623,0.0204723635642768,0.477976695877572,-0.29186376172495,0.65140636387803
rG8Puuf9,0.632376360865838,-0.158290502868793,0.801236007521096,0.704961231569419,-0.662386087846439
rGuiefuR,-0.270342871874295,-0.201008078666758,-0.772072215121066,0.00278495745355465,-1.21159526444052
rJ19OhGP,-0.406944128270033,-0.0960678237635681,-0.474668295836123,-0.568110488956195,1.05240656074347
rOCYepHd,0.251572295658277,-0.491722018139572,0.309451282881073,-0.613637529222826,-0.128593966776925
rQJaOPFI,0.299474087555095,0.585960116556808,1.326716162698,-0.314248257618679,0.652676194664746
rQhZtZeh,-0.255971660492178,0.591286133292867,0.602068601168302,-0.473326872773397,0.672532359560303
rapmok0w,-0.45110710333251,-0.17804486549377,-1.47278068187125,-0.0388813570120258,-0.0128261441249811
rgzfnPVu,-0.239665489555551,-0.151384689345358,0.121412838019341,-0.556280529343411,0.14493246612876
ri4qhb1S,-0.420878919404364,-0.141780862782261,-0.876026093240894,-0.639283473298333,1.77992684363733
rqpFYzff,-0.370888723216889,-0.102578455463661,-0.323005121609706,-0.360855050654074,0.283494112402736
rrs22coX,-0.336401472321435,-0.212838957011945,0.624170450258969,-0.219843111357667,1.05823680665584
sEeUCQLc,-0.430559362441225,-0.126523194310053,-1.09989831946378,-0.242532818887598,0.588804044959548
sHScwqQl,-0.449762486506171,-0.0192234272976744,-0.0648976517224694,-0.807110061434457,1.29971302889461
sNC7DiAt,-0.493330831351123,-0.241930968390419,-0.0136022262615009,-0.710506563249842,1.00748410127566
sNK2TSs3,-0.508266540764746,0.0894795844340789,0.295745946492402,-0.225741344175643,1.02172248756202
sO7Su6uw,-0.643266555606126,0.196645004810681,-1.6114806072961,-0.138607978163867,0.240551615152283
sOWZx89o,-0.487625937011809,-0.202959288337024,-1.0583797485778,-0.62677902405695,0.733798014386403
sPbRcPjC,-0.0520380858542426,0.116993324137361,0.216582160497815,0.396953480659514,-1.15802598990145
scVUfTKI,0.74720004899208,1.83894044729336,0.139818395004957,3.24645895583297,-1.32081557006823
seRaGeVv,-0.344434744446979,-0.333599774150722,-0.0645982152108101,-0.313765771803263,1.13566871509591
sgtwiYWi,-0.461469781797106,-0.378001786769366,-1.1459812328869,-0.106966699273844,-0.689146135317859
sjmLHcT6,-0.511632144588615,-0.353225041332458,-0.646397174372791,-0.611661180659746,0.414266489027473
skZUZZGS,-0.312663933733981,0.04389839041387,0.0187930404048199,-0.367981482007874,0.693667410393766
suAmzADX,-0.380313864455148,-0.509491652538569,-0.978202763955492,2.5792904262977,-0.693057248565008
t4GWLqlO,-0.00591776885389975,0.196329744187099,0.930949831247892,-0.674775542697001,-0.141047529857468
t7gy6Jyy,-0.857274866468226,0.347256405515426,2.10011290566502,-1.05485623877556,-0.187234562987589
tBadzH60,2.52490603085214,-0.0225146733134934,1.90835457205007,-0.176219409607754,-0.395439999463117
tXUWm0hp,-0.165155415862518,-0.111907311865672,0.330099737813482,1.5469934655264,-0.142332656818489
te6UPPxf,-0.373259941932725,-0.219731546591965,-0.605887706287907,-0.322585419118863,-0.864899758366858
ti2lamkL,0.349504493266418,-0.37498542312704,0.157488712896391,-0.292654649925695,-0.29744448888095
tr0lpwuU,-0.218720314237682,0.861101558812488,-0.871871065782207,4.75936221593326,-0.727966593156094
ttdB5C73,-0.239970984485814,-0.233660836462342,0.0766024915759016,-0.121982205743117,1.26121982038682
twS8YZu9,-0.415937162868241,-0.593966776781198,-0.486790822636795,-0.764854930536827,0.664105937868527
tx68W34H,-0.493605445704477,-0.12879033257367,-1.19827221942722,0.565440619933399,-0.956135016803099
tyQSX4mY,-0.166852095963039,-0.306262109390089,-0.218745412926658,-0.629313061761175,0.40919020767511
tylKCRc0,-0.355254405281428,-0.227950542856815,-0.090365589554371,-0.335887330971173,0.659631245349209
u1544WUo,-0.491996485634759,0.00987901979401158,-1.30484385572967,-0.563826237301421,1.73109684907362
uAw9an0d,0.462190882683076,0.341233839689966,-0.0792151576414027,-0.263358137686161,0.401360473220921
uLZAEXMG,2.51160861775908,0.0693252814163379,1.64256994166596,-0.0123080552230966,-0.567087121390422
uMwe1s7I,-0.443250169645729,-0.10185801568008,-0.635724717005391,1.23857286988107,-1.08141988448697
ufhGeV3q,-0.440642414664968,-0.383398663855838,-0.189703491361775,-0.661260555566734,0.286415722634004
uhAeGBHo,-0.566243441003976,0.218001336463993,-1.47907317828556,0.713289911877803,-0.21109937778671
ujHNlqpw,1.49957406277332,-0.000358377410229292,1.40786131839778,-0.0685973307516359,-0.581091966773106
ulV6kuhB,-0.4322217755872,0.824601445496873,-0.154568586515667,-0.553599497415323,0.659520659044739
uohEnNEK,-0.202854824365879,-0.921283760183357,-0.805958998486649,0.900760872122652,-0.740489753901425
v1lhA8I4,-0.449081139807963,0.199889460918979,0.542745546145543,-0.571382862182082,1.37357130244442
v3JzigLI,-0.558591714738077,-0.160762830874488,-0.637784268697784,-0.858754142396138,1.06452489318552
v5IwjyIg,-0.420989014604006,-0.122093763080315,-0.541871248586578,-0.333437414212309,-1.06996062498534
v6lp5TK1,-0.264722261991429,-0.246245876681897,0.189622480736041,-0.877256675066272,1.28864294481859
v8vOaaWq,-0.410525721929078,-0.125849882723524,-1.10869409482759,0.204287348563808,0.168988849869381
vAYKtoil,-0.536583648533753,0.421972571049159,-0.551032224386064,-0.481371144846952,-0.852458214711944
vGTNQa6G,3.15687284718918,-0.42731627175763,1.80326188421948,0.491572138243322,-0.350210756476164
vQzNxHoL,-0.403029425965364,-0.176575860453978,-0.829543924873477,-0.612387093089413,-0.606924735123963
vfZGBUJm,-0.315877015810317,-0.113791251825108,0.110142828474159,0.214203675032375,-0.367083527607518
vlooVUoT,-0.366390936005125,-0.218450372028415,-1.40412407451509,0.679795491612332,-0.458457173643102
vrACvd4O,-0.291305624409794,-0.254065459567764,0.383646457925,-0.360038437161696,-0.451808894019964
w8hdjLwb,-0.181599997799892,-0.249150187029124,-0.0226298867090222,-0.29781068204123,1.86180857220492
wAntv4gH,0.0803315386736335,1.40377131949298,2.03361310475842,-0.618232664258389,0.580167455652838
wIUL09q0,-0.547744979137438,-0.403862583286924,-1.20872309480665,-0.832879233087675,0.344909131195942
wOzx7Fgz,-0.292700316131999,-0.170516199050526,-0.35179576474879,-0.505804297759247,0.272052315699662
wPhjhCJQ,-0.383637254185462,0.08132000703156,-0.697888596374617,-0.508773758902848,1.19963508745535
wQSWWmYB,-0.437546234821712,-0.0828547063419723,-0.757988073195263,-0.415853538485116,1.72021958948536
wdIMrXwy,2.69833401958564,-0.553045685912193,2.00529211193561,-0.679415822463536,-0.273038148716604
wiL9npQc,-0.480943192686444,-0.123560811653485,-0.634246691419646,-0.635634153206237,0.663662408850709
wnU95Cxn,2.9486411955828,-0.402917176040938,1.86565123760006,-0.329481363002153,-0.485267338925343
wpJbbjJs,-0.0424687917218841,-0.264131977292018,0.627630399252693,-0.0764018745209469,-0.528063807876776
wsOWTAbI,0.372079573268695,0.630677234610094,1.07613013031699,0.795708887183677,-0.506347866500972
wtdBcU3U,-0.367209892625884,-0.194026883295764,0.110998741601606,-0.724038713707941,0.101896073262432
wuKXVxOc,-0.559054700044002,0.431204502348091,-1.21814331233856,-0.152666927730853,0.814125693729112
wyzadAt8,-0.451652739681178,-0.218735782061845,-1.06225761272178,-0.691202447710387,1.08489031368353
wzaKzYwi,-0.398009960045262,-0.451398599407345,1.21936852507905,-0.842164735213695,0.292483199002521
x6GCk4EV,-0.392253801697612,-0.297208734398794,-0.239708848194221,-0.514910237150825,0.665626217660234
x6lUi3vf,0.0878259072142079,-0.0731612063445156,0.559515076921911,0.438093193562719,-1.28661069672492
x8mwDHv9,-0.345100208873981,-0.082101892933016,-0.0871251832623642,-0.438632964629301,0.258126311368507
xIYm6puH,0.407288171051106,-0.68693199804854,-0.215879271947745,1.46571240817114,-1.16339389711256
xO6UdpsK,0.823726728737992,-0.700645639989517,0.302389626039392,0.291257104544948,-1.06328652034193
xQ2bkOvj,-0.424809111570352,-0.283034604713388,-0.772867449983418,1.63782359411911,-1.09789029056429
xeXyDCEQ,2.74706637016601,0.268769417740168,1.76455111231688,1.02457129498313,-0.90136641209469
xrggHziO,-0.0935632169771194,-0.394855936523519,0.44428859741313,-0.374155223620421,0.376684024296802
y1WMCmqQ,-0.386970605644848,-0.51570635994029,-0.759492642653628,-0.530690348650855,0.111293510285006
yDngezhM,-0.473287713614226,-0.238588649473161,-0.537981854663919,-0.694656919249602,-0.0876848687876333
yLiFjMD0,-0.451684436231176,2.34117462879474,-0.660110763273591,-0.696516014254463,1.06291695755753
ySwEBO7w,-0.351066481380057,-0.392385430661694,-0.368462592069911,-0.178497893579978,-0.939557492416978
ydC9UsSm,-0.407861724515976,-0.348581340596621,-1.35800492417814,0.840534654053329,0.00481536406521628
ydEG4VBd,-0.38765391895813,-0.231425862388065,-0.978799281158053,-0.066037592335397,1.46228575587789
yf76yWXc,-0.0912636614648812,0.119518172704205,1.0054430370039,-0.655851545451846,-0.228796337383313
yg70e63n,-0.379381452768789,-0.180438839382418,-0.547262058763631,-0.319253726459065,0.324578554970173
ywxtlSKv,-0.420676507804336,-0.784662008484968,-0.999419615650147,-0.420100198458819,-0.410686031983204
yzKPQPOR,-0.362143901886507,-0.0205414186787805,-0.635409571876259,0.342061613285447,-1.16466547260744
z5cnOnZ1,-0.334258007201954,-0.245529853114262,-0.122634933138301,-0.46286198553383,-0.740903969650598
zFLkOE0e,0.25919018179117,0.0441861613006492,0.507226253300821,0.292891722772311,-1.31066935810268
zGi72mxL,-0.372863867843476,-0.115123255124073,-0.301398965469568,-0.25134453792497,-1.024961160442
zN925UV3,-0.418330921996695,-0.097544887823431,-1.09895335637486,0.266872280629483,-0.740428866375568
zTy2ih7e,-0.554696557623676,0.408743428073,-1.27823610357655,-0.459662407095523,0.843569152210857
zVFzAutw,-0.451667065576522,0.758323825505397,-0.430974485332744,-0.50609998209904,0.791746296206814
zYxNAkht,-0.530328926497747,-0.235095603371686,-1.06845384179389,-0.741399584855748,0.901200227358691
zaWDBai3,-0.414152964429876,1.532470178947,-0.452097006117101,-0.331877311584214,1.36436431214584
zg3u0Zsx,-0.349343714034946,-0.353838771740972,-0.427087574007743,-0.118405052708271,0.314958974315687
zlwLfdsS,-0.257942324343442,0.466510673451938,-0.547713377206704,3.10158296332307,-0.837063944351867
zmbKzVfl,-0.694138785780893,0.979364525650099,-1.39221675100003,-0.213474288785118,0.412783557510868
