PIDN,Ca,P,pH,SOC,Sand
09gt9UK5,-0.449595037766822,-0.143286332221175,-1.167085319113,-0.650570612937473,2.06969947876704
0BVvxJ6a,0.386074344912355,-0.636317892334766,1.18966972554196,0.335234259540266,-1.31778315755273
0KbdgApg,-0.326639607028116,-0.462304057073986,-0.073618613890121,0.0872820575942363,-0.889744725088573
0MnuuduB,0.0268536710017623,0.0343270106124389,-0.258722941097362,0.299715003195701,-1.05379300474649
0PcIsF9z,-0.214969190473041,-0.165021709426907,-1.11118405186446,0.142861200169926,0.0755577663944625
0ShTFLYJ,-0.45042927316533,-0.283981399622336,-0.506560756533307,-0.973789180897415,0.326021348827478
0XZh9jka,-0.279392726133847,0.466779104971931,-0.664485094345697,1.05983760088131,-0.654071838629023
0Y7Wegri,-0.379655033760941,-0.192217988749707,0.479546190583964,-0.0881910730864279,0.483212688061943
0dTqplIM,0.248726947390265,0.19258170916432,0.520916134401868,0.155054655424498,-0.701537100492784
0lNiZicC,-0.514408216293477,-0.293453926367763,-1.53083745811862,-0.85567410281063,0.185459507139138
0rGeJ0QN,-0.443004669801614,-0.170628765355498,-0.777857219825637,-0.0319411738452513,0.0694679946793799
0sXI9ytQ,-0.403339167576734,0.141752489596232,-0.06190237558965,-0.690435509727628,1.43214828638807
0ukt4aP6,0.939285670494765,-0.213419942607693,1.81100616657496,-0.94396411864839,-0.256116990102155
1AGspb8f,-0.479301953287233,0.73351792855489,-0.90275980570978,-0.305087870567499,-1.15065715286699
1Csy0gvE,-0.430267400871173,-0.328117132885048,-0.0852612219099033,-0.793169041085924,0.645300933566098
1Ic2hly1,-0.355568635729388,0.220028641767155,-0.201693464387305,-0.257951808992713,0.495009331517872
1PPbaTwt,-0.377674877965088,0.269252976501894,-0.853802173417817,-0.833694250349193,1.91398309414664
1SO5VJNy,-0.428811238528616,-0.112407115692736,-0.0798508769656321,-0.463451936068188,0.533567832188948
1arHxK3Y,0.548337953725868,0.360715397270564,1.7018586724226,0.378397653116596,-0.33227752243688
1fCW4Bba,-0.486785693947146,-0.176204272227216,-0.0608387430957056,-0.614498734733254,1.11691120205088
1qDZNvIm,-0.438309389314698,-0.441490379134422,0.170246577889747,-0.660999238048848,1.12113728688539
28LYJC2V,-0.510409481910452,-0.178778919274364,-1.10846456034256,0.420943246382516,-0.897099286514022
2CzACvQq,0.905787673298552,0.853415495610145,2.32886458955478,-0.265635547751628,-0.493637478574093
2FT3crfv,-0.204043176458143,0.0325918902016112,-0.00118754088561042,0.19026457213237,-0.726639609999912
2Fy2uHVg,-0.433926650416525,0.309059596303821,-0.680258497726868,-0.778601729734705,-0.618156424726874
2MkMEApm,-0.52652310491103,-0.212995506528445,-0.821770716967172,-0.669425171562252,1.6145072709696
2NDGWEOe,1.05566809641233,0.873396301034899,1.57775883282414,-0.754892986493585,-0.53460632018285
2NyyCiqn,-0.411569027961855,-0.170067802915609,0.133291098186508,-0.586778897091901,0.635875908275148
2QRzIb84,0.63587866033098,1.58114353918748,2.56722976437566,-0.282312160684732,0.334556835133087
2QcbdrUZ,-0.341811937836504,-0.778808319610883,-0.35096954004913,-0.301614070834439,0.891101860615905
2YgAimWK,-0.402147822077581,0.161425151538211,-0.329007674979266,-0.488086790586876,1.23725579100388
2cx85d9H,-0.0830539298144863,-0.10743797445363,-0.0040513360164746,0.0547251117640191,-1.5029075748681
2homMXMV,-0.490824752079206,-0.232668741631534,-1.38538503778501,-0.0188421693237054,0.565401487562931
2ldLrUtq,-0.484783020203169,-0.285688835233134,-0.300974669702074,-0.335970782952427,-0.0513798716377498
2nsACW6G,-0.0818080418981375,-0.490997525974731,-0.766401652431294,1.69251382372403,-1.24548341035527
2yMbVnWc,-0.319570620829437,0.787918501406906,-1.08960838486912,2.71449840714175,0.541797974934988
36r8sgGQ,-0.449386528871506,-0.283180916021649,-0.174342730136001,-0.693676786430882,0.740697891393067
3NXAXCl3,-0.313400470605564,-0.76786983479545,-1.22112398629701,0.340084612925182,-0.776941039128778
3QG0z6fl,-0.485728851138822,0.668853528309255,-1.64149710442433,-0.803294175597629,1.44306975346732
3WS8R9qm,0.251698037047221,-0.0675535577346435,-0.671754866161804,2.76167060280296,-1.1680103463675
3fRLm8f5,-0.488179825974251,-0.188580957833444,-0.429803803497967,0.0453023226317363,0.210781579873523
3mZhp1nQ,-0.48124469124799,-0.393712722621538,-0.424741056416019,-0.610332832619761,0.806564456324869
3pikJXRL,-0.178333357996505,-0.592463054168145,-1.12646916881419,-0.229785076934889,-1.12191632406442
3pxOEGHL,-0.40316599549462,-0.260877240250514,-0.601298436301791,-0.675243105684154,0.759193649547554
3ttdV3f5,-0.426475136067855,-0.365199573446885,-0.272891469939093,-0.385226160659747,-0.365731402841606
3v4X6Mfe,0.925527551476534,0.609716389275584,1.96840243112128,-0.650564657013864,0.206470165949505
3wORuPiv,-0.414834953238988,-0.142938889581335,-0.625488173490982,0.553548627819365,-0.870380174504651
43EfrxZj,0.0460283260088378,-0.614284257620688,-0.068911602812394,0.356859538446856,-0.597886105237986
457Vwm21,0.102591235910992,0.0491133684142146,0.285302884645429,1.08517636002081,-0.650573862053954
46KNnOdx,-0.419142494381621,0.0402158656508106,-1.16991269438666,-0.0433782178511967,0.100776581602636
47TwNsVC,-0.331270096611477,-0.675764756892752,-1.0109778101025,1.30513178883808,-1.17179721978093
49856RpO,-0.38714134382696,-0.444290045194211,-0.402043081975027,-0.30194196945166,-0.704314803720727
4Ane1o2N,-0.373930973980475,-0.0114091237839215,-0.178580086818752,-0.40736830766785,0.522396765539132
4AyVUgSc,-0.405414038764324,-0.0512818143193396,-0.456726122505007,-0.720460225117332,-0.19338571274299
4B1951On,-0.165177352076129,-0.487937702205708,-0.428440767916483,-0.207800528319825,1.47757087102585
4OL39Teo,0.094258633095854,0.110089970381054,-0.0123614969111763,0.196707950017198,-0.353632136964203
4eQ90eLY,-0.164326630024332,-0.0413811206833966,-0.44347721126777,0.277760991268797,0.312666785483186
4o5jwMj8,-0.388457341698177,-0.257860518092738,-0.668849886385829,-0.597157653784055,-0.0814499229185893
4vPgpl2c,-0.424342082850492,0.126806716011812,0.0756070411449669,-0.534045251563654,0.516011817406643
51r9aA0d,-0.417544346170779,-0.255537854462338,0.0737798831981198,-0.720291448250687,-0.220694583388732
58SmeRoP,-0.13854049255555,-0.000206773435707849,0.110198933000545,0.0526194426014907,-0.691590500142443
5HJp1AXn,-0.268372816590065,0.101067698536555,-1.03391777448714,0.599352453415814,-0.149611561270346
5MBZW7fx,0.234052223977904,0.0628224314262125,0.417817074613622,-0.58855170373887,-0.201720014133736
5Nq3gHaP,0.0797138011605496,1.81821639391445,-0.377357679641097,0.63361399832855,0.123859325730011
5RmwFFK3,0.299437310416838,-0.0890555564808738,-0.111852661328328,0.770574141829423,-1.21049651922242
5Tu5Jbov,-0.521371727323669,-0.189373474521381,-0.534531190815917,0.0534531720765765,-0.631247643829003
5YEolkev,-0.399899378313151,-0.437615100915534,0.0784933873859762,-0.333114806254971,-0.0521397294756199
5a8sf6QV,-0.152596659622064,-0.43044771069954,0.526321719551201,0.0980580887282208,-0.805103853833786
5eSvmqYm,-0.378341287033189,-0.0340571602001412,-0.031847532587855,-0.623201228442266,-0.408439861096298
5hkN8fiv,-0.252410740599888,-0.677213388749003,-0.817519538537673,0.689123262808407,-0.769312067525366
5oK8Gti5,-0.216737440146284,0.0357906268085691,-0.952841633020358,-0.549259146330812,2.03639267680563
5paniGaU,-0.396200696999665,-0.434937693545526,-0.669595375152876,-0.736828376884521,1.26213315351763
5vsr7ZUP,0.496009265394116,-1.22178042740446,1.50801125810356,-0.0584591200212274,-1.13483539766264
60B4xMWI,-0.230008522140716,-0.00913880779506217,0.763274807626451,-0.629359385175588,0.477935253948171
64jOUtKy,0.248210864409891,-1.06089905464089,0.10535533249447,2.58197852970777,-1.06463062970891
6AJo4xNG,-0.388969074418474,0.123726734061961,-0.541608415012271,-0.16204340282065,0.702551738459925
6CAvhEte,-0.387809316041225,0.148624091918725,-0.907542330524546,-0.363420208020342,2.0187818445811
6CuGYjT5,2.89618416126314,1.19108424360914,1.91813835854811,0.178720558846638,-0.840798798241126
6DGH8ujZ,-0.371232792162353,-0.00483411464954393,-0.828259580463579,0.209785023032982,-0.437283096201253
6PzsGdVm,-0.298824558552997,-0.173387367092884,-0.0144278216647573,0.213020949294044,-0.214872511196372
6UcSJMbq,-0.198480812812594,0.564023785754997,0.859627870834589,-0.51115477140764,0.0649973311532689
6WJbkH8U,0.773521185010632,0.54037097117622,1.86628519661367,-0.309278509396293,-0.831136742486062
6eUWsVzw,0.172167871388099,-0.619860581255529,1.3951602063235,-0.152016743019226,-1.55441551518318
6gNyO7Do,0.0332758822877696,-0.0313776619025201,0.0954642288490872,0.330413041335155,-1.29342742256313
6jT0AyHe,0.0544925971931957,0.0778645993305583,0.651216475694461,0.0532861904844066,-0.814119090523555
6nBgCvWu,-0.473390500354349,-0.159562210662843,-0.232371210737223,-0.546732268483946,1.2856356697685
6ro5mqg6,-0.381558218995741,0.185067765531324,-0.150687775316049,-0.370260157279937,0.650955545527809
6sGqObX4,-0.499446910443572,-0.210322393739343,-0.61585789535509,-0.355936785224378,-0.897386134262386
6uEGy0n4,2.22257728429468,-0.589280431210216,1.5952550519939,-0.368134197267029,-0.649541316674608
7BZ4LxP8,-0.272640711520065,0.156561658036377,-0.109596408661696,-0.64429760179197,-0.660910089588463
7CmigXKi,-0.434602336698032,-0.580475046582605,-1.12573513025036,-0.723193701961783,1.00036694779344
7Ga0LpfR,0.0191881388179235,0.598944369670205,-0.662651782337215,2.49050953002625,-0.641171602098476
7PQsFvsG,-0.139074202352015,-0.289409294047898,-0.93189892622163,1.41472185466989,-0.301872090851811
7aF7nnwn,-0.452991070292881,-0.40347313040963,-0.936395493443593,-0.963146466284187,1.10634873842866
7asGzfX9,-0.292089575871925,0.406350975652893,0.0431649957556041,-0.401175362029981,0.227757426808512
7cg7C92o,-0.0891939551214367,0.526663716286436,0.313362585116198,1.4031572967236,-0.104729155917356
7eOxTpsB,-0.33853676292067,0.710117024806215,0.590720981357616,-0.574295465409087,0.780714441342382
7ey0v7ma,-0.294817244454602,-0.929444225466106,-0.799988978036555,0.602435068298944,-1.2273949635329
7gocyrYl,-0.228581023913785,-0.307009417357983,-0.180672462515895,0.287454518492588,-0.220581680236665
7gqR3GoA,-0.405400954392498,-0.34646010395912,-0.636839436789472,-0.555605602393994,-0.327914757608952
7og7aUXB,-0.169465301813497,-0.304066295392278,0.272662571835889,0.131241373755331,0.227779118664968
7onRfa8F,-0.0249520615941583,0.489267209797698,1.59403009422564,-0.524933260221455,1.11633332779124
7umkNuxM,-0.212444980350128,-0.218075965502931,0.327736675210455,0.238907656865901,-0.175103047123086
7vPr9ExD,-0.220777885255291,-0.234288849575472,0.620758177825641,0.0507781449823689,-0.780458360302148
7zNjpCzu,-0.407461838076623,0.0318225830230717,-0.500669854519177,-0.298927276706874,-0.757035055171219
7ztsQNj3,-0.420082250287524,0.11282964061184,-0.0249296057861305,-0.188610204144989,-0.62450229954566
86gppwMI,-0.538265861972693,0.452463822825813,-1.13566366830916,-0.232966044182892,0.95915093515235
88thAGdL,-0.35952260502606,0.0171430993742604,-0.2519740343018,-0.430334104398121,0.00172508110172278
8GhU8STP,0.865969928657429,0.512507543694862,1.55743538527666,-0.0662965715972863,-0.786605763170452
8NlzDcWe,-0.457221137490737,-0.212338937460749,-0.91285248050854,-0.736485977336321,-0.0242271363732305
8QAejdLW,-0.169072092385759,-0.327798550415265,0.0431895107886702,-0.0132776627264175,-1.04493590972354
8RDeFxWM,-0.369035868222294,-0.172567604829488,0.724122112149159,-0.593006323897831,1.22855803434125
8UXP2NBS,-0.499014249053718,-0.185344799294502,-0.944870875807515,-0.148897164651718,0.0620638856571947
8ZoV3KGT,-0.368536066721283,-0.77943807468179,0.175947549941401,-0.425234575545958,-0.242159620356483
8ajs2uG8,-0.405896243317912,-0.324907243088155,-0.271588747677051,-0.233572687069936,-0.878475302996884
8bXnz62p,-0.0859479169702609,0.053222797324789,0.339113801339815,0.274187042574837,-0.327026514398824
8nO1O1LG,1.57434181903777,0.211405592028775,1.79947491317428,1.05917784558435,-0.434594789203702
8xE1p8g8,-0.413672092758479,-0.207359561011809,-0.747643118582487,-0.618234160560035,-0.755908826985531
8yMDVMRM,-0.422808197112295,-0.388952913940398,-1.03222303260232,-0.549616771205641,-0.537150045671289
98R5VaPi,1.06082777696304,0.143190877461805,2.18332346409663,-0.502848411822732,0.714000467486995
9DcTz2Ua,3.10545049129053,0.195321256628226,2.06977784875358,0.568927064995379,-0.757590995446366
9G7nfUrK,-0.448548929718911,0.0770209371994117,-0.403510908519995,-0.687989713109245,0.800973450101173
9O6GZ1HT,0.0199089081849429,0.706218309549814,0.863025353103244,-0.777534547732828,-0.395038757514546
9S7fCoAM,-0.345395613858202,-0.328879506165724,-0.363860921758287,-0.0308672122415407,1.08535660668277
9iQwmFJR,-0.318887273970431,0.17543134300584,-0.61933473006044,-0.622487813349316,1.03566740408907
A3Mt6SAQ,1.65639024015611,-0.317951389023754,1.72226320258301,-0.914859513543074,0.494153487762836
AJIsQIcV,-0.43952066543912,-0.399182963202332,-1.09740472489103,-0.325022031410533,1.99989763137964
AMHKXMh8,1.42818887511179,0.410375501710402,1.57833058415945,-0.509776601696165,-0.773453053373192
ASwA2J4E,-0.413835012269825,-0.227931627043175,0.0137912941962032,-0.461512241697281,0.623400593477896
AaFvEoHq,-0.0594192081436102,0.77741706728672,0.316276372499727,-0.668664219184509,0.555050343027035
AiIPD6hX,-0.264907321641285,-0.348185167572952,-0.783670322578327,0.326245121000456,0.276729857093675
AsIURvJS,-0.20639679854035,-0.556339627961453,-0.548694992681187,0.807069954655706,-0.712949765758819
AsvgbJ0C,-0.228297912492426,-0.407916455010602,-0.204388923317114,0.354466668914738,0.130109491612765
AxEhbkCM,-0.261543021877802,-0.456898797356226,-0.913567385534488,-0.163732954730307,-0.138855420642332
B7VPkIpx,-0.196314897621157,-0.275388743457548,0.45819530369582,-0.632288534893532,0.127299308797165
BBwHqHiH,-0.187809960208077,-0.528460451214631,0.1713557531401,-0.0361332205287653,-0.793452474034475
BMyps8hr,-0.372067036623118,-0.473413678719332,-0.281457041200883,-0.260325200909444,-0.950120389413008
BUHS4dQw,0.244891989581118,0.970020231849451,-0.326026336149094,2.04555995363743,-0.741359085491118
BZB3EYWQ,-0.359758025109152,-0.341028631815911,0.373929741126958,-0.420632246731161,0.913320485272426
C5UPCZcL,2.68480411318608,-0.489585862265595,1.96814123299876,0.590125529267719,-1.15279021166605
C5gIfQbJ,-0.0813266530569385,-0.725326746366667,-1.30446329539008,1.31062266097469,-1.01627518419381
CDRuu4Pn,-0.345256024907195,0.0121625085237953,0.533895741515122,-0.754367738249831,1.04192690772504
CQhTYkqE,0.0875191885017505,-0.514055963070219,0.9974840339935,0.0827389611099151,-1.50958548348158
CSEobMXv,-0.215415521101859,-0.847599285344241,-0.708868307196692,0.838661749295592,-0.540331595171138
CYMQE4x0,0.358144477702393,0.5602164529161,0.681811148826294,-0.523755421395257,1.15705323947336
ChQdtl4J,-0.36006914808486,0.0316402955770367,0.166689679050549,-0.588764794221495,0.71687379193293
ChnD1nrN,-0.40637820966191,-0.0457167819937975,-1.05990153802466,-0.861773197752538,-0.293513118351683
CvtbbIcq,1.33476337804733,-0.122992753494596,1.78774900014786,0.13373437775987,-0.291144435565571
Cxk06b77,-0.0940396381245749,-0.204919166678634,0.788760936454746,0.509556314088314,-0.291374602483178
D3QD3ZEJ,-0.153866062204308,-0.135352881915789,0.571863636592123,0.150519509188341,0.331185225013418
D8J5C6lA,1.07370136273409,0.742426483942895,0.840502848274294,0.301088271231515,-0.0756916747623648
DCeQwYfT,-0.182557679533146,-0.248016403757786,0.213068287714036,0.249605811709547,-1.05142273130978
DDEftkx3,-0.410893009736885,-0.0337230780589058,-0.613818892302407,-0.607081089352101,1.20479079582089
DEwCfeDW,-0.263186617017038,0.205322592293154,0.0454224201207836,0.278188913718811,0.299005210276185
DMkIV4oL,-0.448313204990984,-0.267117960136053,-0.810685331248616,-0.647115299018471,0.479958624969892
DnzGfbxS,-0.276355427570796,-0.317305855650697,-0.15321727823911,-0.271873221744367,-0.709022659369464
DoZxo6f6,-0.413895334413416,-0.508533878812688,-0.195298051271735,-0.550941392772314,0.53764616648316
DvhBPGIk,-0.447146296479058,-0.186709715123593,-0.163587270918305,-0.141595379659072,-0.0839282995260792
Dx7GoUcT,-0.5217685395345,-0.164157245223773,-0.435309046313676,-0.844448488703068,1.25438483546424
E5hIjohO,0.531362922776901,0.81150008165247,-0.00529360963155637,1.10512365735779,-1.12950654320843
E6x4XGHt,-0.360021416936283,-0.0970927042976662,-0.837461588797398,-0.575043103530522,2.01758482762841
EDEpAzh1,-0.301929617881097,-0.684796309309225,-1.06598189779818,-0.451176661194126,-1.17613967230349
ETGudkQt,-0.401810685338911,0.0510195207950945,0.00216546645515755,-0.476059796766978,1.1580599406288
EUleKrLJ,0.996870796987613,0.327590738644174,2.01675152008832,-0.164211851240077,-0.564085824298278
Ehw2Jz6s,-0.343393875405228,-0.36332422403244,-0.360546306127342,-0.480308636995632,-0.164389686376507
EjqzC4zH,-0.21676891465842,-0.42294748393238,-0.000723273806891561,-0.778133565337852,0.0335418810566691
EkMZO3Qj,-0.485965393989021,0.246961805103884,0.036312459816398,-0.51657079631695,0.739581453958442
EnoNXWvU,-0.150009228852229,0.76752825544921,0.985246585901146,-0.637174573529513,-0.0954388473113876
Epv8ANwr,-0.258878339765071,-0.228450309356357,0.408965859151623,0.231387983370085,0.0806191661309549
Etro9j0B,0.1558494307643,2.95535507179198,-0.0878434133323242,-0.0506253659573955,-0.187961345478371
F3MIZj76,-0.394567005695038,-0.583217089526044,-0.689381262990491,-0.220192335118965,-0.973365293507478
FB8tU00K,-0.531891303577672,-0.0529491787927086,-1.23414063912454,0.44444174613137,-0.411077504055484
FLhxBGMK,-0.00325372203491926,-0.044985382218163,0.651611279870378,-0.128849165993917,-1.10056975374653
FRreR8ka,-0.411975930432855,-0.604223929364179,-0.501881942251934,-0.643647506503861,0.675740330929377
FXne4oAV,0.1134078639279,0.704613509686301,1.16115169180773,-0.25436860207928,-0.805657187384906
FaW764jk,-0.226747314897619,-0.290789224314182,0.497200298956146,0.336019351523656,-0.0790287585232022
FeAbMXly,-0.456654387209591,-0.344493149053679,-0.5206646705494,-0.678680895891492,0.718974278420688
FeudaFXn,2.06885141339602,0.675976330249111,1.48722749248854,-0.137816686883848,-0.699089637547688
FldUmFeM,1.8923711499771,0.0611901383909505,1.89944784363204,-0.798512515147408,0.037777699049534
Fnv5tfAm,-0.424316927274433,-0.304082829158538,-0.369805553485551,0.0817483657401669,-0.516033260529317
FvrAd3Or,-0.351446269132306,-0.551461612047974,0.800686057129788,-0.658893102691042,0.710637981685482
G48zHffi,0.164666011375707,1.04093686003981,1.95346741177241,-0.537567495761702,0.572071032285481
G76zCv5N,-0.357498604723881,-0.192769077140066,-0.420127283793754,-0.293997817789522,0.425637927945854
G7JGUdNf,-0.154341104530984,-0.494157793825222,0.401981938434915,-0.0441337321247904,-1.27814568695407
GCo6MONx,0.871264150543469,0.468904602525621,1.13326616715146,0.624689735185469,-0.551282574154795
GE0vbpVQ,-0.21378449316303,-0.261537293275707,-0.00927374221893439,-0.771572968136404,1.94631029696921
GN0DfOqt,-0.518576875938487,2.3842613698563,-0.708769680818499,-0.627287241334734,1.46286094497953
GNsTAb1v,-0.489378534990553,-0.189243463334849,-1.12331425972226,-0.68601703079449,-0.852864833668708
GPwmO21z,-0.32421113166048,-0.310370475786792,0.260501707703929,0.0121323031763674,-0.163930565295517
GQYpfLoh,0.364210940243508,0.983442614950154,-0.141389166485459,0.628111815901602,-1.02988362383308
GR9knT8n,-0.216897453002313,-0.407285111383907,-0.91131249299466,0.49320094378779,-0.292124064095785
GXtFFbZy,0.187378733182196,0.058595178361437,0.0617739530494971,0.00587989439665067,-0.388547966160632
GYvzvvFD,-0.614328996880452,0.0760129196223195,-1.10827321375401,-0.210141116541132,0.412425035093938
GemPjTJ9,-0.500308182065635,-0.552514719496776,-1.3332334573972,-0.139052359232244,-0.135766613044704
GkLYRm1K,2.13612995007975,0.221914338565103,1.41747276224643,-0.312032562229393,-0.948310254095788
GmlqP8eI,-0.50632030358523,0.282076237894921,-0.983053220662027,-0.181754225465085,-0.15676670889247
GqkIrOvf,-0.489212599489877,-0.611344794527814,-1.01605856674926,0.467118780634872,-0.591923008429179
H0fsegPi,-0.44730764605029,-0.262228139093276,0.0380436144071429,-0.496817589251435,0.696066742543227
H4dHpJjU,1.81606766949708,0.293413842714135,1.72890898445148,-0.0505984968791738,-0.477379635946659
H5QwJCuU,1.93178704346081,1.73825358197798,2.11492871932405,0.326282906363823,-0.485511577100587
H5uwmSZ0,-0.451780105390141,-0.0266307757781113,-0.477094063993392,-0.653267047612732,0.812081630353843
H8MtbVoL,-0.270390963941426,-0.417044228766596,0.450658019112928,-0.575380254431036,-0.483817293476605
H9JrUYnp,-0.41803818957102,-0.751595381634512,-0.0518884807395195,-0.390418947880817,0.740041794444924
HHYmmHVk,-0.369221181765819,0.161400605107469,-0.135938412898316,-0.761491718623642,1.07071596309594
HJ5U4uqL,-0.535006675954194,-0.280136556805355,-1.51884762094312,-0.413049067042829,-0.292029148049337
HNQxYc4w,-0.286396244151078,-0.298087449166343,-0.647977557240942,-0.556740019010809,0.0661401260184656
HQYhKHZ8,-0.384362418242695,0.0444394670112214,-0.337485554688032,-0.511289795516879,0.0231539246033228
HSCMx0MC,-0.389786648407176,-0.150383149585161,0.455617015248357,-0.678350183606684,1.3125286771206
HXYuE0fx,2.74096229571097,1.17353391364051,1.62861163289764,-0.206803115121105,-0.565821487418994
HdKcxEWr,0.129697546998077,0.871871695587203,-0.288874113857602,0.109668307579695,0.0693632164100627
HecW1iCC,-0.514125403989711,-0.511132336135066,-0.837692107150408,-0.546236166404273,-1.08188339963363
HpbKB8rv,-0.272558352464636,-0.848374029418469,-1.51565476600806,1.59984870316406,-0.865159456892602
HrkoYjCg,0.000470307161091578,0.128720047717325,-0.373570328558471,0.544821603707701,-0.941865925429015
I5P2uquT,-0.368815460872641,-0.0766090783411639,-0.629216550210482,-0.284748432946013,1.0357725275159
I94qkDM7,-0.528083919361601,0.656255535653496,-1.5186709540781,-0.366646544982852,0.628397578690319
I9sQbtt8,-0.272026667969234,-0.619519621260899,-0.822938890630288,3.53476886348573,-0.756495130846361
IFxgw6ZX,-0.323805961228342,-0.306478662576663,-0.474141226437508,-0.316645591105766,-0.0610532732234978
IPPPSyoU,-0.607953484741026,0.0289386163565568,-1.10513387561318,-0.0718270866427998,-0.812431901941349
IQOYQubU,0.968883773294582,0.655290358492324,1.68337199282175,-0.231551981857965,-0.638021227613695
IYNE2SxU,-0.48130121269684,-0.0491238698036884,-0.69212498705015,-0.081594697229681,-0.558185881769479
IZRFk9kN,-0.276508968739586,1.2001954880736,-0.462813696304004,-0.411510646574932,0.701977463228175
Iaq3v0t3,1.66018686237082,-0.0498523652348442,1.8960254376665,-0.64301142868939,0.318532965768797
IbVwu1t6,-0.406778988730466,-0.218116758483162,-1.01950147720435,-0.220744430759061,-0.126342278071668
IcHKTLyo,-0.065765339012357,-0.592305217374184,0.254221595009881,0.161520446351682,-0.980830667795138
IpW80wVB,-0.259459778716506,-0.0972429313567526,-0.115199246872317,-0.228479142356034,-0.265216366510664
Itb0PYUV,1.60722324209144,0.528800729017163,1.82759684729239,0.720783628525128,-0.76178880636521
J8fpSwS0,-0.363621817276857,0.36306138801599,0.64453781298114,-0.685259098163321,0.969620705832448
JE1SlbD0,0.572754243298956,1.68175221130248,0.550529958240946,1.79367493642299,-0.740826823562744
JEB4McNb,0.602264539147121,0.656864515409976,1.43747337471767,-0.196035011804955,-0.786893256063989
JEE4QVeQ,-0.162070198393497,-1.06567613773792,0.00966625630941438,-0.257754413680098,-0.657649760215672
JJSEU2VQ,-0.375075917943365,-0.251686039767884,-0.135295187896335,-0.699028475355398,1.03381600222698
JSsVriP2,-0.0986738131859059,-0.459273876985838,0.650531573388084,-0.857666532792568,0.468339800534513
JUvQNiOK,-0.0675882465786536,-0.361391108527151,0.0125511610943948,-0.285383232172813,-0.103975291037349
JZbrRtm2,0.0860569253987547,1.00009995750272,0.896411615402411,-0.784891489404199,-0.0437979851394045
JcE9G92B,-0.247935703837708,-0.0127381355492021,-0.0351882140254475,0.33414075736754,-0.475173205496417
JnNYpXHr,0.0447166760916206,0.833341103703836,0.0902770362577686,2.0632090415729,-1.05283513639129
JzpbnOtz,-0.32817225751968,-0.14359190818485,-0.0902661374837838,-0.598163510723554,1.0146071487588
JzzUhPQp,2.69670283059027,-1.26560143290855,1.55076480237441,-0.385572331196343,-0.582524174870226
K05R8dQK,-0.213445168512973,0.0571847614644292,-0.756576190482657,0.143886560289166,-1.19026319529162
K17pG2mG,-0.345850049826254,-0.62456277734796,0.605671083567605,-0.658452736444899,0.0830293985818805
K8BellUe,0.0131593004328935,-0.306189149642423,0.236983280719208,-0.56086906090718,-1.17182851872534
KJ2eH6rr,0.0121236528237807,-0.626776044591119,0.34982670117593,-0.389742677747088,-0.916049142208348
KJEJ6Glk,0.743566710863517,2.38653161482177,0.585735779719523,0.742513866882576,-0.824435390720666
KSbO0oXS,0.662230133202612,3.61275881379638,0.101031643491944,2.35251984401295,-1.17416247313604
KXtvmd01,-0.43515554475695,-0.274690208660722,-0.459429606383823,-0.506750967231427,0.455359769215015
KYiJqBuJ,-0.0434213008205851,-0.17727302005063,1.16912915671539,-0.506942302425707,-0.748950514930474
KmbAyTcE,-0.219258265779742,-0.0904237986494523,-0.106185965724462,-0.275883808054222,-0.0376814578143493
KnNyl3rV,-0.0482578962152705,-0.271130517112146,0.424338084254407,-0.543327614620034,0.852722839313588
Kp2DG8TZ,-0.304979906737822,0.129260003189314,0.467988121106633,-0.199275633625238,0.268094389290008
KqQtKWs5,-0.410868188547039,-0.326052267217869,-0.727419469323833,-0.590521015694072,0.334278140110589
Ku27g63R,2.97085837832261,-0.809351582572509,1.60703695269106,-0.0539402886718187,-0.695184918317608
L2aTVqDq,-0.337396032775503,-0.154068993447878,-0.887996052660556,0.578717048062214,-0.776286791289236
L5jvq6G4,-0.445016874206441,-0.357647437974,-0.807285941682033,-0.571136464899921,0.739130661816567
L91hYVQl,-0.429644445500349,-0.156092812611139,-0.339340218792672,-0.851583860646307,-0.12308250930857
LINAMlbA,-0.467819330881842,0.144771032248348,-1.11721723758293,-0.0188098299807195,0.447249176794352
LJoUNXSx,-0.424600715862011,-0.0927460447576563,-1.18412886532582,0.0626477738444041,-0.585548252820899
LLtSiyWD,-0.357662644512443,-0.394454712703579,-0.116810542391825,-0.385673368066626,-0.0114052016272052
LQJtV8kn,0.112306998166701,-0.0222726933665181,1.01860143239509,-0.167627788227689,-1.22694552641246
LW9uddw7,-0.220673087252944,-0.808544427922943,-0.509320985993561,0.916271551946887,-0.988836683671666
LZ6sdBTR,0.383313521609098,1.57029437692012,1.12585588250658,-0.0866116167777295,-0.70054665667885
La2Vhnne,0.0623810828003114,0.197859382058735,-0.261962348219745,1.99221848284052,-0.461701639673448
LaUWSq9B,-0.0582659742896407,-0.248685891023035,-0.0384839944148356,0.20627904304406,-0.849109394324658
Lk4SfkPQ,-0.264558121265705,0.133930746374298,-0.771781162736947,0.113454701513613,-0.951369088908131
LllC836d,-0.110343077634844,-0.115704928909661,0.0834982228726507,0.431463182390721,0.162307019441736
LuGiGeWN,-0.51095773568824,0.595704592617867,-1.06345462904462,-0.341169917021883,0.887149170241392
LzcyHcWa,-0.43609059241502,-0.151074038873041,-0.667826668320209,-0.577743114887847,0.725065697480336
M7veP0H4,-0.413593122691093,-0.188623240044899,-0.660648384065605,-0.488690363829082,0.81565504399676
MB8aaJUc,-0.358814608142936,-0.155006502731348,-1.29397286838503,0.671875119629579,0.107732518137377
MDpe2zuy,-0.401327230187679,-0.0296548793965045,-0.236827055989341,-0.294284411301845,-1.00346520588026
MEzdmEIU,-0.355066331186461,-0.300561670480436,0.145173983012995,-0.513759482068068,0.243009185102197
MVnhtivm,-0.312437904256395,-0.220037515225057,-0.0040851761552062,-0.0502097747282041,-0.0324803641286853
MYU7WDis,-0.184274155653888,-0.405367832521551,0.175768171782172,-0.643425962291869,0.0544274813366228
MZFqh6yw,1.63258769378346,0.435164698983458,2.53084792748219,-0.347760210863679,0.320388613162284
Mdgy4SsO,1.02617220677561,6.12572084247598,-0.0794452663106659,3.05677497721092,-1.01332796000031
Mj8awnzy,-0.345432955226199,0.574861228292299,0.185374730526255,-0.590161925156434,0.966392111827673
MpFPbUJy,1.95066174956689,-0.633677984898336,1.70228316168504,0.856939810187917,-1.13104219106555
Mqk7MFBM,-0.436457644094768,-0.135640660831492,-0.532581904367647,-0.58246717635586,1.39649812021473
Mqs2t1Eo,-0.397588984590091,-0.462959198971102,-0.75722984590988,0.294673108876777,-1.16028570771776
Mv3jFVxp,-0.274666215164001,-0.0575570713827962,0.509224586492878,-0.272721653825703,0.305912542363864
MxODTXvA,0.0355372597575445,0.0043185540375796,0.815004351552834,0.0558430861021675,-1.14402398115123
N46PbpPM,-0.354058994754973,-0.75677283262439,0.412257044739168,-0.749596146535997,1.17200101809974
N5S5F9Gk,-0.639347233114991,-0.555156607596432,-2.02344859590688,-0.33891947366965,0.989894764432048
NLDg5fqw,0.11158079737727,0.56233964419904,0.31627486871108,-0.457363421105724,1.25328523150349
NOho2ZiM,2.23140787572439,0.0749068100891479,1.7800840758185,-0.0686547538800783,-0.903092041568968
NUuY7PFU,1.54417084967233,0.849501317714912,1.81095927717581,0.546806498128244,-1.00762207140258
NV1e8AEO,-0.400354622544554,-0.374481896426809,0.343038248998094,-0.54864999904858,1.12203474595705
NZLXROKC,-0.00377836764755571,-0.0436352133262989,-0.231502609495114,0.87221715873945,-1.18725942155518
NaJo7C6o,0.817597705161206,0.0293826931280536,1.32078894698389,-0.0441357431106079,0.0016541762405229
NgsyGkrO,0.255312527711099,0.873101459946143,0.729710477943974,0.468465023963597,-0.876152451566092
NjOx4Zpo,-0.362485270641334,-0.839657490097601,-1.12067861821893,0.718193474256653,-1.46397885327473
NmQoI7x0,2.1419927043468,0.663960264652225,1.91815911750116,-0.423355702673389,-0.0404287436676908
No4wkdLS,-0.428556088625264,-0.0666720003891179,-1.17807634698458,-0.659579071144626,0.032261503887424
NouMwhOf,-0.164650989762212,-0.137604357051499,0.177613033972862,0.06697403453508,-0.518795397584659
O6YAWd8C,-0.130727842503717,-0.653774950668089,0.186503194274418,-0.160231293026151,-1.05462139555742
OAXVphSh,1.78117156679391,0.192106634830502,1.87461639875359,-0.346555899247162,-0.303615097789686
OJBBhb6Q,-0.457539087124571,-0.27962063467982,-0.300047578738821,-0.773530420681678,1.14135330942352
OSIQXImL,0.472102689410083,0.459746171354133,0.276159272031404,-0.134070728530841,-1.01637773145994
OUUFc5Zz,-0.466372500037811,-0.111731298233826,0.121749170962871,-0.582210882165803,1.10321124411486
OVk1lquT,0.154617839975374,-0.671220211869115,0.295708446722116,1.59932381363663,-0.0278371957759472
OXdRxjzz,-0.316880180261776,-0.636944793502374,-0.442707203023296,0.112460774407259,-0.497699510740592
OXxW2ekf,0.121244896627123,-0.441060650391366,-0.421080612681672,-0.468135739179974,0.0559960935234345
OXz5OpqR,-0.0222273743886771,0.322382900824976,0.250268072186529,0.104815815032835,-0.313357071548051
OcBFW1AX,-0.470855754079005,0.418132310801815,-1.07540027952017,0.0370930032066662,0.896663647401165
Of9V2rpt,-0.289944586368301,0.198578715285332,-0.00797457944791739,0.0407647782205357,-0.871801415849592
OfLxPhbG,-0.198044405078825,0.571141083059978,-0.0331188236720443,-0.111987750896569,1.72113637274834
Ojx2vi48,-0.428668328868371,-0.105129833286785,-0.631854373901923,-0.714454547587381,0.41648057874745
P3M32iuT,-0.395249594054745,-0.174475923499309,-0.745630446963065,-0.668771616952077,0.173171203211548
P7olVzrO,-0.441225066782068,-0.443636548150249,0.456434921010085,-0.404946790449979,0.302778980404791
PAPHErnv,-0.477378970282476,0.204220357414659,-1.21070311223363,-0.0418867064932055,-0.452617960552976
PBjEtfXb,-0.344863392902734,-0.17182500958146,-0.302610770109466,-0.46283774125766,0.285440878974655
PZGpoBBj,2.16036541003572,-0.95129496691133,1.67675281366513,-0.414149379522401,-0.752927435108888
Pc2RrxXS,-0.425187143587363,-0.468934009292669,-0.227991744584026,-0.444898792312598,-0.381331544668865
PcHQ4FOu,-0.436402378772675,0.0334064523219367,-0.877087416420662,-0.422093970556213,-0.0127952419088611
PeNyTOVN,-0.287096774053458,-0.0249253424620221,-0.667950915893864,-0.185960667787281,0.410440934051393
PhUPSU53,-0.373992633235975,-0.497482979130837,-0.40186822284071,-0.188007007788104,-0.878173635434646
PmUNeV2O,-0.455458745724675,-0.279429349903019,-1.59620768748832,-0.998869245247104,0.00456288078157919
PoDJ0uvK,0.829628068239195,0.970989238732673,1.86834024306302,-0.149352886137401,-0.659293106131137
PsUJdJdg,-0.171508232045775,-0.0799752545517559,-0.347901791853077,-0.0272430110529013,0.736009537180501
Q3xLFx1f,-0.305873272270194,-0.189030551213894,-0.587110195364377,-0.00337943603560657,-0.923224336317842
QBGxCvdM,-0.245376519688965,-0.460300176617693,0.455950442177049,-0.259567870247619,-0.898011193456901
QCEPyu6L,-0.53472423249034,-0.214529390434874,-1.16318647690999,0.0269311084297239,-1.01137113611607
QEfwec4s,2.80860623255226,0.991894087993574,2.06823176726144,1.50482847525868,-0.678808083386225
QZ87Nnr3,-0.440405983416927,-0.137273511543403,-0.795515522585901,-0.756044947956403,1.17290688656126
QlyGN9jv,-0.586188744920703,-0.105625017288326,-0.864100185599528,-0.525557638698264,0.131654306144591
QqgWE1ny,-0.370378085752424,0.0796747985698144,-0.585428388220496,0.239006116966492,-0.581022005565688
QrjjBpZd,-0.0743559326247067,-0.671205519029029,-1.09339129732301,0.988346277818571,-0.703039175089034
QsaBiX7V,-0.41538651810696,0.178472239908558,-0.46186141708235,0.0478897186876492,-0.235807489145444
QtBKJuZk,-0.293921018977707,-0.473474770938692,-0.686188343355154,-0.439543665388353,1.54245738357432
QtPRO8OJ,-0.461256697622265,-0.244924468980957,-0.714667039606108,-0.536964108485181,0.370877887795693
R8XcsFnp,-0.430417431369345,0.755474572594936,-0.205143987647522,-0.393268740447742,1.45525708275926
RROfRt9z,-0.0758659669924373,-0.557265813528816,0.372910467515214,0.839098700574373,-0.651028931592211
RTcbiDGq,-0.460663830787473,-0.276302819175781,-0.872446243824992,-0.576440597184902,0.00893715139967821
RVidM9g0,-0.263673078943339,0.0263570581640794,1.66064194038962,-0.68709914549714,0.754388066281205
RZnQSH19,-0.443294014992405,-0.0732361660992088,-0.358290040048858,-0.675354267714325,1.14070856825897
Rc4UK7fT,-0.652407781169001,0.488744462597919,-1.07723469816156,-0.240241502174541,0.739528143604415
RcKBKh6B,-0.395041513885121,0.0922362438886241,-0.423813531599382,-0.267896058107682,0.956782756435032
ReM5kDa5,-0.196195177474932,-0.239548866977577,0.318968582814582,0.102926990386112,-0.930540602446373
RfntsotG,-0.435328811847729,-0.349115646440697,-0.197643449795471,-0.68846565508379,0.73583345071133
RiXMlzXD,-0.35919022033426,-0.42253259889946,-0.178907039770579,-0.206016016011686,-0.349881139731341
Rik83O3m,-0.424509357380064,0.258977221929536,-0.450959453797957,-0.439636871369178,-0.284185276119265
S3PCzDzO,0.141630151618433,-0.573558496881017,0.0351659353536001,-0.51331610715404,-0.272715596037058
S77BviOJ,-0.469091368342414,0.111271473559841,-0.752232100724124,-0.411107464866004,0.253953007725454
SDdvtktF,-0.328177092311783,-0.294410804589519,-0.368949744314761,-0.119199674066441,-0.82339427400713
SHs1AyfM,-0.341395583842369,0.00153240032462086,-0.375933931603564,-0.239098407413344,1.97015221103825
SO4zQy9k,-0.394164353174689,-0.240391351976921,-0.297829075095953,-0.520504410779763,0.186322606761483
SOOBCoiG,-0.609867256711278,0.314868390851082,-0.0501262128857389,-0.481457823529516,1.06313340027247
SXkkPB7A,-0.309760942540752,0.528485574976641,0.517816691730877,0.0124121738894894,1.11303053230141
Sa93dGqq,-0.504657047764855,0.650322566038064,-1.54295470535706,0.631810813269964,0.879778507271022
SonIG72a,-0.587308398192386,-0.0971233494236681,-0.648113002203555,-0.21999233643118,0.285492694390366
Suf6hIBc,-0.436850525559157,-0.131101682431305,-0.245290064694601,-0.602442387358478,0.770209792519742
Sx2JeSRz,-0.244497304538841,-0.0123563758492725,0.114453605653058,0.489612661737523,-0.776793690453152
T1Tlftr4,-0.332725368481958,1.18024464813862,0.431246667123602,-0.594496744293664,0.882783596019071
T7ulR4ci,-0.389149117702558,-0.0850091387044969,0.0816395753912616,-0.702374910216975,1.31961927296404
TA1NB3Br,-0.383821843665083,-0.00107733435730368,-0.104014374606289,-0.456452446436088,0.689266617572978
TFZUskaK,-0.0450614159420466,-0.580501762878649,-0.169005240277617,-0.491989128957345,-1.44883476415118
TNL8HGWZ,-0.269979528318919,-0.586040878630002,0.366803333031787,-0.51247014003385,-0.863007955502035
TZ8z1GSF,-0.350500094960041,-0.179996018467258,-0.236137714043767,-0.480931317614664,0.258493849645234
TqhRvkJJ,1.99234357480322,0.589053911533217,1.95835987341515,-0.765062590464611,-0.0237938347759423
TtJCUiY4,-0.539298675684865,0.513954916488584,0.476049683086129,-0.628352724271128,1.29619969937767
TwDq0lua,0.760695156225116,1.0511462941956,1.35812992454334,0.297793781592846,-1.12398698452495
Tzyf02sI,-0.686285846563729,-1.54905282020254,0.0487959492531693,-0.567891145593644,0.986870419424169
U3yI6ZS5,2.91532273294285,0.554978642478552,1.9613662324007,0.754402066863491,-0.807566556691517
UBLnXZAN,-0.391402784446886,-0.708298836305131,-1.13470322114249,2.26226774745456,-0.309411293236688
UBWDzleg,-0.447001321872451,-0.33254633493953,-0.887045238071811,0.356080390327381,-0.822998688526014
UBqkX6SY,1.10789432391749,-0.124353456550603,1.63168399916841,-0.469411150800896,-0.832299975846695
UCIAi1Aj,-0.495265093865603,-0.615443163757781,-1.22374141625079,-0.121558540668565,-0.450458828471847
UPbXGvCS,-0.237097257905636,-0.607275595743012,0.379693672625822,0.0704823101406604,-1.23355196581356
UeWm1l9F,-0.0577003483437123,-0.548650445839798,-0.547429966112911,1.05455659671212,-0.511366383255505
UhucscY7,-0.374180088074272,-0.542265475366306,-0.62072961378698,-0.428767950830755,-0.944732919975696
Uri1SvHV,-0.147626760299648,-0.636919485086055,0.54075582234912,-0.217673629268678,-1.1253455163792
UzxipGJS,-0.39533761267369,-0.148073510132211,-0.208628694448746,-0.382528533094321,0.753673193295111
V74zfaAQ,-0.247042737627044,-0.399378902393987,0.280357393007667,0.00441925330868323,-0.91362799114057
VBPxBLTh,1.31079123432928,0.987486011635356,1.90334535188816,0.860790060713231,-0.852268946345319
VLG7CXYS,-0.34861258056181,0.038644442823629,0.0305670442347682,-0.249477477236326,0.773353210438885
VNk52SpF,-0.372466417246485,-0.586125090775445,-1.03149558940164,1.97739276243301,-0.861765779280607
VOREKsok,-0.409558640248571,-0.383560803232353,-0.552752746674365,-0.830826997640037,1.38424056405977
VRhTr5pX,-0.428767482461919,0.161051993801207,-0.173646187541903,-0.512406207542529,0.510053670052066
VTcG4Kcw,-0.161203181011351,1.126852645321,0.406120058322764,-0.266010141610933,0.460675073330341
VeKiWSbS,-0.389826678314325,-0.34410697206616,0.287342989456273,-0.407500543327118,0.548389434698549
VnU8nJHU,-0.41748159396844,-0.00746198656912316,-0.502080987120349,-0.341964076945204,-0.326455926299012
VueNCxYv,-0.438142394112382,0.176251037012072,-0.53368864354899,-0.431415789039467,0.32124755494396
VxuQTRUl,-0.404584046307641,-0.0192614908913814,-0.454468761887373,-0.451758250810681,-0.395381831649792
W5lgaocA,1.03912110738266,0.475748875938435,2.31424419763807,-0.348661787628374,0.126606648682288
W5mMq9Ef,-0.342273148889935,-0.232236104765523,-0.805059479980112,0.207356071532519,0.132273205155732
WDhNqFpS,0.0397960824902174,-0.657709143156265,-0.45461125066364,0.656640634385182,-1.0915211672332
WE6n1kZi,-0.415437399895486,-0.254505635690519,-1.28123406092574,0.628937194320046,-0.6518391873467
WFk6r3vA,-0.526060331939921,0.404443367667177,-0.392251060097272,-0.228732343081744,-0.0691731896014098
WFyIrsUR,-0.175021430991567,-0.919596792988953,-0.423532296841565,0.210497772048571,-0.92804707433288
WG6ZAsqR,-0.445242968706573,0.318072403643264,-0.223412097934424,-0.838982897660292,1.38639713781852
WMq3CZQk,-0.317916897813475,-0.656860278200818,-1.03504671378629,0.109660112174748,-1.4926981296242
WRskmGjh,-0.53124899386373,-0.133000956153658,-0.794836355122849,-0.70766748294887,-0.829948719160875
WXijSglj,-0.45392986643705,-0.455979674677797,-1.00469615981281,-0.416188222577157,-0.856935191858913
Wc0stQgu,-0.317579107345951,-0.096582948615805,-0.385489415049871,0.241318089093787,-0.84032208103972
WewoSCUB,-0.496467509013217,-0.245309632529966,-1.08849576213341,-0.787912642471993,0.525566968408113
WuHuhHWJ,-0.287025337079744,0.486485289722434,1.16378065249489,-0.683159048781777,0.992078444631974
Wv7EBtZb,1.73831296997999,0.749013071990281,1.67844549123136,-0.273355297808647,-0.383314284337634
WyPlxDn0,-0.466188076903503,0.473315103996621,-0.700214346123003,-0.493133814293612,0.43723789356287
X3WqoSNN,2.66796273989671,-0.121797359130861,1.87731508944547,0.910743959957967,-0.932233053535044
XDhyP9KB,-0.446224688820686,-0.413396895357872,-0.47574015661063,0.853133862738934,-0.653330556054883
XQxhDRMG,-0.557727346027689,0.0856947325750017,-1.42829046196714,-0.228323961066209,0.821677217894138
XjLNAwxW,-0.174061734634747,0.726116692290261,-0.19406917231299,-0.0984754329809587,-1.30022127879853
XjfVQbXd,0.928513779412322,0.663011512034132,1.69763521286343,-0.666874567283159,-0.677159392630848
Xovczbf6,-0.407885082676066,0.823717320941158,-0.663830032658027,-0.730640929567513,1.34633758386647
Y8H4onBf,-0.444860617607296,-0.27155058612192,-0.683486683210551,-0.714165979935914,0.676963918212305
Y8YgzSZ9,1.06385387321965,-0.265040718870707,1.72559654921972,0.45834621379585,-0.427217594231284
YC4PNV20,-0.444722279922963,-0.0201218916141485,-0.45374644642885,-0.510642452500623,1.30649956955015
YDHSCRdd,2.79584863815029,1.37049352648091,1.85744520032725,2.25059010863901,-0.666715661484543
YIJ87aME,-0.421301673758497,-0.274738252828907,-0.323543069891778,-0.701045371707124,0.557934237680634
YKvT4dFv,-0.349693309499053,-0.171250360765426,0.0715982993871968,-0.0631336870871373,0.0629574651163762
YNebALR2,-0.560368403667607,-0.190400178847924,-0.955860685601644,-0.376171799165615,0.455521697521715
YNrnqFyb,-0.3358206850597,0.530169345526725,-0.410799830301824,-0.170487008466849,0.327929953894893
YUZ4lR3m,-0.396530991327993,-0.151683843049539,-0.225603918262533,-0.0199642884423844,0.0967729959405385
YYLvjoVC,0.0926407023988702,-0.785799846649698,-0.20840508932702,-0.418518616255058,0.468851128934608
Yb8OtMb2,0.00456481684858328,-0.285338771476004,0.592470651308989,-0.0855139899907075,-1.07431992921444
Ycg4lTYw,-0.455274885511569,-0.318081610700738,-0.786476176824881,0.826528056485985,-1.21805837210466
Yfk6tekH,0.133198897016675,0.97746288564818,0.912350361796693,-0.418236804502094,-0.617916646581822
YoSfgmR6,-0.485774109876501,-0.0220684285004246,-0.675126673044304,-0.566420222978706,-0.455074268267146
YpzFvexy,-0.448204988112662,-0.0744323234730912,-0.944568136977065,-0.0468937296925276,-0.328278780978703
Yxqppfa3,-0.0637291001561883,-0.119630607555465,0.188675948880891,0.439480159404422,-0.349516617502892
Z16jTUvP,-0.403865826952752,-0.0750859284574001,-0.649181580037363,0.35007430073818,-0.0651959560416931
Z2BdCCbJ,-0.297301447806463,-0.176470825992898,0.62795377795319,-0.49738582165341,0.922163537580117
Z2JJMM6V,-0.422026272963472,0.376255762432103,-0.120466330472694,0.266571441520828,0.0538017417659783
Z5jE1OB5,-0.32366234403267,0.0569049722714326,0.467738574535719,-0.0813724351157053,0.294276932269059
ZFsIqYxA,-0.340765600357417,-0.107266367005143,-0.250471128534224,-0.294933098137361,0.459983083748878
ZHDVsoRh,-0.373349446941913,-0.24145093516845,-0.0529829721045336,-0.0850930227783643,-0.131390759933491
ZSmfu2Fc,-0.494124617510706,0.016102325330698,-0.544286054623403,-0.298733880123498,-0.302648978787519
ZU8YXF3H,-0.477882709794958,-0.419398889793859,-0.205218874429812,-0.721358520232446,1.10860997990062
ZXKaNy6Z,-0.451897243484325,-0.600498030712664,-1.27027384065003,-0.574445543420891,1.20152460697795
ZbYLo0zK,-0.289664270982186,-0.407515911021594,-0.11541909474589,-0.617836315537109,1.63347814738749
ZedN8Gcn,-0.389964313916226,0.682945675062655,0.145328391872904,-0.517209463645367,-0.309105914274982
ZgD4Dau6,-0.221927398582572,-0.350001339482915,0.234061520524358,-0.449350247521031,-0.751710991112693
Zgzf79LA,-0.465957386049554,-0.111490211186084,-1.32188541779216,-0.86980627567545,0.326325840906807
ZjqzxDOF,0.838510730616742,0.798687995623569,2.24175842866816,-0.68638193328673,0.0797031206798289
ZsZ5aDpq,0.157176992939474,-0.122006918457899,0.252880171560791,1.47628077147373,-0.668147470625016
ZtyqE7If,-0.106065276487331,-0.0394269407255334,0.0126875800846062,0.0445838600067037,-1.0674648936162
ZvUgz01f,-0.0370318147729782,0.425488892352411,0.525131711915262,-0.700315282462721,0.67250246926888
ZwrhgdQV,0.90450475829464,0.0424974905251675,1.03882260798356,0.46824005714788,-0.372453854840984
a7bhJGBU,1.35037738337084,1.21756277606948,2.00238084322843,0.644248426767399,-0.590560008271817
aHpv6KzP,2.35779642553619,0.208588325715636,2.04250269132527,0.917458073629595,-0.877946656993387
aINzEBVN,-0.359402185537819,-0.560409975042143,-1.38501246088525,-1.11720138368073,-0.851457741011641
aP9EtTGF,2.47555941130113,0.592924988800523,1.75682640567187,-0.72515559597957,-0.853122343087874
aV6EhtSL,-0.368827602620712,0.361988476869925,-0.584277685002215,-0.741981268761072,-0.248727173606174
aVZsXKoH,1.65323117442979,-0.475524561179587,1.73119558528435,-0.581123655485125,-0.836580092472823
aYVnVJvc,0.0666132902056327,-0.201408102178583,0.638362860650471,0.521776254425653,-1.05244817768566
abCzN1zx,-0.208125272614363,-0.421024445334672,-1.00392773032618,0.883966793181299,-0.76881833575989
ae7sMiB4,-0.254852305525816,-0.173725163962279,-0.428668030702602,-0.175466390416431,0.541182596621045
afsVuCGV,-0.489016234242755,0.0109544675425565,-0.627142307594747,0.156369980564046,-0.32611296540419
aiwBQETI,-0.137459395211665,-0.330485492028893,0.146392920757764,0.000827174932740918,-0.610056459641214
aiyli4EI,1.66920802484608,1.45578227227953,1.6525777252187,1.12364231798306,-0.435769670746064
apJ7NmzD,2.08717249214642,0.611926185717754,1.67085730158125,-0.428070039978396,-0.688415403703934
atVjNMtQ,-0.0744993418043038,-0.636380074893378,-1.39210929779717,2.25911888580364,-1.10431084720587
b5GirVGV,-0.453521156580152,-0.163096984439559,-0.133477689110091,-0.526227743992549,0.933294993303461
b9SpMjNB,-0.182509405917262,0.802233907814729,0.412094623272555,-0.344067770524049,0.805428359605183
bAFs37yy,-0.407064060575049,-0.478896012448115,0.266780754553285,-0.644784060589827,1.02653086973207
bDia1hHV,-0.19445312456007,-0.191271439902626,-0.150104601810723,0.031229599889685,-0.719019440501354
bFkv5Mtr,-0.249933526611257,-0.0318935402750693,-0.189549479372629,0.885148744490141,-0.0149704720191908
bHe2IXgA,-0.184159278922739,-0.666723920926158,-1.19985276233347,2.32983840595781,-1.00849766937264
bWX3vUm5,-0.0916729559167374,-0.173062865718698,0.421588799217185,0.163296596816486,-1.09645008690601
bat8tcGs,-0.0494648097911369,-0.406836188637973,0.0899562979535945,0.0398562051286791,-1.25340460325357
bfjej4wu,-0.593246223262756,0.0500566186040456,-1.23623830584595,0.141987036524229,-0.982302259484099
bh04YDiP,-0.342540893139618,-0.201055164242752,0.209533847916127,0.184871816809228,-0.221331976978847
c110Fdc8,-0.382172142468878,-0.282002645580789,0.0520862540458035,-0.496149483444432,-0.0844691258298481
c32GUzMa,-0.488380400180088,0.664756475265577,-1.37135669231727,-0.257126466009468,0.701910488935507
cT6uU0B0,-0.455918013389963,-0.0126972008965322,-0.708010755683158,-0.158935820201896,0.935315091055533
cWXCiFwh,-0.509220115731315,-0.253270049599238,-0.638598732612566,-0.697042864713941,-0.985791496202952
ceNvS3yd,-0.439316567715949,-0.203869656181331,-1.05590835871951,-0.0970990616332795,0.155467690366285
cmwdt4Av,1.95907127518678,-0.142907957316733,1.84010417428092,0.261250771696861,-0.490102484373783
cn4EHsup,-0.475488259987898,-0.191499290151178,-1.11259276369286,-0.37176664414731,0.0394607068623782
crVOGGTT,-0.308671495929221,1.29585837113433,-0.456947761647953,-0.654269877130853,1.38221425171659
csPEJ1E5,-0.432227152085428,-0.318519040628131,-0.65623858501126,-0.486357450403159,-0.120665540026777
d0UrRtMk,-0.390711817003776,0.0665681498477462,-0.324460232054938,-0.792978462806175,1.24565986130761
d6LU4G4I,-0.386455725369044,-0.239013926271345,-1.72590374219726,0.609507709098522,-0.073768294952571
d74T1DVv,-0.381519125186792,-0.437934901213515,-1.08944095071819,0.926872317052885,-0.996469527808397
dR6rM1tQ,0.0103386421838656,-0.324305651290573,0.372122234731698,0.0476102934795098,-0.856654182032361
dUNxOoqg,-0.45468568163933,0.320170842844854,-0.903441220877546,0.348769900363454,-0.873188795327779
dUnlyhj7,0.190709990110333,0.21149796463182,0.667110792525735,-0.521075696513265,-0.0790012888475733
dVDlnZQ6,-0.0479639528944187,-0.472409721349535,-1.22551727653209,0.707449656281746,-0.853009706437021
dVT26GDu,-0.253980558280153,-0.024278278822458,-0.595026276854813,-0.376784464428068,1.19531842991362
de43ycXY,0.0739697247674852,-0.166372407756036,0.902375018957337,-0.726587249603585,-0.464308723200787
dfIn7m9z,-0.357507315069177,-0.268417930509711,-0.104755601018904,-0.154669681370998,-0.264360956652888
dhmb9ZY9,3.38092880162857,1.6209469327524,1.72695584440333,0.754345076973992,-1.12271210693951
dn8kCuyf,-0.397473343091948,-0.386549065842094,-0.745764181739611,-0.728668480696122,1.17370705274127
dpcquvWW,-0.358224422911221,-0.251089255023108,-0.408429204745522,-0.313163639913645,0.153841601218292
dqcbIMyr,-0.68521173543953,-0.126613052697029,-1.4015224136316,-0.215624366972158,0.316622466293299
drWgsBf5,-0.420746933035758,0.178532144642543,-0.397613760255682,0.573610807227211,-0.822380483134237
dytx0HSe,-0.435315506472194,-0.0785655679895313,-0.839648310502045,-0.74609432757252,1.15960205965089
e4KkkIha,2.39403117174776,-0.714823018361929,1.57853059841742,-0.375017672893368,-0.855164542014962
e9YorH4m,-0.248014535461827,0.175217158880949,0.637669503359091,-0.767936326518626,0.523158638895485
eB9gVQ0R,-0.3868367566163,0.316563544706521,-0.175459745593427,-0.280586971697199,1.4320115926288
eMhLFqU6,-0.612798466239046,-0.176571635029187,-1.31844923678657,-0.0417296990708581,0.257087695310719
eMllg1qm,0.481384600470101,0.456173884161062,1.12648363007961,-0.249998300491152,-0.601722327815264
eNPunZ9i,-0.401982100874289,-0.0466568764428768,-1.51780121150855,0.6740455094046,0.554220899872601
eS5BSM4J,-0.340453860441436,0.3209722965885,0.0250806032004222,-0.628525140433034,1.02482246964717
eVGMFoOI,-0.197875837297011,-0.434477730935605,0.636018799811969,-0.536637247974867,0.637955570199873
eaIwb3rG,-0.256744551641311,0.803067462169536,0.908815750150605,-0.0947641312429358,1.20182136947796
eyzw8Vis,-0.433487690022698,0.722207289564155,-0.325495403097857,-0.483144182436111,1.34879599298336
f04Ke2bN,-0.412702852842407,-0.0782384439947164,-0.730973497987034,0.121987917009333,0.222304174934972
f4GA0te1,-0.368462788896868,-0.395993975543732,-0.367473719903174,-0.590944438991397,0.020775798568227
f7bd91h5,-0.390358503866307,-0.0382735157473062,0.0933697457775202,-0.652509121191455,1.21675411474206
fB7z9ndr,-0.425419203225513,1.18991118018368,-0.118187133606322,-0.350586334671108,1.30058130569797
fEe7AWFA,-0.133014363931527,-0.291085914465106,-0.259275097489922,0.147568730387777,-0.903768850280776
fJJIbgY9,0.538028627041526,0.0332371646141276,1.24786859551427,-0.529088779634021,-0.763385394400873
fQBURMvg,-0.359512745385491,-0.301822852683647,0.346823381392587,-0.418505345219115,1.01444839737344
fS0HpOub,-0.383037027297079,-0.308727313555825,0.253685996738874,-0.492420513837371,0.737754231638779
fTDXauuk,0.17579331852443,0.0843568813421796,1.0285251695697,-0.75243908988211,-0.700865027360781
favPNA2N,-0.397725955544319,1.43560247400554,-0.951593092270179,0.291728867998468,1.20683617565403
g3Fv0U4k,-0.1430812446239,-0.347505841465864,-0.66753613665779,0.884523856690064,-0.427992393949107
g5PKo2E2,0.453836401747184,0.355673614242026,1.42030489549383,0.238862091845948,-0.896077016768274
gbjnD5fe,-0.429468303901314,-0.243531531979743,-0.653097433744581,-0.577222090527352,0.588315275683239
ge9zqXCv,-0.214470244646671,-0.366398128738597,-0.824928745869553,0.243066956233579,-0.549692426849982
geeqJpSE,-0.460871313000176,-0.214185566228084,-0.57995718119425,-0.875928853738551,0.779369151574783
gqy1J2RS,0.26298095336712,0.0106581046425487,0.34456669189813,0.172759867347088,-1.77171889181878
grlUtS3H,-0.144700636502377,-0.382342909440395,0.348057859359495,0.39538135898746,-0.572609085155705
gx965KYj,-0.148335051338106,-0.206043810413077,-0.404446611949336,0.0873158097247678,-0.103927130731013
h3F08Vjm,-0.370385031592738,-0.112531677075546,-0.188563312048251,-0.574324088450948,1.02348488030889
h6FQG8Iy,-0.293071516385515,0.483532623959103,1.03080912869333,-0.433524505736912,1.36719725726972
h7ftM8b3,2.07414968447577,0.21523404451163,1.52667708193442,-0.496844324092381,-0.862932997251741
hLrCHXZv,-0.185511924066031,-0.463508962369871,0.496521710504935,0.1751877994105,-0.948653896586693
hQ6VBuFx,-0.317679758950324,-0.373344334977597,0.0787293753442754,-0.165541863593641,1.30725900638693
hYoR2y7w,-0.439638411311293,-0.503558018186707,-0.838427752675334,-0.112042879348101,-0.918813074184482
hf65yZkM,0.520664715815303,0.0863367580629875,0.230546999645693,1.63604533104093,-0.767656894100658
hjuwe1x4,-0.284013125209131,-0.147681114689276,-0.0424383941810672,-0.348450791099909,0.392784525870498
hyINlsFR,-0.395785885267383,0.303177806004734,-0.866959264608329,0.0931602865083688,1.1691578791553
i0Qlm9Bv,-0.313338144746371,0.434624002523599,0.849138981475548,-0.645325388045918,0.989279757597516
i1VxfxMb,-0.365898363125141,0.257887412630929,0.514287767014811,-1.25549507834242,1.15817711990269
i2l6jXNP,-0.479941757591954,0.0105939595350877,-1.09273473095628,-0.359550234904353,-0.0808075472169893
i4FgPZv7,0.129743836387606,0.71731110760135,0.171223531766687,-0.79170631616824,1.07576767201912
i7XtIkSi,-0.158892350819045,-0.175889732883124,-0.211870090075613,-0.288452708727285,0.304687456169358
i9z346Ut,-0.293972965182148,-0.358303013474527,-0.111962284594502,0.351310669280599,0.149892148409366
iDOat4cZ,2.39883761530949,-0.435672537928206,1.7716697056867,-0.758037446290573,-0.773201681259282
iNv6RoSO,-0.349071634402477,-0.0446752936231533,0.326396860684173,-0.131059095542876,0.10448213262084
iSL9NYzy,2.96345113602947,0.307760008586641,1.7661313594362,1.36795785266959,-0.97008808894325
iSqVc1r8,-0.0833985349730462,0.753001107185309,0.782695044907506,-0.442914673851511,-0.418345107883471
iYZMftt6,-0.431363301081349,-0.347974185769356,-0.346372030771824,-0.0285069236944494,-0.285024072845825
ieTPaa3c,-0.354932412816281,-0.128849100125952,-0.459010250251553,-0.334887653735694,0.305379071996472
if7BmzU0,-0.430256338476254,-0.260575637024865,-0.256607014509417,-0.680998543512389,0.95185655627803
ihNz5bmx,-0.370297412797724,-0.19532118389114,-0.498949504801424,-0.0108039790091423,-0.532929238528106
ikJXKdIN,-0.436797821502431,-0.201739693298197,-0.968223184740421,-0.872385435832258,0.883244640515886
iq2kxikN,-0.252996344392018,-1.03679465172754,0.137612646615798,-0.273661286147561,-0.851342146880967
iuZEDJK7,-0.43071567917761,-0.326083694281038,-0.359896083309571,-0.657343176306722,0.779082939768382
iyF8gVT7,-0.444250783131734,0.673549936536123,-0.280148429098412,-0.446553367955978,1.24986350626208
j06qdQ0V,-0.434954955210613,-0.0922072995764561,-0.245971432068802,-0.161056718993287,0.171721718992239
j7hl8svO,-0.132401701277594,-0.0682987906646893,-0.139502659333671,-0.357706081332472,-1.08666146520257
j8hMoJUN,-0.410942331314092,-0.0116246171137356,-1.17990149934389,-0.968419961207456,-0.333231859579607
jNaFasbV,-0.664079516170478,-0.043999570897634,-1.13387941345764,-0.322071048323793,-1.05714783626379
jVVHeYHT,-0.167543616203564,1.22482852687952,0.595384087546774,-0.4239644688354,0.00461471240215835
jXm4ySvK,-0.366264734383205,-0.115961959035565,-0.160799802558567,-0.444473369649793,0.514943672884385
juO5ii5l,0.16166602326194,-0.161841691772506,-0.338342744691365,-0.753163509765614,0.0152036059227887
k2hdEBsU,-0.389555796494983,0.140241137857111,-0.0914208704574358,-0.668530005916328,0.973958726088901
k3ynMfhN,-0.0240502054423714,-0.16277255976635,1.43797600593687,-0.556013313104224,0.262027635073954
k9C9yBtr,0.0593821422460071,-0.368485220359965,0.594152677700792,0.276298506198534,-1.32177096542809
kAKRvcRo,0.0898869133415358,-0.392873066145389,-1.01559087624974,0.396965893808877,-1.40188398627865
kBi3R2oC,-0.276554751743636,0.264111939578732,-0.459168412688214,-0.384841288887421,0.278422547436137
kDWmnsXe,0.053952271303556,-0.173519886566207,1.09595276270977,-0.346130430819573,0.386739310113601
kSGBd2Vh,-0.454693877933521,-0.190305120753766,-0.269703793641192,-0.648433053589838,0.860849088089611
kT0miHPT,-0.393516488908405,-0.281154713841517,0.0629361651109568,-0.210634509308251,0.563573161502539
kaW0TfRn,-0.455148712133059,-0.234163947567377,0.0324963085186225,-0.505621888359922,-0.009531647448686
kmg3SowO,-0.29288186386627,-0.150231373278013,-0.601714226021133,0.338654060375126,-0.225297526063309
kpxKSlnF,1.98979698882228,0.700121938718455,2.10757910600711,0.820057201216003,-0.221410297695169
ku2cn1MV,0.937911969697324,0.152896218809879,1.58291945770845,-0.323493278010108,0.660972669435977
l1su5HU9,-0.144506093544599,-0.312142438673995,-0.7338968376912,-0.252223186865095,0.893698237298772
l8Tg2RvD,-0.306443646938909,-0.25037430000279,0.902639040450188,-0.359661201467111,0.365479040898044
lB6NsVOc,-0.631378429396016,-0.177409485792839,0.140911369602279,-1.27384825453128,0.842992786925002
lEcdVyKk,-0.402437368502247,-0.36480035226614,-0.112791700556894,-0.549304217484131,1.00262573303931
lH4TasGl,-0.0519677393354998,-0.109965235899793,0.922303545269408,-0.739701658458885,-0.404962349733461
lO9aggHW,-0.203830487667771,-0.00307213992862262,-0.101713507366278,0.0643534581164221,-0.134771520348423
lW3m9Vzu,-0.34591968752901,-0.220110248218875,-0.739954416089056,-0.265727251515716,-0.152313111879003
lYLseGDP,0.0452043279268766,0.422377379561419,0.359647780033459,-0.611052758156035,1.49310031976288
lcOnCdZi,-0.1281791762777,-0.467810405532042,1.04592114298356,-0.62198440972671,-0.29080133367168
le9YGwON,-0.362483975514334,-0.281051763811416,-0.229378624462941,-0.26900103407755,0.295785914731435
llMvu3TX,1.81616537210715,0.014560206724884,1.95761610818727,-0.599282641675069,-0.218421145533706
lnHh2jFO,-0.115818437533707,0.375901296678488,1.16911041432271,-0.695570213634958,0.22992334203554
m07CVXd4,-0.464871301505399,0.950347789522843,0.553058433042368,-0.589162514992843,1.29057126336535
m1lPk91z,-0.37956691536083,0.430460875374924,0.506590466290746,-0.657077595982539,0.97219777146333
m9IQdmwa,-0.411505480976563,0.0306322219618511,-0.293419938080276,-0.515358000337769,1.00977916864168
mG9BRy5x,-0.458649926416445,-0.162395307413303,-0.516506059379322,-0.117348813309449,0.132536769393958
mVHXnama,-0.396147567548829,-0.266481933540386,-1.21272495508485,-0.626393685204449,-0.543090318971204
mXyrR6nU,-0.277894270296418,-0.0122197354811535,-1.07824544819973,-0.483136289527652,2.08306981389771
mbzNdxNc,-0.277506567783135,0.0759281087998508,-0.5889836695999,0.261328075022408,-0.466954955583285
mntH7g3L,-0.0856533992633355,1.28893359776355,0.843907336107305,-0.713967627039538,-0.124715322851089
msRTXP3H,-0.342609011869424,-0.122506193929722,0.275489765546121,-0.155247912282392,0.181112283418441
mxBjvIPR,-0.429437494275629,-0.297961770379797,-0.240294962017507,-0.536217770215726,0.390484225669382
n8Opmfbz,1.40535299017716,0.67860207904642,1.96618019738464,-0.233864073294034,-0.139335999904662
nOkgU29Q,-0.401256179163658,-0.626327565546239,-1.40821517471956,0.227363711813401,-0.816495447836445
nhttf7VM,-0.027076095946477,-0.291144483522242,0.725876945025234,0.157633125353556,-0.444471712850825
njLbXYa3,-0.358907505901799,-0.389593767121702,0.366768670607552,-0.539326613339785,-0.356936771474815
nwkIpzmh,0.954553965857004,-0.261613017651594,1.31457701782927,-0.468684400618357,-0.314022831730147
nzB1R9Zg,0.112336762840849,-0.0416003884394396,0.509796615423265,-0.529636003493296,0.333806456595962
o1rZRI84,-0.406186277112908,-0.459105335861504,-0.714077769398331,-0.809602178974875,-0.822469675253312
o7q5Mbty,-0.010116020518628,-0.0561884248040503,0.392007471839318,0.102121667035741,-0.737353180023331
oCBvysqB,-0.508550583257827,-0.0513923617838695,-0.900503193830648,-1.03661388829676,-1.0232366797136
oDmycTPH,-0.443974670214264,-0.335406259943906,-0.582551021578921,-0.823028873446756,0.957131225752441
oFAXZvQv,-0.456843588247471,0.32041568668564,-0.554034981469774,0.0110768157739113,-0.74728405396451
oHE3M1zX,-0.25173387450387,0.10044073704882,-0.271253831084774,0.44061170970739,-0.122888622951672
oMhVmSpV,-0.53521712816448,-0.152899758995066,-0.502303468944236,-0.73319539254139,-0.956143296557807
oNsDqVbi,0.408803007504989,0.276783261259376,0.740403847222447,-0.710363965613252,-0.485018193380698
oYAJqQk8,-0.472819584672077,-0.256413077814918,-0.294918079929737,-0.947627150675977,0.329820400301969
ob5Kb6dW,-0.351957846044127,0.235883258497249,0.0102551559123375,-0.551759245731753,0.956273826624706
obnzqs79,-0.444425709431237,-0.228109164461757,-0.705097659739328,-0.837650184470274,-0.194078250304704
oncLcgRP,-0.351127074813611,-0.3317982495306,-0.110937285482245,0.0582454441204419,0.0766158926186045
ooWVYaAe,-0.0119309273876727,-0.590281908986425,-1.39817208310153,0.941633751745793,-0.904317906934305
osdyOUnV,-0.558242846458199,0.077807983581549,-1.30961801999024,0.872151895688043,0.30050581372222
p7H9CzCv,-0.388755389285569,0.82247105996007,-1.10853719714619,0.695669076411129,-0.48446396433986
p7U9hVhY,-0.444493747732042,-0.246719636418828,-0.551004040912714,-0.475914475440354,0.301822192456312
pE6Cf1RV,-0.315909187178107,0.306503971676882,0.1785956899275,-0.576118121281164,0.507995914258627
pI7qzotI,-0.327772053161191,0.106602113348869,-0.361268706953566,0.267553209369124,-0.474654482258737
pJrIA4sk,-0.406974426456572,-0.113451947888349,-0.181683238243315,-0.522703975891015,-0.0219739582215524
pXne2CLZ,-0.350288173676284,-0.811801585760555,-0.42664074100695,0.654362786482294,-0.88310967779556
pZMcDIOS,-0.457175097315481,0.157033183369085,-0.559876804486464,-0.641251554053562,0.953884789277097
pavfp3cc,0.00621020383262757,-0.235311612515952,0.246109016954027,0.0662988913098013,-0.680246239185325
pbQdC5L3,-0.489893684838839,-0.481453760862313,-1.05504137114814,-0.726576114129115,0.681401403448747
pgj7aAFP,-0.358490383550137,-0.0641003506451417,-0.119848310564555,-0.197791965661523,0.310662620514464
pxg8G3ed,-0.370126024488548,0.206513448621899,-0.67116250214868,-0.185259541121033,1.18203450145643
q36Npk6l,-0.435877081129276,-0.0204430440495108,-0.536775236001074,-0.75917932855494,0.751788218931917
q4aDOVvq,0.35085035217891,1.02410674782387,0.351401147617904,1.07672722066287,-1.41931590645645
qGmfR9CN,-0.415211422536437,0.320488323654065,-0.811442684879168,0.370348624558906,-0.546374372662559
qJ51ODpA,-0.335082685584912,-0.135665553264939,-0.559931235897591,0.219553489740466,-0.208936468099849
qQX3cs3I,-0.125514896283687,-0.679349016921511,0.0404752962439364,-0.46591000945999,-0.0138433408490836
qXeIxPb8,-0.420192403275084,-0.166357105374204,-0.133555235253835,-0.447925254412294,0.832844278678353
qYQ4MShM,0.21363282721483,0.0282800704486955,-0.0779470731473007,-0.334908392634697,-1.07142100485519
qa0etnhK,0.0309996433300159,-0.20501604637347,0.245911689248512,0.620004880918333,-0.604377431274215
qbL4sboq,-0.383710135874435,-0.63246146801516,0.0119964951227654,-0.222522124880526,0.333021960368892
qbYrsWHq,1.04844408270367,0.988189768171086,2.49498229620842,-0.108387291133586,0.178891592532365
r1zmcUqQ,0.229308387387669,0.0524083993019962,1.05273652990482,-0.568038363364944,-0.812535146795882
r54iHeQC,-0.434102342226465,-0.237578843106666,-0.377414766508432,-0.674073453655492,0.730594344610695
r6xrAnQV,2.36643783240453,0.156480372517073,2.38975918388719,0.0730550666958003,0.100737001700345
r9HxnQDg,-0.286908507581373,0.641560789306157,0.95769433655406,-0.150936799968378,0.77708086614687
rG8Puuf9,0.356085320452679,0.5370242603727,0.800288526929529,0.319413353628782,-0.614915586982942
rGuiefuR,-0.280595537580469,-0.154759243866573,-0.746635794410529,-0.117611239082828,-1.28221470195014
rJ19OhGP,-0.398218565783962,0.247893965501707,-0.264353300862598,-0.560647427817699,1.32765191526026
rOCYepHd,0.29824132763185,-0.162044906379321,0.0879748683894985,-0.847789735875666,-0.531067415813142
rQJaOPFI,0.280840627462966,0.315865865300411,1.20220478378892,-0.466014855389023,0.368197403713296
rQhZtZeh,-0.31466065610051,0.567454196640187,0.508402861072497,-0.4828140423714,0.763119874204608
rapmok0w,-0.362852406983496,-0.318408078698012,-1.55873147135544,0.0466279122375478,0.287760610080745
rgzfnPVu,-0.191462825667407,-0.376468586434645,-0.0535882576183841,-0.542819386989313,-0.0716731375930179
ri4qhb1S,-0.467854563823976,-0.214400377246644,-1.18567245988838,-0.741157392104229,1.81613823421853
rqpFYzff,-0.572486089251342,-0.0632433262998017,-0.492534982511043,-0.274176043881213,0.304501481855419
rrs22coX,-0.383173649699628,-0.820439325643663,0.198980034962812,-0.605552409589675,1.03718053398058
sEeUCQLc,-0.460210848131234,-0.172799716219983,-0.555680275823275,-0.263976701700532,0.560602496421355
sHScwqQl,-0.468921542795726,0.296851575447798,0.149105261039796,-0.690903859293523,1.59317181867282
sNC7DiAt,-0.512625855312076,-0.20222633353981,-0.245697625276135,-0.773744317619211,1.21891462642812
sNK2TSs3,-0.450851791311545,-0.280937813852858,-0.0526818169184224,-0.437210524927809,1.08231672119159
sO7Su6uw,-0.702154657919904,0.208408899302631,-1.47883965462886,0.0420503961908873,0.146843644070697
sOWZx89o,-0.457459768324499,-0.275892414647781,-1.24485694283062,-0.676145653235784,0.678529128595787
sPbRcPjC,-0.0508655014077745,-0.0524063548194796,0.0900464908566121,0.219232860725706,-0.778889926746333
scVUfTKI,0.663200247031021,3.90335521906942,0.433910119672455,2.30658159121128,-1.13921139228576
seRaGeVv,-0.297952367778154,0.109062562839259,-0.571863537485973,-0.412113069869957,1.30442544755738
sgtwiYWi,-0.45493488648232,-0.446734486599936,-1.089964019691,-0.253677937664325,-0.700107935162394
sjmLHcT6,-0.383089470026268,-0.413645765621258,-0.580752861089041,-0.606126202242331,0.56663389892474
skZUZZGS,-0.315890085184357,0.226278574854263,0.256913782524217,-0.530447792988014,0.520342508143916
suAmzADX,-0.161207531856432,-0.474703175966605,-0.721222344372592,2.09691054765625,-0.789660657466576
t4GWLqlO,0.3799286761861,0.888016387832321,0.873064560714447,-0.361431143286337,-0.058484879432645
t7gy6Jyy,0.0301351533499362,-0.474521866364916,1.88527760364021,-0.664792834866008,-0.15931668346016
tBadzH60,1.84143310696311,0.0399356730985172,1.68438219950581,-0.516216237095455,-0.522226905258479
tXUWm0hp,-0.108538078868611,-0.159651429276514,0.443329920253175,0.663925954792465,-0.12935586686272
te6UPPxf,-0.467300927511091,-0.113525962801709,-0.281839337897445,-0.0273087977255458,-0.775066599563237
ti2lamkL,0.301694622986595,-0.49060491962674,0.243426466844857,-0.509574220083441,-0.101010343894784
tr0lpwuU,-0.171611241780903,-0.0854281900764867,-0.771416799068654,2.86860287565838,-1.10656871177595
ttdB5C73,-0.257466470832335,-0.180238648149661,-0.295753033946178,-0.0345363506260379,1.77780287872619
twS8YZu9,-0.422200504657027,-0.136182514922672,-0.70451556016131,-0.529822479717923,0.146098282390824
tx68W34H,-0.510008679847299,-0.160391423031227,-0.952889709953079,0.165854767790288,-0.899431528261835
tyQSX4mY,-0.0707733404927309,-0.593460038607421,0.0392564890888973,-0.946801089318514,0.0829147403165474
tylKCRc0,-0.332727996311811,0.0908668549673685,-0.0383184194191842,-0.367598932707785,0.785530942789754
u1544WUo,-0.462914869291645,-0.449363786985428,-1.09474582547415,-0.672470862730395,1.75500770707956
uAw9an0d,0.218145843182407,-0.0111373923488559,-0.0359962867875263,-0.394596603184664,0.689337272233041
uLZAEXMG,2.21019212521061,0.498763769450996,1.66562363989529,-0.471392608997225,-0.777278787713092
uMwe1s7I,-0.0208053824777734,-1.03540595429821,-0.201748514487971,0.745494799124806,-0.724348570638846
ufhGeV3q,-0.404123065534542,-0.306979763923257,0.0426961301483374,-0.569192219184501,0.631055167887332
uhAeGBHo,-0.433262598342429,0.48588140311186,-1.21298974413543,0.592560674334245,-0.49055805196609
ujHNlqpw,1.35231197546714,0.305729350701845,1.54970105244729,-0.0731811267703732,-0.632210677369935
ulV6kuhB,-0.437262962353134,-0.0868914984642975,-0.10201372078347,-0.438410345260765,0.797268100733063
uohEnNEK,0.0308967705308471,-0.606804135150395,-0.980973988304985,0.610550916126812,-1.12643181813521
v1lhA8I4,-0.314526570557564,-1.16451743847224,0.523702767510074,-0.787498684538589,1.14374572412796
v3JzigLI,-0.467416228175328,-0.208561759376079,-0.595292846792849,-0.941613076921431,0.922005193563433
v5IwjyIg,-0.347561122098667,-0.423371415572218,-0.589747572279791,-0.398568776353919,-0.906483230307936
v6lp5TK1,-0.350715954515036,0.425557616686112,0.0889378879067843,-0.833407225850881,1.22352973308397
v8vOaaWq,-0.394825348124748,-0.207388804284512,-0.563221190555492,0.162226880929761,0.11054929537923
vAYKtoil,-0.481092904044453,-0.382484480370291,-0.505381010161508,-0.39382737005786,-0.93301820935905
vGTNQa6G,1.20981527724924,-0.639059851740588,2.00508425442142,0.778375145529507,-0.512349575642059
vQzNxHoL,-0.537115318531682,-0.186403203316541,-1.06400828212266,-0.534910601156118,-0.715227802151543
vfZGBUJm,-0.261040846442071,-0.123928112642124,0.205370293109076,0.0971752188323552,-0.212239029068654
vlooVUoT,-0.389743510416804,-0.598243098759205,-1.45999783150495,0.605654244473423,-0.399889449567517
vrACvd4O,-0.362982096009457,-0.31094941031583,0.214383340192445,-0.286557300691706,-0.633022792335253
w8hdjLwb,-0.323692917354881,-0.324965075151646,-0.158677767149823,-0.43848169174972,1.96926699234423
wAntv4gH,0.221764970289862,0.419419064678316,1.86138754613742,-0.5291894304059,0.542815652177866
wIUL09q0,-0.480300756164716,-0.228096516469068,-0.999558158989855,-0.83691192484183,0.308451871432359
wOzx7Fgz,-0.391964901807672,-0.0864489758062928,-0.150001502568861,-0.580979526935745,0.366157294353806
wPhjhCJQ,-0.436202958290605,-0.430808776478592,-0.0596696212897112,-0.615750304473796,1.38247989705734
wQSWWmYB,-0.357258354950245,0.763913651493081,-0.838072394161296,-0.459973383329982,1.96942212783191
wdIMrXwy,2.08356150914358,0.30984557589781,2.05520555502302,-0.573799142044409,-0.328306019007805
wiL9npQc,-0.45596737239532,-0.202814214733589,-0.813265325409255,-0.599070473993684,0.227745830006354
wnU95Cxn,2.3777811471953,0.101682517132839,1.36348109697599,0.0289333034260116,-0.380716040911118
wpJbbjJs,-0.100421072896974,-0.276774821398603,0.662821576258959,-0.0192642223604612,-0.604161863989109
wsOWTAbI,1.12168256616426,0.551329567331423,1.48697557017837,0.515863778519376,-0.161758149101506
wtdBcU3U,-0.419879948285012,-0.150242134572535,0.084447272185846,-0.564448074592772,0.196688800951819
wuKXVxOc,-0.586086349593424,0.520412127855807,-1.3678217659077,-0.362696080056518,0.815819744882701
wyzadAt8,-0.44237930027481,-0.126309373291643,-0.722364867854819,-0.68205169217309,1.14174390815487
wzaKzYwi,0.366698434720423,-0.379360983944036,1.67790323881119,-0.79985386237584,0.286821682538636
x6GCk4EV,-0.412252348324564,-0.205681623962851,0.0540266538832238,-0.569435826119889,0.735763945902352
x6lUi3vf,0.0890662463520295,-0.313941771197055,0.377598863578846,0.491871585303999,-0.999135469903741
x8mwDHv9,-0.36008234421127,-0.229184104471074,-0.0942572449541963,-0.32688726328093,0.321356476188065
xIYm6puH,0.65400661707332,0.0597310365086661,-0.0724202582030651,1.40535099401137,-0.958689131573014
xO6UdpsK,0.321416466760248,-0.424956284179736,0.14375510599987,0.238903515178328,-1.20625926749734
xQ2bkOvj,-0.474774819981036,-0.888122607162501,-0.506576657675384,0.0835627912293896,-0.851000899831106
xeXyDCEQ,3.04823600280892,0.177994631534947,1.85664646569143,0.602431522875017,-0.893077085385415
xrggHziO,-0.225006459759193,0.0167580391485617,0.395247929222825,-0.886255844592881,0.33503444286163
y1WMCmqQ,-0.402649148169941,-0.432785272349782,-0.854486938287155,-0.610070197414318,0.123011233523909
yDngezhM,-0.408180401442803,-0.302768421793851,-0.630253210586637,-0.731006356818895,-0.22490374915494
yLiFjMD0,-0.490104329034083,2.94522587500916,-0.619935515296983,-0.708191838884275,1.13915112481604
ySwEBO7w,-0.48392047766393,0.0193990618363888,-0.159075520917317,0.147278635301278,-0.881848866258588
ydC9UsSm,-0.433612144465064,-0.0961115908119037,-0.945496505469473,0.381194289839475,0.119492253271588
ydEG4VBd,-0.394704033159445,-0.3335892578388,-1.00164282653072,-0.256537322754823,1.57667596148912
yf76yWXc,-0.132468211562436,0.894336317310962,0.829878874543989,-0.699606142234039,-0.505209947298226
yg70e63n,-0.312477844982414,-0.0180393807922173,-0.424228641383753,-0.394863404738278,0.0717832527696456
ywxtlSKv,-0.4114600176144,-1.08987224096931,-0.894971447233146,-0.424228297528427,-0.595449910325556
yzKPQPOR,-0.234173863992179,-0.674729264940705,-0.364654242087942,0.182815932734522,-0.811587249983623
z5cnOnZ1,-0.375147830993792,0.734826462284162,-0.205461870802751,-0.558144677840266,-0.420478414600551
zFLkOE0e,0.0807569943892532,0.232322544807193,0.464473722768576,0.735092922741855,-1.40210779656932
zGi72mxL,-0.340158740163711,-0.278845580881278,-0.420827673568028,0.0381616346612415,-0.581993879032729
zN925UV3,-0.28727458601685,-0.00122307568959779,-1.26100106674,0.437956314574683,-0.82226258742991
zTy2ih7e,-0.337891608588666,1.66024898977936,-1.11817126172545,-0.52984618163417,0.71185476724606
zVFzAutw,-0.425829047136294,-0.272715218506422,-0.608695615908764,-0.518309364048018,0.730335648140558
zYxNAkht,-0.447459391840715,-0.169090972731659,-1.0578920554394,-0.721905504115403,0.810570818238332
zaWDBai3,-0.488275242537514,0.947202128434165,-0.156415599005471,-0.117085580729052,1.67893741461345
zg3u0Zsx,-0.324766481601437,-0.104336855436743,-0.448517663673071,-0.297774416091427,0.113622374638137
zlwLfdsS,-0.159907198290183,-0.94903180456145,-0.483686521888793,0.888971708531453,-0.814384594879542
zmbKzVfl,-0.458050829751286,-0.742099165144701,-1.224259516395,-0.723625939993347,0.194494686335089
